0.1,-2.29616,-7.08805,0.362947,0.93181
0.2,-2.25982,-6.99842,0.348947,0.937143
0.3,-2.2175,-6.88002,0.326959,0.945038
0.4,-2.1743,-6.74882,0.311189,0.950348
0.5,-2.13766,-6.6318,0.301947,0.953325
0.6,-2.09446,-6.49774,0.307082,0.951683
0.7,-2.05848,-6.38541,0.306088,0.952003
0.8,-2.02159,-6.24372,0.269304,0.963055
0.9,-1.98689,-6.12177,0.285534,0.958369
1,-1.94064,-5.98449,0.31607,0.948736
1.1,-1.89985,-5.87073,0.32748,0.944858
1.2,-1.85379,-5.73786,0.321528,0.9469
1.3,-1.80987,-5.62805,0.349154,0.937065
1.4,-1.7645,-5.48808,0.308174,0.95133
1.5,-1.72345,-5.3709,0.322796,0.946469
1.6,-1.67524,-5.2334,0.323692,0.946163
1.7,-1.62983,-5.12212,0.353283,0.935517
1.8,-1.58093,-4.98098,0.321103,0.947044
1.9,-1.54467,-4.87467,0.316774,0.948501
2,-1.49654,-4.72294,0.303457,0.952845
2.1,-1.45375,-4.59015,0.306572,0.951847
2.2,-1.41696,-4.47251,0.301197,0.953562
2.3,-1.37814,-4.35758,0.315227,0.949016
2.4,-1.33151,-4.20572,0.29721,0.954812
2.5,-1.29195,-4.07922,0.301086,0.953597
2.6,-1.26068,-3.97305,0.291398,0.956602
2.7,-1.20715,-3.83435,0.343903,0.939005
2.8,-1.17018,-3.72065,0.30809,0.951357
2.9,-1.11848,-3.58304,0.337744,0.941238
3,-1.07169,-3.46676,0.350295,0.936639
3.1,-1.0182,-3.31853,0.329312,0.944221
3.2,-0.96535,-3.20101,0.375107,0.926981
3.3,-0.902873,-3.05517,0.367696,0.929946
3.4,-0.838979,-2.94083,0.427939,0.903807
3.5,-0.790498,-2.85045,0.407058,0.913402
3.6,-0.744969,-2.74507,0.361163,0.932503
3.7,-0.700198,-2.63607,0.350458,0.936579
3.8,-0.660916,-2.54391,0.354421,0.935086
3.9,-0.62855,-2.44466,0.303949,0.952688
4,-0.595685,-2.33981,0.297219,0.954809
4.1,-0.564971,-2.2326,0.282249,0.959341
4.2,-0.533011,-2.12743,0.292019,0.956412
4.3,-0.499972,-2.02556,0.303114,0.952954
4.4,-0.468005,-1.92528,0.300037,0.953928
4.5,-0.436938,-1.82522,0.295539,0.955331
4.6,-0.405654,-1.72747,0.30058,0.953757
4.7,-0.374184,-1.63183,0.305209,0.952286
4.8,-0.34356,-1.53952,0.306365,0.951914
4.9,-0.316278,-1.45137,0.294708,0.955588
5,-0.299965,-1.37367,0.245285,0.969451
5.1,-0.285507,-1.2964,0.234157,0.972199
5.2,-0.284217,-1.236,0.164808,0.986326
5.3,-0.2923,-1.18713,0.100566,0.99493
5.4,-0.303868,-1.15669,0.0849953,0.996381
5.5,-0.317528,-1.13358,0.0696311,0.997573
5.6,-0.331475,-1.11675,0.0733753,0.997304
5.7,-0.345057,-1.09993,0.0796721,0.996821
5.8,-0.360947,-1.08528,0.0536868,0.998558
5.9,-0.371455,-1.06779,0.120613,0.9927
6,-0.382846,-1.05087,0.111917,0.993717
6.1,-0.400392,-1.0376,0.0376081,0.999293
6.2,-0.41707,-1.02563,0.0520669,0.998644
6.3,-0.438581,-1.01747,-0.0122296,0.999925
6.4,-0.461209,-1.01109,-0.026553,0.999647
6.5,-0.485674,-1.00532,-0.0515636,0.99867
6.6,-0.511398,-1.00027,-0.0683287,0.997663
6.7,-0.536165,-0.995302,-0.0513579,0.99868
6.8,-0.569002,-0.994289,-0.178415,0.983955
6.9,-0.606913,-0.994952,-0.257651,0.966238
7,-0.647435,-0.996513,-0.296663,0.954982
7.1,-0.690814,-0.998985,-0.338905,0.940821
7.2,-0.73387,-1.00307,-0.339117,0.940744
7.3,-0.776899,-1.00709,-0.334925,0.942245
7.4,-0.818961,-1.0104,-0.313471,0.949598
7.5,-0.860509,-1.01394,-0.303364,0.952875
7.6,-0.901539,-1.01775,-0.293287,0.956025
7.7,-0.943285,-1.02095,-0.297884,0.954602
7.8,-0.984314,-1.02412,-0.283314,0.959027
7.9,-1.02533,-1.02714,-0.279024,0.960284
8,-1.06616,-1.03026,-0.273069,0.961994
8.1,-1.10731,-1.03301,-0.272999,0.962014
8.2,-1.14796,-1.0363,-0.264119,0.96449
8.3,-1.1895,-1.03859,-0.270267,0.962785
8.4,-1.23122,-1.04066,-0.268626,0.963244
8.5,-1.2727,-1.04274,-0.261522,0.965197
8.6,-1.31435,-1.04476,-0.260574,0.965454
8.7,-1.35532,-1.04769,-0.250106,0.968218
8.8,-1.39667,-1.05003,-0.250291,0.968171
8.9,-1.43851,-1.05142,-0.250703,0.968064
9,-1.48044,-1.05286,-0.249086,0.968481
9.1,-1.52228,-1.05431,-0.244161,0.969735
9.2,-1.56864,-1.0547,-0.305586,0.952164
9.3,-1.61453,-1.0542,-0.291072,0.956701
9.4,-1.66036,-1.05292,-0.283276,0.959038
9.5,-1.70601,-1.05138,-0.276138,0.961118
9.6,-1.75094,-1.04964,-0.261208,0.965283
9.7,-1.78789,-1.05183,-0.141619,0.989921
9.8,-1.82904,-1.05114,-0.199988,0.979798
9.9,-1.8749,-1.04875,-0.263467,0.964668
10,-1.91278,-1.0506,-0.145544,0.989352
10.1,-1.94767,-1.0547,-0.0935751,0.995612
10.2,-1.98148,-1.05369,-0.0641766,0.997939
10.3,-2.011,-1.05246,0.0118825,0.999929
10.4,-2.03884,-1.05063,0.0429205,0.999078
10.5,-2.06619,-1.04755,0.0527157,0.99861
10.6,-2.09449,-1.04239,0.0384468,0.999261
10.7,-2.12431,-1.03561,0.0163989,0.999866
10.8,-2.15319,-1.02904,0.0340507,0.99942
10.9,-2.18366,-1.0209,0.0117411,0.999931
11,-2.21457,-1.01218,0.0076754,0.999971
11.1,-2.24312,-1.00525,0.0477559,0.998859
11.2,-2.27011,-0.999962,0.0770149,0.99703
11.3,-2.29783,-0.993904,0.0672223,0.997738
11.4,-2.32549,-0.987749,0.0705593,0.997508
11.5,-2.35306,-0.981597,0.0748753,0.997193
11.6,-2.38062,-0.975463,0.0776406,0.996981
11.7,-2.40719,-0.970077,0.0971654,0.995268
11.8,-2.43171,-0.965695,0.134622,0.990897
11.9,-2.45668,-0.960081,0.127237,0.991872
12,-2.47956,-0.955632,0.165596,0.986194
12.1,-2.50209,-0.950136,0.170531,0.985352
12.2,-2.52518,-0.944218,0.162899,0.986643
12.3,-2.5469,-0.936939,0.182532,0.9832
12.4,-2.56867,-0.928786,0.18166,0.983361
12.5,-2.58963,-0.920084,0.19428,0.980946
12.6,-2.60562,-0.913922,0.27777,0.960648
12.7,-2.62086,-0.906427,0.284654,0.95863
12.8,-2.63583,-0.897347,0.283347,0.959018
12.9,-2.65144,-0.894588,0.303786,0.95274
13,-2.66743,-0.883254,0.26381,0.964575
13.1,-2.68261,-0.875012,0.289033,0.957319
13.2,-2.69495,-0.862474,0.310282,0.950644
13.3,-2.70699,-0.851706,0.323102,0.946364
13.4,-2.71942,-0.837004,0.303291,0.952898
13.5,-2.73095,-0.821167,0.311423,0.950271
13.6,-2.74126,-0.799938,0.306689,0.95181
13.7,-2.7507,-0.774258,0.30215,0.95326
13.8,-2.75709,-0.746075,0.326976,0.945033
13.9,-2.7605,-0.715707,0.3502,0.936675
14,-2.76353,-0.683283,0.347869,0.937543
14.1,-2.76553,-0.650427,0.357437,0.933937
14.2,-2.76669,-0.616929,0.364217,0.931314
14.3,-2.76755,-0.58336,0.36802,0.929818
14.4,-2.76705,-0.549059,0.378874,0.925448
14.5,-2.76685,-0.512796,0.370403,0.928871
14.6,-2.76662,-0.475367,0.367956,0.929843
14.7,-2.76826,-0.433768,0.339094,0.940753
14.8,-2.77008,-0.389511,0.33092,0.943659
14.9,-2.77079,-0.347686,0.349699,0.936862
15,-2.76995,-0.304202,0.358974,0.933348
15.1,-2.76676,-0.260849,0.380312,0.924858
15.2,-2.77035,-0.202188,0.284032,0.958815
15.3,-2.7687,-0.149137,0.341595,0.939847
15.4,-2.77015,-0.0904502,0.304262,0.952588
15.5,-2.77102,-0.0307917,0.308323,0.951282
15.6,-2.7715,0.0293442,0.312131,0.950039
15.7,-2.76995,0.0893149,0.329729,0.944076
15.8,-2.76314,0.150147,0.367596,0.929986
15.9,-2.7541,0.214714,0.374335,0.927294
16,-2.73275,0.281233,0.44911,0.893476
16.1,-2.70527,0.351059,0.475585,0.87967
16.2,-2.66196,0.427328,0.537913,0.843
16.3,-2.61387,0.509398,0.543149,0.839636
16.4,-2.56153,0.59178,0.560965,0.827839
16.5,-2.50737,0.679279,0.55454,0.832157
16.6,-2.43945,0.769216,0.601233,0.799074
16.7,-2.36015,0.86388,0.627412,0.778687
16.8,-2.2813,0.965543,0.607899,0.794014
16.9,-2.20359,1.07003,0.59713,0.802145
17,-2.12594,1.17411,0.597907,0.801566
17.1,-2.04831,1.27814,0.597981,0.801511
17.2,-1.97028,1.38253,0.59839,0.801205
17.3,-1.89247,1.48699,0.59752,0.801854
17.4,-1.81518,1.59175,0.595074,0.803671
17.5,-1.73781,1.69587,0.596887,0.802325
17.6,-1.66013,1.80045,0.596843,0.802358
17.7,-1.58245,1.9043,0.598583,0.801061
17.8,-1.50485,2.00842,0.597687,0.80173
17.9,-1.42719,2.11242,0.598187,0.801356
18,-1.34985,2.21661,0.596656,0.802497
18.1,-1.27308,2.32015,0.596386,0.802698
18.2,-1.19599,2.4241,0.596473,0.802633
18.3,-1.11845,2.52871,0.596342,0.802731
18.4,-1.04099,2.63284,0.597244,0.802059
18.5,-0.963135,2.73684,0.598902,0.800822
18.6,-0.885306,2.84086,0.598759,0.800929
18.7,-0.807476,2.94487,0.59876,0.800928
18.8,-0.729377,3.04844,0.600747,0.799439
18.9,-0.652737,3.15266,0.594274,0.804263
19,-0.574739,3.25666,0.599351,0.800486
19.1,-0.496683,3.36087,0.599025,0.80073
19.2,-0.418194,3.46475,0.601222,0.799082
19.3,-0.340171,3.56944,0.597669,0.801743
19.4,-0.26217,3.67342,0.599338,0.800496
19.5,-0.184251,3.77734,0.599197,0.800602
19.6,-0.106795,3.88128,0.597609,0.801788
19.7,-0.0288344,3.98569,0.598103,0.801419
19.8,0.0489929,4.09005,0.597793,0.80165
19.9,0.126506,4.1944,0.596784,0.802402
20,0.204113,4.29874,0.597109,0.80216
20.1,0.281713,4.40322,0.596768,0.802414
20.2,0.359259,4.50765,0.596752,0.802426
20.3,0.4369,4.61161,0.598218,0.801333
20.4,0.514776,4.71561,0.598907,0.800818
20.5,0.592207,4.81961,0.597395,0.801947
20.6,0.669765,4.92371,0.597588,0.801803
20.7,0.747284,5.02781,0.597481,0.801883
20.8,0.823194,5.12407,0.611885,0.790946
20.9,0.900638,5.2291,0.594609,0.804015
21,0.978589,5.33366,0.597489,0.801877
21.1,1.05635,5.43782,0.597817,0.801632
21.2,1.13401,5.54203,0.597359,0.801974
21.3,1.21177,5.64629,0.597522,0.801853
21.4,1.28938,5.75051,0.597131,0.802143
21.5,1.36707,5.85472,0.597427,0.801923
21.6,1.44484,5.95917,0.597023,0.802224
21.7,1.52295,6.06376,0.597829,0.801624
21.8,1.60042,6.16773,0.597155,0.802126
21.9,1.6781,6.27193,0.597293,0.802023
22,1.75576,6.37616,0.597069,0.80219
22.1,1.83341,6.48031,0.5972,0.802092
22.2,1.91104,6.58486,0.59604,0.802955
22.3,1.98864,6.68853,0.5981,0.801422
22.4,2.06607,6.79267,0.596126,0.802891
22.5,2.1436,6.89721,0.595265,0.803529
22.6,2.19134,6.9616,0.595648,0.803245
22.7,2.2093,6.98582,0.595648,0.803245
22.8,2.2093,6.98582,0.595648,0.803245
22.9,2.2093,6.98582,0.595648,0.803245
23,2.2093,6.98582,0.595648,0.803245
23.1,2.2093,6.98582,0.595648,0.803245
23.2,2.2093,6.98582,0.595648,0.803245
23.3,2.2093,6.98582,0.595648,0.803245
23.4,2.2093,6.98582,0.595648,0.803245
23.5,2.2093,6.98582,0.595648,0.803245
23.6,2.2093,6.98582,0.595648,0.803245
23.7,2.2093,6.98582,0.595648,0.803245
23.8,2.2093,6.98582,0.595648,0.803245
23.9,2.2093,6.98582,0.595648,0.803245
24,2.2093,6.98582,0.595648,0.803245
24.1,2.2093,6.98582,0.595648,0.803245
24.2,2.2093,6.98582,0.595648,0.803245
24.3,2.2093,6.98582,0.595648,0.803245
24.4,2.2093,6.98582,0.595648,0.803245
24.5,2.2093,6.98582,0.595648,0.803245
24.6,2.2093,6.98582,0.595648,0.803245
24.7,2.2093,6.98582,0.595648,0.803245
24.8,2.2093,6.98582,0.595648,0.803245
24.9,2.2093,6.98582,0.595648,0.803245
25,2.2093,6.98582,0.595648,0.803245
25.1,2.2093,6.98582,0.595648,0.803245
25.2,2.2093,6.98582,0.595648,0.803245
25.3,2.2093,6.98582,0.595648,0.803245
25.4,2.2093,6.98582,0.595648,0.803245
25.5,2.2093,6.98582,0.595648,0.803245
25.6,2.2093,6.98582,0.595648,0.803245
25.7,2.2093,6.98582,0.595648,0.803245
25.8,2.2093,6.98582,0.595648,0.803245
25.9,2.2093,6.98582,0.595648,0.803245
26,2.2093,6.98582,0.595648,0.803245
26.1,2.2093,6.98582,0.595648,0.803245
26.2,2.2093,6.98582,0.595648,0.803245
26.3,2.2093,6.98582,0.595648,0.803245
26.4,2.2093,6.98582,0.595648,0.803245
26.5,2.2093,6.98582,0.595648,0.803245
26.6,2.2093,6.98582,0.595648,0.803245
26.7,2.2093,6.98582,0.595648,0.803245
26.8,2.2093,6.98582,0.595648,0.803245
26.9,2.2093,6.98582,0.595648,0.803245
27,2.2093,6.98582,0.595648,0.803245
27.1,2.2093,6.98582,0.595648,0.803245
27.2,2.2093,6.98582,0.595648,0.803245
27.3,2.2093,6.98582,0.595648,0.803245
27.4,2.2093,6.98582,0.595648,0.803245
27.5,2.2093,6.98582,0.595648,0.803245
27.6,2.2093,6.98582,0.595648,0.803245
27.7,2.2093,6.98582,0.595648,0.803245
27.8,2.2093,6.98582,0.595648,0.803245
27.9,2.2093,6.98582,0.595648,0.803245
28,2.2093,6.98582,0.595648,0.803245
28.1,2.2093,6.98582,0.595648,0.803245
28.2,2.2093,6.98582,0.595648,0.803245
28.3,2.2093,6.98582,0.595648,0.803245
28.4,2.2093,6.98582,0.595648,0.803245
28.5,2.2093,6.98582,0.595648,0.803245
28.6,2.2093,6.98582,0.595648,0.803245
28.7,2.2093,6.98582,0.595648,0.803245
28.8,2.2093,6.98582,0.595648,0.803245
28.9,2.2093,6.98582,0.595648,0.803245
29,2.2093,6.98582,0.595648,0.803245
29.1,2.2093,6.98582,0.595648,0.803245
29.2,2.2093,6.98582,0.595648,0.803245
29.3,2.2093,6.98582,0.595648,0.803245
29.4,2.2093,6.98582,0.595648,0.803245
29.5,2.2093,6.98582,0.595648,0.803245
29.6,2.2093,6.98582,0.595648,0.803245
29.7,2.2093,6.98582,0.595648,0.803245
29.8,2.2093,6.98582,0.595648,0.803245
29.9,2.2093,6.98582,0.595648,0.803245
30,2.2093,6.98582,0.595648,0.803245
30.1,2.2093,6.98582,0.595648,0.803245
30.2,2.2093,6.98582,0.595648,0.803245
30.3,2.2093,6.98582,0.595648,0.803245
30.4,2.2093,6.98582,0.595648,0.803245
30.5,2.2093,6.98582,0.595648,0.803245
30.6,2.2093,6.98582,0.595648,0.803245
30.7,2.2093,6.98582,0.595648,0.803245
30.8,2.2093,6.98582,0.595648,0.803245
30.9,2.2093,6.98582,0.595648,0.803245
31,2.2093,6.98582,0.595648,0.803245
31.1,2.2093,6.98582,0.595648,0.803245
31.2,2.2093,6.98582,0.595648,0.803245
31.3,2.2093,6.98582,0.595648,0.803245
31.4,2.2093,6.98582,0.595648,0.803245
31.5,2.2093,6.98582,0.595648,0.803245
31.6,2.2093,6.98582,0.595648,0.803245
31.7,2.2093,6.98582,0.595648,0.803245
31.8,2.2093,6.98582,0.595648,0.803245
31.9,2.2093,6.98582,0.595648,0.803245
32,2.2093,6.98582,0.595648,0.803245
32.1,2.2093,6.98582,0.595648,0.803245
32.2,2.2093,6.98582,0.595648,0.803245
32.3,2.2093,6.98582,0.595648,0.803245
32.4,2.2093,6.98582,0.595648,0.803245
32.5,2.2093,6.98582,0.595648,0.803245
32.6,2.2093,6.98582,0.595648,0.803245
32.7,2.2093,6.98582,0.595648,0.803245
32.8,2.2093,6.98582,0.595648,0.803245
32.9,2.2093,6.98582,0.595648,0.803245
33,2.2093,6.98582,0.595648,0.803245
33.1,2.2093,6.98582,0.595648,0.803245
33.2,2.2093,6.98582,0.595648,0.803245
33.3,2.2093,6.98582,0.595648,0.803245
33.4,2.2093,6.98582,0.595648,0.803245
33.5,2.2093,6.98582,0.595648,0.803245
33.6,2.2093,6.98582,0.595648,0.803245
33.7,2.2093,6.98582,0.595648,0.803245
33.8,2.2093,6.98582,0.595648,0.803245
33.9,2.2093,6.98582,0.595648,0.803245
34,2.2093,6.98582,0.595648,0.803245
34.1,2.2093,6.98582,0.595648,0.803245
34.2,2.2093,6.98582,0.595648,0.803245
34.3,2.2093,6.98582,0.595648,0.803245
34.4,2.2093,6.98582,0.595648,0.803245
34.5,2.2093,6.98582,0.595648,0.803245
34.6,2.2093,6.98582,0.595648,0.803245
34.7,2.2093,6.98582,0.595648,0.803245
34.8,2.2093,6.98582,0.595648,0.803245
34.9,2.2093,6.98582,0.595648,0.803245
35,2.2093,6.98582,0.595648,0.803245
35.1,2.2093,6.98582,0.595648,0.803245
35.2,2.2093,6.98582,0.595648,0.803245
35.3,2.2093,6.98582,0.595648,0.803245
35.4,2.2093,6.98582,0.595648,0.803245
35.5,2.2093,6.98582,0.595648,0.803245
35.6,2.2093,6.98582,0.595648,0.803245
35.7,2.2093,6.98582,0.595648,0.803245
35.8,2.2093,6.98582,0.595648,0.803245
35.9,2.2093,6.98582,0.595648,0.803245
36,2.2093,6.98582,0.595648,0.803245
36.1,2.2093,6.98582,0.595648,0.803245
36.2,2.2093,6.98582,0.595648,0.803245
36.3,2.2093,6.98582,0.595648,0.803245
36.4,2.2093,6.98582,0.595648,0.803245
36.5,2.2093,6.98582,0.595648,0.803245
36.6,2.2093,6.98582,0.595648,0.803245
36.7,2.2093,6.98582,0.595648,0.803245
36.8,2.2093,6.98582,0.595648,0.803245
36.9,2.2093,6.98582,0.595648,0.803245
37,2.2093,6.98582,0.595648,0.803245
37.1,2.2093,6.98582,0.595648,0.803245
37.2,2.2093,6.98582,0.595648,0.803245
37.3,2.2093,6.98582,0.595648,0.803245
37.4,2.2093,6.98582,0.595648,0.803245
37.5,2.2093,6.98582,0.595648,0.803245
37.6,2.2093,6.98582,0.595648,0.803245
37.7,2.2093,6.98582,0.595648,0.803245
37.8,2.2093,6.98582,0.595648,0.803245
37.9,2.2093,6.98582,0.595648,0.803245
38,2.2093,6.98582,0.595648,0.803245
38.1,2.2093,6.98582,0.595648,0.803245
38.2,2.2093,6.98582,0.595648,0.803245
38.3,2.2093,6.98582,0.595648,0.803245
38.4,2.2093,6.98582,0.595648,0.803245
38.5,2.2093,6.98582,0.595648,0.803245
38.6,2.2093,6.98582,0.595648,0.803245
38.7,2.2093,6.98582,0.595648,0.803245
38.8,2.2093,6.98582,0.595648,0.803245
38.9,2.2093,6.98582,0.595648,0.803245
39,2.2093,6.98582,0.595648,0.803245
39.1,2.2093,6.98582,0.595648,0.803245
39.2,2.2093,6.98582,0.595648,0.803245
39.3,2.2093,6.98582,0.595648,0.803245
39.4,2.2093,6.98582,0.595648,0.803245
39.5,2.2093,6.98582,0.595648,0.803245
39.6,2.2093,6.98582,0.595648,0.803245
39.7,2.2093,6.98582,0.595648,0.803245
39.8,2.2093,6.98582,0.595648,0.803245
39.9,2.2093,6.98582,0.595648,0.803245
40,2.2093,6.98582,0.595648,0.803245
40.1,2.2093,6.98582,0.595648,0.803245
40.2,2.2093,6.98582,0.595648,0.803245
40.3,2.2093,6.98582,0.595648,0.803245
40.4,2.2093,6.98582,0.595648,0.803245
40.5,2.2093,6.98582,0.595648,0.803245
40.6,2.2093,6.98582,0.595648,0.803245
40.7,2.2093,6.98582,0.595648,0.803245
40.8,2.2093,6.98582,0.595648,0.803245
40.9,2.2093,6.98582,0.595648,0.803245
41,2.2093,6.98582,0.595648,0.803245
41.1,2.2093,6.98582,0.595648,0.803245
41.2,2.2093,6.98582,0.595648,0.803245
41.3,2.2093,6.98582,0.595648,0.803245
41.4,2.2093,6.98582,0.595648,0.803245
41.5,2.2093,6.98582,0.595648,0.803245
41.6,2.2093,6.98582,0.595648,0.803245
41.7,2.2093,6.98582,0.595648,0.803245
41.8,2.2093,6.98582,0.595648,0.803245
41.9,2.2093,6.98582,0.595648,0.803245
42,2.2093,6.98582,0.595648,0.803245
42.1,2.2093,6.98582,0.595648,0.803245
42.2,2.2093,6.98582,0.595648,0.803245
42.3,2.2093,6.98582,0.595648,0.803245
42.4,2.2093,6.98582,0.595648,0.803245
42.5,2.2093,6.98582,0.595648,0.803245
42.6,2.2093,6.98582,0.595648,0.803245
42.7,2.2093,6.98582,0.595648,0.803245
42.8,2.2093,6.98582,0.595648,0.803245
42.9,2.2093,6.98582,0.595648,0.803245
43,2.2093,6.98582,0.595648,0.803245
43.1,2.2093,6.98582,0.595648,0.803245
43.2,2.2093,6.98582,0.595648,0.803245
43.3,2.2093,6.98582,0.595648,0.803245
43.4,2.2093,6.98582,0.595648,0.803245
43.5,2.2093,6.98582,0.595648,0.803245
43.6,2.2093,6.98582,0.595648,0.803245
43.7,2.2093,6.98582,0.595648,0.803245
43.8,2.2093,6.98582,0.595648,0.803245
43.9,2.2093,6.98582,0.595648,0.803245
44,2.2093,6.98582,0.595648,0.803245
44.1,2.2093,6.98582,0.595648,0.803245
44.2,2.2093,6.98582,0.595648,0.803245
44.3,2.2093,6.98582,0.595648,0.803245
44.4,2.2093,6.98582,0.595648,0.803245
44.5,2.2093,6.98582,0.595648,0.803245
44.6,2.2093,6.98582,0.595648,0.803245
44.7,2.2093,6.98582,0.595648,0.803245
44.8,2.2093,6.98582,0.595648,0.803245
44.9,2.2093,6.98582,0.595648,0.803245
45,2.2093,6.98582,0.595648,0.803245
45.1,2.2093,6.98582,0.595648,0.803245
45.2,2.2093,6.98582,0.595648,0.803245
45.3,2.2093,6.98582,0.595648,0.803245
45.4,2.2093,6.98582,0.595648,0.803245
45.5,2.2093,6.98582,0.595648,0.803245
45.6,2.2093,6.98582,0.595648,0.803245
45.7,2.2093,6.98582,0.595648,0.803245
45.8,2.2093,6.98582,0.595648,0.803245
45.9,2.2093,6.98582,0.595648,0.803245
46,2.2093,6.98582,0.595648,0.803245
46.1,2.2093,6.98582,0.595648,0.803245
46.2,2.2093,6.98582,0.595648,0.803245
46.3,2.2093,6.98582,0.595648,0.803245
46.4,2.2093,6.98582,0.595648,0.803245
46.5,2.2093,6.98582,0.595648,0.803245
46.6,2.2093,6.98582,0.595648,0.803245
46.7,2.2093,6.98582,0.595648,0.803245
46.8,2.2093,6.98582,0.595648,0.803245
46.9,2.2093,6.98582,0.595648,0.803245
47,2.2093,6.98582,0.595648,0.803245
47.1,2.2093,6.98582,0.595648,0.803245
47.2,2.2093,6.98582,0.595648,0.803245
47.3,2.2093,6.98582,0.595648,0.803245
47.4,2.2093,6.98582,0.595648,0.803245
47.5,2.2093,6.98582,0.595648,0.803245
47.6,2.2093,6.98582,0.595648,0.803245
47.7,2.2093,6.98582,0.595648,0.803245
47.8,2.2093,6.98582,0.595648,0.803245
47.9,2.2093,6.98582,0.595648,0.803245
48,2.2093,6.98582,0.595648,0.803245
48.1,2.2093,6.98582,0.595648,0.803245
48.2,2.2093,6.98582,0.595648,0.803245
48.3,2.2093,6.98582,0.595648,0.803245
48.4,2.2093,6.98582,0.595648,0.803245
48.5,2.2093,6.98582,0.595648,0.803245
48.6,2.2093,6.98582,0.595648,0.803245
48.7,2.2093,6.98582,0.595648,0.803245
48.8,2.2093,6.98582,0.595648,0.803245
48.9,2.2093,6.98582,0.595648,0.803245
49,2.2093,6.98582,0.595648,0.803245
49.1,2.2093,6.98582,0.595648,0.803245
49.2,2.2093,6.98582,0.595648,0.803245
49.3,2.2093,6.98582,0.595648,0.803245
49.4,2.2093,6.98582,0.595648,0.803245
49.5,2.2093,6.98582,0.595648,0.803245
49.6,2.2093,6.98582,0.595648,0.803245
49.7,2.2093,6.98582,0.595648,0.803245
49.8,2.2093,6.98582,0.595648,0.803245
49.9,2.2093,6.98582,0.595648,0.803245
50,2.2093,6.98582,0.595648,0.803245
50.1,2.2093,6.98582,0.595648,0.803245
50.2,2.2093,6.98582,0.595648,0.803245
50.3,2.2093,6.98582,0.595648,0.803245
50.4,2.2093,6.98582,0.595648,0.803245
50.5,2.2093,6.98582,0.595648,0.803245
50.6,2.2093,6.98582,0.595648,0.803245
50.7,2.2093,6.98582,0.595648,0.803245
50.8,2.2093,6.98582,0.595648,0.803245
50.9,2.2093,6.98582,0.595648,0.803245
51,2.2093,6.98582,0.595648,0.803245
51.1,2.2093,6.98582,0.595648,0.803245
51.2,2.2093,6.98582,0.595648,0.803245
51.3,2.2093,6.98582,0.595648,0.803245
51.4,2.2093,6.98582,0.595648,0.803245
51.5,2.2093,6.98582,0.595648,0.803245
51.6,2.2093,6.98582,0.595648,0.803245
51.7,2.2093,6.98582,0.595648,0.803245
51.8,2.2093,6.98582,0.595648,0.803245
51.9,2.2093,6.98582,0.595648,0.803245
52,2.2093,6.98582,0.595648,0.803245
52.1,2.2093,6.98582,0.595648,0.803245
52.2,2.2093,6.98582,0.595648,0.803245
52.3,2.2093,6.98582,0.595648,0.803245
52.4,2.2093,6.98582,0.595648,0.803245
52.5,2.2093,6.98582,0.595648,0.803245
52.6,2.2093,6.98582,0.595648,0.803245
52.7,2.2093,6.98582,0.595648,0.803245
52.8,2.2093,6.98582,0.595648,0.803245
52.9,2.2093,6.98582,0.595648,0.803245
53,2.2093,6.98582,0.595648,0.803245
53.1,2.2093,6.98582,0.595648,0.803245
53.2,2.2093,6.98582,0.595648,0.803245
53.3,2.2093,6.98582,0.595648,0.803245
53.4,2.2093,6.98582,0.595648,0.803245
53.5,2.2093,6.98582,0.595648,0.803245
53.6,2.2093,6.98582,0.595648,0.803245
53.7,2.2093,6.98582,0.595648,0.803245
53.8,2.2093,6.98582,0.595648,0.803245
53.9,2.2093,6.98582,0.595648,0.803245
54,2.2093,6.98582,0.595648,0.803245
54.1,2.2093,6.98582,0.595648,0.803245
54.2,2.2093,6.98582,0.595648,0.803245
54.3,2.2093,6.98582,0.595648,0.803245
54.4,2.2093,6.98582,0.595648,0.803245
54.5,2.2093,6.98582,0.595648,0.803245
54.6,2.2093,6.98582,0.595648,0.803245
54.7,2.2093,6.98582,0.595648,0.803245
54.8,2.2093,6.98582,0.595648,0.803245
54.9,2.2093,6.98582,0.595648,0.803245
55,2.2093,6.98582,0.595648,0.803245
55.1,2.2093,6.98582,0.595648,0.803245
55.2,2.2093,6.98582,0.595648,0.803245
55.3,2.2093,6.98582,0.595648,0.803245
55.4,2.2093,6.98582,0.595648,0.803245
55.5,2.2093,6.98582,0.595648,0.803245
55.6,2.2093,6.98582,0.595648,0.803245
55.7,2.2093,6.98582,0.595648,0.803245
55.8,2.2093,6.98582,0.595648,0.803245
55.9,2.2093,6.98582,0.595648,0.803245
56,2.2093,6.98582,0.595648,0.803245
56.1,2.2093,6.98582,0.595648,0.803245
56.2,2.2093,6.98582,0.595648,0.803245
56.3,2.2093,6.98582,0.595648,0.803245
56.4,2.2093,6.98582,0.595648,0.803245
56.5,2.2093,6.98582,0.595648,0.803245
56.6,2.2093,6.98582,0.595648,0.803245
56.7,2.2093,6.98582,0.595648,0.803245
56.8,2.2093,6.98582,0.595648,0.803245
56.9,2.2093,6.98582,0.595648,0.803245
57,2.2093,6.98582,0.595648,0.803245
57.1,2.2093,6.98582,0.595648,0.803245
57.2,2.2093,6.98582,0.595648,0.803245
57.3,2.2093,6.98582,0.595648,0.803245
57.4,2.2093,6.98582,0.595648,0.803245
57.5,2.2093,6.98582,0.595648,0.803245
57.6,2.2093,6.98582,0.595648,0.803245
57.7,2.2093,6.98582,0.595648,0.803245
57.8,2.2093,6.98582,0.595648,0.803245
57.9,2.2093,6.98582,0.595648,0.803245
58,2.2093,6.98582,0.595648,0.803245
58.1,2.2093,6.98582,0.595648,0.803245
58.2,2.2093,6.98582,0.595648,0.803245
58.3,2.2093,6.98582,0.595648,0.803245
58.4,2.2093,6.98582,0.595648,0.803245
58.5,2.2093,6.98582,0.595648,0.803245
58.6,2.2093,6.98582,0.595648,0.803245
58.7,2.2093,6.98582,0.595648,0.803245
58.8,2.2093,6.98582,0.595648,0.803245
58.9,2.2093,6.98582,0.595648,0.803245
59,2.2093,6.98582,0.595648,0.803245
59.1,2.2093,6.98582,0.595648,0.803245
59.2,2.2093,6.98582,0.595648,0.803245
59.3,2.2093,6.98582,0.595648,0.803245
59.4,2.2093,6.98582,0.595648,0.803245
59.5,2.2093,6.98582,0.595648,0.803245
59.6,2.2093,6.98582,0.595648,0.803245
59.7,2.2093,6.98582,0.595648,0.803245
59.8,2.2093,6.98582,0.595648,0.803245
59.9,2.2093,6.98582,0.595648,0.803245
60,2.2093,6.98582,0.595648,0.803245
60.1,2.2093,6.98582,0.595648,0.803245
60.2,2.2093,6.98582,0.595648,0.803245
60.3,2.2093,6.98582,0.595648,0.803245
60.4,2.2093,6.98582,0.595648,0.803245
60.5,2.2093,6.98582,0.595648,0.803245
60.6,2.2093,6.98582,0.595648,0.803245
60.7,2.2093,6.98582,0.595648,0.803245
60.8,2.2093,6.98582,0.595648,0.803245
60.9,2.2093,6.98582,0.595648,0.803245
61,2.2093,6.98582,0.595648,0.803245
61.1,2.2093,6.98582,0.595648,0.803245
61.2,2.2093,6.98582,0.595648,0.803245
61.3,2.2093,6.98582,0.595648,0.803245
61.4,2.2093,6.98582,0.595648,0.803245
61.5,2.2093,6.98582,0.595648,0.803245
61.6,2.2093,6.98582,0.595648,0.803245
61.7,2.2093,6.98582,0.595648,0.803245
61.8,2.2093,6.98582,0.595648,0.803245
61.9,2.2093,6.98582,0.595648,0.803245
62,2.2093,6.98582,0.595648,0.803245
62.1,2.2093,6.98582,0.595648,0.803245
62.2,2.2093,6.98582,0.595648,0.803245
62.3,2.2093,6.98582,0.595648,0.803245
62.4,2.2093,6.98582,0.595648,0.803245
62.5,2.2093,6.98582,0.595648,0.803245
62.6,2.2093,6.98582,0.595648,0.803245
62.7,2.2093,6.98582,0.595648,0.803245
62.8,2.2093,6.98582,0.595648,0.803245
62.9,2.2093,6.98582,0.595648,0.803245
63,2.2093,6.98582,0.595648,0.803245
63.1,2.2093,6.98582,0.595648,0.803245
63.2,2.2093,6.98582,0.595648,0.803245
63.3,2.2093,6.98582,0.595648,0.803245
63.4,2.2093,6.98582,0.595648,0.803245
63.5,2.2093,6.98582,0.595648,0.803245
63.6,2.2093,6.98582,0.595648,0.803245
63.7,2.2093,6.98582,0.595648,0.803245
63.8,2.2093,6.98582,0.595648,0.803245
63.9,2.2093,6.98582,0.595648,0.803245
64,2.2093,6.98582,0.595648,0.803245
64.1,2.2093,6.98582,0.595648,0.803245
64.2,2.2093,6.98582,0.595648,0.803245
64.3,2.2093,6.98582,0.595648,0.803245
64.4,2.2093,6.98582,0.595648,0.803245
64.5,2.2093,6.98582,0.595648,0.803245
64.6,2.2093,6.98582,0.595648,0.803245
64.7,2.2093,6.98582,0.595648,0.803245
64.8,2.2093,6.98582,0.595648,0.803245
64.9,2.2093,6.98582,0.595648,0.803245
65,2.2093,6.98582,0.595648,0.803245
65.1,2.2093,6.98582,0.595648,0.803245
65.2,2.2093,6.98582,0.595648,0.803245
65.3,2.2093,6.98582,0.595648,0.803245
65.4,2.2093,6.98582,0.595648,0.803245
65.5,2.2093,6.98582,0.595648,0.803245
65.6,2.2093,6.98582,0.595648,0.803245
65.7,2.2093,6.98582,0.595648,0.803245
65.8,2.2093,6.98582,0.595648,0.803245
65.9,2.2093,6.98582,0.595648,0.803245
66,2.2093,6.98582,0.595648,0.803245
66.1,2.2093,6.98582,0.595648,0.803245
66.2,2.2093,6.98582,0.595648,0.803245
66.3,2.2093,6.98582,0.595648,0.803245
66.4,2.2093,6.98582,0.595648,0.803245
66.5,2.2093,6.98582,0.595648,0.803245
66.6,2.2093,6.98582,0.595648,0.803245
66.7,2.2093,6.98582,0.595648,0.803245
66.8,2.2093,6.98582,0.595648,0.803245
66.9,2.2093,6.98582,0.595648,0.803245
67,2.2093,6.98582,0.595648,0.803245
67.1,2.2093,6.98582,0.595648,0.803245
67.2,2.2093,6.98582,0.595648,0.803245
67.3,2.2093,6.98582,0.595648,0.803245
67.4,2.2093,6.98582,0.595648,0.803245
67.5,2.2093,6.98582,0.595648,0.803245
67.6,2.2093,6.98582,0.595648,0.803245
67.7,2.2093,6.98582,0.595648,0.803245
67.8,2.2093,6.98582,0.595648,0.803245
67.9,2.2093,6.98582,0.595648,0.803245
68,2.2093,6.98582,0.595648,0.803245
68.1,2.2093,6.98582,0.595648,0.803245
68.2,2.2093,6.98582,0.595648,0.803245
68.3,2.2093,6.98582,0.595648,0.803245
68.4,2.2093,6.98582,0.595648,0.803245
68.5,2.2093,6.98582,0.595648,0.803245
68.6,2.2093,6.98582,0.595648,0.803245
68.7,2.2093,6.98582,0.595648,0.803245
68.8,2.2093,6.98582,0.595648,0.803245
68.9,2.2093,6.98582,0.595648,0.803245
69,2.2093,6.98582,0.595648,0.803245
69.1,2.2093,6.98582,0.595648,0.803245
69.2,2.2093,6.98582,0.595648,0.803245
69.3,2.2093,6.98582,0.595648,0.803245
69.4,2.2093,6.98582,0.595648,0.803245
69.5,2.2093,6.98582,0.595648,0.803245
69.6,2.2093,6.98582,0.595648,0.803245
69.7,2.2093,6.98582,0.595648,0.803245
69.8,2.2093,6.98582,0.595648,0.803245
69.9,2.2093,6.98582,0.595648,0.803245
70,2.2093,6.98582,0.595648,0.803245
70.1,2.2093,6.98582,0.595648,0.803245
70.2,2.2093,6.98582,0.595648,0.803245
70.3,2.2093,6.98582,0.595648,0.803245
70.4,2.2093,6.98582,0.595648,0.803245
70.5,2.2093,6.98582,0.595648,0.803245
70.6,2.2093,6.98582,0.595648,0.803245
70.7,2.2093,6.98582,0.595648,0.803245
70.8,2.2093,6.98582,0.595648,0.803245
70.9,2.2093,6.98582,0.595648,0.803245
71,2.2093,6.98582,0.595648,0.803245
71.1,2.2093,6.98582,0.595648,0.803245
71.2,2.2093,6.98582,0.595648,0.803245
71.3,2.2093,6.98582,0.595648,0.803245
71.4,2.2093,6.98582,0.595648,0.803245
71.5,2.2093,6.98582,0.595648,0.803245
71.6,2.2093,6.98582,0.595648,0.803245
71.7,2.2093,6.98582,0.595648,0.803245
71.8,2.2093,6.98582,0.595648,0.803245
71.9,2.2093,6.98582,0.595648,0.803245
72,2.2093,6.98582,0.595648,0.803245
72.1,2.2093,6.98582,0.595648,0.803245
72.2,2.2093,6.98582,0.595648,0.803245
72.3,2.2093,6.98582,0.595648,0.803245
72.4,2.2093,6.98582,0.595648,0.803245
72.5,2.2093,6.98582,0.595648,0.803245
72.6,2.2093,6.98582,0.595648,0.803245
72.7,2.2093,6.98582,0.595648,0.803245
72.8,2.2093,6.98582,0.595648,0.803245
72.9,2.2093,6.98582,0.595648,0.803245
73,2.2093,6.98582,0.595648,0.803245
73.1,2.2093,6.98582,0.595648,0.803245
73.2,2.2093,6.98582,0.595648,0.803245
73.3,2.2093,6.98582,0.595648,0.803245
73.4,2.2093,6.98582,0.595648,0.803245
73.5,2.2093,6.98582,0.595648,0.803245
73.6,2.2093,6.98582,0.595648,0.803245
73.7,2.2093,6.98582,0.595648,0.803245
73.8,2.2093,6.98582,0.595648,0.803245
73.9,2.2093,6.98582,0.595648,0.803245
74,2.2093,6.98582,0.595648,0.803245
74.1,2.2093,6.98582,0.595648,0.803245
74.2,2.2093,6.98582,0.595648,0.803245
74.3,2.2093,6.98582,0.595648,0.803245
74.4,2.2093,6.98582,0.595648,0.803245
74.5,2.2093,6.98582,0.595648,0.803245
74.6,2.2093,6.98582,0.595648,0.803245
74.7,2.2093,6.98582,0.595648,0.803245
74.8,2.2093,6.98582,0.595648,0.803245
74.9,2.2093,6.98582,0.595648,0.803245
75,2.2093,6.98582,0.595648,0.803245
75.1,2.2093,6.98582,0.595648,0.803245
75.2,2.2093,6.98582,0.595648,0.803245
75.3,2.2093,6.98582,0.595648,0.803245
75.4,2.2093,6.98582,0.595648,0.803245
75.5,2.2093,6.98582,0.595648,0.803245
75.6,2.2093,6.98582,0.595648,0.803245
75.7,2.2093,6.98582,0.595648,0.803245
75.8,2.2093,6.98582,0.595648,0.803245
75.9,2.2093,6.98582,0.595648,0.803245
76,2.2093,6.98582,0.595648,0.803245
76.1,2.2093,6.98582,0.595648,0.803245
76.2,2.2093,6.98582,0.595648,0.803245
76.3,2.2093,6.98582,0.595648,0.803245
76.4,2.2093,6.98582,0.595648,0.803245
76.5,2.2093,6.98582,0.595648,0.803245
76.6,2.2093,6.98582,0.595648,0.803245
76.7,2.2093,6.98582,0.595648,0.803245
76.8,2.2093,6.98582,0.595648,0.803245
76.9,2.2093,6.98582,0.595648,0.803245
77,2.2093,6.98582,0.595648,0.803245
77.1,2.2093,6.98582,0.595648,0.803245
77.2,2.2093,6.98582,0.595648,0.803245
77.3,2.2093,6.98582,0.595648,0.803245
77.4,2.2093,6.98582,0.595648,0.803245
77.5,2.2093,6.98582,0.595648,0.803245
77.6,2.2093,6.98582,0.595648,0.803245
77.7,2.2093,6.98582,0.595648,0.803245
77.8,2.2093,6.98582,0.595648,0.803245
77.9,2.2093,6.98582,0.595648,0.803245
78,2.2093,6.98582,0.595648,0.803245
78.1,2.2093,6.98582,0.595648,0.803245
78.2,2.2093,6.98582,0.595648,0.803245
78.3,2.2093,6.98582,0.595648,0.803245
78.4,2.2093,6.98582,0.595648,0.803245
78.5,2.2093,6.98582,0.595648,0.803245
78.6,2.2093,6.98582,0.595648,0.803245
78.7,2.2093,6.98582,0.595648,0.803245
78.8,2.2093,6.98582,0.595648,0.803245
78.9,2.2093,6.98582,0.595648,0.803245
79,2.2093,6.98582,0.595648,0.803245
79.1,2.2093,6.98582,0.595648,0.803245
79.2,2.2093,6.98582,0.595648,0.803245
79.3,2.2093,6.98582,0.595648,0.803245
79.4,2.2093,6.98582,0.595648,0.803245
79.5,2.2093,6.98582,0.595648,0.803245
79.6,2.2093,6.98582,0.595648,0.803245
79.7,2.2093,6.98582,0.595648,0.803245
79.8,2.2093,6.98582,0.595648,0.803245
79.9,2.2093,6.98582,0.595648,0.803245
80,2.2093,6.98582,0.595648,0.803245
