0.1,-3.17438,6.74279,0.415075,-0.909787
0.2,-3.12334,6.66472,0.498519,-0.866879
0.3,-3.06136,6.54975,0.458261,-0.888818
0.4,-2.99825,6.42545,0.44383,-0.896111
0.5,-2.94366,6.3189,0.444903,-0.895579
0.6,-2.88542,6.19039,0.416352,-0.909203
0.7,-2.83593,6.0766,0.407625,-0.913149
0.8,-2.77637,5.94542,0.416828,-0.908985
0.9,-2.72451,5.83091,0.416642,-0.90907
1,-2.67268,5.72636,0.437186,-0.899371
1.1,-2.60332,5.59979,0.463339,-0.886181
1.2,-2.55129,5.49511,0.437547,-0.899196
1.3,-2.48453,5.36667,0.449689,-0.893185
1.4,-2.4267,5.26112,0.460622,-0.887596
1.5,-2.35676,5.12933,0.454949,-0.890517
1.6,-2.3094,5.03032,0.42806,-0.903751
1.7,-2.23838,4.89602,0.454031,-0.890986
1.8,-2.181,4.79236,0.462341,-0.886702
1.9,-2.11149,4.65865,0.449204,-0.893429
2,-2.06179,4.55739,0.433283,-0.901258
2.1,-1.99871,4.4161,0.411464,-0.911426
2.2,-1.93609,4.27462,0.409421,-0.912346
2.3,-1.88038,4.15988,0.431339,-0.90219
2.4,-1.81635,4.01417,0.407621,-0.913151
2.5,-1.76472,3.90256,0.420155,-0.907452
2.6,-1.69476,3.76772,0.448708,-0.893678
2.7,-1.63408,3.64902,0.443828,-0.896112
2.8,-1.57533,3.53667,0.448761,-0.893652
2.9,-1.51778,3.43074,0.457259,-0.889334
3,-1.46401,3.33529,0.464346,-0.885654
3.1,-1.41594,3.25611,0.478111,-0.8783
3.2,-1.37036,3.17841,0.469267,-0.883056
3.3,-1.32701,3.10058,0.457353,-0.889285
3.4,-1.27838,3.01677,0.467868,-0.883798
3.5,-1.2408,2.94766,0.449626,-0.893217
3.6,-1.19558,2.87203,0.47201,-0.881593
3.7,-1.15224,2.79872,0.468336,-0.883551
3.8,-1.10885,2.72541,0.468284,-0.883578
3.9,-1.06572,2.65841,0.484578,-0.874748
4,-1.01367,2.57616,0.486368,-0.873754
4.1,-0.963174,2.51846,0.550481,-0.834848
4.2,-0.912196,2.44481,0.503431,-0.864036
4.3,-0.860875,2.38395,0.542869,-0.839817
4.4,-0.824258,2.32718,0.47599,-0.879451
4.5,-0.788209,2.27002,0.470962,-0.882154
4.6,-0.744604,2.23334,0.587114,-0.809504
4.7,-0.710728,2.18814,0.496268,-0.868169
4.8,-0.673643,2.16131,0.589091,-0.808067
4.9,-0.640556,2.12384,0.518333,-0.855179
5,-0.618355,2.08564,0.439413,-0.898285
5.1,-0.618959,2.06459,0.296251,-0.95511
5.2,-0.620224,2.03549,0.26547,-0.964119
5.3,-0.602161,2.02415,0.525439,-0.850831
5.4,-0.603732,2.0111,0.315052,-0.949074
5.5,-0.603987,2.00383,0.355974,-0.934496
5.6,-0.603095,2.00629,0.422507,-0.90636
5.7,-0.592634,2.00951,0.540112,-0.841593
5.8,-0.595252,2.01199,0.374032,-0.927416
5.9,-0.611066,2.01805,0.181381,-0.983413
6,-0.625906,2.02434,0.200837,-0.979625
6.1,-0.641213,2.02895,0.188203,-0.98213
6.2,-0.666364,2.03464,0.0144052,-0.999896
6.3,-0.694081,2.04258,-0.0321587,-0.999483
6.4,-0.720228,2.05071,0.000909493,-1
6.5,-0.743551,2.05803,0.0574216,-0.99835
6.6,-0.763292,2.06682,0.131149,-0.991363
6.7,-0.785948,2.07337,0.0730289,-0.99733
6.8,-0.808744,2.07993,0.0725312,-0.997366
6.9,-0.832138,2.08538,0.0621411,-0.998067
7,-0.859576,2.08797,-0.0102534,-0.999947
7.1,-0.884965,2.09144,0.0289939,-0.99958
7.2,-0.910831,2.09497,0.0228262,-0.999739
7.3,-0.934947,2.09958,0.057846,-0.998326
7.4,-0.958581,2.10424,0.0689601,-0.997619
7.5,-0.979578,2.11031,0.122262,-0.992498
7.6,-1.00003,2.11608,0.133551,-0.991042
7.7,-1.02046,2.12174,0.135495,-0.990778
7.8,-1.04306,2.12577,0.0944095,-0.995533
7.9,-1.06604,2.12938,0.0891703,-0.996016
8,-1.08909,2.13293,0.0897113,-0.995968
8.1,-1.11117,2.13622,0.108874,-0.994056
8.2,-1.13282,2.13872,0.116833,-0.993152
8.3,-1.15426,2.14076,0.121534,-0.992587
8.4,-1.17539,2.14287,0.129003,-0.991644
8.5,-1.19658,2.1446,0.129144,-0.991626
8.6,-1.21783,2.1461,0.12954,-0.991574
8.7,-1.23906,2.14761,0.131954,-0.991256
8.8,-1.26201,2.14859,0.10312,-0.994669
8.9,-1.2849,2.14946,0.106195,-0.994345
9,-1.30746,2.15019,0.113575,-0.993529
9.1,-1.32975,2.15057,0.119691,-0.992811
9.2,-1.35318,2.15109,0.102458,-0.994737
9.3,-1.37664,2.15137,0.103667,-0.994612
9.4,-1.40009,2.15114,0.105209,-0.99445
9.5,-1.42163,2.15172,0.141331,-0.989962
9.6,-1.44323,2.15213,0.141842,-0.989889
9.7,-1.46439,2.15276,0.151873,-0.9884
9.8,-1.48552,2.15344,0.154552,-0.987985
9.9,-1.5071,2.15392,0.14822,-0.988954
10,-1.5288,2.15452,0.148467,-0.988917
10.1,-1.55108,2.15496,0.140204,-0.990123
10.2,-1.57298,2.1553,0.148427,-0.988923
10.3,-1.59502,2.15602,0.149103,-0.988822
10.4,-1.61719,2.1566,0.148473,-0.988917
10.5,-1.63873,2.15711,0.160829,-0.986982
10.6,-1.65971,2.15788,0.17323,-0.984881
10.7,-1.6778,2.1587,0.223495,-0.974705
10.8,-1.6965,2.15944,0.214643,-0.976693
10.9,-1.71491,2.16019,0.221185,-0.975232
11,-1.73323,2.16095,0.224335,-0.974512
11.1,-1.74729,2.16225,0.296866,-0.954919
11.2,-1.77014,2.1605,0.144515,-0.989503
11.3,-1.79297,2.15879,0.146943,-0.989145
11.4,-1.81354,2.15802,0.189144,-0.981949
11.5,-1.83366,2.15732,0.19846,-0.980109
11.6,-1.85348,2.15663,0.205334,-0.978692
11.7,-1.87329,2.15594,0.207142,-0.978311
11.8,-1.89371,2.15454,0.196658,-0.980472
11.9,-1.91302,2.15335,0.217134,-0.976142
12,-1.93164,2.15202,0.229582,-0.973289
12.1,-1.95062,2.14995,0.222574,-0.974916
12.2,-1.97017,2.14546,0.207205,-0.978298
12.3,-1.98834,2.14034,0.227729,-0.973725
12.4,-2.00753,2.13425,0.210991,-0.977488
12.5,-1.97723,2.13008,0.722474,-0.691398
12.6,-1.99065,2.11927,0.275138,-0.961405
12.7,-1.9705,2.10286,0.588644,-0.808392
12.8,-1.97603,2.09035,0.367088,-0.930186
12.9,-1.95494,2.07082,0.579316,-0.815103
13,-1.93765,2.05534,0.571757,-0.820423
13.1,-1.9191,2.04183,0.59173,-0.806136
13.2,-1.90026,2.02826,0.592999,-0.805203
13.3,-1.88124,2.01521,0.596566,-0.802564
13.4,-1.86269,2.00282,0.596154,-0.80287
13.5,-1.84382,1.99172,0.605303,-0.795995
13.6,-1.82416,1.97863,0.599313,-0.800514
13.7,-1.80222,1.96398,0.606711,-0.794923
13.8,-1.77798,1.94823,0.616112,-0.787659
13.9,-1.75383,1.93203,0.612294,-0.79063
14,-1.72829,1.91557,0.619614,-0.784906
14.1,-1.70244,1.89815,0.615924,-0.787805
14.2,-1.67615,1.88063,0.617502,-0.786569
14.3,-1.64986,1.86312,0.616867,-0.787068
14.4,-1.62421,1.84623,0.614984,-0.788539
14.5,-1.59638,1.82803,0.621695,-0.783259
14.6,-1.56812,1.80959,0.622504,-0.782616
14.7,-1.53943,1.79081,0.622647,-0.782503
14.8,-1.50893,1.77066,0.626223,-0.779644
14.9,-1.47725,1.74894,0.624962,-0.780655
15,-1.44514,1.72683,0.624701,-0.780864
15.1,-1.41302,1.7046,0.623339,-0.781951
15.2,-1.37971,1.68131,0.624511,-0.781016
15.3,-1.34533,1.65733,0.626617,-0.779327
15.4,-1.31128,1.63407,0.627167,-0.778885
15.5,-1.27724,1.61043,0.624328,-0.781163
15.6,-1.24377,1.58667,0.61944,-0.785044
15.7,-1.20312,1.55759,0.634828,-0.772654
15.8,-1.16098,1.52758,0.637649,-0.770327
15.9,-1.1093,1.48577,0.635653,-0.771975
16,-1.04336,1.43395,0.659045,-0.752103
16.1,-0.96258,1.37096,0.675232,-0.737606
16.2,-0.872315,1.30183,0.685947,-0.727651
16.3,-0.780511,1.2299,0.6813,-0.732005
16.4,-0.690372,1.15771,0.674036,-0.738698
16.5,-0.603148,1.08819,0.671049,-0.741413
16.6,-0.515417,1.01764,0.668229,-0.743956
16.7,-0.431509,0.944524,0.646836,-0.762629
16.8,-0.363631,0.86435,0.566095,-0.82434
16.9,-0.29065,0.764543,0.534459,-0.845194
17,-0.235704,0.647541,0.423034,-0.906114
17.1,-0.180711,0.528936,0.420055,-0.907499
17.2,-0.126898,0.410768,0.415909,-0.909406
17.3,-0.0730806,0.29261,0.415973,-0.909377
17.4,-0.0185207,0.174582,0.419393,-0.907805
17.5,0.0360587,0.0566857,0.419731,-0.907649
17.6,0.0912472,-0.0610214,0.422664,-0.906286
17.7,0.14729,-0.178472,0.426726,-0.904381
17.8,0.200892,-0.296786,0.414668,-0.909973
17.9,0.254759,-0.414974,0.416069,-0.909333
18,0.309059,-0.532991,0.418265,-0.908325
18.1,0.363363,-0.651313,0.41769,-0.908589
18.2,0.417823,-0.769402,0.418816,-0.908071
18.3,0.472166,-0.887477,0.418349,-0.908286
18.4,0.526671,-1.00554,0.41906,-0.907959
18.5,0.581104,-1.12369,0.418602,-0.90817
18.6,0.635421,-1.24184,0.418099,-0.908402
18.7,0.690044,-1.35991,0.419555,-0.90773
18.8,0.744712,-1.47804,0.419628,-0.907696
18.9,0.799416,-1.59598,0.420133,-0.907462
19,0.854067,-1.71399,0.419756,-0.907637
19.1,0.908845,-1.8318,0.420684,-0.907207
19.2,0.963004,-1.9508,0.415724,-0.909491
19.3,1.01831,-2.06907,0.422025,-0.906584
19.4,1.07261,-2.18733,0.417733,-0.90857
19.5,1.12705,-2.30547,0.418622,-0.908161
19.6,1.18133,-2.42341,0.418306,-0.908306
19.7,1.2356,-2.54134,0.418309,-0.908305
19.8,1.28981,-2.65954,0.417516,-0.908669
19.9,1.34415,-2.77802,0.41756,-0.908649
20,1.39853,-2.8965,0.417706,-0.908582
20.1,1.45283,-3.01443,0.418482,-0.908225
20.2,1.50712,-3.132,0.41916,-0.907912
20.3,1.56121,-3.24932,0.418813,-0.908073
20.4,1.61573,-3.36695,0.419985,-0.907531
20.5,1.67026,-3.48509,0.419046,-0.907965
20.6,1.72481,-3.60347,0.418646,-0.90815
20.7,1.77928,-3.72188,0.418243,-0.908335
20.8,1.83367,-3.84026,0.418028,-0.908434
20.9,1.88797,-3.95851,0.417887,-0.908499
21,1.94201,-4.07631,0.417662,-0.908602
21.1,1.99708,-4.19461,0.421091,-0.907019
21.2,2.05213,-4.31259,0.421616,-0.906775
21.3,2.10715,-4.43056,0.421443,-0.906855
21.4,2.16199,-4.54862,0.420402,-0.907338
21.5,2.21645,-4.6668,0.418568,-0.908186
21.6,2.27091,-4.78498,0.418531,-0.908202
21.7,2.32574,-4.9036,0.41924,-0.907876
21.8,2.37987,-5.0216,0.417516,-0.908669
21.9,2.43452,-5.13936,0.420146,-0.907457
22,2.48886,-5.25713,0.418835,-0.908062
22.1,2.54332,-5.37494,0.419225,-0.907883
22.2,2.59789,-5.49272,0.419677,-0.907674
22.3,2.65213,-5.61029,0.418676,-0.908136
22.4,2.70635,-5.72789,0.418511,-0.908212
22.5,2.76065,-5.84553,0.418728,-0.908112
22.6,2.81474,-5.96332,0.4175,-0.908677
22.7,2.86899,-6.08159,0.41729,-0.908774
22.8,2.92329,-6.19997,0.417307,-0.908765
22.9,2.97759,-6.31837,0.417384,-0.90873
23,3.03187,-6.43668,0.417613,-0.908625
23.1,3.08642,-6.55426,0.420335,-0.907369
23.2,3.11992,-6.62649,0.420814,-0.907147
23.3,3.13239,-6.65336,0.420814,-0.907147
23.4,3.13239,-6.65336,0.420814,-0.907147
23.5,3.13239,-6.65336,0.420814,-0.907147
23.6,3.13239,-6.65336,0.420814,-0.907147
23.7,3.13239,-6.65336,0.420814,-0.907147
23.8,3.13239,-6.65336,0.420814,-0.907147
23.9,3.13239,-6.65336,0.420814,-0.907147
24,3.13239,-6.65336,0.420814,-0.907147
24.1,3.13239,-6.65336,0.420814,-0.907147
24.2,3.13239,-6.65336,0.420814,-0.907147
24.3,3.13239,-6.65336,0.420814,-0.907147
24.4,3.13239,-6.65336,0.420814,-0.907147
24.5,3.13239,-6.65336,0.420814,-0.907147
24.6,3.13239,-6.65336,0.420814,-0.907147
24.7,3.13239,-6.65336,0.420814,-0.907147
24.8,3.13239,-6.65336,0.420814,-0.907147
24.9,3.13239,-6.65336,0.420814,-0.907147
25,3.13239,-6.65336,0.420814,-0.907147
25.1,3.13239,-6.65336,0.420814,-0.907147
25.2,3.13239,-6.65336,0.420814,-0.907147
25.3,3.13239,-6.65336,0.420814,-0.907147
25.4,3.13239,-6.65336,0.420814,-0.907147
25.5,3.13239,-6.65336,0.420814,-0.907147
25.6,3.13239,-6.65336,0.420814,-0.907147
25.7,3.13239,-6.65336,0.420814,-0.907147
25.8,3.13239,-6.65336,0.420814,-0.907147
25.9,3.13239,-6.65336,0.420814,-0.907147
26,3.13239,-6.65336,0.420814,-0.907147
26.1,3.13239,-6.65336,0.420814,-0.907147
26.2,3.13239,-6.65336,0.420814,-0.907147
26.3,3.13239,-6.65336,0.420814,-0.907147
26.4,3.13239,-6.65336,0.420814,-0.907147
26.5,3.13239,-6.65336,0.420814,-0.907147
26.6,3.13239,-6.65336,0.420814,-0.907147
26.7,3.13239,-6.65336,0.420814,-0.907147
26.8,3.13239,-6.65336,0.420814,-0.907147
26.9,3.13239,-6.65336,0.420814,-0.907147
27,3.13239,-6.65336,0.420814,-0.907147
27.1,3.13239,-6.65336,0.420814,-0.907147
27.2,3.13239,-6.65336,0.420814,-0.907147
27.3,3.13239,-6.65336,0.420814,-0.907147
27.4,3.13239,-6.65336,0.420814,-0.907147
27.5,3.13239,-6.65336,0.420814,-0.907147
27.6,3.13239,-6.65336,0.420814,-0.907147
27.7,3.13239,-6.65336,0.420814,-0.907147
27.8,3.13239,-6.65336,0.420814,-0.907147
27.9,3.13239,-6.65336,0.420814,-0.907147
28,3.13239,-6.65336,0.420814,-0.907147
28.1,3.13239,-6.65336,0.420814,-0.907147
28.2,3.13239,-6.65336,0.420814,-0.907147
28.3,3.13239,-6.65336,0.420814,-0.907147
28.4,3.13239,-6.65336,0.420814,-0.907147
28.5,3.13239,-6.65336,0.420814,-0.907147
28.6,3.13239,-6.65336,0.420814,-0.907147
28.7,3.13239,-6.65336,0.420814,-0.907147
28.8,3.13239,-6.65336,0.420814,-0.907147
28.9,3.13239,-6.65336,0.420814,-0.907147
29,3.13239,-6.65336,0.420814,-0.907147
29.1,3.13239,-6.65336,0.420814,-0.907147
29.2,3.13239,-6.65336,0.420814,-0.907147
29.3,3.13239,-6.65336,0.420814,-0.907147
29.4,3.13239,-6.65336,0.420814,-0.907147
29.5,3.13239,-6.65336,0.420814,-0.907147
29.6,3.13239,-6.65336,0.420814,-0.907147
29.7,3.13239,-6.65336,0.420814,-0.907147
29.8,3.13239,-6.65336,0.420814,-0.907147
29.9,3.13239,-6.65336,0.420814,-0.907147
30,3.13239,-6.65336,0.420814,-0.907147
30.1,3.13239,-6.65336,0.420814,-0.907147
30.2,3.13239,-6.65336,0.420814,-0.907147
30.3,3.13239,-6.65336,0.420814,-0.907147
30.4,3.13239,-6.65336,0.420814,-0.907147
30.5,3.13239,-6.65336,0.420814,-0.907147
30.6,3.13239,-6.65336,0.420814,-0.907147
30.7,3.13239,-6.65336,0.420814,-0.907147
30.8,3.13239,-6.65336,0.420814,-0.907147
30.9,3.13239,-6.65336,0.420814,-0.907147
31,3.13239,-6.65336,0.420814,-0.907147
31.1,3.13239,-6.65336,0.420814,-0.907147
31.2,3.13239,-6.65336,0.420814,-0.907147
31.3,3.13239,-6.65336,0.420814,-0.907147
31.4,3.13239,-6.65336,0.420814,-0.907147
31.5,3.13239,-6.65336,0.420814,-0.907147
31.6,3.13239,-6.65336,0.420814,-0.907147
31.7,3.13239,-6.65336,0.420814,-0.907147
31.8,3.13239,-6.65336,0.420814,-0.907147
31.9,3.13239,-6.65336,0.420814,-0.907147
32,3.13239,-6.65336,0.420814,-0.907147
32.1,3.13239,-6.65336,0.420814,-0.907147
32.2,3.13239,-6.65336,0.420814,-0.907147
32.3,3.13239,-6.65336,0.420814,-0.907147
32.4,3.13239,-6.65336,0.420814,-0.907147
32.5,3.13239,-6.65336,0.420814,-0.907147
32.6,3.13239,-6.65336,0.420814,-0.907147
32.7,3.13239,-6.65336,0.420814,-0.907147
32.8,3.13239,-6.65336,0.420814,-0.907147
32.9,3.13239,-6.65336,0.420814,-0.907147
33,3.13239,-6.65336,0.420814,-0.907147
33.1,3.13239,-6.65336,0.420814,-0.907147
33.2,3.13239,-6.65336,0.420814,-0.907147
33.3,3.13239,-6.65336,0.420814,-0.907147
33.4,3.13239,-6.65336,0.420814,-0.907147
33.5,3.13239,-6.65336,0.420814,-0.907147
33.6,3.13239,-6.65336,0.420814,-0.907147
33.7,3.13239,-6.65336,0.420814,-0.907147
33.8,3.13239,-6.65336,0.420814,-0.907147
33.9,3.13239,-6.65336,0.420814,-0.907147
34,3.13239,-6.65336,0.420814,-0.907147
34.1,3.13239,-6.65336,0.420814,-0.907147
34.2,3.13239,-6.65336,0.420814,-0.907147
34.3,3.13239,-6.65336,0.420814,-0.907147
34.4,3.13239,-6.65336,0.420814,-0.907147
34.5,3.13239,-6.65336,0.420814,-0.907147
34.6,3.13239,-6.65336,0.420814,-0.907147
34.7,3.13239,-6.65336,0.420814,-0.907147
34.8,3.13239,-6.65336,0.420814,-0.907147
34.9,3.13239,-6.65336,0.420814,-0.907147
35,3.13239,-6.65336,0.420814,-0.907147
35.1,3.13239,-6.65336,0.420814,-0.907147
35.2,3.13239,-6.65336,0.420814,-0.907147
35.3,3.13239,-6.65336,0.420814,-0.907147
35.4,3.13239,-6.65336,0.420814,-0.907147
35.5,3.13239,-6.65336,0.420814,-0.907147
35.6,3.13239,-6.65336,0.420814,-0.907147
35.7,3.13239,-6.65336,0.420814,-0.907147
35.8,3.13239,-6.65336,0.420814,-0.907147
35.9,3.13239,-6.65336,0.420814,-0.907147
36,3.13239,-6.65336,0.420814,-0.907147
36.1,3.13239,-6.65336,0.420814,-0.907147
36.2,3.13239,-6.65336,0.420814,-0.907147
36.3,3.13239,-6.65336,0.420814,-0.907147
36.4,3.13239,-6.65336,0.420814,-0.907147
36.5,3.13239,-6.65336,0.420814,-0.907147
36.6,3.13239,-6.65336,0.420814,-0.907147
36.7,3.13239,-6.65336,0.420814,-0.907147
36.8,3.13239,-6.65336,0.420814,-0.907147
36.9,3.13239,-6.65336,0.420814,-0.907147
37,3.13239,-6.65336,0.420814,-0.907147
37.1,3.13239,-6.65336,0.420814,-0.907147
37.2,3.13239,-6.65336,0.420814,-0.907147
37.3,3.13239,-6.65336,0.420814,-0.907147
37.4,3.13239,-6.65336,0.420814,-0.907147
37.5,3.13239,-6.65336,0.420814,-0.907147
37.6,3.13239,-6.65336,0.420814,-0.907147
37.7,3.13239,-6.65336,0.420814,-0.907147
37.8,3.13239,-6.65336,0.420814,-0.907147
37.9,3.13239,-6.65336,0.420814,-0.907147
38,3.13239,-6.65336,0.420814,-0.907147
38.1,3.13239,-6.65336,0.420814,-0.907147
38.2,3.13239,-6.65336,0.420814,-0.907147
38.3,3.13239,-6.65336,0.420814,-0.907147
38.4,3.13239,-6.65336,0.420814,-0.907147
38.5,3.13239,-6.65336,0.420814,-0.907147
38.6,3.13239,-6.65336,0.420814,-0.907147
38.7,3.13239,-6.65336,0.420814,-0.907147
38.8,3.13239,-6.65336,0.420814,-0.907147
38.9,3.13239,-6.65336,0.420814,-0.907147
39,3.13239,-6.65336,0.420814,-0.907147
39.1,3.13239,-6.65336,0.420814,-0.907147
39.2,3.13239,-6.65336,0.420814,-0.907147
39.3,3.13239,-6.65336,0.420814,-0.907147
39.4,3.13239,-6.65336,0.420814,-0.907147
39.5,3.13239,-6.65336,0.420814,-0.907147
39.6,3.13239,-6.65336,0.420814,-0.907147
39.7,3.13239,-6.65336,0.420814,-0.907147
39.8,3.13239,-6.65336,0.420814,-0.907147
39.9,3.13239,-6.65336,0.420814,-0.907147
40,3.13239,-6.65336,0.420814,-0.907147
40.1,3.13239,-6.65336,0.420814,-0.907147
40.2,3.13239,-6.65336,0.420814,-0.907147
40.3,3.13239,-6.65336,0.420814,-0.907147
40.4,3.13239,-6.65336,0.420814,-0.907147
40.5,3.13239,-6.65336,0.420814,-0.907147
40.6,3.13239,-6.65336,0.420814,-0.907147
40.7,3.13239,-6.65336,0.420814,-0.907147
40.8,3.13239,-6.65336,0.420814,-0.907147
40.9,3.13239,-6.65336,0.420814,-0.907147
41,3.13239,-6.65336,0.420814,-0.907147
41.1,3.13239,-6.65336,0.420814,-0.907147
41.2,3.13239,-6.65336,0.420814,-0.907147
41.3,3.13239,-6.65336,0.420814,-0.907147
41.4,3.13239,-6.65336,0.420814,-0.907147
41.5,3.13239,-6.65336,0.420814,-0.907147
41.6,3.13239,-6.65336,0.420814,-0.907147
41.7,3.13239,-6.65336,0.420814,-0.907147
41.8,3.13239,-6.65336,0.420814,-0.907147
41.9,3.13239,-6.65336,0.420814,-0.907147
42,3.13239,-6.65336,0.420814,-0.907147
42.1,3.13239,-6.65336,0.420814,-0.907147
42.2,3.13239,-6.65336,0.420814,-0.907147
42.3,3.13239,-6.65336,0.420814,-0.907147
42.4,3.13239,-6.65336,0.420814,-0.907147
42.5,3.13239,-6.65336,0.420814,-0.907147
42.6,3.13239,-6.65336,0.420814,-0.907147
42.7,3.13239,-6.65336,0.420814,-0.907147
42.8,3.13239,-6.65336,0.420814,-0.907147
42.9,3.13239,-6.65336,0.420814,-0.907147
43,3.13239,-6.65336,0.420814,-0.907147
43.1,3.13239,-6.65336,0.420814,-0.907147
43.2,3.13239,-6.65336,0.420814,-0.907147
43.3,3.13239,-6.65336,0.420814,-0.907147
43.4,3.13239,-6.65336,0.420814,-0.907147
43.5,3.13239,-6.65336,0.420814,-0.907147
43.6,3.13239,-6.65336,0.420814,-0.907147
43.7,3.13239,-6.65336,0.420814,-0.907147
43.8,3.13239,-6.65336,0.420814,-0.907147
43.9,3.13239,-6.65336,0.420814,-0.907147
44,3.13239,-6.65336,0.420814,-0.907147
44.1,3.13239,-6.65336,0.420814,-0.907147
44.2,3.13239,-6.65336,0.420814,-0.907147
44.3,3.13239,-6.65336,0.420814,-0.907147
44.4,3.13239,-6.65336,0.420814,-0.907147
44.5,3.13239,-6.65336,0.420814,-0.907147
44.6,3.13239,-6.65336,0.420814,-0.907147
44.7,3.13239,-6.65336,0.420814,-0.907147
44.8,3.13239,-6.65336,0.420814,-0.907147
44.9,3.13239,-6.65336,0.420814,-0.907147
45,3.13239,-6.65336,0.420814,-0.907147
45.1,3.13239,-6.65336,0.420814,-0.907147
45.2,3.13239,-6.65336,0.420814,-0.907147
45.3,3.13239,-6.65336,0.420814,-0.907147
45.4,3.13239,-6.65336,0.420814,-0.907147
45.5,3.13239,-6.65336,0.420814,-0.907147
45.6,3.13239,-6.65336,0.420814,-0.907147
45.7,3.13239,-6.65336,0.420814,-0.907147
45.8,3.13239,-6.65336,0.420814,-0.907147
45.9,3.13239,-6.65336,0.420814,-0.907147
46,3.13239,-6.65336,0.420814,-0.907147
46.1,3.13239,-6.65336,0.420814,-0.907147
46.2,3.13239,-6.65336,0.420814,-0.907147
46.3,3.13239,-6.65336,0.420814,-0.907147
46.4,3.13239,-6.65336,0.420814,-0.907147
46.5,3.13239,-6.65336,0.420814,-0.907147
46.6,3.13239,-6.65336,0.420814,-0.907147
46.7,3.13239,-6.65336,0.420814,-0.907147
46.8,3.13239,-6.65336,0.420814,-0.907147
46.9,3.13239,-6.65336,0.420814,-0.907147
47,3.13239,-6.65336,0.420814,-0.907147
47.1,3.13239,-6.65336,0.420814,-0.907147
47.2,3.13239,-6.65336,0.420814,-0.907147
47.3,3.13239,-6.65336,0.420814,-0.907147
47.4,3.13239,-6.65336,0.420814,-0.907147
47.5,3.13239,-6.65336,0.420814,-0.907147
47.6,3.13239,-6.65336,0.420814,-0.907147
47.7,3.13239,-6.65336,0.420814,-0.907147
47.8,3.13239,-6.65336,0.420814,-0.907147
47.9,3.13239,-6.65336,0.420814,-0.907147
48,3.13239,-6.65336,0.420814,-0.907147
48.1,3.13239,-6.65336,0.420814,-0.907147
48.2,3.13239,-6.65336,0.420814,-0.907147
48.3,3.13239,-6.65336,0.420814,-0.907147
48.4,3.13239,-6.65336,0.420814,-0.907147
48.5,3.13239,-6.65336,0.420814,-0.907147
48.6,3.13239,-6.65336,0.420814,-0.907147
48.7,3.13239,-6.65336,0.420814,-0.907147
48.8,3.13239,-6.65336,0.420814,-0.907147
48.9,3.13239,-6.65336,0.420814,-0.907147
49,3.13239,-6.65336,0.420814,-0.907147
49.1,3.13239,-6.65336,0.420814,-0.907147
49.2,3.13239,-6.65336,0.420814,-0.907147
49.3,3.13239,-6.65336,0.420814,-0.907147
49.4,3.13239,-6.65336,0.420814,-0.907147
49.5,3.13239,-6.65336,0.420814,-0.907147
49.6,3.13239,-6.65336,0.420814,-0.907147
49.7,3.13239,-6.65336,0.420814,-0.907147
49.8,3.13239,-6.65336,0.420814,-0.907147
49.9,3.13239,-6.65336,0.420814,-0.907147
50,3.13239,-6.65336,0.420814,-0.907147
50.1,3.13239,-6.65336,0.420814,-0.907147
50.2,3.13239,-6.65336,0.420814,-0.907147
50.3,3.13239,-6.65336,0.420814,-0.907147
50.4,3.13239,-6.65336,0.420814,-0.907147
50.5,3.13239,-6.65336,0.420814,-0.907147
50.6,3.13239,-6.65336,0.420814,-0.907147
50.7,3.13239,-6.65336,0.420814,-0.907147
50.8,3.13239,-6.65336,0.420814,-0.907147
50.9,3.13239,-6.65336,0.420814,-0.907147
51,3.13239,-6.65336,0.420814,-0.907147
51.1,3.13239,-6.65336,0.420814,-0.907147
51.2,3.13239,-6.65336,0.420814,-0.907147
51.3,3.13239,-6.65336,0.420814,-0.907147
51.4,3.13239,-6.65336,0.420814,-0.907147
51.5,3.13239,-6.65336,0.420814,-0.907147
51.6,3.13239,-6.65336,0.420814,-0.907147
51.7,3.13239,-6.65336,0.420814,-0.907147
51.8,3.13239,-6.65336,0.420814,-0.907147
51.9,3.13239,-6.65336,0.420814,-0.907147
52,3.13239,-6.65336,0.420814,-0.907147
52.1,3.13239,-6.65336,0.420814,-0.907147
52.2,3.13239,-6.65336,0.420814,-0.907147
52.3,3.13239,-6.65336,0.420814,-0.907147
52.4,3.13239,-6.65336,0.420814,-0.907147
52.5,3.13239,-6.65336,0.420814,-0.907147
52.6,3.13239,-6.65336,0.420814,-0.907147
52.7,3.13239,-6.65336,0.420814,-0.907147
52.8,3.13239,-6.65336,0.420814,-0.907147
52.9,3.13239,-6.65336,0.420814,-0.907147
53,3.13239,-6.65336,0.420814,-0.907147
53.1,3.13239,-6.65336,0.420814,-0.907147
53.2,3.13239,-6.65336,0.420814,-0.907147
53.3,3.13239,-6.65336,0.420814,-0.907147
53.4,3.13239,-6.65336,0.420814,-0.907147
53.5,3.13239,-6.65336,0.420814,-0.907147
53.6,3.13239,-6.65336,0.420814,-0.907147
53.7,3.13239,-6.65336,0.420814,-0.907147
53.8,3.13239,-6.65336,0.420814,-0.907147
53.9,3.13239,-6.65336,0.420814,-0.907147
54,3.13239,-6.65336,0.420814,-0.907147
54.1,3.13239,-6.65336,0.420814,-0.907147
54.2,3.13239,-6.65336,0.420814,-0.907147
54.3,3.13239,-6.65336,0.420814,-0.907147
54.4,3.13239,-6.65336,0.420814,-0.907147
54.5,3.13239,-6.65336,0.420814,-0.907147
54.6,3.13239,-6.65336,0.420814,-0.907147
54.7,3.13239,-6.65336,0.420814,-0.907147
54.8,3.13239,-6.65336,0.420814,-0.907147
54.9,3.13239,-6.65336,0.420814,-0.907147
55,3.13239,-6.65336,0.420814,-0.907147
55.1,3.13239,-6.65336,0.420814,-0.907147
55.2,3.13239,-6.65336,0.420814,-0.907147
55.3,3.13239,-6.65336,0.420814,-0.907147
55.4,3.13239,-6.65336,0.420814,-0.907147
55.5,3.13239,-6.65336,0.420814,-0.907147
55.6,3.13239,-6.65336,0.420814,-0.907147
55.7,3.13239,-6.65336,0.420814,-0.907147
55.8,3.13239,-6.65336,0.420814,-0.907147
55.9,3.13239,-6.65336,0.420814,-0.907147
56,3.13239,-6.65336,0.420814,-0.907147
56.1,3.13239,-6.65336,0.420814,-0.907147
56.2,3.13239,-6.65336,0.420814,-0.907147
56.3,3.13239,-6.65336,0.420814,-0.907147
56.4,3.13239,-6.65336,0.420814,-0.907147
56.5,3.13239,-6.65336,0.420814,-0.907147
56.6,3.13239,-6.65336,0.420814,-0.907147
56.7,3.13239,-6.65336,0.420814,-0.907147
56.8,3.13239,-6.65336,0.420814,-0.907147
56.9,3.13239,-6.65336,0.420814,-0.907147
57,3.13239,-6.65336,0.420814,-0.907147
57.1,3.13239,-6.65336,0.420814,-0.907147
57.2,3.13239,-6.65336,0.420814,-0.907147
57.3,3.13239,-6.65336,0.420814,-0.907147
57.4,3.13239,-6.65336,0.420814,-0.907147
57.5,3.13239,-6.65336,0.420814,-0.907147
57.6,3.13239,-6.65336,0.420814,-0.907147
57.7,3.13239,-6.65336,0.420814,-0.907147
57.8,3.13239,-6.65336,0.420814,-0.907147
57.9,3.13239,-6.65336,0.420814,-0.907147
58,3.13239,-6.65336,0.420814,-0.907147
58.1,3.13239,-6.65336,0.420814,-0.907147
58.2,3.13239,-6.65336,0.420814,-0.907147
58.3,3.13239,-6.65336,0.420814,-0.907147
58.4,3.13239,-6.65336,0.420814,-0.907147
58.5,3.13239,-6.65336,0.420814,-0.907147
58.6,3.13239,-6.65336,0.420814,-0.907147
58.7,3.13239,-6.65336,0.420814,-0.907147
58.8,3.13239,-6.65336,0.420814,-0.907147
58.9,3.13239,-6.65336,0.420814,-0.907147
59,3.13239,-6.65336,0.420814,-0.907147
59.1,3.13239,-6.65336,0.420814,-0.907147
59.2,3.13239,-6.65336,0.420814,-0.907147
59.3,3.13239,-6.65336,0.420814,-0.907147
59.4,3.13239,-6.65336,0.420814,-0.907147
59.5,3.13239,-6.65336,0.420814,-0.907147
59.6,3.13239,-6.65336,0.420814,-0.907147
59.7,3.13239,-6.65336,0.420814,-0.907147
59.8,3.13239,-6.65336,0.420814,-0.907147
59.9,3.13239,-6.65336,0.420814,-0.907147
60,3.13239,-6.65336,0.420814,-0.907147
60.1,3.13239,-6.65336,0.420814,-0.907147
60.2,3.13239,-6.65336,0.420814,-0.907147
60.3,3.13239,-6.65336,0.420814,-0.907147
60.4,3.13239,-6.65336,0.420814,-0.907147
60.5,3.13239,-6.65336,0.420814,-0.907147
60.6,3.13239,-6.65336,0.420814,-0.907147
60.7,3.13239,-6.65336,0.420814,-0.907147
60.8,3.13239,-6.65336,0.420814,-0.907147
60.9,3.13239,-6.65336,0.420814,-0.907147
61,3.13239,-6.65336,0.420814,-0.907147
61.1,3.13239,-6.65336,0.420814,-0.907147
61.2,3.13239,-6.65336,0.420814,-0.907147
61.3,3.13239,-6.65336,0.420814,-0.907147
61.4,3.13239,-6.65336,0.420814,-0.907147
61.5,3.13239,-6.65336,0.420814,-0.907147
61.6,3.13239,-6.65336,0.420814,-0.907147
61.7,3.13239,-6.65336,0.420814,-0.907147
61.8,3.13239,-6.65336,0.420814,-0.907147
61.9,3.13239,-6.65336,0.420814,-0.907147
62,3.13239,-6.65336,0.420814,-0.907147
62.1,3.13239,-6.65336,0.420814,-0.907147
62.2,3.13239,-6.65336,0.420814,-0.907147
62.3,3.13239,-6.65336,0.420814,-0.907147
62.4,3.13239,-6.65336,0.420814,-0.907147
62.5,3.13239,-6.65336,0.420814,-0.907147
62.6,3.13239,-6.65336,0.420814,-0.907147
62.7,3.13239,-6.65336,0.420814,-0.907147
62.8,3.13239,-6.65336,0.420814,-0.907147
62.9,3.13239,-6.65336,0.420814,-0.907147
63,3.13239,-6.65336,0.420814,-0.907147
63.1,3.13239,-6.65336,0.420814,-0.907147
63.2,3.13239,-6.65336,0.420814,-0.907147
63.3,3.13239,-6.65336,0.420814,-0.907147
63.4,3.13239,-6.65336,0.420814,-0.907147
63.5,3.13239,-6.65336,0.420814,-0.907147
63.6,3.13239,-6.65336,0.420814,-0.907147
63.7,3.13239,-6.65336,0.420814,-0.907147
63.8,3.13239,-6.65336,0.420814,-0.907147
63.9,3.13239,-6.65336,0.420814,-0.907147
64,3.13239,-6.65336,0.420814,-0.907147
64.1,3.13239,-6.65336,0.420814,-0.907147
64.2,3.13239,-6.65336,0.420814,-0.907147
64.3,3.13239,-6.65336,0.420814,-0.907147
64.4,3.13239,-6.65336,0.420814,-0.907147
64.5,3.13239,-6.65336,0.420814,-0.907147
64.6,3.13239,-6.65336,0.420814,-0.907147
64.7,3.13239,-6.65336,0.420814,-0.907147
64.8,3.13239,-6.65336,0.420814,-0.907147
64.9,3.13239,-6.65336,0.420814,-0.907147
65,3.13239,-6.65336,0.420814,-0.907147
65.1,3.13239,-6.65336,0.420814,-0.907147
65.2,3.13239,-6.65336,0.420814,-0.907147
65.3,3.13239,-6.65336,0.420814,-0.907147
65.4,3.13239,-6.65336,0.420814,-0.907147
65.5,3.13239,-6.65336,0.420814,-0.907147
65.6,3.13239,-6.65336,0.420814,-0.907147
65.7,3.13239,-6.65336,0.420814,-0.907147
65.8,3.13239,-6.65336,0.420814,-0.907147
65.9,3.13239,-6.65336,0.420814,-0.907147
66,3.13239,-6.65336,0.420814,-0.907147
66.1,3.13239,-6.65336,0.420814,-0.907147
66.2,3.13239,-6.65336,0.420814,-0.907147
66.3,3.13239,-6.65336,0.420814,-0.907147
66.4,3.13239,-6.65336,0.420814,-0.907147
66.5,3.13239,-6.65336,0.420814,-0.907147
66.6,3.13239,-6.65336,0.420814,-0.907147
66.7,3.13239,-6.65336,0.420814,-0.907147
66.8,3.13239,-6.65336,0.420814,-0.907147
66.9,3.13239,-6.65336,0.420814,-0.907147
67,3.13239,-6.65336,0.420814,-0.907147
67.1,3.13239,-6.65336,0.420814,-0.907147
67.2,3.13239,-6.65336,0.420814,-0.907147
67.3,3.13239,-6.65336,0.420814,-0.907147
67.4,3.13239,-6.65336,0.420814,-0.907147
67.5,3.13239,-6.65336,0.420814,-0.907147
67.6,3.13239,-6.65336,0.420814,-0.907147
67.7,3.13239,-6.65336,0.420814,-0.907147
67.8,3.13239,-6.65336,0.420814,-0.907147
67.9,3.13239,-6.65336,0.420814,-0.907147
68,3.13239,-6.65336,0.420814,-0.907147
68.1,3.13239,-6.65336,0.420814,-0.907147
68.2,3.13239,-6.65336,0.420814,-0.907147
68.3,3.13239,-6.65336,0.420814,-0.907147
68.4,3.13239,-6.65336,0.420814,-0.907147
68.5,3.13239,-6.65336,0.420814,-0.907147
68.6,3.13239,-6.65336,0.420814,-0.907147
68.7,3.13239,-6.65336,0.420814,-0.907147
68.8,3.13239,-6.65336,0.420814,-0.907147
68.9,3.13239,-6.65336,0.420814,-0.907147
69,3.13239,-6.65336,0.420814,-0.907147
69.1,3.13239,-6.65336,0.420814,-0.907147
69.2,3.13239,-6.65336,0.420814,-0.907147
69.3,3.13239,-6.65336,0.420814,-0.907147
69.4,3.13239,-6.65336,0.420814,-0.907147
69.5,3.13239,-6.65336,0.420814,-0.907147
69.6,3.13239,-6.65336,0.420814,-0.907147
69.7,3.13239,-6.65336,0.420814,-0.907147
69.8,3.13239,-6.65336,0.420814,-0.907147
69.9,3.13239,-6.65336,0.420814,-0.907147
70,3.13239,-6.65336,0.420814,-0.907147
70.1,3.13239,-6.65336,0.420814,-0.907147
70.2,3.13239,-6.65336,0.420814,-0.907147
70.3,3.13239,-6.65336,0.420814,-0.907147
70.4,3.13239,-6.65336,0.420814,-0.907147
70.5,3.13239,-6.65336,0.420814,-0.907147
70.6,3.13239,-6.65336,0.420814,-0.907147
70.7,3.13239,-6.65336,0.420814,-0.907147
70.8,3.13239,-6.65336,0.420814,-0.907147
70.9,3.13239,-6.65336,0.420814,-0.907147
71,3.13239,-6.65336,0.420814,-0.907147
71.1,3.13239,-6.65336,0.420814,-0.907147
71.2,3.13239,-6.65336,0.420814,-0.907147
71.3,3.13239,-6.65336,0.420814,-0.907147
71.4,3.13239,-6.65336,0.420814,-0.907147
71.5,3.13239,-6.65336,0.420814,-0.907147
71.6,3.13239,-6.65336,0.420814,-0.907147
71.7,3.13239,-6.65336,0.420814,-0.907147
71.8,3.13239,-6.65336,0.420814,-0.907147
71.9,3.13239,-6.65336,0.420814,-0.907147
72,3.13239,-6.65336,0.420814,-0.907147
72.1,3.13239,-6.65336,0.420814,-0.907147
72.2,3.13239,-6.65336,0.420814,-0.907147
72.3,3.13239,-6.65336,0.420814,-0.907147
72.4,3.13239,-6.65336,0.420814,-0.907147
72.5,3.13239,-6.65336,0.420814,-0.907147
72.6,3.13239,-6.65336,0.420814,-0.907147
72.7,3.13239,-6.65336,0.420814,-0.907147
72.8,3.13239,-6.65336,0.420814,-0.907147
72.9,3.13239,-6.65336,0.420814,-0.907147
73,3.13239,-6.65336,0.420814,-0.907147
73.1,3.13239,-6.65336,0.420814,-0.907147
73.2,3.13239,-6.65336,0.420814,-0.907147
73.3,3.13239,-6.65336,0.420814,-0.907147
73.4,3.13239,-6.65336,0.420814,-0.907147
73.5,3.13239,-6.65336,0.420814,-0.907147
73.6,3.13239,-6.65336,0.420814,-0.907147
73.7,3.13239,-6.65336,0.420814,-0.907147
73.8,3.13239,-6.65336,0.420814,-0.907147
73.9,3.13239,-6.65336,0.420814,-0.907147
74,3.13239,-6.65336,0.420814,-0.907147
74.1,3.13239,-6.65336,0.420814,-0.907147
74.2,3.13239,-6.65336,0.420814,-0.907147
74.3,3.13239,-6.65336,0.420814,-0.907147
74.4,3.13239,-6.65336,0.420814,-0.907147
74.5,3.13239,-6.65336,0.420814,-0.907147
74.6,3.13239,-6.65336,0.420814,-0.907147
74.7,3.13239,-6.65336,0.420814,-0.907147
74.8,3.13239,-6.65336,0.420814,-0.907147
74.9,3.13239,-6.65336,0.420814,-0.907147
75,3.13239,-6.65336,0.420814,-0.907147
75.1,3.13239,-6.65336,0.420814,-0.907147
75.2,3.13239,-6.65336,0.420814,-0.907147
75.3,3.13239,-6.65336,0.420814,-0.907147
75.4,3.13239,-6.65336,0.420814,-0.907147
75.5,3.13239,-6.65336,0.420814,-0.907147
75.6,3.13239,-6.65336,0.420814,-0.907147
75.7,3.13239,-6.65336,0.420814,-0.907147
75.8,3.13239,-6.65336,0.420814,-0.907147
75.9,3.13239,-6.65336,0.420814,-0.907147
76,3.13239,-6.65336,0.420814,-0.907147
76.1,3.13239,-6.65336,0.420814,-0.907147
76.2,3.13239,-6.65336,0.420814,-0.907147
76.3,3.13239,-6.65336,0.420814,-0.907147
76.4,3.13239,-6.65336,0.420814,-0.907147
76.5,3.13239,-6.65336,0.420814,-0.907147
76.6,3.13239,-6.65336,0.420814,-0.907147
76.7,3.13239,-6.65336,0.420814,-0.907147
76.8,3.13239,-6.65336,0.420814,-0.907147
76.9,3.13239,-6.65336,0.420814,-0.907147
77,3.13239,-6.65336,0.420814,-0.907147
77.1,3.13239,-6.65336,0.420814,-0.907147
77.2,3.13239,-6.65336,0.420814,-0.907147
77.3,3.13239,-6.65336,0.420814,-0.907147
77.4,3.13239,-6.65336,0.420814,-0.907147
77.5,3.13239,-6.65336,0.420814,-0.907147
77.6,3.13239,-6.65336,0.420814,-0.907147
77.7,3.13239,-6.65336,0.420814,-0.907147
77.8,3.13239,-6.65336,0.420814,-0.907147
77.9,3.13239,-6.65336,0.420814,-0.907147
78,3.13239,-6.65336,0.420814,-0.907147
78.1,3.13239,-6.65336,0.420814,-0.907147
78.2,3.13239,-6.65336,0.420814,-0.907147
78.3,3.13239,-6.65336,0.420814,-0.907147
78.4,3.13239,-6.65336,0.420814,-0.907147
78.5,3.13239,-6.65336,0.420814,-0.907147
78.6,3.13239,-6.65336,0.420814,-0.907147
78.7,3.13239,-6.65336,0.420814,-0.907147
78.8,3.13239,-6.65336,0.420814,-0.907147
78.9,3.13239,-6.65336,0.420814,-0.907147
79,3.13239,-6.65336,0.420814,-0.907147
79.1,3.13239,-6.65336,0.420814,-0.907147
79.2,3.13239,-6.65336,0.420814,-0.907147
79.3,3.13239,-6.65336,0.420814,-0.907147
79.4,3.13239,-6.65336,0.420814,-0.907147
79.5,3.13239,-6.65336,0.420814,-0.907147
79.6,3.13239,-6.65336,0.420814,-0.907147
79.7,3.13239,-6.65336,0.420814,-0.907147
79.8,3.13239,-6.65336,0.420814,-0.907147
79.9,3.13239,-6.65336,0.420814,-0.907147
80,3.13239,-6.65336,0.420814,-0.907147
