0.1,3.99857,-6.28767,-0.482854,0.875701
0.2,3.94831,-6.20426,-0.524213,0.851587
0.3,3.87542,-6.09432,-0.547233,0.83698
0.4,3.80777,-5.99321,-0.549197,0.835693
0.5,3.72608,-5.87849,-0.566321,0.824185
0.6,3.65982,-5.77613,-0.540695,0.841218
0.7,3.58688,-5.65099,-0.51357,0.858048
0.8,3.52789,-5.54426,-0.502058,0.864834
0.9,3.45322,-5.4214,-0.524654,0.851315
1,3.38783,-5.32035,-0.540927,0.841069
1.1,3.31255,-5.19486,-0.521205,0.853432
1.2,3.24455,-5.09,-0.541555,0.840665
1.3,3.18038,-4.99524,-0.551997,0.833846
1.4,3.10639,-4.88019,-0.539479,0.841999
1.5,3.03927,-4.7837,-0.558797,0.829305
1.6,2.9618,-4.6603,-0.533019,0.846103
1.7,2.89541,-4.558,-0.541489,0.840708
1.8,2.81608,-4.43304,-0.535983,0.844229
1.9,2.75297,-4.33811,-0.547262,0.836961
2,2.67388,-4.21133,-0.531273,0.847201
2.1,2.60088,-4.09373,-0.530107,0.847931
2.2,2.53254,-3.9813,-0.524914,0.851155
2.3,2.46062,-3.87765,-0.558635,0.829413
2.4,2.36693,-3.74891,-0.573429,0.819255
2.5,2.29235,-3.65083,-0.581527,0.813527
2.6,2.22285,-3.56094,-0.58413,0.81166
2.7,2.14334,-3.43217,-0.527861,0.849331
2.8,2.07564,-3.3259,-0.536027,0.844201
2.9,1.99867,-3.18585,-0.496867,0.867827
3,1.92549,-3.07943,-0.555916,0.831239
3.1,1.83738,-2.94877,-0.551809,0.833971
3.2,1.75987,-2.84861,-0.586025,0.810293
3.3,1.66566,-2.73831,-0.614734,0.788734
3.4,1.57484,-2.65443,-0.669752,0.742585
3.5,1.50433,-2.5964,-0.679505,0.733671
3.6,1.44788,-2.55011,-0.665832,0.746101
3.7,1.39904,-2.51778,-0.687046,0.726614
3.8,1.36069,-2.48577,-0.637123,0.770762
3.9,1.32296,-2.4614,-0.667434,0.744669
4,1.28613,-2.42423,-0.605662,0.795722
4.1,1.25668,-2.3873,-0.563667,0.826002
4.2,1.22823,-2.35022,-0.556498,0.830849
4.3,1.19986,-2.31327,-0.556351,0.830947
4.4,1.15679,-2.26438,-0.591372,0.806399
4.5,1.11422,-2.21905,-0.601663,0.79875
4.6,1.06413,-2.18737,-0.690915,0.722936
4.7,1.01325,-2.15962,-0.709716,0.704487
4.8,0.961834,-2.13523,-0.725049,0.688697
4.9,0.907638,-2.1008,-0.693817,0.720151
5,0.856724,-2.06706,-0.681559,0.731763
5.1,0.805372,-2.03419,-0.685944,0.727654
5.2,0.750168,-2.00453,-0.714026,0.700119
5.3,0.730951,-2.00255,-0.661324,0.750101
5.4,0.720911,-2.01326,-0.678064,0.735003
5.5,0.692678,-2.01325,-0.729698,0.68377
5.6,0.666229,-2.02105,-0.767354,0.641223
5.7,0.638842,-2.0216,-0.725491,0.688231
5.8,0.613116,-2.02438,-0.728263,0.685298
5.9,0.582019,-2.02487,-0.743235,0.669031
6,0.551892,-2.0259,-0.739774,0.672856
6.1,0.521428,-2.02347,-0.719775,0.694207
6.2,0.490408,-2.02008,-0.716003,0.698097
6.3,0.459434,-2.01652,-0.713382,0.700776
6.4,0.428364,-2.01418,-0.719643,0.694344
6.5,0.397207,-2.01068,-0.712002,0.702178
6.6,0.366673,-2.00692,-0.705554,0.708656
6.7,0.33777,-2.00184,-0.686786,0.72686
6.8,0.310412,-1.99628,-0.672966,0.739674
6.9,0.28334,-1.9888,-0.65877,0.752345
7,0.256062,-1.98121,-0.658278,0.752775
7.1,0.229172,-1.97219,-0.646413,0.762987
7.2,0.201862,-1.96357,-0.650237,0.759731
7.3,0.172253,-1.95087,-0.641595,0.767043
7.4,0.141721,-1.93697,-0.639938,0.768426
7.5,0.110344,-1.92192,-0.638055,0.769991
7.6,0.0786268,-1.90523,-0.63063,0.776083
7.7,0.0470671,-1.88889,-0.630255,0.776388
7.8,0.0152975,-1.87225,-0.62885,0.777527
7.9,-0.0163433,-1.85533,-0.625444,0.780269
8,-0.0482439,-1.83822,-0.624965,0.780653
8.1,-0.080206,-1.82095,-0.62335,0.781943
8.2,-0.112253,-1.80335,-0.621028,0.783789
8.3,-0.144323,-1.78569,-0.619648,0.78488
8.4,-0.177048,-1.76768,-0.620837,0.78394
8.5,-0.20973,-1.74964,-0.61922,0.785217
8.6,-0.242319,-1.73155,-0.617073,0.786906
8.7,-0.275282,-1.71323,-0.617102,0.786883
8.8,-0.308294,-1.69495,-0.616333,0.787486
8.9,-0.34098,-1.67627,-0.611023,0.791613
9,-0.374259,-1.65716,-0.611417,0.791309
9.1,-0.407323,-1.63729,-0.605037,0.796197
9.2,-0.44032,-1.61727,-0.602615,0.798032
9.3,-0.473488,-1.59661,-0.599361,0.800479
9.4,-0.506644,-1.57651,-0.600685,0.799486
9.5,-0.540064,-1.55593,-0.598781,0.800913
9.6,-0.573472,-1.53498,-0.595629,0.80326
9.7,-0.607238,-1.5139,-0.59598,0.802999
9.8,-0.641032,-1.49271,-0.594309,0.804237
9.9,-0.674893,-1.47173,-0.594439,0.804141
10,-0.709049,-1.44981,-0.59051,0.80703
10.1,-0.743677,-1.42719,-0.588887,0.808215
10.2,-0.778276,-1.40454,-0.587218,0.809429
10.3,-0.8129,-1.38108,-0.582214,0.813036
10.4,-0.847488,-1.35696,-0.57759,0.816327
10.5,-0.881815,-1.33247,-0.572816,0.819684
10.6,-0.915777,-1.30771,-0.567861,0.823125
10.7,-0.949773,-1.28256,-0.564953,0.825123
10.8,-0.983769,-1.25741,-0.563589,0.826056
10.9,-1.0179,-1.232,-0.561938,0.827179
11,-1.05226,-1.20665,-0.562341,0.826905
11.1,-1.08675,-1.1811,-0.560958,0.827844
11.2,-1.12147,-1.15546,-0.560537,0.82813
11.3,-1.15654,-1.12877,-0.556814,0.830637
11.4,-1.19153,-1.10204,-0.554626,0.832099
11.5,-1.22714,-1.07496,-0.555737,0.831358
11.6,-1.26246,-1.0477,-0.551525,0.834158
11.7,-1.29709,-1.02032,-0.544985,0.838446
11.8,-1.33115,-0.992514,-0.537795,0.843076
11.9,-1.36501,-0.964471,-0.53399,0.845491
12,-1.39901,-0.936356,-0.533135,0.84603
12.1,-1.43329,-0.90837,-0.534173,0.845375
12.2,-1.46834,-0.879858,-0.535578,0.844486
12.3,-1.50314,-0.851309,-0.532177,0.846633
12.4,-1.53793,-0.822806,-0.530771,0.847516
12.5,-1.57232,-0.794106,-0.525667,0.85069
12.6,-1.60726,-0.765266,-0.527251,0.84971
12.7,-1.64123,-0.73628,-0.51842,0.855126
12.8,-1.67545,-0.706461,-0.515078,0.857144
12.9,-1.70615,-0.674793,-0.481155,0.876636
13,-1.73575,-0.640652,-0.462223,0.886764
13.1,-1.76385,-0.60406,-0.440941,0.897536
13.2,-1.79085,-0.566521,-0.428288,0.903642
13.3,-1.81801,-0.528993,-0.428564,0.903511
13.4,-1.84471,-0.490727,-0.421465,0.906845
13.5,-1.87067,-0.451779,-0.4126,0.910912
13.6,-1.89804,-0.41246,-0.420788,0.907159
13.7,-1.92609,-0.371606,-0.419573,0.907722
13.8,-1.95433,-0.330798,-0.420102,0.907477
13.9,-1.98313,-0.289156,-0.420223,0.907421
14,-2.00973,-0.247364,-0.402502,0.915419
14.1,-2.03596,-0.204879,-0.39662,0.917983
14.2,-2.06422,-0.161322,-0.406976,0.913439
14.3,-2.09339,-0.114513,-0.402169,0.915565
14.4,-2.12491,-0.0654726,-0.410535,0.911845
14.5,-2.15718,-0.0128169,-0.403628,0.914923
14.6,-2.18916,0.0431291,-0.391061,0.920365
14.7,-2.22281,0.100304,-0.397531,0.917589
14.8,-2.25321,0.161279,-0.365008,0.931005
14.9,-2.28334,0.224249,-0.357427,0.933941
15,-2.307,0.293948,-0.2989,0.954285
15.1,-2.3271,0.369792,-0.263684,0.964609
15.2,-2.34174,0.451298,-0.219383,0.975639
15.3,-2.35774,0.535559,-0.224531,0.974467
15.4,-2.36897,0.630009,-0.182525,0.983201
15.5,-2.37929,0.735793,-0.166409,0.986057
15.6,-2.39104,0.831125,-0.186947,0.98237
15.7,-2.40567,0.925737,-0.206216,0.978507
15.8,-2.41969,1.0394,-0.182192,0.983263
15.9,-2.43569,1.13482,-0.215535,0.976496
16,-2.45492,1.24936,-0.211101,0.977464
16.1,-2.47793,1.3422,-0.262328,0.964979
16.2,-2.50259,1.43562,-0.271314,0.962491
16.3,-2.52985,1.52829,-0.287613,0.957747
16.4,-2.55068,1.61496,-0.260109,0.965579
16.5,-2.58234,1.73463,-0.270065,0.962842
16.6,-2.6075,1.82948,-0.273102,0.961985
16.7,-2.64635,1.94585,-0.31061,0.950537
16.8,-2.68843,2.07756,-0.302498,0.95315
16.9,-2.73013,2.20735,-0.303466,0.952842
17,-2.76927,2.33151,-0.299837,0.95399
17.1,-2.80817,2.45561,-0.298761,0.954328
17.2,-2.84585,2.57695,-0.297048,0.954863
17.3,-2.88609,2.70161,-0.304166,0.952619
17.4,-2.92433,2.82528,-0.296212,0.955122
17.5,-2.96267,2.94894,-0.296749,0.954956
17.6,-3.00101,3.07308,-0.296008,0.955185
17.7,-3.03972,3.1975,-0.297425,0.954745
17.8,-3.07835,3.32174,-0.29731,0.954781
17.9,-3.11734,3.44593,-0.299059,0.954235
18,-3.15624,3.56999,-0.298814,0.954311
18.1,-3.19533,3.69417,-0.299486,0.954101
18.2,-3.23418,3.81857,-0.298061,0.954547
18.3,-3.27311,3.94323,-0.298027,0.954558
18.4,-3.31179,4.06749,-0.297449,0.954738
18.5,-3.35037,4.19169,-0.297075,0.954854
18.6,-3.38935,4.31562,-0.299339,0.954147
18.7,-3.42809,4.43953,-0.298234,0.954493
18.8,-3.46686,4.56357,-0.298175,0.954511
18.9,-3.50564,4.68768,-0.298089,0.954538
19,-3.5444,4.81184,-0.297951,0.954581
19.1,-3.58382,4.93638,-0.300453,0.953797
19.2,-3.62257,5.06003,-0.298498,0.95441
19.3,-3.66134,5.18384,-0.298258,0.954485
19.4,-3.70013,5.30766,-0.298362,0.954453
19.5,-3.73839,5.43202,-0.29495,0.955513
19.6,-3.77687,5.55633,-0.296215,0.955121
19.7,-3.81539,5.6806,-0.296545,0.955019
19.8,-3.85404,5.80484,-0.297308,0.954782
19.9,-3.89266,5.92927,-0.296921,0.954902
20,-3.93126,6.05371,-0.296946,0.954894
20.1,-3.95504,6.13039,-0.296239,0.955114
20.2,-3.96401,6.15932,-0.296238,0.955114
20.3,-3.96401,6.15932,-0.296238,0.955114
20.4,-3.96401,6.15932,-0.296238,0.955114
20.5,-3.96401,6.15932,-0.296238,0.955114
20.6,-3.96401,6.15932,-0.296238,0.955114
20.7,-3.96401,6.15932,-0.296238,0.955114
20.8,-3.96401,6.15932,-0.296238,0.955114
20.9,-3.96401,6.15932,-0.296238,0.955114
21,-3.96401,6.15932,-0.296238,0.955114
21.1,-3.96401,6.15932,-0.296238,0.955114
21.2,-3.96401,6.15932,-0.296238,0.955114
21.3,-3.96401,6.15932,-0.296238,0.955114
21.4,-3.96401,6.15932,-0.296238,0.955114
21.5,-3.96401,6.15932,-0.296238,0.955114
21.6,-3.96401,6.15932,-0.296238,0.955114
21.7,-3.96401,6.15932,-0.296238,0.955114
21.8,-3.96401,6.15932,-0.296238,0.955114
21.9,-3.96401,6.15932,-0.296238,0.955114
22,-3.96401,6.15932,-0.296238,0.955114
22.1,-3.96401,6.15932,-0.296238,0.955114
22.2,-3.96401,6.15932,-0.296238,0.955114
22.3,-3.96401,6.15932,-0.296238,0.955114
22.4,-3.96401,6.15932,-0.296238,0.955114
22.5,-3.96401,6.15932,-0.296238,0.955114
22.6,-3.96401,6.15932,-0.296238,0.955114
22.7,-3.96401,6.15932,-0.296238,0.955114
22.8,-3.96401,6.15932,-0.296238,0.955114
22.9,-3.96401,6.15932,-0.296238,0.955114
23,-3.96401,6.15932,-0.296238,0.955114
23.1,-3.96401,6.15932,-0.296238,0.955114
23.2,-3.96401,6.15932,-0.296238,0.955114
23.3,-3.96401,6.15932,-0.296238,0.955114
23.4,-3.96401,6.15932,-0.296238,0.955114
23.5,-3.96401,6.15932,-0.296238,0.955114
23.6,-3.96401,6.15932,-0.296238,0.955114
23.7,-3.96401,6.15932,-0.296238,0.955114
23.8,-3.96401,6.15932,-0.296238,0.955114
23.9,-3.96401,6.15932,-0.296238,0.955114
24,-3.96401,6.15932,-0.296238,0.955114
24.1,-3.96401,6.15932,-0.296238,0.955114
24.2,-3.96401,6.15932,-0.296238,0.955114
24.3,-3.96401,6.15932,-0.296238,0.955114
24.4,-3.96401,6.15932,-0.296238,0.955114
24.5,-3.96401,6.15932,-0.296238,0.955114
24.6,-3.96401,6.15932,-0.296238,0.955114
24.7,-3.96401,6.15932,-0.296238,0.955114
24.8,-3.96401,6.15932,-0.296238,0.955114
24.9,-3.96401,6.15932,-0.296238,0.955114
25,-3.96401,6.15932,-0.296238,0.955114
25.1,-3.96401,6.15932,-0.296238,0.955114
25.2,-3.96401,6.15932,-0.296238,0.955114
25.3,-3.96401,6.15932,-0.296238,0.955114
25.4,-3.96401,6.15932,-0.296238,0.955114
25.5,-3.96401,6.15932,-0.296238,0.955114
25.6,-3.96401,6.15932,-0.296238,0.955114
25.7,-3.96401,6.15932,-0.296238,0.955114
25.8,-3.96401,6.15932,-0.296238,0.955114
25.9,-3.96401,6.15932,-0.296238,0.955114
26,-3.96401,6.15932,-0.296238,0.955114
26.1,-3.96401,6.15932,-0.296238,0.955114
26.2,-3.96401,6.15932,-0.296238,0.955114
26.3,-3.96401,6.15932,-0.296238,0.955114
26.4,-3.96401,6.15932,-0.296238,0.955114
26.5,-3.96401,6.15932,-0.296238,0.955114
26.6,-3.96401,6.15932,-0.296238,0.955114
26.7,-3.96401,6.15932,-0.296238,0.955114
26.8,-3.96401,6.15932,-0.296238,0.955114
26.9,-3.96401,6.15932,-0.296238,0.955114
27,-3.96401,6.15932,-0.296238,0.955114
27.1,-3.96401,6.15932,-0.296238,0.955114
27.2,-3.96401,6.15932,-0.296238,0.955114
27.3,-3.96401,6.15932,-0.296238,0.955114
27.4,-3.96401,6.15932,-0.296238,0.955114
27.5,-3.96401,6.15932,-0.296238,0.955114
27.6,-3.96401,6.15932,-0.296238,0.955114
27.7,-3.96401,6.15932,-0.296238,0.955114
27.8,-3.96401,6.15932,-0.296238,0.955114
27.9,-3.96401,6.15932,-0.296238,0.955114
28,-3.96401,6.15932,-0.296238,0.955114
28.1,-3.96401,6.15932,-0.296238,0.955114
28.2,-3.96401,6.15932,-0.296238,0.955114
28.3,-3.96401,6.15932,-0.296238,0.955114
28.4,-3.96401,6.15932,-0.296238,0.955114
28.5,-3.96401,6.15932,-0.296238,0.955114
28.6,-3.96401,6.15932,-0.296238,0.955114
28.7,-3.96401,6.15932,-0.296238,0.955114
28.8,-3.96401,6.15932,-0.296238,0.955114
28.9,-3.96401,6.15932,-0.296238,0.955114
29,-3.96401,6.15932,-0.296238,0.955114
29.1,-3.96401,6.15932,-0.296238,0.955114
29.2,-3.96401,6.15932,-0.296238,0.955114
29.3,-3.96401,6.15932,-0.296238,0.955114
29.4,-3.96401,6.15932,-0.296238,0.955114
29.5,-3.96401,6.15932,-0.296238,0.955114
29.6,-3.96401,6.15932,-0.296238,0.955114
29.7,-3.96401,6.15932,-0.296238,0.955114
29.8,-3.96401,6.15932,-0.296238,0.955114
29.9,-3.96401,6.15932,-0.296238,0.955114
30,-3.96401,6.15932,-0.296238,0.955114
30.1,-3.96401,6.15932,-0.296238,0.955114
30.2,-3.96401,6.15932,-0.296238,0.955114
30.3,-3.96401,6.15932,-0.296238,0.955114
30.4,-3.96401,6.15932,-0.296238,0.955114
30.5,-3.96401,6.15932,-0.296238,0.955114
30.6,-3.96401,6.15932,-0.296238,0.955114
30.7,-3.96401,6.15932,-0.296238,0.955114
30.8,-3.96401,6.15932,-0.296238,0.955114
30.9,-3.96401,6.15932,-0.296238,0.955114
31,-3.96401,6.15932,-0.296238,0.955114
31.1,-3.96401,6.15932,-0.296238,0.955114
31.2,-3.96401,6.15932,-0.296238,0.955114
31.3,-3.96401,6.15932,-0.296238,0.955114
31.4,-3.96401,6.15932,-0.296238,0.955114
31.5,-3.96401,6.15932,-0.296238,0.955114
31.6,-3.96401,6.15932,-0.296238,0.955114
31.7,-3.96401,6.15932,-0.296238,0.955114
31.8,-3.96401,6.15932,-0.296238,0.955114
31.9,-3.96401,6.15932,-0.296238,0.955114
32,-3.96401,6.15932,-0.296238,0.955114
32.1,-3.96401,6.15932,-0.296238,0.955114
32.2,-3.96401,6.15932,-0.296238,0.955114
32.3,-3.96401,6.15932,-0.296238,0.955114
32.4,-3.96401,6.15932,-0.296238,0.955114
32.5,-3.96401,6.15932,-0.296238,0.955114
32.6,-3.96401,6.15932,-0.296238,0.955114
32.7,-3.96401,6.15932,-0.296238,0.955114
32.8,-3.96401,6.15932,-0.296238,0.955114
32.9,-3.96401,6.15932,-0.296238,0.955114
33,-3.96401,6.15932,-0.296238,0.955114
33.1,-3.96401,6.15932,-0.296238,0.955114
33.2,-3.96401,6.15932,-0.296238,0.955114
33.3,-3.96401,6.15932,-0.296238,0.955114
33.4,-3.96401,6.15932,-0.296238,0.955114
33.5,-3.96401,6.15932,-0.296238,0.955114
33.6,-3.96401,6.15932,-0.296238,0.955114
33.7,-3.96401,6.15932,-0.296238,0.955114
33.8,-3.96401,6.15932,-0.296238,0.955114
33.9,-3.96401,6.15932,-0.296238,0.955114
34,-3.96401,6.15932,-0.296238,0.955114
34.1,-3.96401,6.15932,-0.296238,0.955114
34.2,-3.96401,6.15932,-0.296238,0.955114
34.3,-3.96401,6.15932,-0.296238,0.955114
34.4,-3.96401,6.15932,-0.296238,0.955114
34.5,-3.96401,6.15932,-0.296238,0.955114
34.6,-3.96401,6.15932,-0.296238,0.955114
34.7,-3.96401,6.15932,-0.296238,0.955114
34.8,-3.96401,6.15932,-0.296238,0.955114
34.9,-3.96401,6.15932,-0.296238,0.955114
35,-3.96401,6.15932,-0.296238,0.955114
35.1,-3.96401,6.15932,-0.296238,0.955114
35.2,-3.96401,6.15932,-0.296238,0.955114
35.3,-3.96401,6.15932,-0.296238,0.955114
35.4,-3.96401,6.15932,-0.296238,0.955114
35.5,-3.96401,6.15932,-0.296238,0.955114
35.6,-3.96401,6.15932,-0.296238,0.955114
35.7,-3.96401,6.15932,-0.296238,0.955114
35.8,-3.96401,6.15932,-0.296238,0.955114
35.9,-3.96401,6.15932,-0.296238,0.955114
36,-3.96401,6.15932,-0.296238,0.955114
36.1,-3.96401,6.15932,-0.296238,0.955114
36.2,-3.96401,6.15932,-0.296238,0.955114
36.3,-3.96401,6.15932,-0.296238,0.955114
36.4,-3.96401,6.15932,-0.296238,0.955114
36.5,-3.96401,6.15932,-0.296238,0.955114
36.6,-3.96401,6.15932,-0.296238,0.955114
36.7,-3.96401,6.15932,-0.296238,0.955114
36.8,-3.96401,6.15932,-0.296238,0.955114
36.9,-3.96401,6.15932,-0.296238,0.955114
37,-3.96401,6.15932,-0.296238,0.955114
37.1,-3.96401,6.15932,-0.296238,0.955114
37.2,-3.96401,6.15932,-0.296238,0.955114
37.3,-3.96401,6.15932,-0.296238,0.955114
37.4,-3.96401,6.15932,-0.296238,0.955114
37.5,-3.96401,6.15932,-0.296238,0.955114
37.6,-3.96401,6.15932,-0.296238,0.955114
37.7,-3.96401,6.15932,-0.296238,0.955114
37.8,-3.96401,6.15932,-0.296238,0.955114
37.9,-3.96401,6.15932,-0.296238,0.955114
38,-3.96401,6.15932,-0.296238,0.955114
38.1,-3.96401,6.15932,-0.296238,0.955114
38.2,-3.96401,6.15932,-0.296238,0.955114
38.3,-3.96401,6.15932,-0.296238,0.955114
38.4,-3.96401,6.15932,-0.296238,0.955114
38.5,-3.96401,6.15932,-0.296238,0.955114
38.6,-3.96401,6.15932,-0.296238,0.955114
38.7,-3.96401,6.15932,-0.296238,0.955114
38.8,-3.96401,6.15932,-0.296238,0.955114
38.9,-3.96401,6.15932,-0.296238,0.955114
39,-3.96401,6.15932,-0.296238,0.955114
39.1,-3.96401,6.15932,-0.296238,0.955114
39.2,-3.96401,6.15932,-0.296238,0.955114
39.3,-3.96401,6.15932,-0.296238,0.955114
39.4,-3.96401,6.15932,-0.296238,0.955114
39.5,-3.96401,6.15932,-0.296238,0.955114
39.6,-3.96401,6.15932,-0.296238,0.955114
39.7,-3.96401,6.15932,-0.296238,0.955114
39.8,-3.96401,6.15932,-0.296238,0.955114
39.9,-3.96401,6.15932,-0.296238,0.955114
40,-3.96401,6.15932,-0.296238,0.955114
40.1,-3.96401,6.15932,-0.296238,0.955114
40.2,-3.96401,6.15932,-0.296238,0.955114
40.3,-3.96401,6.15932,-0.296238,0.955114
40.4,-3.96401,6.15932,-0.296238,0.955114
40.5,-3.96401,6.15932,-0.296238,0.955114
40.6,-3.96401,6.15932,-0.296238,0.955114
40.7,-3.96401,6.15932,-0.296238,0.955114
40.8,-3.96401,6.15932,-0.296238,0.955114
40.9,-3.96401,6.15932,-0.296238,0.955114
41,-3.96401,6.15932,-0.296238,0.955114
41.1,-3.96401,6.15932,-0.296238,0.955114
41.2,-3.96401,6.15932,-0.296238,0.955114
41.3,-3.96401,6.15932,-0.296238,0.955114
41.4,-3.96401,6.15932,-0.296238,0.955114
41.5,-3.96401,6.15932,-0.296238,0.955114
41.6,-3.96401,6.15932,-0.296238,0.955114
41.7,-3.96401,6.15932,-0.296238,0.955114
41.8,-3.96401,6.15932,-0.296238,0.955114
41.9,-3.96401,6.15932,-0.296238,0.955114
42,-3.96401,6.15932,-0.296238,0.955114
42.1,-3.96401,6.15932,-0.296238,0.955114
42.2,-3.96401,6.15932,-0.296238,0.955114
42.3,-3.96401,6.15932,-0.296238,0.955114
42.4,-3.96401,6.15932,-0.296238,0.955114
42.5,-3.96401,6.15932,-0.296238,0.955114
42.6,-3.96401,6.15932,-0.296238,0.955114
42.7,-3.96401,6.15932,-0.296238,0.955114
42.8,-3.96401,6.15932,-0.296238,0.955114
42.9,-3.96401,6.15932,-0.296238,0.955114
43,-3.96401,6.15932,-0.296238,0.955114
43.1,-3.96401,6.15932,-0.296238,0.955114
43.2,-3.96401,6.15932,-0.296238,0.955114
43.3,-3.96401,6.15932,-0.296238,0.955114
43.4,-3.96401,6.15932,-0.296238,0.955114
43.5,-3.96401,6.15932,-0.296238,0.955114
43.6,-3.96401,6.15932,-0.296238,0.955114
43.7,-3.96401,6.15932,-0.296238,0.955114
43.8,-3.96401,6.15932,-0.296238,0.955114
43.9,-3.96401,6.15932,-0.296238,0.955114
44,-3.96401,6.15932,-0.296238,0.955114
44.1,-3.96401,6.15932,-0.296238,0.955114
44.2,-3.96401,6.15932,-0.296238,0.955114
44.3,-3.96401,6.15932,-0.296238,0.955114
44.4,-3.96401,6.15932,-0.296238,0.955114
44.5,-3.96401,6.15932,-0.296238,0.955114
44.6,-3.96401,6.15932,-0.296238,0.955114
44.7,-3.96401,6.15932,-0.296238,0.955114
44.8,-3.96401,6.15932,-0.296238,0.955114
44.9,-3.96401,6.15932,-0.296238,0.955114
45,-3.96401,6.15932,-0.296238,0.955114
45.1,-3.96401,6.15932,-0.296238,0.955114
45.2,-3.96401,6.15932,-0.296238,0.955114
45.3,-3.96401,6.15932,-0.296238,0.955114
45.4,-3.96401,6.15932,-0.296238,0.955114
45.5,-3.96401,6.15932,-0.296238,0.955114
45.6,-3.96401,6.15932,-0.296238,0.955114
45.7,-3.96401,6.15932,-0.296238,0.955114
45.8,-3.96401,6.15932,-0.296238,0.955114
45.9,-3.96401,6.15932,-0.296238,0.955114
46,-3.96401,6.15932,-0.296238,0.955114
46.1,-3.96401,6.15932,-0.296238,0.955114
46.2,-3.96401,6.15932,-0.296238,0.955114
46.3,-3.96401,6.15932,-0.296238,0.955114
46.4,-3.96401,6.15932,-0.296238,0.955114
46.5,-3.96401,6.15932,-0.296238,0.955114
46.6,-3.96401,6.15932,-0.296238,0.955114
46.7,-3.96401,6.15932,-0.296238,0.955114
46.8,-3.96401,6.15932,-0.296238,0.955114
46.9,-3.96401,6.15932,-0.296238,0.955114
47,-3.96401,6.15932,-0.296238,0.955114
47.1,-3.96401,6.15932,-0.296238,0.955114
47.2,-3.96401,6.15932,-0.296238,0.955114
47.3,-3.96401,6.15932,-0.296238,0.955114
47.4,-3.96401,6.15932,-0.296238,0.955114
47.5,-3.96401,6.15932,-0.296238,0.955114
47.6,-3.96401,6.15932,-0.296238,0.955114
47.7,-3.96401,6.15932,-0.296238,0.955114
47.8,-3.96401,6.15932,-0.296238,0.955114
47.9,-3.96401,6.15932,-0.296238,0.955114
48,-3.96401,6.15932,-0.296238,0.955114
48.1,-3.96401,6.15932,-0.296238,0.955114
48.2,-3.96401,6.15932,-0.296238,0.955114
48.3,-3.96401,6.15932,-0.296238,0.955114
48.4,-3.96401,6.15932,-0.296238,0.955114
48.5,-3.96401,6.15932,-0.296238,0.955114
48.6,-3.96401,6.15932,-0.296238,0.955114
48.7,-3.96401,6.15932,-0.296238,0.955114
48.8,-3.96401,6.15932,-0.296238,0.955114
48.9,-3.96401,6.15932,-0.296238,0.955114
49,-3.96401,6.15932,-0.296238,0.955114
49.1,-3.96401,6.15932,-0.296238,0.955114
49.2,-3.96401,6.15932,-0.296238,0.955114
49.3,-3.96401,6.15932,-0.296238,0.955114
49.4,-3.96401,6.15932,-0.296238,0.955114
49.5,-3.96401,6.15932,-0.296238,0.955114
49.6,-3.96401,6.15932,-0.296238,0.955114
49.7,-3.96401,6.15932,-0.296238,0.955114
49.8,-3.96401,6.15932,-0.296238,0.955114
49.9,-3.96401,6.15932,-0.296238,0.955114
50,-3.96401,6.15932,-0.296238,0.955114
50.1,-3.96401,6.15932,-0.296238,0.955114
50.2,-3.96401,6.15932,-0.296238,0.955114
50.3,-3.96401,6.15932,-0.296238,0.955114
50.4,-3.96401,6.15932,-0.296238,0.955114
50.5,-3.96401,6.15932,-0.296238,0.955114
50.6,-3.96401,6.15932,-0.296238,0.955114
50.7,-3.96401,6.15932,-0.296238,0.955114
50.8,-3.96401,6.15932,-0.296238,0.955114
50.9,-3.96401,6.15932,-0.296238,0.955114
51,-3.96401,6.15932,-0.296238,0.955114
51.1,-3.96401,6.15932,-0.296238,0.955114
51.2,-3.96401,6.15932,-0.296238,0.955114
51.3,-3.96401,6.15932,-0.296238,0.955114
51.4,-3.96401,6.15932,-0.296238,0.955114
51.5,-3.96401,6.15932,-0.296238,0.955114
51.6,-3.96401,6.15932,-0.296238,0.955114
51.7,-3.96401,6.15932,-0.296238,0.955114
51.8,-3.96401,6.15932,-0.296238,0.955114
51.9,-3.96401,6.15932,-0.296238,0.955114
52,-3.96401,6.15932,-0.296238,0.955114
52.1,-3.96401,6.15932,-0.296238,0.955114
52.2,-3.96401,6.15932,-0.296238,0.955114
52.3,-3.96401,6.15932,-0.296238,0.955114
52.4,-3.96401,6.15932,-0.296238,0.955114
52.5,-3.96401,6.15932,-0.296238,0.955114
52.6,-3.96401,6.15932,-0.296238,0.955114
52.7,-3.96401,6.15932,-0.296238,0.955114
52.8,-3.96401,6.15932,-0.296238,0.955114
52.9,-3.96401,6.15932,-0.296238,0.955114
53,-3.96401,6.15932,-0.296238,0.955114
53.1,-3.96401,6.15932,-0.296238,0.955114
53.2,-3.96401,6.15932,-0.296238,0.955114
53.3,-3.96401,6.15932,-0.296238,0.955114
53.4,-3.96401,6.15932,-0.296238,0.955114
53.5,-3.96401,6.15932,-0.296238,0.955114
53.6,-3.96401,6.15932,-0.296238,0.955114
53.7,-3.96401,6.15932,-0.296238,0.955114
53.8,-3.96401,6.15932,-0.296238,0.955114
53.9,-3.96401,6.15932,-0.296238,0.955114
54,-3.96401,6.15932,-0.296238,0.955114
54.1,-3.96401,6.15932,-0.296238,0.955114
54.2,-3.96401,6.15932,-0.296238,0.955114
54.3,-3.96401,6.15932,-0.296238,0.955114
54.4,-3.96401,6.15932,-0.296238,0.955114
54.5,-3.96401,6.15932,-0.296238,0.955114
54.6,-3.96401,6.15932,-0.296238,0.955114
54.7,-3.96401,6.15932,-0.296238,0.955114
54.8,-3.96401,6.15932,-0.296238,0.955114
54.9,-3.96401,6.15932,-0.296238,0.955114
55,-3.96401,6.15932,-0.296238,0.955114
55.1,-3.96401,6.15932,-0.296238,0.955114
55.2,-3.96401,6.15932,-0.296238,0.955114
55.3,-3.96401,6.15932,-0.296238,0.955114
55.4,-3.96401,6.15932,-0.296238,0.955114
55.5,-3.96401,6.15932,-0.296238,0.955114
55.6,-3.96401,6.15932,-0.296238,0.955114
55.7,-3.96401,6.15932,-0.296238,0.955114
55.8,-3.96401,6.15932,-0.296238,0.955114
55.9,-3.96401,6.15932,-0.296238,0.955114
56,-3.96401,6.15932,-0.296238,0.955114
56.1,-3.96401,6.15932,-0.296238,0.955114
56.2,-3.96401,6.15932,-0.296238,0.955114
56.3,-3.96401,6.15932,-0.296238,0.955114
56.4,-3.96401,6.15932,-0.296238,0.955114
56.5,-3.96401,6.15932,-0.296238,0.955114
56.6,-3.96401,6.15932,-0.296238,0.955114
56.7,-3.96401,6.15932,-0.296238,0.955114
56.8,-3.96401,6.15932,-0.296238,0.955114
56.9,-3.96401,6.15932,-0.296238,0.955114
57,-3.96401,6.15932,-0.296238,0.955114
57.1,-3.96401,6.15932,-0.296238,0.955114
57.2,-3.96401,6.15932,-0.296238,0.955114
57.3,-3.96401,6.15932,-0.296238,0.955114
57.4,-3.96401,6.15932,-0.296238,0.955114
57.5,-3.96401,6.15932,-0.296238,0.955114
57.6,-3.96401,6.15932,-0.296238,0.955114
57.7,-3.96401,6.15932,-0.296238,0.955114
57.8,-3.96401,6.15932,-0.296238,0.955114
57.9,-3.96401,6.15932,-0.296238,0.955114
58,-3.96401,6.15932,-0.296238,0.955114
58.1,-3.96401,6.15932,-0.296238,0.955114
58.2,-3.96401,6.15932,-0.296238,0.955114
58.3,-3.96401,6.15932,-0.296238,0.955114
58.4,-3.96401,6.15932,-0.296238,0.955114
58.5,-3.96401,6.15932,-0.296238,0.955114
58.6,-3.96401,6.15932,-0.296238,0.955114
58.7,-3.96401,6.15932,-0.296238,0.955114
58.8,-3.96401,6.15932,-0.296238,0.955114
58.9,-3.96401,6.15932,-0.296238,0.955114
59,-3.96401,6.15932,-0.296238,0.955114
59.1,-3.96401,6.15932,-0.296238,0.955114
59.2,-3.96401,6.15932,-0.296238,0.955114
59.3,-3.96401,6.15932,-0.296238,0.955114
59.4,-3.96401,6.15932,-0.296238,0.955114
59.5,-3.96401,6.15932,-0.296238,0.955114
59.6,-3.96401,6.15932,-0.296238,0.955114
59.7,-3.96401,6.15932,-0.296238,0.955114
59.8,-3.96401,6.15932,-0.296238,0.955114
59.9,-3.96401,6.15932,-0.296238,0.955114
60,-3.96401,6.15932,-0.296238,0.955114
60.1,-3.96401,6.15932,-0.296238,0.955114
60.2,-3.96401,6.15932,-0.296238,0.955114
60.3,-3.96401,6.15932,-0.296238,0.955114
60.4,-3.96401,6.15932,-0.296238,0.955114
60.5,-3.96401,6.15932,-0.296238,0.955114
60.6,-3.96401,6.15932,-0.296238,0.955114
60.7,-3.96401,6.15932,-0.296238,0.955114
60.8,-3.96401,6.15932,-0.296238,0.955114
60.9,-3.96401,6.15932,-0.296238,0.955114
61,-3.96401,6.15932,-0.296238,0.955114
61.1,-3.96401,6.15932,-0.296238,0.955114
61.2,-3.96401,6.15932,-0.296238,0.955114
61.3,-3.96401,6.15932,-0.296238,0.955114
61.4,-3.96401,6.15932,-0.296238,0.955114
61.5,-3.96401,6.15932,-0.296238,0.955114
61.6,-3.96401,6.15932,-0.296238,0.955114
61.7,-3.96401,6.15932,-0.296238,0.955114
61.8,-3.96401,6.15932,-0.296238,0.955114
61.9,-3.96401,6.15932,-0.296238,0.955114
62,-3.96401,6.15932,-0.296238,0.955114
62.1,-3.96401,6.15932,-0.296238,0.955114
62.2,-3.96401,6.15932,-0.296238,0.955114
62.3,-3.96401,6.15932,-0.296238,0.955114
62.4,-3.96401,6.15932,-0.296238,0.955114
62.5,-3.96401,6.15932,-0.296238,0.955114
62.6,-3.96401,6.15932,-0.296238,0.955114
62.7,-3.96401,6.15932,-0.296238,0.955114
62.8,-3.96401,6.15932,-0.296238,0.955114
62.9,-3.96401,6.15932,-0.296238,0.955114
63,-3.96401,6.15932,-0.296238,0.955114
63.1,-3.96401,6.15932,-0.296238,0.955114
63.2,-3.96401,6.15932,-0.296238,0.955114
63.3,-3.96401,6.15932,-0.296238,0.955114
63.4,-3.96401,6.15932,-0.296238,0.955114
63.5,-3.96401,6.15932,-0.296238,0.955114
63.6,-3.96401,6.15932,-0.296238,0.955114
63.7,-3.96401,6.15932,-0.296238,0.955114
63.8,-3.96401,6.15932,-0.296238,0.955114
63.9,-3.96401,6.15932,-0.296238,0.955114
64,-3.96401,6.15932,-0.296238,0.955114
64.1,-3.96401,6.15932,-0.296238,0.955114
64.2,-3.96401,6.15932,-0.296238,0.955114
64.3,-3.96401,6.15932,-0.296238,0.955114
64.4,-3.96401,6.15932,-0.296238,0.955114
64.5,-3.96401,6.15932,-0.296238,0.955114
64.6,-3.96401,6.15932,-0.296238,0.955114
64.7,-3.96401,6.15932,-0.296238,0.955114
64.8,-3.96401,6.15932,-0.296238,0.955114
64.9,-3.96401,6.15932,-0.296238,0.955114
65,-3.96401,6.15932,-0.296238,0.955114
65.1,-3.96401,6.15932,-0.296238,0.955114
65.2,-3.96401,6.15932,-0.296238,0.955114
65.3,-3.96401,6.15932,-0.296238,0.955114
65.4,-3.96401,6.15932,-0.296238,0.955114
65.5,-3.96401,6.15932,-0.296238,0.955114
65.6,-3.96401,6.15932,-0.296238,0.955114
65.7,-3.96401,6.15932,-0.296238,0.955114
65.8,-3.96401,6.15932,-0.296238,0.955114
65.9,-3.96401,6.15932,-0.296238,0.955114
66,-3.96401,6.15932,-0.296238,0.955114
66.1,-3.96401,6.15932,-0.296238,0.955114
66.2,-3.96401,6.15932,-0.296238,0.955114
66.3,-3.96401,6.15932,-0.296238,0.955114
66.4,-3.96401,6.15932,-0.296238,0.955114
66.5,-3.96401,6.15932,-0.296238,0.955114
66.6,-3.96401,6.15932,-0.296238,0.955114
66.7,-3.96401,6.15932,-0.296238,0.955114
66.8,-3.96401,6.15932,-0.296238,0.955114
66.9,-3.96401,6.15932,-0.296238,0.955114
67,-3.96401,6.15932,-0.296238,0.955114
67.1,-3.96401,6.15932,-0.296238,0.955114
67.2,-3.96401,6.15932,-0.296238,0.955114
67.3,-3.96401,6.15932,-0.296238,0.955114
67.4,-3.96401,6.15932,-0.296238,0.955114
67.5,-3.96401,6.15932,-0.296238,0.955114
67.6,-3.96401,6.15932,-0.296238,0.955114
67.7,-3.96401,6.15932,-0.296238,0.955114
67.8,-3.96401,6.15932,-0.296238,0.955114
67.9,-3.96401,6.15932,-0.296238,0.955114
68,-3.96401,6.15932,-0.296238,0.955114
68.1,-3.96401,6.15932,-0.296238,0.955114
68.2,-3.96401,6.15932,-0.296238,0.955114
68.3,-3.96401,6.15932,-0.296238,0.955114
68.4,-3.96401,6.15932,-0.296238,0.955114
68.5,-3.96401,6.15932,-0.296238,0.955114
68.6,-3.96401,6.15932,-0.296238,0.955114
68.7,-3.96401,6.15932,-0.296238,0.955114
68.8,-3.96401,6.15932,-0.296238,0.955114
68.9,-3.96401,6.15932,-0.296238,0.955114
69,-3.96401,6.15932,-0.296238,0.955114
69.1,-3.96401,6.15932,-0.296238,0.955114
69.2,-3.96401,6.15932,-0.296238,0.955114
69.3,-3.96401,6.15932,-0.296238,0.955114
69.4,-3.96401,6.15932,-0.296238,0.955114
69.5,-3.96401,6.15932,-0.296238,0.955114
69.6,-3.96401,6.15932,-0.296238,0.955114
69.7,-3.96401,6.15932,-0.296238,0.955114
69.8,-3.96401,6.15932,-0.296238,0.955114
69.9,-3.96401,6.15932,-0.296238,0.955114
70,-3.96401,6.15932,-0.296238,0.955114
70.1,-3.96401,6.15932,-0.296238,0.955114
70.2,-3.96401,6.15932,-0.296238,0.955114
70.3,-3.96401,6.15932,-0.296238,0.955114
70.4,-3.96401,6.15932,-0.296238,0.955114
70.5,-3.96401,6.15932,-0.296238,0.955114
70.6,-3.96401,6.15932,-0.296238,0.955114
70.7,-3.96401,6.15932,-0.296238,0.955114
70.8,-3.96401,6.15932,-0.296238,0.955114
70.9,-3.96401,6.15932,-0.296238,0.955114
71,-3.96401,6.15932,-0.296238,0.955114
71.1,-3.96401,6.15932,-0.296238,0.955114
71.2,-3.96401,6.15932,-0.296238,0.955114
71.3,-3.96401,6.15932,-0.296238,0.955114
71.4,-3.96401,6.15932,-0.296238,0.955114
71.5,-3.96401,6.15932,-0.296238,0.955114
71.6,-3.96401,6.15932,-0.296238,0.955114
71.7,-3.96401,6.15932,-0.296238,0.955114
71.8,-3.96401,6.15932,-0.296238,0.955114
71.9,-3.96401,6.15932,-0.296238,0.955114
72,-3.96401,6.15932,-0.296238,0.955114
72.1,-3.96401,6.15932,-0.296238,0.955114
72.2,-3.96401,6.15932,-0.296238,0.955114
72.3,-3.96401,6.15932,-0.296238,0.955114
72.4,-3.96401,6.15932,-0.296238,0.955114
72.5,-3.96401,6.15932,-0.296238,0.955114
72.6,-3.96401,6.15932,-0.296238,0.955114
72.7,-3.96401,6.15932,-0.296238,0.955114
72.8,-3.96401,6.15932,-0.296238,0.955114
72.9,-3.96401,6.15932,-0.296238,0.955114
73,-3.96401,6.15932,-0.296238,0.955114
73.1,-3.96401,6.15932,-0.296238,0.955114
73.2,-3.96401,6.15932,-0.296238,0.955114
73.3,-3.96401,6.15932,-0.296238,0.955114
73.4,-3.96401,6.15932,-0.296238,0.955114
73.5,-3.96401,6.15932,-0.296238,0.955114
73.6,-3.96401,6.15932,-0.296238,0.955114
73.7,-3.96401,6.15932,-0.296238,0.955114
73.8,-3.96401,6.15932,-0.296238,0.955114
73.9,-3.96401,6.15932,-0.296238,0.955114
74,-3.96401,6.15932,-0.296238,0.955114
74.1,-3.96401,6.15932,-0.296238,0.955114
74.2,-3.96401,6.15932,-0.296238,0.955114
74.3,-3.96401,6.15932,-0.296238,0.955114
74.4,-3.96401,6.15932,-0.296238,0.955114
74.5,-3.96401,6.15932,-0.296238,0.955114
74.6,-3.96401,6.15932,-0.296238,0.955114
74.7,-3.96401,6.15932,-0.296238,0.955114
74.8,-3.96401,6.15932,-0.296238,0.955114
74.9,-3.96401,6.15932,-0.296238,0.955114
75,-3.96401,6.15932,-0.296238,0.955114
75.1,-3.96401,6.15932,-0.296238,0.955114
75.2,-3.96401,6.15932,-0.296238,0.955114
75.3,-3.96401,6.15932,-0.296238,0.955114
75.4,-3.96401,6.15932,-0.296238,0.955114
75.5,-3.96401,6.15932,-0.296238,0.955114
75.6,-3.96401,6.15932,-0.296238,0.955114
75.7,-3.96401,6.15932,-0.296238,0.955114
75.8,-3.96401,6.15932,-0.296238,0.955114
75.9,-3.96401,6.15932,-0.296238,0.955114
76,-3.96401,6.15932,-0.296238,0.955114
76.1,-3.96401,6.15932,-0.296238,0.955114
76.2,-3.96401,6.15932,-0.296238,0.955114
76.3,-3.96401,6.15932,-0.296238,0.955114
76.4,-3.96401,6.15932,-0.296238,0.955114
76.5,-3.96401,6.15932,-0.296238,0.955114
76.6,-3.96401,6.15932,-0.296238,0.955114
76.7,-3.96401,6.15932,-0.296238,0.955114
76.8,-3.96401,6.15932,-0.296238,0.955114
76.9,-3.96401,6.15932,-0.296238,0.955114
77,-3.96401,6.15932,-0.296238,0.955114
77.1,-3.96401,6.15932,-0.296238,0.955114
77.2,-3.96401,6.15932,-0.296238,0.955114
77.3,-3.96401,6.15932,-0.296238,0.955114
77.4,-3.96401,6.15932,-0.296238,0.955114
77.5,-3.96401,6.15932,-0.296238,0.955114
77.6,-3.96401,6.15932,-0.296238,0.955114
77.7,-3.96401,6.15932,-0.296238,0.955114
77.8,-3.96401,6.15932,-0.296238,0.955114
77.9,-3.96401,6.15932,-0.296238,0.955114
78,-3.96401,6.15932,-0.296238,0.955114
78.1,-3.96401,6.15932,-0.296238,0.955114
78.2,-3.96401,6.15932,-0.296238,0.955114
78.3,-3.96401,6.15932,-0.296238,0.955114
78.4,-3.96401,6.15932,-0.296238,0.955114
78.5,-3.96401,6.15932,-0.296238,0.955114
78.6,-3.96401,6.15932,-0.296238,0.955114
78.7,-3.96401,6.15932,-0.296238,0.955114
78.8,-3.96401,6.15932,-0.296238,0.955114
78.9,-3.96401,6.15932,-0.296238,0.955114
79,-3.96401,6.15932,-0.296238,0.955114
79.1,-3.96401,6.15932,-0.296238,0.955114
79.2,-3.96401,6.15932,-0.296238,0.955114
79.3,-3.96401,6.15932,-0.296238,0.955114
79.4,-3.96401,6.15932,-0.296238,0.955114
79.5,-3.96401,6.15932,-0.296238,0.955114
79.6,-3.96401,6.15932,-0.296238,0.955114
79.7,-3.96401,6.15932,-0.296238,0.955114
79.8,-3.96401,6.15932,-0.296238,0.955114
79.9,-3.96401,6.15932,-0.296238,0.955114
80,-3.96401,6.15932,-0.296238,0.955114
