0.1,-6.0301,4.37926,0.801101,-0.59853
0.2,-5.96348,4.30991,0.742442,-0.66991
0.3,-5.86096,4.23402,0.805801,-0.592186
0.4,-5.76186,4.16397,0.814243,-0.580524
0.5,-5.65301,4.07991,0.797394,-0.603459
0.6,-5.55158,4.01053,0.820088,-0.572237
0.7,-5.44309,3.92021,0.781931,-0.623364
0.8,-5.34772,3.84515,0.794437,-0.607346
0.9,-5.23631,3.75982,0.799182,-0.60109
1,-5.14332,3.68665,0.794785,-0.606891
1.1,-5.02536,3.6039,0.816191,-0.577782
1.2,-4.92341,3.5312,0.813001,-0.582263
1.3,-4.80104,3.44652,0.818797,-0.574084
1.4,-4.69805,3.37948,0.828769,-0.559591
1.5,-4.57176,3.29398,0.822812,-0.568314
1.6,-4.47338,3.22654,0.819647,-0.572869
1.7,-4.34517,3.14351,0.830797,-0.556576
1.8,-4.25618,3.08022,0.81293,-0.582361
1.9,-4.13186,2.99134,0.812274,-0.583276
2,-4.04977,2.92601,0.792953,-0.609282
2.1,-3.97087,2.86107,0.787064,-0.616872
2.2,-3.89178,2.79455,0.783022,-0.621993
2.3,-3.79927,2.72628,0.806664,-0.59101
2.4,-3.67072,2.64586,0.83695,-0.54728
2.5,-3.56325,2.57438,0.825158,-0.564902
2.6,-3.43093,2.49665,0.847403,-0.53095
2.7,-3.31693,2.42617,0.837456,-0.546504
2.8,-3.21573,2.35354,0.811029,-0.585007
2.9,-3.12538,2.28966,0.813491,-0.581578
3,-3.03413,2.23121,0.829723,-0.558176
3.1,-2.93778,2.17982,0.856538,-0.516083
3.2,-2.85707,2.11754,0.797745,-0.602995
3.3,-2.77506,2.05755,0.807137,-0.590364
3.4,-2.683,1.99041,0.807694,-0.589602
3.5,-2.59664,1.94571,0.858118,-0.513452
3.6,-2.52188,1.88929,0.801579,-0.597889
3.7,-2.4603,1.8312,0.763191,-0.646173
3.8,-2.40285,1.77936,0.772911,-0.634514
3.9,-2.35075,1.73469,0.783296,-0.621649
4,-2.31128,1.68052,0.705138,-0.709071
4.1,-2.2616,1.63337,0.767684,-0.640829
4.2,-2.21258,1.58481,0.760708,-0.649094
4.3,-2.15683,1.54016,0.794874,-0.606775
4.4,-2.09695,1.50763,0.847005,-0.531585
4.5,-2.03682,1.47571,0.849427,-0.527707
4.6,-1.9769,1.4442,0.850146,-0.526547
4.7,-1.91678,1.41398,0.854603,-0.519282
4.8,-1.85562,1.38134,0.848375,-0.529395
4.9,-1.79472,1.3492,0.849256,-0.527982
5,-1.7349,1.31773,0.84898,-0.528425
5.1,-1.70907,1.27448,0.691566,-0.722313
5.2,-1.66688,1.22998,0.752559,-0.658525
5.3,-1.62392,1.19073,0.776269,-0.630402
5.4,-1.58486,1.14938,0.754825,-0.655926
5.5,-1.54722,1.11536,0.780751,-0.624842
5.6,-1.52853,1.07424,0.668655,-0.743573
5.7,-1.50579,1.03731,0.70934,-0.704866
5.8,-1.49149,0.998064,0.655912,-0.754837
5.9,-1.47812,0.959571,0.655564,-0.75514
6,-1.46581,0.925783,0.674366,-0.738397
6.1,-1.45407,0.893768,0.681489,-0.731828
6.2,-1.44545,0.86465,0.680068,-0.733149
6.3,-1.43491,0.836366,0.696718,-0.717345
6.4,-1.42382,0.80888,0.705133,-0.709075
6.5,-1.41319,0.781844,0.705905,-0.708307
6.6,-1.40307,0.754333,0.701373,-0.712794
6.7,-1.39351,0.726715,0.698542,-0.715569
6.8,-1.38422,0.699794,0.70182,-0.712354
6.9,-1.37551,0.672639,0.698189,-0.715913
7,-1.36454,0.648103,0.726361,-0.687313
7.1,-1.35213,0.624604,0.740347,-0.672225
7.2,-1.3412,0.600654,0.730874,-0.682513
7.3,-1.33169,0.57497,0.714244,-0.699897
7.4,-1.32222,0.548707,0.711625,-0.702559
7.5,-1.31283,0.521784,0.708426,-0.705785
7.6,-1.30343,0.49487,0.709504,-0.704702
7.7,-1.29404,0.467855,0.709893,-0.70431
7.8,-1.28464,0.440817,0.710721,-0.703474
7.9,-1.27516,0.413433,0.710294,-0.703905
8,-1.2657,0.386073,0.711284,-0.702905
8.1,-1.25632,0.358764,0.712179,-0.701998
8.2,-1.24686,0.331066,0.711392,-0.702796
8.3,-1.23717,0.303024,0.71181,-0.702372
8.4,-1.22727,0.275041,0.714335,-0.699804
8.5,-1.21733,0.247106,0.715828,-0.698276
8.6,-1.20739,0.218914,0.715452,-0.698662
8.7,-1.19788,0.191391,0.717914,-0.696131
8.8,-1.18683,0.163553,0.72535,-0.68838
8.9,-1.17525,0.135496,0.727837,-0.68575
9,-1.16369,0.107429,0.728695,-0.684838
9.1,-1.15211,0.0793386,0.729691,-0.683777
9.2,-1.14005,0.0505328,0.729224,-0.684275
9.3,-1.12798,0.0213387,0.728158,-0.685409
9.4,-1.11593,-0.00786141,0.72908,-0.684428
9.5,-1.10278,-0.0375344,0.733057,-0.680168
9.6,-1.08911,-0.0673636,0.735821,-0.677176
9.7,-1.07514,-0.0975468,0.736383,-0.676565
9.8,-1.06098,-0.127264,0.740786,-0.671741
9.9,-1.04624,-0.157653,0.741024,-0.671478
10,-1.03167,-0.188284,0.739935,-0.672678
10.1,-1.01711,-0.218882,0.741068,-0.67143
10.2,-1.0023,-0.249963,0.740811,-0.671714
10.3,-0.986872,-0.281281,0.743465,-0.668775
10.4,-0.970851,-0.312046,0.750105,-0.661319
10.5,-0.953748,-0.342785,0.756077,-0.654483
10.6,-0.935495,-0.37361,0.761594,-0.648055
10.7,-0.910011,-0.401367,0.805397,-0.592736
10.8,-0.87731,-0.430862,0.821316,-0.570474
10.9,-0.844818,-0.462519,0.811726,-0.584038
11,-0.806512,-0.494387,0.828315,-0.560263
11.1,-0.756547,-0.53581,0.8226,-0.56862
11.2,-0.698974,-0.581273,0.827083,-0.562079
11.3,-0.637855,-0.628889,0.828295,-0.560291
11.4,-0.572532,-0.676734,0.836887,-0.547376
11.5,-0.504186,-0.724368,0.843885,-0.536524
11.6,-0.432043,-0.775829,0.839935,-0.542687
11.7,-0.358392,-0.826315,0.845946,-0.533269
11.8,-0.286362,-0.878406,0.838396,-0.545062
11.9,-0.211821,-0.937348,0.823462,-0.567371
12,-0.131824,-0.997329,0.831574,-0.555414
12.1,-0.0462444,-1.05267,0.854424,-0.519576
12.2,0.046363,-1.11355,0.851388,-0.524537
12.3,0.153174,-1.1816,0.855289,-0.518152
12.4,0.269695,-1.24196,0.884652,-0.466252
12.5,0.385381,-1.30446,0.879097,-0.476643
12.6,0.499365,-1.36687,0.877282,-0.479975
12.7,0.613382,-1.42948,0.876896,-0.48068
12.8,0.727437,-1.4921,0.876918,-0.480641
12.9,0.841506,-1.55471,0.876988,-0.480513
13,0.955544,-1.61695,0.877746,-0.479126
13.1,1.06958,-1.67919,0.877727,-0.479161
13.2,1.18357,-1.74142,0.877705,-0.479201
13.3,1.29754,-1.8035,0.878001,-0.478658
13.4,1.41151,-1.8656,0.877971,-0.478714
13.5,1.52534,-1.9286,0.875832,-0.482616
13.6,1.63992,-1.99104,0.877976,-0.478706
13.7,1.75376,-2.05341,0.877236,-0.48006
13.8,1.86754,-2.11576,0.877218,-0.480093
13.9,1.98139,-2.17798,0.877581,-0.479428
14,2.09553,-2.24049,0.877316,-0.479914
14.1,2.21022,-2.30309,0.877755,-0.47911
14.2,2.3244,-2.36558,0.877409,-0.479742
14.3,2.4384,-2.42781,0.877748,-0.479123
14.4,2.55231,-2.4901,0.877536,-0.47951
14.5,2.66612,-2.55212,0.877994,-0.478671
14.6,2.78005,-2.61414,0.878117,-0.478446
14.7,2.89449,-2.67627,0.878484,-0.477771
14.8,3.00892,-2.73862,0.877988,-0.478683
14.9,3.12331,-2.80102,0.877821,-0.478989
15,3.23729,-2.8634,0.877402,-0.479756
15.1,3.35129,-2.92579,0.877386,-0.479786
15.2,3.46535,-2.98814,0.877566,-0.479456
15.3,3.5797,-3.05061,0.877641,-0.479318
15.4,3.69389,-3.11308,0.87746,-0.479649
15.5,3.80802,-3.17554,0.877418,-0.479726
15.6,3.92219,-3.23791,0.877668,-0.479268
15.7,4.03619,-3.30033,0.877371,-0.479812
15.8,4.15007,-3.36284,0.877059,-0.480383
15.9,4.26399,-3.42509,0.877664,-0.479277
16,4.37806,-3.48726,0.878032,-0.478603
16.1,4.49195,-3.54951,0.877672,-0.479261
16.2,4.6064,-3.61195,0.877919,-0.47881
16.3,4.7204,-3.6742,0.877785,-0.479054
16.4,4.83443,-3.73644,0.87787,-0.478899
16.5,4.94847,-3.79871,0.877816,-0.478998
16.6,5.06218,-3.86084,0.87776,-0.479101
16.7,5.17647,-3.9231,0.878171,-0.478347
16.8,5.29061,-3.98492,0.878953,-0.476909
16.9,5.40436,-4.047,0.877875,-0.478889
17,5.5183,-4.10909,0.878098,-0.478481
17.1,5.63207,-4.17172,0.876728,-0.480986
17.2,5.74625,-4.23431,0.877479,-0.479615
17.3,5.86001,-4.29593,0.879292,-0.476284
17.4,5.92982,-4.33374,0.879291,-0.476284
17.5,5.95565,-4.34774,0.879291,-0.476284
17.6,5.95565,-4.34774,0.879291,-0.476284
17.7,5.95565,-4.34774,0.879291,-0.476284
17.8,5.95565,-4.34774,0.879291,-0.476284
17.9,5.95565,-4.34774,0.879291,-0.476284
18,5.95565,-4.34774,0.879291,-0.476284
18.1,5.95565,-4.34774,0.879291,-0.476284
18.2,5.95565,-4.34774,0.879291,-0.476284
18.3,5.95565,-4.34774,0.879291,-0.476284
18.4,5.95565,-4.34774,0.879291,-0.476284
18.5,5.95565,-4.34774,0.879291,-0.476284
18.6,5.95565,-4.34774,0.879291,-0.476284
18.7,5.95565,-4.34774,0.879291,-0.476284
18.8,5.95565,-4.34774,0.879291,-0.476284
18.9,5.95565,-4.34774,0.879291,-0.476284
19,5.95565,-4.34774,0.879291,-0.476284
19.1,5.95565,-4.34774,0.879291,-0.476284
19.2,5.95565,-4.34774,0.879291,-0.476284
19.3,5.95565,-4.34774,0.879291,-0.476284
19.4,5.95565,-4.34774,0.879291,-0.476284
19.5,5.95565,-4.34774,0.879291,-0.476284
19.6,5.95565,-4.34774,0.879291,-0.476284
19.7,5.95565,-4.34774,0.879291,-0.476284
19.8,5.95565,-4.34774,0.879291,-0.476284
19.9,5.95565,-4.34774,0.879291,-0.476284
20,5.95565,-4.34774,0.879291,-0.476284
20.1,5.95565,-4.34774,0.879291,-0.476284
20.2,5.95565,-4.34774,0.879291,-0.476284
20.3,5.95565,-4.34774,0.879291,-0.476284
20.4,5.95565,-4.34774,0.879291,-0.476284
20.5,5.95565,-4.34774,0.879291,-0.476284
20.6,5.95565,-4.34774,0.879291,-0.476284
20.7,5.95565,-4.34774,0.879291,-0.476284
20.8,5.95565,-4.34774,0.879291,-0.476284
20.9,5.95565,-4.34774,0.879291,-0.476284
21,5.95565,-4.34774,0.879291,-0.476284
21.1,5.95565,-4.34774,0.879291,-0.476284
21.2,5.95565,-4.34774,0.879291,-0.476284
21.3,5.95565,-4.34774,0.879291,-0.476284
21.4,5.95565,-4.34774,0.879291,-0.476284
21.5,5.95565,-4.34774,0.879291,-0.476284
21.6,5.95565,-4.34774,0.879291,-0.476284
21.7,5.95565,-4.34774,0.879291,-0.476284
21.8,5.95565,-4.34774,0.879291,-0.476284
21.9,5.95565,-4.34774,0.879291,-0.476284
22,5.95565,-4.34774,0.879291,-0.476284
22.1,5.95565,-4.34774,0.879291,-0.476284
22.2,5.95565,-4.34774,0.879291,-0.476284
22.3,5.95565,-4.34774,0.879291,-0.476284
22.4,5.95565,-4.34774,0.879291,-0.476284
22.5,5.95565,-4.34774,0.879291,-0.476284
22.6,5.95565,-4.34774,0.879291,-0.476284
22.7,5.95565,-4.34774,0.879291,-0.476284
22.8,5.95565,-4.34774,0.879291,-0.476284
22.9,5.95565,-4.34774,0.879291,-0.476284
23,5.95565,-4.34774,0.879291,-0.476284
23.1,5.95565,-4.34774,0.879291,-0.476284
23.2,5.95565,-4.34774,0.879291,-0.476284
23.3,5.95565,-4.34774,0.879291,-0.476284
23.4,5.95565,-4.34774,0.879291,-0.476284
23.5,5.95565,-4.34774,0.879291,-0.476284
23.6,5.95565,-4.34774,0.879291,-0.476284
23.7,5.95565,-4.34774,0.879291,-0.476284
23.8,5.95565,-4.34774,0.879291,-0.476284
23.9,5.95565,-4.34774,0.879291,-0.476284
24,5.95565,-4.34774,0.879291,-0.476284
24.1,5.95565,-4.34774,0.879291,-0.476284
24.2,5.95565,-4.34774,0.879291,-0.476284
24.3,5.95565,-4.34774,0.879291,-0.476284
24.4,5.95565,-4.34774,0.879291,-0.476284
24.5,5.95565,-4.34774,0.879291,-0.476284
24.6,5.95565,-4.34774,0.879291,-0.476284
24.7,5.95565,-4.34774,0.879291,-0.476284
24.8,5.95565,-4.34774,0.879291,-0.476284
24.9,5.95565,-4.34774,0.879291,-0.476284
25,5.95565,-4.34774,0.879291,-0.476284
25.1,5.95565,-4.34774,0.879291,-0.476284
25.2,5.95565,-4.34774,0.879291,-0.476284
25.3,5.95565,-4.34774,0.879291,-0.476284
25.4,5.95565,-4.34774,0.879291,-0.476284
25.5,5.95565,-4.34774,0.879291,-0.476284
25.6,5.95565,-4.34774,0.879291,-0.476284
25.7,5.95565,-4.34774,0.879291,-0.476284
25.8,5.95565,-4.34774,0.879291,-0.476284
25.9,5.95565,-4.34774,0.879291,-0.476284
26,5.95565,-4.34774,0.879291,-0.476284
26.1,5.95565,-4.34774,0.879291,-0.476284
26.2,5.95565,-4.34774,0.879291,-0.476284
26.3,5.95565,-4.34774,0.879291,-0.476284
26.4,5.95565,-4.34774,0.879291,-0.476284
26.5,5.95565,-4.34774,0.879291,-0.476284
26.6,5.95565,-4.34774,0.879291,-0.476284
26.7,5.95565,-4.34774,0.879291,-0.476284
26.8,5.95565,-4.34774,0.879291,-0.476284
26.9,5.95565,-4.34774,0.879291,-0.476284
27,5.95565,-4.34774,0.879291,-0.476284
27.1,5.95565,-4.34774,0.879291,-0.476284
27.2,5.95565,-4.34774,0.879291,-0.476284
27.3,5.95565,-4.34774,0.879291,-0.476284
27.4,5.95565,-4.34774,0.879291,-0.476284
27.5,5.95565,-4.34774,0.879291,-0.476284
27.6,5.95565,-4.34774,0.879291,-0.476284
27.7,5.95565,-4.34774,0.879291,-0.476284
27.8,5.95565,-4.34774,0.879291,-0.476284
27.9,5.95565,-4.34774,0.879291,-0.476284
28,5.95565,-4.34774,0.879291,-0.476284
28.1,5.95565,-4.34774,0.879291,-0.476284
28.2,5.95565,-4.34774,0.879291,-0.476284
28.3,5.95565,-4.34774,0.879291,-0.476284
28.4,5.95565,-4.34774,0.879291,-0.476284
28.5,5.95565,-4.34774,0.879291,-0.476284
28.6,5.95565,-4.34774,0.879291,-0.476284
28.7,5.95565,-4.34774,0.879291,-0.476284
28.8,5.95565,-4.34774,0.879291,-0.476284
28.9,5.95565,-4.34774,0.879291,-0.476284
29,5.95565,-4.34774,0.879291,-0.476284
29.1,5.95565,-4.34774,0.879291,-0.476284
29.2,5.95565,-4.34774,0.879291,-0.476284
29.3,5.95565,-4.34774,0.879291,-0.476284
29.4,5.95565,-4.34774,0.879291,-0.476284
29.5,5.95565,-4.34774,0.879291,-0.476284
29.6,5.95565,-4.34774,0.879291,-0.476284
29.7,5.95565,-4.34774,0.879291,-0.476284
29.8,5.95565,-4.34774,0.879291,-0.476284
29.9,5.95565,-4.34774,0.879291,-0.476284
30,5.95565,-4.34774,0.879291,-0.476284
30.1,5.95565,-4.34774,0.879291,-0.476284
30.2,5.95565,-4.34774,0.879291,-0.476284
30.3,5.95565,-4.34774,0.879291,-0.476284
30.4,5.95565,-4.34774,0.879291,-0.476284
30.5,5.95565,-4.34774,0.879291,-0.476284
30.6,5.95565,-4.34774,0.879291,-0.476284
30.7,5.95565,-4.34774,0.879291,-0.476284
30.8,5.95565,-4.34774,0.879291,-0.476284
30.9,5.95565,-4.34774,0.879291,-0.476284
31,5.95565,-4.34774,0.879291,-0.476284
31.1,5.95565,-4.34774,0.879291,-0.476284
31.2,5.95565,-4.34774,0.879291,-0.476284
31.3,5.95565,-4.34774,0.879291,-0.476284
31.4,5.95565,-4.34774,0.879291,-0.476284
31.5,5.95565,-4.34774,0.879291,-0.476284
31.6,5.95565,-4.34774,0.879291,-0.476284
31.7,5.95565,-4.34774,0.879291,-0.476284
31.8,5.95565,-4.34774,0.879291,-0.476284
31.9,5.95565,-4.34774,0.879291,-0.476284
32,5.95565,-4.34774,0.879291,-0.476284
32.1,5.95565,-4.34774,0.879291,-0.476284
32.2,5.95565,-4.34774,0.879291,-0.476284
32.3,5.95565,-4.34774,0.879291,-0.476284
32.4,5.95565,-4.34774,0.879291,-0.476284
32.5,5.95565,-4.34774,0.879291,-0.476284
32.6,5.95565,-4.34774,0.879291,-0.476284
32.7,5.95565,-4.34774,0.879291,-0.476284
32.8,5.95565,-4.34774,0.879291,-0.476284
32.9,5.95565,-4.34774,0.879291,-0.476284
33,5.95565,-4.34774,0.879291,-0.476284
33.1,5.95565,-4.34774,0.879291,-0.476284
33.2,5.95565,-4.34774,0.879291,-0.476284
33.3,5.95565,-4.34774,0.879291,-0.476284
33.4,5.95565,-4.34774,0.879291,-0.476284
33.5,5.95565,-4.34774,0.879291,-0.476284
33.6,5.95565,-4.34774,0.879291,-0.476284
33.7,5.95565,-4.34774,0.879291,-0.476284
33.8,5.95565,-4.34774,0.879291,-0.476284
33.9,5.95565,-4.34774,0.879291,-0.476284
34,5.95565,-4.34774,0.879291,-0.476284
34.1,5.95565,-4.34774,0.879291,-0.476284
34.2,5.95565,-4.34774,0.879291,-0.476284
34.3,5.95565,-4.34774,0.879291,-0.476284
34.4,5.95565,-4.34774,0.879291,-0.476284
34.5,5.95565,-4.34774,0.879291,-0.476284
34.6,5.95565,-4.34774,0.879291,-0.476284
34.7,5.95565,-4.34774,0.879291,-0.476284
34.8,5.95565,-4.34774,0.879291,-0.476284
34.9,5.95565,-4.34774,0.879291,-0.476284
35,5.95565,-4.34774,0.879291,-0.476284
35.1,5.95565,-4.34774,0.879291,-0.476284
35.2,5.95565,-4.34774,0.879291,-0.476284
35.3,5.95565,-4.34774,0.879291,-0.476284
35.4,5.95565,-4.34774,0.879291,-0.476284
35.5,5.95565,-4.34774,0.879291,-0.476284
35.6,5.95565,-4.34774,0.879291,-0.476284
35.7,5.95565,-4.34774,0.879291,-0.476284
35.8,5.95565,-4.34774,0.879291,-0.476284
35.9,5.95565,-4.34774,0.879291,-0.476284
36,5.95565,-4.34774,0.879291,-0.476284
36.1,5.95565,-4.34774,0.879291,-0.476284
36.2,5.95565,-4.34774,0.879291,-0.476284
36.3,5.95565,-4.34774,0.879291,-0.476284
36.4,5.95565,-4.34774,0.879291,-0.476284
36.5,5.95565,-4.34774,0.879291,-0.476284
36.6,5.95565,-4.34774,0.879291,-0.476284
36.7,5.95565,-4.34774,0.879291,-0.476284
36.8,5.95565,-4.34774,0.879291,-0.476284
36.9,5.95565,-4.34774,0.879291,-0.476284
37,5.95565,-4.34774,0.879291,-0.476284
37.1,5.95565,-4.34774,0.879291,-0.476284
37.2,5.95565,-4.34774,0.879291,-0.476284
37.3,5.95565,-4.34774,0.879291,-0.476284
37.4,5.95565,-4.34774,0.879291,-0.476284
37.5,5.95565,-4.34774,0.879291,-0.476284
37.6,5.95565,-4.34774,0.879291,-0.476284
37.7,5.95565,-4.34774,0.879291,-0.476284
37.8,5.95565,-4.34774,0.879291,-0.476284
37.9,5.95565,-4.34774,0.879291,-0.476284
38,5.95565,-4.34774,0.879291,-0.476284
38.1,5.95565,-4.34774,0.879291,-0.476284
38.2,5.95565,-4.34774,0.879291,-0.476284
38.3,5.95565,-4.34774,0.879291,-0.476284
38.4,5.95565,-4.34774,0.879291,-0.476284
38.5,5.95565,-4.34774,0.879291,-0.476284
38.6,5.95565,-4.34774,0.879291,-0.476284
38.7,5.95565,-4.34774,0.879291,-0.476284
38.8,5.95565,-4.34774,0.879291,-0.476284
38.9,5.95565,-4.34774,0.879291,-0.476284
39,5.95565,-4.34774,0.879291,-0.476284
39.1,5.95565,-4.34774,0.879291,-0.476284
39.2,5.95565,-4.34774,0.879291,-0.476284
39.3,5.95565,-4.34774,0.879291,-0.476284
39.4,5.95565,-4.34774,0.879291,-0.476284
39.5,5.95565,-4.34774,0.879291,-0.476284
39.6,5.95565,-4.34774,0.879291,-0.476284
39.7,5.95565,-4.34774,0.879291,-0.476284
39.8,5.95565,-4.34774,0.879291,-0.476284
39.9,5.95565,-4.34774,0.879291,-0.476284
40,5.95565,-4.34774,0.879291,-0.476284
40.1,5.95565,-4.34774,0.879291,-0.476284
40.2,5.95565,-4.34774,0.879291,-0.476284
40.3,5.95565,-4.34774,0.879291,-0.476284
40.4,5.95565,-4.34774,0.879291,-0.476284
40.5,5.95565,-4.34774,0.879291,-0.476284
40.6,5.95565,-4.34774,0.879291,-0.476284
40.7,5.95565,-4.34774,0.879291,-0.476284
40.8,5.95565,-4.34774,0.879291,-0.476284
40.9,5.95565,-4.34774,0.879291,-0.476284
41,5.95565,-4.34774,0.879291,-0.476284
41.1,5.95565,-4.34774,0.879291,-0.476284
41.2,5.95565,-4.34774,0.879291,-0.476284
41.3,5.95565,-4.34774,0.879291,-0.476284
41.4,5.95565,-4.34774,0.879291,-0.476284
41.5,5.95565,-4.34774,0.879291,-0.476284
41.6,5.95565,-4.34774,0.879291,-0.476284
41.7,5.95565,-4.34774,0.879291,-0.476284
41.8,5.95565,-4.34774,0.879291,-0.476284
41.9,5.95565,-4.34774,0.879291,-0.476284
42,5.95565,-4.34774,0.879291,-0.476284
42.1,5.95565,-4.34774,0.879291,-0.476284
42.2,5.95565,-4.34774,0.879291,-0.476284
42.3,5.95565,-4.34774,0.879291,-0.476284
42.4,5.95565,-4.34774,0.879291,-0.476284
42.5,5.95565,-4.34774,0.879291,-0.476284
42.6,5.95565,-4.34774,0.879291,-0.476284
42.7,5.95565,-4.34774,0.879291,-0.476284
42.8,5.95565,-4.34774,0.879291,-0.476284
42.9,5.95565,-4.34774,0.879291,-0.476284
43,5.95565,-4.34774,0.879291,-0.476284
43.1,5.95565,-4.34774,0.879291,-0.476284
43.2,5.95565,-4.34774,0.879291,-0.476284
43.3,5.95565,-4.34774,0.879291,-0.476284
43.4,5.95565,-4.34774,0.879291,-0.476284
43.5,5.95565,-4.34774,0.879291,-0.476284
43.6,5.95565,-4.34774,0.879291,-0.476284
43.7,5.95565,-4.34774,0.879291,-0.476284
43.8,5.95565,-4.34774,0.879291,-0.476284
43.9,5.95565,-4.34774,0.879291,-0.476284
44,5.95565,-4.34774,0.879291,-0.476284
44.1,5.95565,-4.34774,0.879291,-0.476284
44.2,5.95565,-4.34774,0.879291,-0.476284
44.3,5.95565,-4.34774,0.879291,-0.476284
44.4,5.95565,-4.34774,0.879291,-0.476284
44.5,5.95565,-4.34774,0.879291,-0.476284
44.6,5.95565,-4.34774,0.879291,-0.476284
44.7,5.95565,-4.34774,0.879291,-0.476284
44.8,5.95565,-4.34774,0.879291,-0.476284
44.9,5.95565,-4.34774,0.879291,-0.476284
45,5.95565,-4.34774,0.879291,-0.476284
45.1,5.95565,-4.34774,0.879291,-0.476284
45.2,5.95565,-4.34774,0.879291,-0.476284
45.3,5.95565,-4.34774,0.879291,-0.476284
45.4,5.95565,-4.34774,0.879291,-0.476284
45.5,5.95565,-4.34774,0.879291,-0.476284
45.6,5.95565,-4.34774,0.879291,-0.476284
45.7,5.95565,-4.34774,0.879291,-0.476284
45.8,5.95565,-4.34774,0.879291,-0.476284
45.9,5.95565,-4.34774,0.879291,-0.476284
46,5.95565,-4.34774,0.879291,-0.476284
46.1,5.95565,-4.34774,0.879291,-0.476284
46.2,5.95565,-4.34774,0.879291,-0.476284
46.3,5.95565,-4.34774,0.879291,-0.476284
46.4,5.95565,-4.34774,0.879291,-0.476284
46.5,5.95565,-4.34774,0.879291,-0.476284
46.6,5.95565,-4.34774,0.879291,-0.476284
46.7,5.95565,-4.34774,0.879291,-0.476284
46.8,5.95565,-4.34774,0.879291,-0.476284
46.9,5.95565,-4.34774,0.879291,-0.476284
47,5.95565,-4.34774,0.879291,-0.476284
47.1,5.95565,-4.34774,0.879291,-0.476284
47.2,5.95565,-4.34774,0.879291,-0.476284
47.3,5.95565,-4.34774,0.879291,-0.476284
47.4,5.95565,-4.34774,0.879291,-0.476284
47.5,5.95565,-4.34774,0.879291,-0.476284
47.6,5.95565,-4.34774,0.879291,-0.476284
47.7,5.95565,-4.34774,0.879291,-0.476284
47.8,5.95565,-4.34774,0.879291,-0.476284
47.9,5.95565,-4.34774,0.879291,-0.476284
48,5.95565,-4.34774,0.879291,-0.476284
48.1,5.95565,-4.34774,0.879291,-0.476284
48.2,5.95565,-4.34774,0.879291,-0.476284
48.3,5.95565,-4.34774,0.879291,-0.476284
48.4,5.95565,-4.34774,0.879291,-0.476284
48.5,5.95565,-4.34774,0.879291,-0.476284
48.6,5.95565,-4.34774,0.879291,-0.476284
48.7,5.95565,-4.34774,0.879291,-0.476284
48.8,5.95565,-4.34774,0.879291,-0.476284
48.9,5.95565,-4.34774,0.879291,-0.476284
49,5.95565,-4.34774,0.879291,-0.476284
49.1,5.95565,-4.34774,0.879291,-0.476284
49.2,5.95565,-4.34774,0.879291,-0.476284
49.3,5.95565,-4.34774,0.879291,-0.476284
49.4,5.95565,-4.34774,0.879291,-0.476284
49.5,5.95565,-4.34774,0.879291,-0.476284
49.6,5.95565,-4.34774,0.879291,-0.476284
49.7,5.95565,-4.34774,0.879291,-0.476284
49.8,5.95565,-4.34774,0.879291,-0.476284
49.9,5.95565,-4.34774,0.879291,-0.476284
50,5.95565,-4.34774,0.879291,-0.476284
50.1,5.95565,-4.34774,0.879291,-0.476284
50.2,5.95565,-4.34774,0.879291,-0.476284
50.3,5.95565,-4.34774,0.879291,-0.476284
50.4,5.95565,-4.34774,0.879291,-0.476284
50.5,5.95565,-4.34774,0.879291,-0.476284
50.6,5.95565,-4.34774,0.879291,-0.476284
50.7,5.95565,-4.34774,0.879291,-0.476284
50.8,5.95565,-4.34774,0.879291,-0.476284
50.9,5.95565,-4.34774,0.879291,-0.476284
51,5.95565,-4.34774,0.879291,-0.476284
51.1,5.95565,-4.34774,0.879291,-0.476284
51.2,5.95565,-4.34774,0.879291,-0.476284
51.3,5.95565,-4.34774,0.879291,-0.476284
51.4,5.95565,-4.34774,0.879291,-0.476284
51.5,5.95565,-4.34774,0.879291,-0.476284
51.6,5.95565,-4.34774,0.879291,-0.476284
51.7,5.95565,-4.34774,0.879291,-0.476284
51.8,5.95565,-4.34774,0.879291,-0.476284
51.9,5.95565,-4.34774,0.879291,-0.476284
52,5.95565,-4.34774,0.879291,-0.476284
52.1,5.95565,-4.34774,0.879291,-0.476284
52.2,5.95565,-4.34774,0.879291,-0.476284
52.3,5.95565,-4.34774,0.879291,-0.476284
52.4,5.95565,-4.34774,0.879291,-0.476284
52.5,5.95565,-4.34774,0.879291,-0.476284
52.6,5.95565,-4.34774,0.879291,-0.476284
52.7,5.95565,-4.34774,0.879291,-0.476284
52.8,5.95565,-4.34774,0.879291,-0.476284
52.9,5.95565,-4.34774,0.879291,-0.476284
53,5.95565,-4.34774,0.879291,-0.476284
53.1,5.95565,-4.34774,0.879291,-0.476284
53.2,5.95565,-4.34774,0.879291,-0.476284
53.3,5.95565,-4.34774,0.879291,-0.476284
53.4,5.95565,-4.34774,0.879291,-0.476284
53.5,5.95565,-4.34774,0.879291,-0.476284
53.6,5.95565,-4.34774,0.879291,-0.476284
53.7,5.95565,-4.34774,0.879291,-0.476284
53.8,5.95565,-4.34774,0.879291,-0.476284
53.9,5.95565,-4.34774,0.879291,-0.476284
54,5.95565,-4.34774,0.879291,-0.476284
54.1,5.95565,-4.34774,0.879291,-0.476284
54.2,5.95565,-4.34774,0.879291,-0.476284
54.3,5.95565,-4.34774,0.879291,-0.476284
54.4,5.95565,-4.34774,0.879291,-0.476284
54.5,5.95565,-4.34774,0.879291,-0.476284
54.6,5.95565,-4.34774,0.879291,-0.476284
54.7,5.95565,-4.34774,0.879291,-0.476284
54.8,5.95565,-4.34774,0.879291,-0.476284
54.9,5.95565,-4.34774,0.879291,-0.476284
55,5.95565,-4.34774,0.879291,-0.476284
55.1,5.95565,-4.34774,0.879291,-0.476284
55.2,5.95565,-4.34774,0.879291,-0.476284
55.3,5.95565,-4.34774,0.879291,-0.476284
55.4,5.95565,-4.34774,0.879291,-0.476284
55.5,5.95565,-4.34774,0.879291,-0.476284
55.6,5.95565,-4.34774,0.879291,-0.476284
55.7,5.95565,-4.34774,0.879291,-0.476284
55.8,5.95565,-4.34774,0.879291,-0.476284
55.9,5.95565,-4.34774,0.879291,-0.476284
56,5.95565,-4.34774,0.879291,-0.476284
56.1,5.95565,-4.34774,0.879291,-0.476284
56.2,5.95565,-4.34774,0.879291,-0.476284
56.3,5.95565,-4.34774,0.879291,-0.476284
56.4,5.95565,-4.34774,0.879291,-0.476284
56.5,5.95565,-4.34774,0.879291,-0.476284
56.6,5.95565,-4.34774,0.879291,-0.476284
56.7,5.95565,-4.34774,0.879291,-0.476284
56.8,5.95565,-4.34774,0.879291,-0.476284
56.9,5.95565,-4.34774,0.879291,-0.476284
57,5.95565,-4.34774,0.879291,-0.476284
57.1,5.95565,-4.34774,0.879291,-0.476284
57.2,5.95565,-4.34774,0.879291,-0.476284
57.3,5.95565,-4.34774,0.879291,-0.476284
57.4,5.95565,-4.34774,0.879291,-0.476284
57.5,5.95565,-4.34774,0.879291,-0.476284
57.6,5.95565,-4.34774,0.879291,-0.476284
57.7,5.95565,-4.34774,0.879291,-0.476284
57.8,5.95565,-4.34774,0.879291,-0.476284
57.9,5.95565,-4.34774,0.879291,-0.476284
58,5.95565,-4.34774,0.879291,-0.476284
58.1,5.95565,-4.34774,0.879291,-0.476284
58.2,5.95565,-4.34774,0.879291,-0.476284
58.3,5.95565,-4.34774,0.879291,-0.476284
58.4,5.95565,-4.34774,0.879291,-0.476284
58.5,5.95565,-4.34774,0.879291,-0.476284
58.6,5.95565,-4.34774,0.879291,-0.476284
58.7,5.95565,-4.34774,0.879291,-0.476284
58.8,5.95565,-4.34774,0.879291,-0.476284
58.9,5.95565,-4.34774,0.879291,-0.476284
59,5.95565,-4.34774,0.879291,-0.476284
59.1,5.95565,-4.34774,0.879291,-0.476284
59.2,5.95565,-4.34774,0.879291,-0.476284
59.3,5.95565,-4.34774,0.879291,-0.476284
59.4,5.95565,-4.34774,0.879291,-0.476284
59.5,5.95565,-4.34774,0.879291,-0.476284
59.6,5.95565,-4.34774,0.879291,-0.476284
59.7,5.95565,-4.34774,0.879291,-0.476284
59.8,5.95565,-4.34774,0.879291,-0.476284
59.9,5.95565,-4.34774,0.879291,-0.476284
60,5.95565,-4.34774,0.879291,-0.476284
60.1,5.95565,-4.34774,0.879291,-0.476284
60.2,5.95565,-4.34774,0.879291,-0.476284
60.3,5.95565,-4.34774,0.879291,-0.476284
60.4,5.95565,-4.34774,0.879291,-0.476284
60.5,5.95565,-4.34774,0.879291,-0.476284
60.6,5.95565,-4.34774,0.879291,-0.476284
60.7,5.95565,-4.34774,0.879291,-0.476284
60.8,5.95565,-4.34774,0.879291,-0.476284
60.9,5.95565,-4.34774,0.879291,-0.476284
61,5.95565,-4.34774,0.879291,-0.476284
61.1,5.95565,-4.34774,0.879291,-0.476284
61.2,5.95565,-4.34774,0.879291,-0.476284
61.3,5.95565,-4.34774,0.879291,-0.476284
61.4,5.95565,-4.34774,0.879291,-0.476284
61.5,5.95565,-4.34774,0.879291,-0.476284
61.6,5.95565,-4.34774,0.879291,-0.476284
61.7,5.95565,-4.34774,0.879291,-0.476284
61.8,5.95565,-4.34774,0.879291,-0.476284
61.9,5.95565,-4.34774,0.879291,-0.476284
62,5.95565,-4.34774,0.879291,-0.476284
62.1,5.95565,-4.34774,0.879291,-0.476284
62.2,5.95565,-4.34774,0.879291,-0.476284
62.3,5.95565,-4.34774,0.879291,-0.476284
62.4,5.95565,-4.34774,0.879291,-0.476284
62.5,5.95565,-4.34774,0.879291,-0.476284
62.6,5.95565,-4.34774,0.879291,-0.476284
62.7,5.95565,-4.34774,0.879291,-0.476284
62.8,5.95565,-4.34774,0.879291,-0.476284
62.9,5.95565,-4.34774,0.879291,-0.476284
63,5.95565,-4.34774,0.879291,-0.476284
63.1,5.95565,-4.34774,0.879291,-0.476284
63.2,5.95565,-4.34774,0.879291,-0.476284
63.3,5.95565,-4.34774,0.879291,-0.476284
63.4,5.95565,-4.34774,0.879291,-0.476284
63.5,5.95565,-4.34774,0.879291,-0.476284
63.6,5.95565,-4.34774,0.879291,-0.476284
63.7,5.95565,-4.34774,0.879291,-0.476284
63.8,5.95565,-4.34774,0.879291,-0.476284
63.9,5.95565,-4.34774,0.879291,-0.476284
64,5.95565,-4.34774,0.879291,-0.476284
64.1,5.95565,-4.34774,0.879291,-0.476284
64.2,5.95565,-4.34774,0.879291,-0.476284
64.3,5.95565,-4.34774,0.879291,-0.476284
64.4,5.95565,-4.34774,0.879291,-0.476284
64.5,5.95565,-4.34774,0.879291,-0.476284
64.6,5.95565,-4.34774,0.879291,-0.476284
64.7,5.95565,-4.34774,0.879291,-0.476284
64.8,5.95565,-4.34774,0.879291,-0.476284
64.9,5.95565,-4.34774,0.879291,-0.476284
65,5.95565,-4.34774,0.879291,-0.476284
65.1,5.95565,-4.34774,0.879291,-0.476284
65.2,5.95565,-4.34774,0.879291,-0.476284
65.3,5.95565,-4.34774,0.879291,-0.476284
65.4,5.95565,-4.34774,0.879291,-0.476284
65.5,5.95565,-4.34774,0.879291,-0.476284
65.6,5.95565,-4.34774,0.879291,-0.476284
65.7,5.95565,-4.34774,0.879291,-0.476284
65.8,5.95565,-4.34774,0.879291,-0.476284
65.9,5.95565,-4.34774,0.879291,-0.476284
66,5.95565,-4.34774,0.879291,-0.476284
66.1,5.95565,-4.34774,0.879291,-0.476284
66.2,5.95565,-4.34774,0.879291,-0.476284
66.3,5.95565,-4.34774,0.879291,-0.476284
66.4,5.95565,-4.34774,0.879291,-0.476284
66.5,5.95565,-4.34774,0.879291,-0.476284
66.6,5.95565,-4.34774,0.879291,-0.476284
66.7,5.95565,-4.34774,0.879291,-0.476284
66.8,5.95565,-4.34774,0.879291,-0.476284
66.9,5.95565,-4.34774,0.879291,-0.476284
67,5.95565,-4.34774,0.879291,-0.476284
67.1,5.95565,-4.34774,0.879291,-0.476284
67.2,5.95565,-4.34774,0.879291,-0.476284
67.3,5.95565,-4.34774,0.879291,-0.476284
67.4,5.95565,-4.34774,0.879291,-0.476284
67.5,5.95565,-4.34774,0.879291,-0.476284
67.6,5.95565,-4.34774,0.879291,-0.476284
67.7,5.95565,-4.34774,0.879291,-0.476284
67.8,5.95565,-4.34774,0.879291,-0.476284
67.9,5.95565,-4.34774,0.879291,-0.476284
68,5.95565,-4.34774,0.879291,-0.476284
68.1,5.95565,-4.34774,0.879291,-0.476284
68.2,5.95565,-4.34774,0.879291,-0.476284
68.3,5.95565,-4.34774,0.879291,-0.476284
68.4,5.95565,-4.34774,0.879291,-0.476284
68.5,5.95565,-4.34774,0.879291,-0.476284
68.6,5.95565,-4.34774,0.879291,-0.476284
68.7,5.95565,-4.34774,0.879291,-0.476284
68.8,5.95565,-4.34774,0.879291,-0.476284
68.9,5.95565,-4.34774,0.879291,-0.476284
69,5.95565,-4.34774,0.879291,-0.476284
69.1,5.95565,-4.34774,0.879291,-0.476284
69.2,5.95565,-4.34774,0.879291,-0.476284
69.3,5.95565,-4.34774,0.879291,-0.476284
69.4,5.95565,-4.34774,0.879291,-0.476284
69.5,5.95565,-4.34774,0.879291,-0.476284
69.6,5.95565,-4.34774,0.879291,-0.476284
69.7,5.95565,-4.34774,0.879291,-0.476284
69.8,5.95565,-4.34774,0.879291,-0.476284
69.9,5.95565,-4.34774,0.879291,-0.476284
70,5.95565,-4.34774,0.879291,-0.476284
70.1,5.95565,-4.34774,0.879291,-0.476284
70.2,5.95565,-4.34774,0.879291,-0.476284
70.3,5.95565,-4.34774,0.879291,-0.476284
70.4,5.95565,-4.34774,0.879291,-0.476284
70.5,5.95565,-4.34774,0.879291,-0.476284
70.6,5.95565,-4.34774,0.879291,-0.476284
70.7,5.95565,-4.34774,0.879291,-0.476284
70.8,5.95565,-4.34774,0.879291,-0.476284
70.9,5.95565,-4.34774,0.879291,-0.476284
71,5.95565,-4.34774,0.879291,-0.476284
71.1,5.95565,-4.34774,0.879291,-0.476284
71.2,5.95565,-4.34774,0.879291,-0.476284
71.3,5.95565,-4.34774,0.879291,-0.476284
71.4,5.95565,-4.34774,0.879291,-0.476284
71.5,5.95565,-4.34774,0.879291,-0.476284
71.6,5.95565,-4.34774,0.879291,-0.476284
71.7,5.95565,-4.34774,0.879291,-0.476284
71.8,5.95565,-4.34774,0.879291,-0.476284
71.9,5.95565,-4.34774,0.879291,-0.476284
72,5.95565,-4.34774,0.879291,-0.476284
72.1,5.95565,-4.34774,0.879291,-0.476284
72.2,5.95565,-4.34774,0.879291,-0.476284
72.3,5.95565,-4.34774,0.879291,-0.476284
72.4,5.95565,-4.34774,0.879291,-0.476284
72.5,5.95565,-4.34774,0.879291,-0.476284
72.6,5.95565,-4.34774,0.879291,-0.476284
72.7,5.95565,-4.34774,0.879291,-0.476284
72.8,5.95565,-4.34774,0.879291,-0.476284
72.9,5.95565,-4.34774,0.879291,-0.476284
73,5.95565,-4.34774,0.879291,-0.476284
73.1,5.95565,-4.34774,0.879291,-0.476284
73.2,5.95565,-4.34774,0.879291,-0.476284
73.3,5.95565,-4.34774,0.879291,-0.476284
73.4,5.95565,-4.34774,0.879291,-0.476284
73.5,5.95565,-4.34774,0.879291,-0.476284
73.6,5.95565,-4.34774,0.879291,-0.476284
73.7,5.95565,-4.34774,0.879291,-0.476284
73.8,5.95565,-4.34774,0.879291,-0.476284
73.9,5.95565,-4.34774,0.879291,-0.476284
74,5.95565,-4.34774,0.879291,-0.476284
74.1,5.95565,-4.34774,0.879291,-0.476284
74.2,5.95565,-4.34774,0.879291,-0.476284
74.3,5.95565,-4.34774,0.879291,-0.476284
74.4,5.95565,-4.34774,0.879291,-0.476284
74.5,5.95565,-4.34774,0.879291,-0.476284
74.6,5.95565,-4.34774,0.879291,-0.476284
74.7,5.95565,-4.34774,0.879291,-0.476284
74.8,5.95565,-4.34774,0.879291,-0.476284
74.9,5.95565,-4.34774,0.879291,-0.476284
75,5.95565,-4.34774,0.879291,-0.476284
75.1,5.95565,-4.34774,0.879291,-0.476284
75.2,5.95565,-4.34774,0.879291,-0.476284
75.3,5.95565,-4.34774,0.879291,-0.476284
75.4,5.95565,-4.34774,0.879291,-0.476284
75.5,5.95565,-4.34774,0.879291,-0.476284
75.6,5.95565,-4.34774,0.879291,-0.476284
75.7,5.95565,-4.34774,0.879291,-0.476284
75.8,5.95565,-4.34774,0.879291,-0.476284
75.9,5.95565,-4.34774,0.879291,-0.476284
76,5.95565,-4.34774,0.879291,-0.476284
76.1,5.95565,-4.34774,0.879291,-0.476284
76.2,5.95565,-4.34774,0.879291,-0.476284
76.3,5.95565,-4.34774,0.879291,-0.476284
76.4,5.95565,-4.34774,0.879291,-0.476284
76.5,5.95565,-4.34774,0.879291,-0.476284
76.6,5.95565,-4.34774,0.879291,-0.476284
76.7,5.95565,-4.34774,0.879291,-0.476284
76.8,5.95565,-4.34774,0.879291,-0.476284
76.9,5.95565,-4.34774,0.879291,-0.476284
77,5.95565,-4.34774,0.879291,-0.476284
77.1,5.95565,-4.34774,0.879291,-0.476284
77.2,5.95565,-4.34774,0.879291,-0.476284
77.3,5.95565,-4.34774,0.879291,-0.476284
77.4,5.95565,-4.34774,0.879291,-0.476284
77.5,5.95565,-4.34774,0.879291,-0.476284
77.6,5.95565,-4.34774,0.879291,-0.476284
77.7,5.95565,-4.34774,0.879291,-0.476284
77.8,5.95565,-4.34774,0.879291,-0.476284
77.9,5.95565,-4.34774,0.879291,-0.476284
78,5.95565,-4.34774,0.879291,-0.476284
78.1,5.95565,-4.34774,0.879291,-0.476284
78.2,5.95565,-4.34774,0.879291,-0.476284
78.3,5.95565,-4.34774,0.879291,-0.476284
78.4,5.95565,-4.34774,0.879291,-0.476284
78.5,5.95565,-4.34774,0.879291,-0.476284
78.6,5.95565,-4.34774,0.879291,-0.476284
78.7,5.95565,-4.34774,0.879291,-0.476284
78.8,5.95565,-4.34774,0.879291,-0.476284
78.9,5.95565,-4.34774,0.879291,-0.476284
79,5.95565,-4.34774,0.879291,-0.476284
79.1,5.95565,-4.34774,0.879291,-0.476284
79.2,5.95565,-4.34774,0.879291,-0.476284
79.3,5.95565,-4.34774,0.879291,-0.476284
79.4,5.95565,-4.34774,0.879291,-0.476284
79.5,5.95565,-4.34774,0.879291,-0.476284
79.6,5.95565,-4.34774,0.879291,-0.476284
79.7,5.95565,-4.34774,0.879291,-0.476284
79.8,5.95565,-4.34774,0.879291,-0.476284
79.9,5.95565,-4.34774,0.879291,-0.476284
80,5.95565,-4.34774,0.879291,-0.476284
