0.1,1.41428,-7.31836,-0.0289369,0.999581
0.2,1.40901,-7.22762,-0.112687,0.993631
0.3,1.38709,-7.10215,-0.177883,0.984052
0.4,1.36237,-6.96731,-0.183279,0.983061
0.5,1.34447,-6.84899,-0.163702,0.98651
0.6,1.32153,-6.70883,-0.170446,0.985367
0.7,1.3029,-6.58905,-0.166444,0.986051
0.8,1.27632,-6.44316,-0.182686,0.983171
0.9,1.26028,-6.31919,-0.149706,0.988731
1,1.23758,-6.17696,-0.168087,0.985772
1.1,1.21426,-6.05938,-0.193439,0.981112
1.2,1.18584,-5.92051,-0.197704,0.980262
1.3,1.16315,-5.80208,-0.189263,0.981927
1.4,1.13794,-5.65937,-0.179388,0.983778
1.5,1.11855,-5.54761,-0.178509,0.983938
1.6,1.09447,-5.40794,-0.17678,0.98425
1.7,1.06889,-5.29238,-0.20758,0.978218
1.8,1.04214,-5.14281,-0.180781,0.983523
1.9,1.01697,-5.02477,-0.202759,0.979229
2,0.979717,-4.87294,-0.224718,0.974424
2.1,0.946132,-4.74825,-0.237172,0.971468
2.2,0.919715,-4.59702,-0.177572,0.984108
2.3,0.894771,-4.46324,-0.185715,0.982604
2.4,0.868004,-4.34954,-0.215498,0.976504
2.5,0.840707,-4.19554,-0.179219,0.983809
2.6,0.813457,-4.06672,-0.201579,0.979472
2.7,0.79119,-3.90902,-0.154544,0.987986
2.8,0.763304,-3.78885,-0.214067,0.976819
2.9,0.741287,-3.64004,-0.159809,0.987148
3,0.722837,-3.52324,-0.168598,0.985685
3.1,0.700794,-3.37957,-0.164085,0.986446
3.2,0.676068,-3.26551,-0.204884,0.978786
3.3,0.657151,-3.10988,-0.14168,0.989912
3.4,0.64372,-2.99011,-0.140178,0.990126
3.5,0.620853,-2.835,-0.160027,0.987113
3.6,0.595523,-2.67751,-0.169238,0.985575
3.7,0.570754,-2.52243,-0.168763,0.985657
3.8,0.542146,-2.37279,-0.190221,0.981741
3.9,0.508342,-2.23264,-0.222574,0.974916
4,0.473437,-2.09618,-0.231368,0.972866
4.1,0.439985,-1.96673,-0.232142,0.972682
4.2,0.411503,-1.84243,-0.213441,0.976956
4.3,0.386693,-1.72167,-0.198593,0.980082
4.4,0.362525,-1.60099,-0.195359,0.980732
4.5,0.341768,-1.48529,-0.182578,0.983191
4.6,0.320873,-1.37072,-0.184511,0.982831
4.7,0.304068,-1.26217,-0.168199,0.985753
4.8,0.287109,-1.15686,-0.172397,0.985027
4.9,0.274065,-1.05977,-0.157801,0.987471
5,0.265843,-0.973236,-0.137911,0.990445
5.1,0.255665,-0.890961,-0.155266,0.987873
5.2,0.256155,-0.826495,-0.0957253,0.995408
5.3,0.252555,-0.774186,-0.140954,0.990016
5.4,0.240212,-0.730943,-0.230353,0.973107
5.5,0.222425,-0.688848,-0.278947,0.960306
5.6,0.206555,-0.658665,-0.292718,0.956199
5.7,0.208157,-0.65056,-0.154015,0.988069
5.8,0.205726,-0.637183,-0.194103,0.980981
5.9,0.196735,-0.63209,-0.302209,0.953242
6,0.192563,-0.625262,-0.233391,0.972383
6.1,0.189689,-0.617499,-0.21339,0.976967
6.2,0.188324,-0.608677,-0.190722,0.981644
6.3,0.188098,-0.599629,-0.175323,0.984511
6.4,0.187933,-0.592269,-0.178708,0.983902
6.5,0.187875,-0.584819,-0.177195,0.984176
6.6,0.188403,-0.576855,-0.168301,0.985736
6.7,0.188873,-0.569546,-0.170808,0.985304
6.8,0.190502,-0.562067,-0.154997,0.987915
6.9,0.193109,-0.554347,-0.141595,0.989925
7,0.195764,-0.546572,-0.141273,0.989971
7.1,0.200228,-0.539866,-0.118811,0.992917
7.2,0.204308,-0.533124,-0.124724,0.992191
7.3,0.208368,-0.526293,-0.125435,0.992102
7.4,0.211615,-0.518921,-0.136249,0.990675
7.5,0.214815,-0.511682,-0.137672,0.990478
7.6,0.217521,-0.504588,-0.145219,0.9894
7.7,0.220093,-0.497061,-0.146638,0.98919
7.8,0.222969,-0.48934,-0.142568,0.989785
7.9,0.225583,-0.48075,-0.144883,0.989449
8,0.227898,-0.471795,-0.148621,0.988894
8.1,0.229958,-0.461883,-0.150522,0.988607
8.2,0.231901,-0.451831,-0.152218,0.988347
8.3,0.234299,-0.441401,-0.145938,0.989294
8.4,0.23578,-0.430111,-0.156608,0.987661
8.5,0.236262,-0.417898,-0.167795,0.985822
8.6,0.231135,-0.403081,-0.230065,0.973175
8.7,0.224381,-0.388406,-0.249285,0.96843
8.8,0.217621,-0.373481,-0.248249,0.968696
8.9,0.213194,-0.359466,-0.223089,0.974798
9,0.208954,-0.345296,-0.22027,0.975439
9.1,0.204783,-0.331182,-0.219486,0.975616
9.2,0.196873,-0.315601,-0.258758,0.965942
9.3,0.188565,-0.300031,-0.262863,0.964833
9.4,0.179261,-0.284399,-0.273427,0.961893
9.5,0.170108,-0.26948,-0.273447,0.961887
9.6,0.160713,-0.254396,-0.275055,0.961429
9.7,0.151088,-0.239355,-0.277197,0.960813
9.8,0.141658,-0.223984,-0.273306,0.961927
9.9,0.132175,-0.208416,-0.272664,0.962109
10,0.122312,-0.192997,-0.276808,0.960925
10.1,0.112338,-0.177388,-0.276792,0.96093
10.2,0.100763,-0.163279,-0.299073,0.95423
10.3,0.0898382,-0.14855,-0.288835,0.957379
10.4,0.0790163,-0.133748,-0.286663,0.958032
10.5,0.0679915,-0.118244,-0.285829,0.958281
10.6,0.0569807,-0.103008,-0.285789,0.958292
10.7,0.0438529,-0.0917403,-0.322986,0.946404
10.8,0.0308831,-0.078103,-0.311278,0.950319
10.9,0.0163365,-0.0638164,-0.32517,0.945655
11,0.00197976,-0.0493959,-0.321488,0.946914
11.1,-0.0121541,-0.0344846,-0.316169,0.948703
11.2,-0.0266984,-0.0203052,-0.322213,0.946667
11.3,-0.0414864,-0.00616024,-0.32384,0.946112
11.4,-0.0561922,0.00503814,-0.333017,0.942921
11.5,-0.0697278,0.0188658,-0.308858,0.951108
11.6,-0.0846478,0.0307591,-0.330329,0.943866
11.7,-0.09948,0.0426492,-0.328096,0.944644
11.8,-0.114508,0.0537813,-0.331954,0.943295
11.9,-0.130669,0.064001,-0.346946,0.937885
12,-0.146646,0.0737382,-0.345432,0.938444
12.1,-0.163105,0.0834558,-0.349441,0.936958
12.2,-0.179124,0.0942728,-0.338571,0.940941
12.3,-0.195139,0.105157,-0.336815,0.941571
12.4,-0.211294,0.113721,-0.34642,0.93808
12.5,-0.225199,0.12094,-0.324306,0.945952
12.6,-0.233344,0.137558,-0.224331,0.974513
12.7,-0.2458,0.148415,-0.291458,0.956584
12.8,-0.257898,0.162937,-0.273832,0.961778
12.9,-0.27245,0.174644,-0.310327,0.95063
13,-0.288582,0.185212,-0.331183,0.943567
13.1,-0.300018,0.197669,-0.269072,0.96312
13.2,-0.3126,0.208083,-0.288396,0.957511
13.3,-0.322776,0.219814,-0.254347,0.967113
13.4,-0.332049,0.228393,-0.252468,0.967605
13.5,-0.346746,0.237258,-0.316005,0.948757
13.6,-0.360763,0.247069,-0.303016,0.952985
13.7,-0.375219,0.256996,-0.306336,0.951923
13.8,-0.390283,0.267006,-0.311683,0.950186
13.9,-0.405402,0.277212,-0.310111,0.9507
14,-0.421844,0.28759,-0.323129,0.946355
14.1,-0.438043,0.298161,-0.318033,0.948079
14.2,-0.454265,0.308751,-0.316653,0.948541
14.3,-0.467322,0.318697,-0.280573,0.959833
14.4,-0.481497,0.328492,-0.293033,0.956102
14.5,-0.495383,0.338481,-0.287513,0.957777
14.6,-0.509251,0.348619,-0.285393,0.958411
14.7,-0.523715,0.358091,-0.293408,0.955987
14.8,-0.53869,0.367769,-0.297209,0.954813
14.9,-0.554008,0.377675,-0.298871,0.954294
15,-0.569833,0.387669,-0.302903,0.953022
15.1,-0.585623,0.397651,-0.300939,0.953643
15.2,-0.601438,0.407701,-0.299367,0.954138
15.3,-0.617321,0.417807,-0.298338,0.95446
15.4,-0.634088,0.4281,-0.306267,0.951945
15.5,-0.65085,0.438309,-0.304811,0.952413
15.6,-0.667652,0.448784,-0.302575,0.953125
15.7,-0.684107,0.459552,-0.295776,0.955257
15.8,-0.710542,0.466454,-0.420754,0.907175
15.9,-0.732018,0.475412,-0.355303,0.934751
16,-0.753324,0.484628,-0.350137,0.936698
16.1,-0.774867,0.493903,-0.350338,0.936623
16.2,-0.797995,0.503347,-0.364846,0.931068
16.3,-0.820329,0.51275,-0.353966,0.935258
16.4,-0.842046,0.523163,-0.340725,0.940163
16.5,-0.863598,0.533529,-0.336849,0.941559
16.6,-0.884906,0.544091,-0.33112,0.943589
16.7,-0.903406,0.555716,-0.293224,0.956044
16.8,-0.922073,0.567589,-0.292319,0.956321
16.9,-0.940829,0.580663,-0.287248,0.957856
17,-0.959968,0.594574,-0.286799,0.957991
17.1,-0.961801,0.616201,-0.0703347,0.997523
17.2,-0.952228,0.64352,0.057524,0.998344
17.3,-0.94529,0.672606,0.027319,0.999627
17.4,-0.944763,0.708834,-0.0388434,0.999245
17.5,-0.977388,0.756877,-0.312297,0.949985
17.6,-0.995492,0.82597,-0.164237,0.986421
17.7,-1.00904,0.932179,-0.102388,0.994745
17.8,-1.01272,1.0555,-0.0407498,0.999169
17.9,-1.02132,1.18572,-0.0646501,0.997908
18,-1.02954,1.3155,-0.0628026,0.998026
18.1,-1.03747,1.44524,-0.0613433,0.998117
18.2,-1.04518,1.57484,-0.0602809,0.998182
18.3,-1.05303,1.7044,-0.0609883,0.998138
18.4,-1.06117,1.83419,-0.0624283,0.998049
18.5,-1.0686,1.96367,-0.0588896,0.998264
18.6,-1.07648,2.09316,-0.0612396,0.998123
18.7,-1.08432,2.22276,-0.0609977,0.998138
18.8,-1.09242,2.35261,-0.062255,0.99806
18.9,-1.10047,2.48225,-0.0621084,0.998069
19,-1.10857,2.61217,-0.0622188,0.998062
19.1,-1.11653,2.74206,-0.0615403,0.998105
19.2,-1.12447,2.87179,-0.0615221,0.998106
19.3,-1.13248,3.00137,-0.0618893,0.998083
19.4,-1.1404,3.13097,-0.0614859,0.998108
19.5,-1.14833,3.26059,-0.0615118,0.998106
19.6,-1.15673,3.39037,-0.0638763,0.997958
19.7,-1.16513,3.52015,-0.0638907,0.997957
19.8,-1.17358,3.65022,-0.063967,0.997952
19.9,-1.1823,3.7807,-0.0651933,0.997873
20,-1.19015,3.9098,-0.0611722,0.998127
20.1,-1.19785,4.03928,-0.0602941,0.998181
20.2,-1.20554,4.16888,-0.0602473,0.998183
20.3,-1.21359,4.29879,-0.0619753,0.998078
20.4,-1.22146,4.42871,-0.0611212,0.99813
20.5,-1.22971,4.55863,-0.0630565,0.99801
20.6,-1.23788,4.68841,-0.062697,0.998033
20.7,-1.24581,4.81803,-0.0615319,0.998105
20.8,-1.25383,4.94767,-0.0619662,0.998078
20.9,-1.2619,5.07733,-0.0622825,0.998059
21,-1.27005,5.20697,-0.0626632,0.998035
21.1,-1.27842,5.33662,-0.0637874,0.997963
21.2,-1.28675,5.46652,-0.0634597,0.997984
21.3,-1.29498,5.59644,-0.0628665,0.998022
21.4,-1.30308,5.72626,-0.0623038,0.998057
21.5,-1.31127,5.85577,-0.0627831,0.998027
21.6,-1.31937,5.98553,-0.0622716,0.998059
21.7,-1.32752,6.11541,-0.0624109,0.998051
21.8,-1.33528,6.24582,-0.0603152,0.998179
21.9,-1.3435,6.37514,-0.0630718,0.998009
22,-1.35165,6.50472,-0.0625852,0.99804
22.1,-1.35953,6.63428,-0.0611932,0.998126
22.2,-1.36748,6.76388,-0.0616257,0.998099
22.3,-1.3759,6.89382,-0.0639872,0.997951
22.4,-1.38425,7.02399,-0.063394,0.997989
22.5,-1.39239,7.15408,-0.0621206,0.998069
22.6,-1.39741,7.23428,-0.0624747,0.998047
22.7,-1.39931,7.26457,-0.0624748,0.998047
22.8,-1.39931,7.26457,-0.0624748,0.998047
22.9,-1.39931,7.26457,-0.0624748,0.998047
23,-1.39931,7.26457,-0.0624748,0.998047
23.1,-1.39931,7.26457,-0.0624748,0.998047
23.2,-1.39931,7.26457,-0.0624748,0.998047
23.3,-1.39931,7.26457,-0.0624748,0.998047
23.4,-1.39931,7.26457,-0.0624748,0.998047
23.5,-1.39931,7.26457,-0.0624748,0.998047
23.6,-1.39931,7.26457,-0.0624748,0.998047
23.7,-1.39931,7.26457,-0.0624748,0.998047
23.8,-1.39931,7.26457,-0.0624748,0.998047
23.9,-1.39931,7.26457,-0.0624748,0.998047
24,-1.39931,7.26457,-0.0624748,0.998047
24.1,-1.39931,7.26457,-0.0624748,0.998047
24.2,-1.39931,7.26457,-0.0624748,0.998047
24.3,-1.39931,7.26457,-0.0624748,0.998047
24.4,-1.39931,7.26457,-0.0624748,0.998047
24.5,-1.39931,7.26457,-0.0624748,0.998047
24.6,-1.39931,7.26457,-0.0624748,0.998047
24.7,-1.39931,7.26457,-0.0624748,0.998047
24.8,-1.39931,7.26457,-0.0624748,0.998047
24.9,-1.39931,7.26457,-0.0624748,0.998047
25,-1.39931,7.26457,-0.0624748,0.998047
25.1,-1.39931,7.26457,-0.0624748,0.998047
25.2,-1.39931,7.26457,-0.0624748,0.998047
25.3,-1.39931,7.26457,-0.0624748,0.998047
25.4,-1.39931,7.26457,-0.0624748,0.998047
25.5,-1.39931,7.26457,-0.0624748,0.998047
25.6,-1.39931,7.26457,-0.0624748,0.998047
25.7,-1.39931,7.26457,-0.0624748,0.998047
25.8,-1.39931,7.26457,-0.0624748,0.998047
25.9,-1.39931,7.26457,-0.0624748,0.998047
26,-1.39931,7.26457,-0.0624748,0.998047
26.1,-1.39931,7.26457,-0.0624748,0.998047
26.2,-1.39931,7.26457,-0.0624748,0.998047
26.3,-1.39931,7.26457,-0.0624748,0.998047
26.4,-1.39931,7.26457,-0.0624748,0.998047
26.5,-1.39931,7.26457,-0.0624748,0.998047
26.6,-1.39931,7.26457,-0.0624748,0.998047
26.7,-1.39931,7.26457,-0.0624748,0.998047
26.8,-1.39931,7.26457,-0.0624748,0.998047
26.9,-1.39931,7.26457,-0.0624748,0.998047
27,-1.39931,7.26457,-0.0624748,0.998047
27.1,-1.39931,7.26457,-0.0624748,0.998047
27.2,-1.39931,7.26457,-0.0624748,0.998047
27.3,-1.39931,7.26457,-0.0624748,0.998047
27.4,-1.39931,7.26457,-0.0624748,0.998047
27.5,-1.39931,7.26457,-0.0624748,0.998047
27.6,-1.39931,7.26457,-0.0624748,0.998047
27.7,-1.39931,7.26457,-0.0624748,0.998047
27.8,-1.39931,7.26457,-0.0624748,0.998047
27.9,-1.39931,7.26457,-0.0624748,0.998047
28,-1.39931,7.26457,-0.0624748,0.998047
28.1,-1.39931,7.26457,-0.0624748,0.998047
28.2,-1.39931,7.26457,-0.0624748,0.998047
28.3,-1.39931,7.26457,-0.0624748,0.998047
28.4,-1.39931,7.26457,-0.0624748,0.998047
28.5,-1.39931,7.26457,-0.0624748,0.998047
28.6,-1.39931,7.26457,-0.0624748,0.998047
28.7,-1.39931,7.26457,-0.0624748,0.998047
28.8,-1.39931,7.26457,-0.0624748,0.998047
28.9,-1.39931,7.26457,-0.0624748,0.998047
29,-1.39931,7.26457,-0.0624748,0.998047
29.1,-1.39931,7.26457,-0.0624748,0.998047
29.2,-1.39931,7.26457,-0.0624748,0.998047
29.3,-1.39931,7.26457,-0.0624748,0.998047
29.4,-1.39931,7.26457,-0.0624748,0.998047
29.5,-1.39931,7.26457,-0.0624748,0.998047
29.6,-1.39931,7.26457,-0.0624748,0.998047
29.7,-1.39931,7.26457,-0.0624748,0.998047
29.8,-1.39931,7.26457,-0.0624748,0.998047
29.9,-1.39931,7.26457,-0.0624748,0.998047
30,-1.39931,7.26457,-0.0624748,0.998047
30.1,-1.39931,7.26457,-0.0624748,0.998047
30.2,-1.39931,7.26457,-0.0624748,0.998047
30.3,-1.39931,7.26457,-0.0624748,0.998047
30.4,-1.39931,7.26457,-0.0624748,0.998047
30.5,-1.39931,7.26457,-0.0624748,0.998047
30.6,-1.39931,7.26457,-0.0624748,0.998047
30.7,-1.39931,7.26457,-0.0624748,0.998047
30.8,-1.39931,7.26457,-0.0624748,0.998047
30.9,-1.39931,7.26457,-0.0624748,0.998047
31,-1.39931,7.26457,-0.0624748,0.998047
31.1,-1.39931,7.26457,-0.0624748,0.998047
31.2,-1.39931,7.26457,-0.0624748,0.998047
31.3,-1.39931,7.26457,-0.0624748,0.998047
31.4,-1.39931,7.26457,-0.0624748,0.998047
31.5,-1.39931,7.26457,-0.0624748,0.998047
31.6,-1.39931,7.26457,-0.0624748,0.998047
31.7,-1.39931,7.26457,-0.0624748,0.998047
31.8,-1.39931,7.26457,-0.0624748,0.998047
31.9,-1.39931,7.26457,-0.0624748,0.998047
32,-1.39931,7.26457,-0.0624748,0.998047
32.1,-1.39931,7.26457,-0.0624748,0.998047
32.2,-1.39931,7.26457,-0.0624748,0.998047
32.3,-1.39931,7.26457,-0.0624748,0.998047
32.4,-1.39931,7.26457,-0.0624748,0.998047
32.5,-1.39931,7.26457,-0.0624748,0.998047
32.6,-1.39931,7.26457,-0.0624748,0.998047
32.7,-1.39931,7.26457,-0.0624748,0.998047
32.8,-1.39931,7.26457,-0.0624748,0.998047
32.9,-1.39931,7.26457,-0.0624748,0.998047
33,-1.39931,7.26457,-0.0624748,0.998047
33.1,-1.39931,7.26457,-0.0624748,0.998047
33.2,-1.39931,7.26457,-0.0624748,0.998047
33.3,-1.39931,7.26457,-0.0624748,0.998047
33.4,-1.39931,7.26457,-0.0624748,0.998047
33.5,-1.39931,7.26457,-0.0624748,0.998047
33.6,-1.39931,7.26457,-0.0624748,0.998047
33.7,-1.39931,7.26457,-0.0624748,0.998047
33.8,-1.39931,7.26457,-0.0624748,0.998047
33.9,-1.39931,7.26457,-0.0624748,0.998047
34,-1.39931,7.26457,-0.0624748,0.998047
34.1,-1.39931,7.26457,-0.0624748,0.998047
34.2,-1.39931,7.26457,-0.0624748,0.998047
34.3,-1.39931,7.26457,-0.0624748,0.998047
34.4,-1.39931,7.26457,-0.0624748,0.998047
34.5,-1.39931,7.26457,-0.0624748,0.998047
34.6,-1.39931,7.26457,-0.0624748,0.998047
34.7,-1.39931,7.26457,-0.0624748,0.998047
34.8,-1.39931,7.26457,-0.0624748,0.998047
34.9,-1.39931,7.26457,-0.0624748,0.998047
35,-1.39931,7.26457,-0.0624748,0.998047
35.1,-1.39931,7.26457,-0.0624748,0.998047
35.2,-1.39931,7.26457,-0.0624748,0.998047
35.3,-1.39931,7.26457,-0.0624748,0.998047
35.4,-1.39931,7.26457,-0.0624748,0.998047
35.5,-1.39931,7.26457,-0.0624748,0.998047
35.6,-1.39931,7.26457,-0.0624748,0.998047
35.7,-1.39931,7.26457,-0.0624748,0.998047
35.8,-1.39931,7.26457,-0.0624748,0.998047
35.9,-1.39931,7.26457,-0.0624748,0.998047
36,-1.39931,7.26457,-0.0624748,0.998047
36.1,-1.39931,7.26457,-0.0624748,0.998047
36.2,-1.39931,7.26457,-0.0624748,0.998047
36.3,-1.39931,7.26457,-0.0624748,0.998047
36.4,-1.39931,7.26457,-0.0624748,0.998047
36.5,-1.39931,7.26457,-0.0624748,0.998047
36.6,-1.39931,7.26457,-0.0624748,0.998047
36.7,-1.39931,7.26457,-0.0624748,0.998047
36.8,-1.39931,7.26457,-0.0624748,0.998047
36.9,-1.39931,7.26457,-0.0624748,0.998047
37,-1.39931,7.26457,-0.0624748,0.998047
37.1,-1.39931,7.26457,-0.0624748,0.998047
37.2,-1.39931,7.26457,-0.0624748,0.998047
37.3,-1.39931,7.26457,-0.0624748,0.998047
37.4,-1.39931,7.26457,-0.0624748,0.998047
37.5,-1.39931,7.26457,-0.0624748,0.998047
37.6,-1.39931,7.26457,-0.0624748,0.998047
37.7,-1.39931,7.26457,-0.0624748,0.998047
37.8,-1.39931,7.26457,-0.0624748,0.998047
37.9,-1.39931,7.26457,-0.0624748,0.998047
38,-1.39931,7.26457,-0.0624748,0.998047
38.1,-1.39931,7.26457,-0.0624748,0.998047
38.2,-1.39931,7.26457,-0.0624748,0.998047
38.3,-1.39931,7.26457,-0.0624748,0.998047
38.4,-1.39931,7.26457,-0.0624748,0.998047
38.5,-1.39931,7.26457,-0.0624748,0.998047
38.6,-1.39931,7.26457,-0.0624748,0.998047
38.7,-1.39931,7.26457,-0.0624748,0.998047
38.8,-1.39931,7.26457,-0.0624748,0.998047
38.9,-1.39931,7.26457,-0.0624748,0.998047
39,-1.39931,7.26457,-0.0624748,0.998047
39.1,-1.39931,7.26457,-0.0624748,0.998047
39.2,-1.39931,7.26457,-0.0624748,0.998047
39.3,-1.39931,7.26457,-0.0624748,0.998047
39.4,-1.39931,7.26457,-0.0624748,0.998047
39.5,-1.39931,7.26457,-0.0624748,0.998047
39.6,-1.39931,7.26457,-0.0624748,0.998047
39.7,-1.39931,7.26457,-0.0624748,0.998047
39.8,-1.39931,7.26457,-0.0624748,0.998047
39.9,-1.39931,7.26457,-0.0624748,0.998047
40,-1.39931,7.26457,-0.0624748,0.998047
40.1,-1.39931,7.26457,-0.0624748,0.998047
40.2,-1.39931,7.26457,-0.0624748,0.998047
40.3,-1.39931,7.26457,-0.0624748,0.998047
40.4,-1.39931,7.26457,-0.0624748,0.998047
40.5,-1.39931,7.26457,-0.0624748,0.998047
40.6,-1.39931,7.26457,-0.0624748,0.998047
40.7,-1.39931,7.26457,-0.0624748,0.998047
40.8,-1.39931,7.26457,-0.0624748,0.998047
40.9,-1.39931,7.26457,-0.0624748,0.998047
41,-1.39931,7.26457,-0.0624748,0.998047
41.1,-1.39931,7.26457,-0.0624748,0.998047
41.2,-1.39931,7.26457,-0.0624748,0.998047
41.3,-1.39931,7.26457,-0.0624748,0.998047
41.4,-1.39931,7.26457,-0.0624748,0.998047
41.5,-1.39931,7.26457,-0.0624748,0.998047
41.6,-1.39931,7.26457,-0.0624748,0.998047
41.7,-1.39931,7.26457,-0.0624748,0.998047
41.8,-1.39931,7.26457,-0.0624748,0.998047
41.9,-1.39931,7.26457,-0.0624748,0.998047
42,-1.39931,7.26457,-0.0624748,0.998047
42.1,-1.39931,7.26457,-0.0624748,0.998047
42.2,-1.39931,7.26457,-0.0624748,0.998047
42.3,-1.39931,7.26457,-0.0624748,0.998047
42.4,-1.39931,7.26457,-0.0624748,0.998047
42.5,-1.39931,7.26457,-0.0624748,0.998047
42.6,-1.39931,7.26457,-0.0624748,0.998047
42.7,-1.39931,7.26457,-0.0624748,0.998047
42.8,-1.39931,7.26457,-0.0624748,0.998047
42.9,-1.39931,7.26457,-0.0624748,0.998047
43,-1.39931,7.26457,-0.0624748,0.998047
43.1,-1.39931,7.26457,-0.0624748,0.998047
43.2,-1.39931,7.26457,-0.0624748,0.998047
43.3,-1.39931,7.26457,-0.0624748,0.998047
43.4,-1.39931,7.26457,-0.0624748,0.998047
43.5,-1.39931,7.26457,-0.0624748,0.998047
43.6,-1.39931,7.26457,-0.0624748,0.998047
43.7,-1.39931,7.26457,-0.0624748,0.998047
43.8,-1.39931,7.26457,-0.0624748,0.998047
43.9,-1.39931,7.26457,-0.0624748,0.998047
44,-1.39931,7.26457,-0.0624748,0.998047
44.1,-1.39931,7.26457,-0.0624748,0.998047
44.2,-1.39931,7.26457,-0.0624748,0.998047
44.3,-1.39931,7.26457,-0.0624748,0.998047
44.4,-1.39931,7.26457,-0.0624748,0.998047
44.5,-1.39931,7.26457,-0.0624748,0.998047
44.6,-1.39931,7.26457,-0.0624748,0.998047
44.7,-1.39931,7.26457,-0.0624748,0.998047
44.8,-1.39931,7.26457,-0.0624748,0.998047
44.9,-1.39931,7.26457,-0.0624748,0.998047
45,-1.39931,7.26457,-0.0624748,0.998047
45.1,-1.39931,7.26457,-0.0624748,0.998047
45.2,-1.39931,7.26457,-0.0624748,0.998047
45.3,-1.39931,7.26457,-0.0624748,0.998047
45.4,-1.39931,7.26457,-0.0624748,0.998047
45.5,-1.39931,7.26457,-0.0624748,0.998047
45.6,-1.39931,7.26457,-0.0624748,0.998047
45.7,-1.39931,7.26457,-0.0624748,0.998047
45.8,-1.39931,7.26457,-0.0624748,0.998047
45.9,-1.39931,7.26457,-0.0624748,0.998047
46,-1.39931,7.26457,-0.0624748,0.998047
46.1,-1.39931,7.26457,-0.0624748,0.998047
46.2,-1.39931,7.26457,-0.0624748,0.998047
46.3,-1.39931,7.26457,-0.0624748,0.998047
46.4,-1.39931,7.26457,-0.0624748,0.998047
46.5,-1.39931,7.26457,-0.0624748,0.998047
46.6,-1.39931,7.26457,-0.0624748,0.998047
46.7,-1.39931,7.26457,-0.0624748,0.998047
46.8,-1.39931,7.26457,-0.0624748,0.998047
46.9,-1.39931,7.26457,-0.0624748,0.998047
47,-1.39931,7.26457,-0.0624748,0.998047
47.1,-1.39931,7.26457,-0.0624748,0.998047
47.2,-1.39931,7.26457,-0.0624748,0.998047
47.3,-1.39931,7.26457,-0.0624748,0.998047
47.4,-1.39931,7.26457,-0.0624748,0.998047
47.5,-1.39931,7.26457,-0.0624748,0.998047
47.6,-1.39931,7.26457,-0.0624748,0.998047
47.7,-1.39931,7.26457,-0.0624748,0.998047
47.8,-1.39931,7.26457,-0.0624748,0.998047
47.9,-1.39931,7.26457,-0.0624748,0.998047
48,-1.39931,7.26457,-0.0624748,0.998047
48.1,-1.39931,7.26457,-0.0624748,0.998047
48.2,-1.39931,7.26457,-0.0624748,0.998047
48.3,-1.39931,7.26457,-0.0624748,0.998047
48.4,-1.39931,7.26457,-0.0624748,0.998047
48.5,-1.39931,7.26457,-0.0624748,0.998047
48.6,-1.39931,7.26457,-0.0624748,0.998047
48.7,-1.39931,7.26457,-0.0624748,0.998047
48.8,-1.39931,7.26457,-0.0624748,0.998047
48.9,-1.39931,7.26457,-0.0624748,0.998047
49,-1.39931,7.26457,-0.0624748,0.998047
49.1,-1.39931,7.26457,-0.0624748,0.998047
49.2,-1.39931,7.26457,-0.0624748,0.998047
49.3,-1.39931,7.26457,-0.0624748,0.998047
49.4,-1.39931,7.26457,-0.0624748,0.998047
49.5,-1.39931,7.26457,-0.0624748,0.998047
49.6,-1.39931,7.26457,-0.0624748,0.998047
49.7,-1.39931,7.26457,-0.0624748,0.998047
49.8,-1.39931,7.26457,-0.0624748,0.998047
49.9,-1.39931,7.26457,-0.0624748,0.998047
50,-1.39931,7.26457,-0.0624748,0.998047
50.1,-1.39931,7.26457,-0.0624748,0.998047
50.2,-1.39931,7.26457,-0.0624748,0.998047
50.3,-1.39931,7.26457,-0.0624748,0.998047
50.4,-1.39931,7.26457,-0.0624748,0.998047
50.5,-1.39931,7.26457,-0.0624748,0.998047
50.6,-1.39931,7.26457,-0.0624748,0.998047
50.7,-1.39931,7.26457,-0.0624748,0.998047
50.8,-1.39931,7.26457,-0.0624748,0.998047
50.9,-1.39931,7.26457,-0.0624748,0.998047
51,-1.39931,7.26457,-0.0624748,0.998047
51.1,-1.39931,7.26457,-0.0624748,0.998047
51.2,-1.39931,7.26457,-0.0624748,0.998047
51.3,-1.39931,7.26457,-0.0624748,0.998047
51.4,-1.39931,7.26457,-0.0624748,0.998047
51.5,-1.39931,7.26457,-0.0624748,0.998047
51.6,-1.39931,7.26457,-0.0624748,0.998047
51.7,-1.39931,7.26457,-0.0624748,0.998047
51.8,-1.39931,7.26457,-0.0624748,0.998047
51.9,-1.39931,7.26457,-0.0624748,0.998047
52,-1.39931,7.26457,-0.0624748,0.998047
52.1,-1.39931,7.26457,-0.0624748,0.998047
52.2,-1.39931,7.26457,-0.0624748,0.998047
52.3,-1.39931,7.26457,-0.0624748,0.998047
52.4,-1.39931,7.26457,-0.0624748,0.998047
52.5,-1.39931,7.26457,-0.0624748,0.998047
52.6,-1.39931,7.26457,-0.0624748,0.998047
52.7,-1.39931,7.26457,-0.0624748,0.998047
52.8,-1.39931,7.26457,-0.0624748,0.998047
52.9,-1.39931,7.26457,-0.0624748,0.998047
53,-1.39931,7.26457,-0.0624748,0.998047
53.1,-1.39931,7.26457,-0.0624748,0.998047
53.2,-1.39931,7.26457,-0.0624748,0.998047
53.3,-1.39931,7.26457,-0.0624748,0.998047
53.4,-1.39931,7.26457,-0.0624748,0.998047
53.5,-1.39931,7.26457,-0.0624748,0.998047
53.6,-1.39931,7.26457,-0.0624748,0.998047
53.7,-1.39931,7.26457,-0.0624748,0.998047
53.8,-1.39931,7.26457,-0.0624748,0.998047
53.9,-1.39931,7.26457,-0.0624748,0.998047
54,-1.39931,7.26457,-0.0624748,0.998047
54.1,-1.39931,7.26457,-0.0624748,0.998047
54.2,-1.39931,7.26457,-0.0624748,0.998047
54.3,-1.39931,7.26457,-0.0624748,0.998047
54.4,-1.39931,7.26457,-0.0624748,0.998047
54.5,-1.39931,7.26457,-0.0624748,0.998047
54.6,-1.39931,7.26457,-0.0624748,0.998047
54.7,-1.39931,7.26457,-0.0624748,0.998047
54.8,-1.39931,7.26457,-0.0624748,0.998047
54.9,-1.39931,7.26457,-0.0624748,0.998047
55,-1.39931,7.26457,-0.0624748,0.998047
55.1,-1.39931,7.26457,-0.0624748,0.998047
55.2,-1.39931,7.26457,-0.0624748,0.998047
55.3,-1.39931,7.26457,-0.0624748,0.998047
55.4,-1.39931,7.26457,-0.0624748,0.998047
55.5,-1.39931,7.26457,-0.0624748,0.998047
55.6,-1.39931,7.26457,-0.0624748,0.998047
55.7,-1.39931,7.26457,-0.0624748,0.998047
55.8,-1.39931,7.26457,-0.0624748,0.998047
55.9,-1.39931,7.26457,-0.0624748,0.998047
56,-1.39931,7.26457,-0.0624748,0.998047
56.1,-1.39931,7.26457,-0.0624748,0.998047
56.2,-1.39931,7.26457,-0.0624748,0.998047
56.3,-1.39931,7.26457,-0.0624748,0.998047
56.4,-1.39931,7.26457,-0.0624748,0.998047
56.5,-1.39931,7.26457,-0.0624748,0.998047
56.6,-1.39931,7.26457,-0.0624748,0.998047
56.7,-1.39931,7.26457,-0.0624748,0.998047
56.8,-1.39931,7.26457,-0.0624748,0.998047
56.9,-1.39931,7.26457,-0.0624748,0.998047
57,-1.39931,7.26457,-0.0624748,0.998047
57.1,-1.39931,7.26457,-0.0624748,0.998047
57.2,-1.39931,7.26457,-0.0624748,0.998047
57.3,-1.39931,7.26457,-0.0624748,0.998047
57.4,-1.39931,7.26457,-0.0624748,0.998047
57.5,-1.39931,7.26457,-0.0624748,0.998047
57.6,-1.39931,7.26457,-0.0624748,0.998047
57.7,-1.39931,7.26457,-0.0624748,0.998047
57.8,-1.39931,7.26457,-0.0624748,0.998047
57.9,-1.39931,7.26457,-0.0624748,0.998047
58,-1.39931,7.26457,-0.0624748,0.998047
58.1,-1.39931,7.26457,-0.0624748,0.998047
58.2,-1.39931,7.26457,-0.0624748,0.998047
58.3,-1.39931,7.26457,-0.0624748,0.998047
58.4,-1.39931,7.26457,-0.0624748,0.998047
58.5,-1.39931,7.26457,-0.0624748,0.998047
58.6,-1.39931,7.26457,-0.0624748,0.998047
58.7,-1.39931,7.26457,-0.0624748,0.998047
58.8,-1.39931,7.26457,-0.0624748,0.998047
58.9,-1.39931,7.26457,-0.0624748,0.998047
59,-1.39931,7.26457,-0.0624748,0.998047
59.1,-1.39931,7.26457,-0.0624748,0.998047
59.2,-1.39931,7.26457,-0.0624748,0.998047
59.3,-1.39931,7.26457,-0.0624748,0.998047
59.4,-1.39931,7.26457,-0.0624748,0.998047
59.5,-1.39931,7.26457,-0.0624748,0.998047
59.6,-1.39931,7.26457,-0.0624748,0.998047
59.7,-1.39931,7.26457,-0.0624748,0.998047
59.8,-1.39931,7.26457,-0.0624748,0.998047
59.9,-1.39931,7.26457,-0.0624748,0.998047
60,-1.39931,7.26457,-0.0624748,0.998047
60.1,-1.39931,7.26457,-0.0624748,0.998047
60.2,-1.39931,7.26457,-0.0624748,0.998047
60.3,-1.39931,7.26457,-0.0624748,0.998047
60.4,-1.39931,7.26457,-0.0624748,0.998047
60.5,-1.39931,7.26457,-0.0624748,0.998047
60.6,-1.39931,7.26457,-0.0624748,0.998047
60.7,-1.39931,7.26457,-0.0624748,0.998047
60.8,-1.39931,7.26457,-0.0624748,0.998047
60.9,-1.39931,7.26457,-0.0624748,0.998047
61,-1.39931,7.26457,-0.0624748,0.998047
61.1,-1.39931,7.26457,-0.0624748,0.998047
61.2,-1.39931,7.26457,-0.0624748,0.998047
61.3,-1.39931,7.26457,-0.0624748,0.998047
61.4,-1.39931,7.26457,-0.0624748,0.998047
61.5,-1.39931,7.26457,-0.0624748,0.998047
61.6,-1.39931,7.26457,-0.0624748,0.998047
61.7,-1.39931,7.26457,-0.0624748,0.998047
61.8,-1.39931,7.26457,-0.0624748,0.998047
61.9,-1.39931,7.26457,-0.0624748,0.998047
62,-1.39931,7.26457,-0.0624748,0.998047
62.1,-1.39931,7.26457,-0.0624748,0.998047
62.2,-1.39931,7.26457,-0.0624748,0.998047
62.3,-1.39931,7.26457,-0.0624748,0.998047
62.4,-1.39931,7.26457,-0.0624748,0.998047
62.5,-1.39931,7.26457,-0.0624748,0.998047
62.6,-1.39931,7.26457,-0.0624748,0.998047
62.7,-1.39931,7.26457,-0.0624748,0.998047
62.8,-1.39931,7.26457,-0.0624748,0.998047
62.9,-1.39931,7.26457,-0.0624748,0.998047
63,-1.39931,7.26457,-0.0624748,0.998047
63.1,-1.39931,7.26457,-0.0624748,0.998047
63.2,-1.39931,7.26457,-0.0624748,0.998047
63.3,-1.39931,7.26457,-0.0624748,0.998047
63.4,-1.39931,7.26457,-0.0624748,0.998047
63.5,-1.39931,7.26457,-0.0624748,0.998047
63.6,-1.39931,7.26457,-0.0624748,0.998047
63.7,-1.39931,7.26457,-0.0624748,0.998047
63.8,-1.39931,7.26457,-0.0624748,0.998047
63.9,-1.39931,7.26457,-0.0624748,0.998047
64,-1.39931,7.26457,-0.0624748,0.998047
64.1,-1.39931,7.26457,-0.0624748,0.998047
64.2,-1.39931,7.26457,-0.0624748,0.998047
64.3,-1.39931,7.26457,-0.0624748,0.998047
64.4,-1.39931,7.26457,-0.0624748,0.998047
64.5,-1.39931,7.26457,-0.0624748,0.998047
64.6,-1.39931,7.26457,-0.0624748,0.998047
64.7,-1.39931,7.26457,-0.0624748,0.998047
64.8,-1.39931,7.26457,-0.0624748,0.998047
64.9,-1.39931,7.26457,-0.0624748,0.998047
65,-1.39931,7.26457,-0.0624748,0.998047
65.1,-1.39931,7.26457,-0.0624748,0.998047
65.2,-1.39931,7.26457,-0.0624748,0.998047
65.3,-1.39931,7.26457,-0.0624748,0.998047
65.4,-1.39931,7.26457,-0.0624748,0.998047
65.5,-1.39931,7.26457,-0.0624748,0.998047
65.6,-1.39931,7.26457,-0.0624748,0.998047
65.7,-1.39931,7.26457,-0.0624748,0.998047
65.8,-1.39931,7.26457,-0.0624748,0.998047
65.9,-1.39931,7.26457,-0.0624748,0.998047
66,-1.39931,7.26457,-0.0624748,0.998047
66.1,-1.39931,7.26457,-0.0624748,0.998047
66.2,-1.39931,7.26457,-0.0624748,0.998047
66.3,-1.39931,7.26457,-0.0624748,0.998047
66.4,-1.39931,7.26457,-0.0624748,0.998047
66.5,-1.39931,7.26457,-0.0624748,0.998047
66.6,-1.39931,7.26457,-0.0624748,0.998047
66.7,-1.39931,7.26457,-0.0624748,0.998047
66.8,-1.39931,7.26457,-0.0624748,0.998047
66.9,-1.39931,7.26457,-0.0624748,0.998047
67,-1.39931,7.26457,-0.0624748,0.998047
67.1,-1.39931,7.26457,-0.0624748,0.998047
67.2,-1.39931,7.26457,-0.0624748,0.998047
67.3,-1.39931,7.26457,-0.0624748,0.998047
67.4,-1.39931,7.26457,-0.0624748,0.998047
67.5,-1.39931,7.26457,-0.0624748,0.998047
67.6,-1.39931,7.26457,-0.0624748,0.998047
67.7,-1.39931,7.26457,-0.0624748,0.998047
67.8,-1.39931,7.26457,-0.0624748,0.998047
67.9,-1.39931,7.26457,-0.0624748,0.998047
68,-1.39931,7.26457,-0.0624748,0.998047
68.1,-1.39931,7.26457,-0.0624748,0.998047
68.2,-1.39931,7.26457,-0.0624748,0.998047
68.3,-1.39931,7.26457,-0.0624748,0.998047
68.4,-1.39931,7.26457,-0.0624748,0.998047
68.5,-1.39931,7.26457,-0.0624748,0.998047
68.6,-1.39931,7.26457,-0.0624748,0.998047
68.7,-1.39931,7.26457,-0.0624748,0.998047
68.8,-1.39931,7.26457,-0.0624748,0.998047
68.9,-1.39931,7.26457,-0.0624748,0.998047
69,-1.39931,7.26457,-0.0624748,0.998047
69.1,-1.39931,7.26457,-0.0624748,0.998047
69.2,-1.39931,7.26457,-0.0624748,0.998047
69.3,-1.39931,7.26457,-0.0624748,0.998047
69.4,-1.39931,7.26457,-0.0624748,0.998047
69.5,-1.39931,7.26457,-0.0624748,0.998047
69.6,-1.39931,7.26457,-0.0624748,0.998047
69.7,-1.39931,7.26457,-0.0624748,0.998047
69.8,-1.39931,7.26457,-0.0624748,0.998047
69.9,-1.39931,7.26457,-0.0624748,0.998047
70,-1.39931,7.26457,-0.0624748,0.998047
70.1,-1.39931,7.26457,-0.0624748,0.998047
70.2,-1.39931,7.26457,-0.0624748,0.998047
70.3,-1.39931,7.26457,-0.0624748,0.998047
70.4,-1.39931,7.26457,-0.0624748,0.998047
70.5,-1.39931,7.26457,-0.0624748,0.998047
70.6,-1.39931,7.26457,-0.0624748,0.998047
70.7,-1.39931,7.26457,-0.0624748,0.998047
70.8,-1.39931,7.26457,-0.0624748,0.998047
70.9,-1.39931,7.26457,-0.0624748,0.998047
71,-1.39931,7.26457,-0.0624748,0.998047
71.1,-1.39931,7.26457,-0.0624748,0.998047
71.2,-1.39931,7.26457,-0.0624748,0.998047
71.3,-1.39931,7.26457,-0.0624748,0.998047
71.4,-1.39931,7.26457,-0.0624748,0.998047
71.5,-1.39931,7.26457,-0.0624748,0.998047
71.6,-1.39931,7.26457,-0.0624748,0.998047
71.7,-1.39931,7.26457,-0.0624748,0.998047
71.8,-1.39931,7.26457,-0.0624748,0.998047
71.9,-1.39931,7.26457,-0.0624748,0.998047
72,-1.39931,7.26457,-0.0624748,0.998047
72.1,-1.39931,7.26457,-0.0624748,0.998047
72.2,-1.39931,7.26457,-0.0624748,0.998047
72.3,-1.39931,7.26457,-0.0624748,0.998047
72.4,-1.39931,7.26457,-0.0624748,0.998047
72.5,-1.39931,7.26457,-0.0624748,0.998047
72.6,-1.39931,7.26457,-0.0624748,0.998047
72.7,-1.39931,7.26457,-0.0624748,0.998047
72.8,-1.39931,7.26457,-0.0624748,0.998047
72.9,-1.39931,7.26457,-0.0624748,0.998047
73,-1.39931,7.26457,-0.0624748,0.998047
73.1,-1.39931,7.26457,-0.0624748,0.998047
73.2,-1.39931,7.26457,-0.0624748,0.998047
73.3,-1.39931,7.26457,-0.0624748,0.998047
73.4,-1.39931,7.26457,-0.0624748,0.998047
73.5,-1.39931,7.26457,-0.0624748,0.998047
73.6,-1.39931,7.26457,-0.0624748,0.998047
73.7,-1.39931,7.26457,-0.0624748,0.998047
73.8,-1.39931,7.26457,-0.0624748,0.998047
73.9,-1.39931,7.26457,-0.0624748,0.998047
74,-1.39931,7.26457,-0.0624748,0.998047
74.1,-1.39931,7.26457,-0.0624748,0.998047
74.2,-1.39931,7.26457,-0.0624748,0.998047
74.3,-1.39931,7.26457,-0.0624748,0.998047
74.4,-1.39931,7.26457,-0.0624748,0.998047
74.5,-1.39931,7.26457,-0.0624748,0.998047
74.6,-1.39931,7.26457,-0.0624748,0.998047
74.7,-1.39931,7.26457,-0.0624748,0.998047
74.8,-1.39931,7.26457,-0.0624748,0.998047
74.9,-1.39931,7.26457,-0.0624748,0.998047
75,-1.39931,7.26457,-0.0624748,0.998047
75.1,-1.39931,7.26457,-0.0624748,0.998047
75.2,-1.39931,7.26457,-0.0624748,0.998047
75.3,-1.39931,7.26457,-0.0624748,0.998047
75.4,-1.39931,7.26457,-0.0624748,0.998047
75.5,-1.39931,7.26457,-0.0624748,0.998047
75.6,-1.39931,7.26457,-0.0624748,0.998047
75.7,-1.39931,7.26457,-0.0624748,0.998047
75.8,-1.39931,7.26457,-0.0624748,0.998047
75.9,-1.39931,7.26457,-0.0624748,0.998047
76,-1.39931,7.26457,-0.0624748,0.998047
76.1,-1.39931,7.26457,-0.0624748,0.998047
76.2,-1.39931,7.26457,-0.0624748,0.998047
76.3,-1.39931,7.26457,-0.0624748,0.998047
76.4,-1.39931,7.26457,-0.0624748,0.998047
76.5,-1.39931,7.26457,-0.0624748,0.998047
76.6,-1.39931,7.26457,-0.0624748,0.998047
76.7,-1.39931,7.26457,-0.0624748,0.998047
76.8,-1.39931,7.26457,-0.0624748,0.998047
76.9,-1.39931,7.26457,-0.0624748,0.998047
77,-1.39931,7.26457,-0.0624748,0.998047
77.1,-1.39931,7.26457,-0.0624748,0.998047
77.2,-1.39931,7.26457,-0.0624748,0.998047
77.3,-1.39931,7.26457,-0.0624748,0.998047
77.4,-1.39931,7.26457,-0.0624748,0.998047
77.5,-1.39931,7.26457,-0.0624748,0.998047
77.6,-1.39931,7.26457,-0.0624748,0.998047
77.7,-1.39931,7.26457,-0.0624748,0.998047
77.8,-1.39931,7.26457,-0.0624748,0.998047
77.9,-1.39931,7.26457,-0.0624748,0.998047
78,-1.39931,7.26457,-0.0624748,0.998047
78.1,-1.39931,7.26457,-0.0624748,0.998047
78.2,-1.39931,7.26457,-0.0624748,0.998047
78.3,-1.39931,7.26457,-0.0624748,0.998047
78.4,-1.39931,7.26457,-0.0624748,0.998047
78.5,-1.39931,7.26457,-0.0624748,0.998047
78.6,-1.39931,7.26457,-0.0624748,0.998047
78.7,-1.39931,7.26457,-0.0624748,0.998047
78.8,-1.39931,7.26457,-0.0624748,0.998047
78.9,-1.39931,7.26457,-0.0624748,0.998047
79,-1.39931,7.26457,-0.0624748,0.998047
79.1,-1.39931,7.26457,-0.0624748,0.998047
79.2,-1.39931,7.26457,-0.0624748,0.998047
79.3,-1.39931,7.26457,-0.0624748,0.998047
79.4,-1.39931,7.26457,-0.0624748,0.998047
79.5,-1.39931,7.26457,-0.0624748,0.998047
79.6,-1.39931,7.26457,-0.0624748,0.998047
79.7,-1.39931,7.26457,-0.0624748,0.998047
79.8,-1.39931,7.26457,-0.0624748,0.998047
79.9,-1.39931,7.26457,-0.0624748,0.998047
80,-1.39931,7.26457,-0.0624748,0.998047
