0.1,0.468573,7.43962,-0.0581847,-0.998306
0.2,0.459071,7.34519,-0.0849757,-0.996383
0.3,0.450709,7.21452,-0.0634372,-0.997986
0.4,0.439653,7.07601,-0.0741577,-0.997247
0.5,0.432058,6.95557,-0.0627516,-0.998029
0.6,0.420015,6.81617,-0.0785682,-0.996909
0.7,0.416749,6.69609,-0.0394791,-0.99922
0.8,0.40969,6.55484,-0.0538697,-0.998548
0.9,0.402088,6.43389,-0.062684,-0.998033
1,0.394922,6.28981,-0.0536889,-0.998558
1.1,0.386406,6.17041,-0.0681859,-0.997673
1.2,0.374869,6.02467,-0.0739093,-0.997265
1.3,0.360853,5.90724,-0.0986775,-0.995119
1.4,0.350853,5.75964,-0.0658876,-0.997827
1.5,0.348708,5.65686,-0.0367729,-0.999324
1.6,0.338074,5.51736,-0.0716488,-0.99743
1.7,0.329065,5.40255,-0.0724114,-0.997375
1.8,0.316258,5.25016,-0.0772504,-0.997012
1.9,0.304939,5.13235,-0.0836152,-0.996498
2,0.295138,5.00759,-0.0725242,-0.997367
2.1,0.286661,4.88298,-0.0655889,-0.997847
2.2,0.276435,4.72935,-0.064851,-0.997895
2.3,0.268003,4.60003,-0.0637305,-0.997967
2.4,0.253737,4.44265,-0.0817642,-0.996652
2.5,0.232188,4.31442,-0.13086,-0.991401
2.6,0.216025,4.16782,-0.0942901,-0.995545
2.7,0.207712,4.03697,-0.0618907,-0.998083
2.8,0.194519,3.8864,-0.0787227,-0.996897
2.9,0.184551,3.76261,-0.0727646,-0.997349
3,0.174649,3.60523,-0.0614509,-0.99811
3.1,0.158543,3.49185,-0.110842,-0.993838
3.2,0.160842,3.37817,-0.00796189,-0.999968
3.3,0.158926,3.22911,-0.0265876,-0.999646
3.4,0.156663,3.10102,-0.0314759,-0.999505
3.5,0.162289,2.98995,0.0101099,-0.999949
3.6,0.168908,2.88217,0.0156179,-0.999878
3.7,0.176461,2.7837,0.0217234,-0.999764
3.8,0.177041,2.68597,-0.0215793,-0.999767
3.9,0.186223,2.62209,0.039192,-0.999232
4,0.192767,2.54103,0.0159394,-0.999873
4.1,0.198002,2.48262,0.00764073,-0.999971
4.2,0.204399,2.40441,0.014288,-0.999898
4.3,0.208856,2.34845,0.000238857,-1
4.4,0.220263,2.28414,0.0535344,-0.998566
4.5,0.228439,2.21244,0.0262742,-0.999655
4.6,0.236865,2.16304,0.0328171,-0.999461
4.7,0.241966,2.1007,0.00271494,-0.999996
4.8,0.254974,2.06711,0.082915,-0.996557
4.9,0.259224,2.01992,-0.00602547,-0.999982
5,0.264369,1.97002,0.00144916,-0.999999
5.1,0.255197,1.9532,-0.171514,-0.985182
5.2,0.250141,1.92295,-0.105055,-0.994466
5.3,0.236283,1.91033,-0.236243,-0.971694
5.4,0.234135,1.90118,-0.094574,-0.995518
5.5,0.227751,1.89832,-0.164018,-0.986457
5.6,0.247808,1.87887,0.177867,-0.984054
5.7,0.261552,1.87031,0.118683,-0.992932
5.8,0.271446,1.87077,0.0746945,-0.997206
5.9,0.284466,1.8681,0.115997,-0.99325
6,0.29881,1.86453,0.132114,-0.991235
6.1,0.311733,1.86029,0.109311,-0.994008
6.2,0.323015,1.85648,0.085086,-0.996374
6.3,0.334493,1.85277,0.0869159,-0.996216
6.4,0.3435,1.84989,0.0505141,-0.998723
6.5,0.355229,1.84602,0.0882346,-0.9961
6.6,0.368441,1.83958,0.104507,-0.994524
6.7,0.381842,1.83275,0.105233,-0.994448
6.8,0.396183,1.82473,0.114935,-0.993373
6.9,0.411742,1.81579,0.128322,-0.991733
7,0.427778,1.80602,0.131699,-0.99129
7.1,0.44364,1.79589,0.127305,-0.991864
7.2,0.459443,1.78595,0.12535,-0.992113
7.3,0.473937,1.77799,0.109528,-0.993984
7.4,0.486984,1.77193,0.0908393,-0.995866
7.5,0.499788,1.76567,0.0858934,-0.996304
7.6,0.512332,1.75919,0.0807325,-0.996736
7.7,0.524598,1.75287,0.075747,-0.997127
7.8,0.536927,1.74702,0.0759194,-0.997114
7.9,0.549535,1.7415,0.0789228,-0.996881
8,0.561908,1.73572,0.0740791,-0.997252
8.1,0.574186,1.73011,0.071633,-0.997431
8.2,0.586733,1.72511,0.0748417,-0.997195
8.3,0.599499,1.72047,0.0770583,-0.997027
8.4,0.612613,1.71542,0.0802799,-0.996772
8.5,0.625751,1.71034,0.0792437,-0.996855
8.6,0.638744,1.70504,0.0756131,-0.997137
8.7,0.65159,1.69932,0.071763,-0.997422
8.8,0.664258,1.69375,0.0680786,-0.99768
8.9,0.677389,1.68762,0.0727457,-0.997351
9,0.690578,1.68141,0.072154,-0.997393
9.1,0.70489,1.67373,0.0847926,-0.996399
9.2,0.718912,1.66564,0.0789225,-0.996881
9.3,0.733599,1.65787,0.0869828,-0.99621
9.4,0.748103,1.64924,0.0820342,-0.996629
9.5,0.76294,1.63931,0.0835949,-0.9965
9.6,0.777534,1.62885,0.078343,-0.996926
9.7,0.792207,1.61711,0.0766286,-0.99706
9.8,0.806786,1.6045,0.0731075,-0.997324
9.9,0.821599,1.59191,0.074702,-0.997206
10,0.836095,1.57951,0.0693155,-0.997595
10.1,0.850565,1.56675,0.067227,-0.997738
10.2,0.864933,1.55315,0.0637514,-0.997966
10.3,0.879216,1.53951,0.0612096,-0.998125
10.4,0.893445,1.52588,0.0590834,-0.998253
10.5,0.907548,1.51192,0.0558069,-0.998442
10.6,0.922196,1.49713,0.0606687,-0.998158
10.7,0.936729,1.48186,0.0573947,-0.998352
10.8,0.951376,1.46619,0.0570744,-0.99837
10.9,0.966266,1.45021,0.0583899,-0.998294
11,0.981078,1.43318,0.0552093,-0.998475
11.1,0.995716,1.41531,0.0510504,-0.998696
11.2,1.01062,1.39658,0.0522053,-0.998636
11.3,1.02553,1.37766,0.0507157,-0.998713
11.4,1.04052,1.35863,0.0501042,-0.998744
11.5,1.05534,1.33953,0.0464514,-0.998921
11.6,1.07031,1.32039,0.0468188,-0.998903
11.7,1.08507,1.30101,0.0425353,-0.999095
11.8,1.09983,1.28132,0.0409076,-0.999163
11.9,1.11487,1.26103,0.0424266,-0.9991
12,1.12991,1.2407,0.0407162,-0.999171
12.1,1.14501,1.21988,0.0397751,-0.999209
12.2,1.15907,1.19887,0.0259093,-0.999664
12.3,1.17329,1.17743,0.0261335,-0.999658
12.4,1.18758,1.15606,0.0254261,-0.999677
12.5,1.20055,1.13496,0.00843644,-0.999964
12.6,1.21422,1.11331,0.0151,-0.999886
12.7,1.22772,1.09115,0.0116428,-0.999932
12.8,1.24156,1.06846,0.0141013,-0.999901
12.9,1.25348,1.04594,-0.00978656,-0.999952
13,1.26527,1.02297,-0.0125275,-0.999922
13.1,1.27805,0.999192,-0.00245437,-0.999997
13.2,1.29222,0.973977,0.0116751,-0.999932
13.3,1.30633,0.948738,0.00962481,-0.999954
13.4,1.32126,0.922273,0.0168693,-0.999858
13.5,1.34281,0.889396,0.0826353,-0.99658
13.6,1.36773,0.851366,0.1093,-0.994009
13.7,1.39731,0.806754,0.142678,-0.989769
13.8,1.39893,0.767001,-0.12189,-0.992544
13.9,1.38509,0.724977,-0.258455,-0.966023
14,1.36393,0.681232,-0.314463,-0.94927
14.1,1.33833,0.627655,-0.322427,-0.946594
14.2,1.30948,0.570492,-0.335788,-0.941938
14.3,1.27784,0.509642,-0.344829,-0.938666
14.4,1.24252,0.446567,-0.362366,-0.932036
14.5,1.20563,0.37405,-0.348669,-0.937246
14.6,1.16741,0.296636,-0.344733,-0.938701
14.7,1.1371,0.211345,-0.281663,-0.959513
14.8,1.10597,0.120303,-0.276065,-0.961139
14.9,1.07485,0.011139,-0.248396,-0.968658
15,1.04084,-0.089253,-0.276163,-0.961111
15.1,0.997803,-0.198228,-0.308767,-0.951138
15.2,0.967303,-0.300433,-0.252743,-0.967534
15.3,0.937386,-0.401969,-0.250014,-0.968242
15.4,0.907579,-0.503676,-0.24869,-0.968583
15.5,0.877553,-0.605686,-0.248974,-0.96851
15.6,0.84634,-0.708047,-0.254458,-0.967084
15.7,0.813208,-0.810885,-0.263575,-0.964639
15.8,0.780469,-0.913886,-0.260535,-0.965464
15.9,0.752812,-1.01659,-0.23251,-0.972594
16,0.724081,-1.11962,-0.237535,-0.971379
16.1,0.694867,-1.22263,-0.239714,-0.970844
16.2,0.66481,-1.32599,-0.243282,-0.969956
16.3,0.634764,-1.42929,-0.242683,-0.970106
16.4,0.605263,-1.53259,-0.239066,-0.971003
16.5,0.57584,-1.63612,-0.237692,-0.971341
16.6,0.549846,-1.73916,-0.218766,-0.975777
16.7,0.52244,-1.84246,-0.225789,-0.974176
16.8,0.498125,-1.94543,-0.208411,-0.978041
16.9,0.47414,-2.04918,-0.205246,-0.97871
17,0.450323,-2.15505,-0.201492,-0.97949
17.1,0.429335,-2.264,-0.182198,-0.983262
17.2,0.409077,-2.37635,-0.174724,-0.984617
17.3,0.391122,-2.49489,-0.156794,-0.987631
17.4,0.372225,-2.61826,-0.157856,-0.987462
17.5,0.352301,-2.74376,-0.161507,-0.986872
17.6,0.32927,-2.86969,-0.17692,-0.984225
17.7,0.306969,-2.99574,-0.173081,-0.984908
17.8,0.285258,-3.12274,-0.169246,-0.985574
17.9,0.263322,-3.25047,-0.169776,-0.985483
18,0.241387,-3.3782,-0.169783,-0.985481
18.1,0.219137,-3.50628,-0.171068,-0.985259
18.2,0.196887,-3.63436,-0.171063,-0.98526
18.3,0.174683,-3.76235,-0.170908,-0.985287
18.4,0.152209,-3.89018,-0.172395,-0.985028
18.5,0.129749,-4.0181,-0.172217,-0.985059
18.6,0.107714,-4.14603,-0.170061,-0.985434
18.7,0.0865577,-4.27392,-0.165727,-0.986172
18.8,0.0646731,-4.40177,-0.169497,-0.985531
18.9,0.043073,-4.52958,-0.168142,-0.985763
19,0.0209681,-4.65761,-0.170535,-0.985352
19.1,-0.00131715,-4.78568,-0.171423,-0.985197
19.2,-0.0234364,-4.91382,-0.170526,-0.985353
19.3,-0.0465316,-5.04128,-0.176015,-0.984387
19.4,-0.0685518,-5.16879,-0.170475,-0.985362
19.5,-0.0908696,-5.29632,-0.17197,-0.985102
19.6,-0.113146,-5.42404,-0.17157,-0.985172
19.7,-0.135734,-5.55181,-0.173071,-0.984909
19.8,-0.15796,-5.67961,-0.171166,-0.985242
19.9,-0.180098,-5.80732,-0.17079,-0.985307
20,-0.191213,-5.93669,-0.114111,-0.993468
20.1,-0.213907,-6.06488,-0.175471,-0.984485
20.2,-0.236823,-6.193,-0.176733,-0.984259
20.3,-0.25983,-6.32052,-0.177792,-0.984068
20.4,-0.283078,-6.44859,-0.17852,-0.983936
20.5,-0.305783,-6.57784,-0.174776,-0.984608
20.6,-0.328367,-6.70619,-0.175213,-0.984531
20.7,-0.351688,-6.83393,-0.179737,-0.983715
20.8,-0.374801,-6.96146,-0.178916,-0.983864
20.9,-0.397677,-7.08819,-0.178607,-0.983921
21,-0.421147,-7.21702,-0.179972,-0.983672
21.1,-0.435656,-7.29665,-0.179239,-0.983806
21.2,-0.441202,-7.3271,-0.179239,-0.983806
21.3,-0.441202,-7.3271,-0.179239,-0.983806
21.4,-0.441202,-7.3271,-0.179239,-0.983806
21.5,-0.441202,-7.3271,-0.179239,-0.983806
21.6,-0.441202,-7.3271,-0.179239,-0.983806
21.7,-0.441202,-7.3271,-0.179239,-0.983806
21.8,-0.441202,-7.3271,-0.179239,-0.983806
21.9,-0.441202,-7.3271,-0.179239,-0.983806
22,-0.441202,-7.3271,-0.179239,-0.983806
22.1,-0.441202,-7.3271,-0.179239,-0.983806
22.2,-0.441202,-7.3271,-0.179239,-0.983806
22.3,-0.441202,-7.3271,-0.179239,-0.983806
22.4,-0.441202,-7.3271,-0.179239,-0.983806
22.5,-0.441202,-7.3271,-0.179239,-0.983806
22.6,-0.441202,-7.3271,-0.179239,-0.983806
22.7,-0.441202,-7.3271,-0.179239,-0.983806
22.8,-0.441202,-7.3271,-0.179239,-0.983806
22.9,-0.441202,-7.3271,-0.179239,-0.983806
23,-0.441202,-7.3271,-0.179239,-0.983806
23.1,-0.441202,-7.3271,-0.179239,-0.983806
23.2,-0.441202,-7.3271,-0.179239,-0.983806
23.3,-0.441202,-7.3271,-0.179239,-0.983806
23.4,-0.441202,-7.3271,-0.179239,-0.983806
23.5,-0.441202,-7.3271,-0.179239,-0.983806
23.6,-0.441202,-7.3271,-0.179239,-0.983806
23.7,-0.441202,-7.3271,-0.179239,-0.983806
23.8,-0.441202,-7.3271,-0.179239,-0.983806
23.9,-0.441202,-7.3271,-0.179239,-0.983806
24,-0.441202,-7.3271,-0.179239,-0.983806
24.1,-0.441202,-7.3271,-0.179239,-0.983806
24.2,-0.441202,-7.3271,-0.179239,-0.983806
24.3,-0.441202,-7.3271,-0.179239,-0.983806
24.4,-0.441202,-7.3271,-0.179239,-0.983806
24.5,-0.441202,-7.3271,-0.179239,-0.983806
24.6,-0.441202,-7.3271,-0.179239,-0.983806
24.7,-0.441202,-7.3271,-0.179239,-0.983806
24.8,-0.441202,-7.3271,-0.179239,-0.983806
24.9,-0.441202,-7.3271,-0.179239,-0.983806
25,-0.441202,-7.3271,-0.179239,-0.983806
25.1,-0.441202,-7.3271,-0.179239,-0.983806
25.2,-0.441202,-7.3271,-0.179239,-0.983806
25.3,-0.441202,-7.3271,-0.179239,-0.983806
25.4,-0.441202,-7.3271,-0.179239,-0.983806
25.5,-0.441202,-7.3271,-0.179239,-0.983806
25.6,-0.441202,-7.3271,-0.179239,-0.983806
25.7,-0.441202,-7.3271,-0.179239,-0.983806
25.8,-0.441202,-7.3271,-0.179239,-0.983806
25.9,-0.441202,-7.3271,-0.179239,-0.983806
26,-0.441202,-7.3271,-0.179239,-0.983806
26.1,-0.441202,-7.3271,-0.179239,-0.983806
26.2,-0.441202,-7.3271,-0.179239,-0.983806
26.3,-0.441202,-7.3271,-0.179239,-0.983806
26.4,-0.441202,-7.3271,-0.179239,-0.983806
26.5,-0.441202,-7.3271,-0.179239,-0.983806
26.6,-0.441202,-7.3271,-0.179239,-0.983806
26.7,-0.441202,-7.3271,-0.179239,-0.983806
26.8,-0.441202,-7.3271,-0.179239,-0.983806
26.9,-0.441202,-7.3271,-0.179239,-0.983806
27,-0.441202,-7.3271,-0.179239,-0.983806
27.1,-0.441202,-7.3271,-0.179239,-0.983806
27.2,-0.441202,-7.3271,-0.179239,-0.983806
27.3,-0.441202,-7.3271,-0.179239,-0.983806
27.4,-0.441202,-7.3271,-0.179239,-0.983806
27.5,-0.441202,-7.3271,-0.179239,-0.983806
27.6,-0.441202,-7.3271,-0.179239,-0.983806
27.7,-0.441202,-7.3271,-0.179239,-0.983806
27.8,-0.441202,-7.3271,-0.179239,-0.983806
27.9,-0.441202,-7.3271,-0.179239,-0.983806
28,-0.441202,-7.3271,-0.179239,-0.983806
28.1,-0.441202,-7.3271,-0.179239,-0.983806
28.2,-0.441202,-7.3271,-0.179239,-0.983806
28.3,-0.441202,-7.3271,-0.179239,-0.983806
28.4,-0.441202,-7.3271,-0.179239,-0.983806
28.5,-0.441202,-7.3271,-0.179239,-0.983806
28.6,-0.441202,-7.3271,-0.179239,-0.983806
28.7,-0.441202,-7.3271,-0.179239,-0.983806
28.8,-0.441202,-7.3271,-0.179239,-0.983806
28.9,-0.441202,-7.3271,-0.179239,-0.983806
29,-0.441202,-7.3271,-0.179239,-0.983806
29.1,-0.441202,-7.3271,-0.179239,-0.983806
29.2,-0.441202,-7.3271,-0.179239,-0.983806
29.3,-0.441202,-7.3271,-0.179239,-0.983806
29.4,-0.441202,-7.3271,-0.179239,-0.983806
29.5,-0.441202,-7.3271,-0.179239,-0.983806
29.6,-0.441202,-7.3271,-0.179239,-0.983806
29.7,-0.441202,-7.3271,-0.179239,-0.983806
29.8,-0.441202,-7.3271,-0.179239,-0.983806
29.9,-0.441202,-7.3271,-0.179239,-0.983806
30,-0.441202,-7.3271,-0.179239,-0.983806
30.1,-0.441202,-7.3271,-0.179239,-0.983806
30.2,-0.441202,-7.3271,-0.179239,-0.983806
30.3,-0.441202,-7.3271,-0.179239,-0.983806
30.4,-0.441202,-7.3271,-0.179239,-0.983806
30.5,-0.441202,-7.3271,-0.179239,-0.983806
30.6,-0.441202,-7.3271,-0.179239,-0.983806
30.7,-0.441202,-7.3271,-0.179239,-0.983806
30.8,-0.441202,-7.3271,-0.179239,-0.983806
30.9,-0.441202,-7.3271,-0.179239,-0.983806
31,-0.441202,-7.3271,-0.179239,-0.983806
31.1,-0.441202,-7.3271,-0.179239,-0.983806
31.2,-0.441202,-7.3271,-0.179239,-0.983806
31.3,-0.441202,-7.3271,-0.179239,-0.983806
31.4,-0.441202,-7.3271,-0.179239,-0.983806
31.5,-0.441202,-7.3271,-0.179239,-0.983806
31.6,-0.441202,-7.3271,-0.179239,-0.983806
31.7,-0.441202,-7.3271,-0.179239,-0.983806
31.8,-0.441202,-7.3271,-0.179239,-0.983806
31.9,-0.441202,-7.3271,-0.179239,-0.983806
32,-0.441202,-7.3271,-0.179239,-0.983806
32.1,-0.441202,-7.3271,-0.179239,-0.983806
32.2,-0.441202,-7.3271,-0.179239,-0.983806
32.3,-0.441202,-7.3271,-0.179239,-0.983806
32.4,-0.441202,-7.3271,-0.179239,-0.983806
32.5,-0.441202,-7.3271,-0.179239,-0.983806
32.6,-0.441202,-7.3271,-0.179239,-0.983806
32.7,-0.441202,-7.3271,-0.179239,-0.983806
32.8,-0.441202,-7.3271,-0.179239,-0.983806
32.9,-0.441202,-7.3271,-0.179239,-0.983806
33,-0.441202,-7.3271,-0.179239,-0.983806
33.1,-0.441202,-7.3271,-0.179239,-0.983806
33.2,-0.441202,-7.3271,-0.179239,-0.983806
33.3,-0.441202,-7.3271,-0.179239,-0.983806
33.4,-0.441202,-7.3271,-0.179239,-0.983806
33.5,-0.441202,-7.3271,-0.179239,-0.983806
33.6,-0.441202,-7.3271,-0.179239,-0.983806
33.7,-0.441202,-7.3271,-0.179239,-0.983806
33.8,-0.441202,-7.3271,-0.179239,-0.983806
33.9,-0.441202,-7.3271,-0.179239,-0.983806
34,-0.441202,-7.3271,-0.179239,-0.983806
34.1,-0.441202,-7.3271,-0.179239,-0.983806
34.2,-0.441202,-7.3271,-0.179239,-0.983806
34.3,-0.441202,-7.3271,-0.179239,-0.983806
34.4,-0.441202,-7.3271,-0.179239,-0.983806
34.5,-0.441202,-7.3271,-0.179239,-0.983806
34.6,-0.441202,-7.3271,-0.179239,-0.983806
34.7,-0.441202,-7.3271,-0.179239,-0.983806
34.8,-0.441202,-7.3271,-0.179239,-0.983806
34.9,-0.441202,-7.3271,-0.179239,-0.983806
35,-0.441202,-7.3271,-0.179239,-0.983806
35.1,-0.441202,-7.3271,-0.179239,-0.983806
35.2,-0.441202,-7.3271,-0.179239,-0.983806
35.3,-0.441202,-7.3271,-0.179239,-0.983806
35.4,-0.441202,-7.3271,-0.179239,-0.983806
35.5,-0.441202,-7.3271,-0.179239,-0.983806
35.6,-0.441202,-7.3271,-0.179239,-0.983806
35.7,-0.441202,-7.3271,-0.179239,-0.983806
35.8,-0.441202,-7.3271,-0.179239,-0.983806
35.9,-0.441202,-7.3271,-0.179239,-0.983806
36,-0.441202,-7.3271,-0.179239,-0.983806
36.1,-0.441202,-7.3271,-0.179239,-0.983806
36.2,-0.441202,-7.3271,-0.179239,-0.983806
36.3,-0.441202,-7.3271,-0.179239,-0.983806
36.4,-0.441202,-7.3271,-0.179239,-0.983806
36.5,-0.441202,-7.3271,-0.179239,-0.983806
36.6,-0.441202,-7.3271,-0.179239,-0.983806
36.7,-0.441202,-7.3271,-0.179239,-0.983806
36.8,-0.441202,-7.3271,-0.179239,-0.983806
36.9,-0.441202,-7.3271,-0.179239,-0.983806
37,-0.441202,-7.3271,-0.179239,-0.983806
37.1,-0.441202,-7.3271,-0.179239,-0.983806
37.2,-0.441202,-7.3271,-0.179239,-0.983806
37.3,-0.441202,-7.3271,-0.179239,-0.983806
37.4,-0.441202,-7.3271,-0.179239,-0.983806
37.5,-0.441202,-7.3271,-0.179239,-0.983806
37.6,-0.441202,-7.3271,-0.179239,-0.983806
37.7,-0.441202,-7.3271,-0.179239,-0.983806
37.8,-0.441202,-7.3271,-0.179239,-0.983806
37.9,-0.441202,-7.3271,-0.179239,-0.983806
38,-0.441202,-7.3271,-0.179239,-0.983806
38.1,-0.441202,-7.3271,-0.179239,-0.983806
38.2,-0.441202,-7.3271,-0.179239,-0.983806
38.3,-0.441202,-7.3271,-0.179239,-0.983806
38.4,-0.441202,-7.3271,-0.179239,-0.983806
38.5,-0.441202,-7.3271,-0.179239,-0.983806
38.6,-0.441202,-7.3271,-0.179239,-0.983806
38.7,-0.441202,-7.3271,-0.179239,-0.983806
38.8,-0.441202,-7.3271,-0.179239,-0.983806
38.9,-0.441202,-7.3271,-0.179239,-0.983806
39,-0.441202,-7.3271,-0.179239,-0.983806
39.1,-0.441202,-7.3271,-0.179239,-0.983806
39.2,-0.441202,-7.3271,-0.179239,-0.983806
39.3,-0.441202,-7.3271,-0.179239,-0.983806
39.4,-0.441202,-7.3271,-0.179239,-0.983806
39.5,-0.441202,-7.3271,-0.179239,-0.983806
39.6,-0.441202,-7.3271,-0.179239,-0.983806
39.7,-0.441202,-7.3271,-0.179239,-0.983806
39.8,-0.441202,-7.3271,-0.179239,-0.983806
39.9,-0.441202,-7.3271,-0.179239,-0.983806
40,-0.441202,-7.3271,-0.179239,-0.983806
40.1,-0.441202,-7.3271,-0.179239,-0.983806
40.2,-0.441202,-7.3271,-0.179239,-0.983806
40.3,-0.441202,-7.3271,-0.179239,-0.983806
40.4,-0.441202,-7.3271,-0.179239,-0.983806
40.5,-0.441202,-7.3271,-0.179239,-0.983806
40.6,-0.441202,-7.3271,-0.179239,-0.983806
40.7,-0.441202,-7.3271,-0.179239,-0.983806
40.8,-0.441202,-7.3271,-0.179239,-0.983806
40.9,-0.441202,-7.3271,-0.179239,-0.983806
41,-0.441202,-7.3271,-0.179239,-0.983806
41.1,-0.441202,-7.3271,-0.179239,-0.983806
41.2,-0.441202,-7.3271,-0.179239,-0.983806
41.3,-0.441202,-7.3271,-0.179239,-0.983806
41.4,-0.441202,-7.3271,-0.179239,-0.983806
41.5,-0.441202,-7.3271,-0.179239,-0.983806
41.6,-0.441202,-7.3271,-0.179239,-0.983806
41.7,-0.441202,-7.3271,-0.179239,-0.983806
41.8,-0.441202,-7.3271,-0.179239,-0.983806
41.9,-0.441202,-7.3271,-0.179239,-0.983806
42,-0.441202,-7.3271,-0.179239,-0.983806
42.1,-0.441202,-7.3271,-0.179239,-0.983806
42.2,-0.441202,-7.3271,-0.179239,-0.983806
42.3,-0.441202,-7.3271,-0.179239,-0.983806
42.4,-0.441202,-7.3271,-0.179239,-0.983806
42.5,-0.441202,-7.3271,-0.179239,-0.983806
42.6,-0.441202,-7.3271,-0.179239,-0.983806
42.7,-0.441202,-7.3271,-0.179239,-0.983806
42.8,-0.441202,-7.3271,-0.179239,-0.983806
42.9,-0.441202,-7.3271,-0.179239,-0.983806
43,-0.441202,-7.3271,-0.179239,-0.983806
43.1,-0.441202,-7.3271,-0.179239,-0.983806
43.2,-0.441202,-7.3271,-0.179239,-0.983806
43.3,-0.441202,-7.3271,-0.179239,-0.983806
43.4,-0.441202,-7.3271,-0.179239,-0.983806
43.5,-0.441202,-7.3271,-0.179239,-0.983806
43.6,-0.441202,-7.3271,-0.179239,-0.983806
43.7,-0.441202,-7.3271,-0.179239,-0.983806
43.8,-0.441202,-7.3271,-0.179239,-0.983806
43.9,-0.441202,-7.3271,-0.179239,-0.983806
44,-0.441202,-7.3271,-0.179239,-0.983806
44.1,-0.441202,-7.3271,-0.179239,-0.983806
44.2,-0.441202,-7.3271,-0.179239,-0.983806
44.3,-0.441202,-7.3271,-0.179239,-0.983806
44.4,-0.441202,-7.3271,-0.179239,-0.983806
44.5,-0.441202,-7.3271,-0.179239,-0.983806
44.6,-0.441202,-7.3271,-0.179239,-0.983806
44.7,-0.441202,-7.3271,-0.179239,-0.983806
44.8,-0.441202,-7.3271,-0.179239,-0.983806
44.9,-0.441202,-7.3271,-0.179239,-0.983806
45,-0.441202,-7.3271,-0.179239,-0.983806
45.1,-0.441202,-7.3271,-0.179239,-0.983806
45.2,-0.441202,-7.3271,-0.179239,-0.983806
45.3,-0.441202,-7.3271,-0.179239,-0.983806
45.4,-0.441202,-7.3271,-0.179239,-0.983806
45.5,-0.441202,-7.3271,-0.179239,-0.983806
45.6,-0.441202,-7.3271,-0.179239,-0.983806
45.7,-0.441202,-7.3271,-0.179239,-0.983806
45.8,-0.441202,-7.3271,-0.179239,-0.983806
45.9,-0.441202,-7.3271,-0.179239,-0.983806
46,-0.441202,-7.3271,-0.179239,-0.983806
46.1,-0.441202,-7.3271,-0.179239,-0.983806
46.2,-0.441202,-7.3271,-0.179239,-0.983806
46.3,-0.441202,-7.3271,-0.179239,-0.983806
46.4,-0.441202,-7.3271,-0.179239,-0.983806
46.5,-0.441202,-7.3271,-0.179239,-0.983806
46.6,-0.441202,-7.3271,-0.179239,-0.983806
46.7,-0.441202,-7.3271,-0.179239,-0.983806
46.8,-0.441202,-7.3271,-0.179239,-0.983806
46.9,-0.441202,-7.3271,-0.179239,-0.983806
47,-0.441202,-7.3271,-0.179239,-0.983806
47.1,-0.441202,-7.3271,-0.179239,-0.983806
47.2,-0.441202,-7.3271,-0.179239,-0.983806
47.3,-0.441202,-7.3271,-0.179239,-0.983806
47.4,-0.441202,-7.3271,-0.179239,-0.983806
47.5,-0.441202,-7.3271,-0.179239,-0.983806
47.6,-0.441202,-7.3271,-0.179239,-0.983806
47.7,-0.441202,-7.3271,-0.179239,-0.983806
47.8,-0.441202,-7.3271,-0.179239,-0.983806
47.9,-0.441202,-7.3271,-0.179239,-0.983806
48,-0.441202,-7.3271,-0.179239,-0.983806
48.1,-0.441202,-7.3271,-0.179239,-0.983806
48.2,-0.441202,-7.3271,-0.179239,-0.983806
48.3,-0.441202,-7.3271,-0.179239,-0.983806
48.4,-0.441202,-7.3271,-0.179239,-0.983806
48.5,-0.441202,-7.3271,-0.179239,-0.983806
48.6,-0.441202,-7.3271,-0.179239,-0.983806
48.7,-0.441202,-7.3271,-0.179239,-0.983806
48.8,-0.441202,-7.3271,-0.179239,-0.983806
48.9,-0.441202,-7.3271,-0.179239,-0.983806
49,-0.441202,-7.3271,-0.179239,-0.983806
49.1,-0.441202,-7.3271,-0.179239,-0.983806
49.2,-0.441202,-7.3271,-0.179239,-0.983806
49.3,-0.441202,-7.3271,-0.179239,-0.983806
49.4,-0.441202,-7.3271,-0.179239,-0.983806
49.5,-0.441202,-7.3271,-0.179239,-0.983806
49.6,-0.441202,-7.3271,-0.179239,-0.983806
49.7,-0.441202,-7.3271,-0.179239,-0.983806
49.8,-0.441202,-7.3271,-0.179239,-0.983806
49.9,-0.441202,-7.3271,-0.179239,-0.983806
50,-0.441202,-7.3271,-0.179239,-0.983806
50.1,-0.441202,-7.3271,-0.179239,-0.983806
50.2,-0.441202,-7.3271,-0.179239,-0.983806
50.3,-0.441202,-7.3271,-0.179239,-0.983806
50.4,-0.441202,-7.3271,-0.179239,-0.983806
50.5,-0.441202,-7.3271,-0.179239,-0.983806
50.6,-0.441202,-7.3271,-0.179239,-0.983806
50.7,-0.441202,-7.3271,-0.179239,-0.983806
50.8,-0.441202,-7.3271,-0.179239,-0.983806
50.9,-0.441202,-7.3271,-0.179239,-0.983806
51,-0.441202,-7.3271,-0.179239,-0.983806
51.1,-0.441202,-7.3271,-0.179239,-0.983806
51.2,-0.441202,-7.3271,-0.179239,-0.983806
51.3,-0.441202,-7.3271,-0.179239,-0.983806
51.4,-0.441202,-7.3271,-0.179239,-0.983806
51.5,-0.441202,-7.3271,-0.179239,-0.983806
51.6,-0.441202,-7.3271,-0.179239,-0.983806
51.7,-0.441202,-7.3271,-0.179239,-0.983806
51.8,-0.441202,-7.3271,-0.179239,-0.983806
51.9,-0.441202,-7.3271,-0.179239,-0.983806
52,-0.441202,-7.3271,-0.179239,-0.983806
52.1,-0.441202,-7.3271,-0.179239,-0.983806
52.2,-0.441202,-7.3271,-0.179239,-0.983806
52.3,-0.441202,-7.3271,-0.179239,-0.983806
52.4,-0.441202,-7.3271,-0.179239,-0.983806
52.5,-0.441202,-7.3271,-0.179239,-0.983806
52.6,-0.441202,-7.3271,-0.179239,-0.983806
52.7,-0.441202,-7.3271,-0.179239,-0.983806
52.8,-0.441202,-7.3271,-0.179239,-0.983806
52.9,-0.441202,-7.3271,-0.179239,-0.983806
53,-0.441202,-7.3271,-0.179239,-0.983806
53.1,-0.441202,-7.3271,-0.179239,-0.983806
53.2,-0.441202,-7.3271,-0.179239,-0.983806
53.3,-0.441202,-7.3271,-0.179239,-0.983806
53.4,-0.441202,-7.3271,-0.179239,-0.983806
53.5,-0.441202,-7.3271,-0.179239,-0.983806
53.6,-0.441202,-7.3271,-0.179239,-0.983806
53.7,-0.441202,-7.3271,-0.179239,-0.983806
53.8,-0.441202,-7.3271,-0.179239,-0.983806
53.9,-0.441202,-7.3271,-0.179239,-0.983806
54,-0.441202,-7.3271,-0.179239,-0.983806
54.1,-0.441202,-7.3271,-0.179239,-0.983806
54.2,-0.441202,-7.3271,-0.179239,-0.983806
54.3,-0.441202,-7.3271,-0.179239,-0.983806
54.4,-0.441202,-7.3271,-0.179239,-0.983806
54.5,-0.441202,-7.3271,-0.179239,-0.983806
54.6,-0.441202,-7.3271,-0.179239,-0.983806
54.7,-0.441202,-7.3271,-0.179239,-0.983806
54.8,-0.441202,-7.3271,-0.179239,-0.983806
54.9,-0.441202,-7.3271,-0.179239,-0.983806
55,-0.441202,-7.3271,-0.179239,-0.983806
55.1,-0.441202,-7.3271,-0.179239,-0.983806
55.2,-0.441202,-7.3271,-0.179239,-0.983806
55.3,-0.441202,-7.3271,-0.179239,-0.983806
55.4,-0.441202,-7.3271,-0.179239,-0.983806
55.5,-0.441202,-7.3271,-0.179239,-0.983806
55.6,-0.441202,-7.3271,-0.179239,-0.983806
55.7,-0.441202,-7.3271,-0.179239,-0.983806
55.8,-0.441202,-7.3271,-0.179239,-0.983806
55.9,-0.441202,-7.3271,-0.179239,-0.983806
56,-0.441202,-7.3271,-0.179239,-0.983806
56.1,-0.441202,-7.3271,-0.179239,-0.983806
56.2,-0.441202,-7.3271,-0.179239,-0.983806
56.3,-0.441202,-7.3271,-0.179239,-0.983806
56.4,-0.441202,-7.3271,-0.179239,-0.983806
56.5,-0.441202,-7.3271,-0.179239,-0.983806
56.6,-0.441202,-7.3271,-0.179239,-0.983806
56.7,-0.441202,-7.3271,-0.179239,-0.983806
56.8,-0.441202,-7.3271,-0.179239,-0.983806
56.9,-0.441202,-7.3271,-0.179239,-0.983806
57,-0.441202,-7.3271,-0.179239,-0.983806
57.1,-0.441202,-7.3271,-0.179239,-0.983806
57.2,-0.441202,-7.3271,-0.179239,-0.983806
57.3,-0.441202,-7.3271,-0.179239,-0.983806
57.4,-0.441202,-7.3271,-0.179239,-0.983806
57.5,-0.441202,-7.3271,-0.179239,-0.983806
57.6,-0.441202,-7.3271,-0.179239,-0.983806
57.7,-0.441202,-7.3271,-0.179239,-0.983806
57.8,-0.441202,-7.3271,-0.179239,-0.983806
57.9,-0.441202,-7.3271,-0.179239,-0.983806
58,-0.441202,-7.3271,-0.179239,-0.983806
58.1,-0.441202,-7.3271,-0.179239,-0.983806
58.2,-0.441202,-7.3271,-0.179239,-0.983806
58.3,-0.441202,-7.3271,-0.179239,-0.983806
58.4,-0.441202,-7.3271,-0.179239,-0.983806
58.5,-0.441202,-7.3271,-0.179239,-0.983806
58.6,-0.441202,-7.3271,-0.179239,-0.983806
58.7,-0.441202,-7.3271,-0.179239,-0.983806
58.8,-0.441202,-7.3271,-0.179239,-0.983806
58.9,-0.441202,-7.3271,-0.179239,-0.983806
59,-0.441202,-7.3271,-0.179239,-0.983806
59.1,-0.441202,-7.3271,-0.179239,-0.983806
59.2,-0.441202,-7.3271,-0.179239,-0.983806
59.3,-0.441202,-7.3271,-0.179239,-0.983806
59.4,-0.441202,-7.3271,-0.179239,-0.983806
59.5,-0.441202,-7.3271,-0.179239,-0.983806
59.6,-0.441202,-7.3271,-0.179239,-0.983806
59.7,-0.441202,-7.3271,-0.179239,-0.983806
59.8,-0.441202,-7.3271,-0.179239,-0.983806
59.9,-0.441202,-7.3271,-0.179239,-0.983806
60,-0.441202,-7.3271,-0.179239,-0.983806
60.1,-0.441202,-7.3271,-0.179239,-0.983806
60.2,-0.441202,-7.3271,-0.179239,-0.983806
60.3,-0.441202,-7.3271,-0.179239,-0.983806
60.4,-0.441202,-7.3271,-0.179239,-0.983806
60.5,-0.441202,-7.3271,-0.179239,-0.983806
60.6,-0.441202,-7.3271,-0.179239,-0.983806
60.7,-0.441202,-7.3271,-0.179239,-0.983806
60.8,-0.441202,-7.3271,-0.179239,-0.983806
60.9,-0.441202,-7.3271,-0.179239,-0.983806
61,-0.441202,-7.3271,-0.179239,-0.983806
61.1,-0.441202,-7.3271,-0.179239,-0.983806
61.2,-0.441202,-7.3271,-0.179239,-0.983806
61.3,-0.441202,-7.3271,-0.179239,-0.983806
61.4,-0.441202,-7.3271,-0.179239,-0.983806
61.5,-0.441202,-7.3271,-0.179239,-0.983806
61.6,-0.441202,-7.3271,-0.179239,-0.983806
61.7,-0.441202,-7.3271,-0.179239,-0.983806
61.8,-0.441202,-7.3271,-0.179239,-0.983806
61.9,-0.441202,-7.3271,-0.179239,-0.983806
62,-0.441202,-7.3271,-0.179239,-0.983806
62.1,-0.441202,-7.3271,-0.179239,-0.983806
62.2,-0.441202,-7.3271,-0.179239,-0.983806
62.3,-0.441202,-7.3271,-0.179239,-0.983806
62.4,-0.441202,-7.3271,-0.179239,-0.983806
62.5,-0.441202,-7.3271,-0.179239,-0.983806
62.6,-0.441202,-7.3271,-0.179239,-0.983806
62.7,-0.441202,-7.3271,-0.179239,-0.983806
62.8,-0.441202,-7.3271,-0.179239,-0.983806
62.9,-0.441202,-7.3271,-0.179239,-0.983806
63,-0.441202,-7.3271,-0.179239,-0.983806
63.1,-0.441202,-7.3271,-0.179239,-0.983806
63.2,-0.441202,-7.3271,-0.179239,-0.983806
63.3,-0.441202,-7.3271,-0.179239,-0.983806
63.4,-0.441202,-7.3271,-0.179239,-0.983806
63.5,-0.441202,-7.3271,-0.179239,-0.983806
63.6,-0.441202,-7.3271,-0.179239,-0.983806
63.7,-0.441202,-7.3271,-0.179239,-0.983806
63.8,-0.441202,-7.3271,-0.179239,-0.983806
63.9,-0.441202,-7.3271,-0.179239,-0.983806
64,-0.441202,-7.3271,-0.179239,-0.983806
64.1,-0.441202,-7.3271,-0.179239,-0.983806
64.2,-0.441202,-7.3271,-0.179239,-0.983806
64.3,-0.441202,-7.3271,-0.179239,-0.983806
64.4,-0.441202,-7.3271,-0.179239,-0.983806
64.5,-0.441202,-7.3271,-0.179239,-0.983806
64.6,-0.441202,-7.3271,-0.179239,-0.983806
64.7,-0.441202,-7.3271,-0.179239,-0.983806
64.8,-0.441202,-7.3271,-0.179239,-0.983806
64.9,-0.441202,-7.3271,-0.179239,-0.983806
65,-0.441202,-7.3271,-0.179239,-0.983806
65.1,-0.441202,-7.3271,-0.179239,-0.983806
65.2,-0.441202,-7.3271,-0.179239,-0.983806
65.3,-0.441202,-7.3271,-0.179239,-0.983806
65.4,-0.441202,-7.3271,-0.179239,-0.983806
65.5,-0.441202,-7.3271,-0.179239,-0.983806
65.6,-0.441202,-7.3271,-0.179239,-0.983806
65.7,-0.441202,-7.3271,-0.179239,-0.983806
65.8,-0.441202,-7.3271,-0.179239,-0.983806
65.9,-0.441202,-7.3271,-0.179239,-0.983806
66,-0.441202,-7.3271,-0.179239,-0.983806
66.1,-0.441202,-7.3271,-0.179239,-0.983806
66.2,-0.441202,-7.3271,-0.179239,-0.983806
66.3,-0.441202,-7.3271,-0.179239,-0.983806
66.4,-0.441202,-7.3271,-0.179239,-0.983806
66.5,-0.441202,-7.3271,-0.179239,-0.983806
66.6,-0.441202,-7.3271,-0.179239,-0.983806
66.7,-0.441202,-7.3271,-0.179239,-0.983806
66.8,-0.441202,-7.3271,-0.179239,-0.983806
66.9,-0.441202,-7.3271,-0.179239,-0.983806
67,-0.441202,-7.3271,-0.179239,-0.983806
67.1,-0.441202,-7.3271,-0.179239,-0.983806
67.2,-0.441202,-7.3271,-0.179239,-0.983806
67.3,-0.441202,-7.3271,-0.179239,-0.983806
67.4,-0.441202,-7.3271,-0.179239,-0.983806
67.5,-0.441202,-7.3271,-0.179239,-0.983806
67.6,-0.441202,-7.3271,-0.179239,-0.983806
67.7,-0.441202,-7.3271,-0.179239,-0.983806
67.8,-0.441202,-7.3271,-0.179239,-0.983806
67.9,-0.441202,-7.3271,-0.179239,-0.983806
68,-0.441202,-7.3271,-0.179239,-0.983806
68.1,-0.441202,-7.3271,-0.179239,-0.983806
68.2,-0.441202,-7.3271,-0.179239,-0.983806
68.3,-0.441202,-7.3271,-0.179239,-0.983806
68.4,-0.441202,-7.3271,-0.179239,-0.983806
68.5,-0.441202,-7.3271,-0.179239,-0.983806
68.6,-0.441202,-7.3271,-0.179239,-0.983806
68.7,-0.441202,-7.3271,-0.179239,-0.983806
68.8,-0.441202,-7.3271,-0.179239,-0.983806
68.9,-0.441202,-7.3271,-0.179239,-0.983806
69,-0.441202,-7.3271,-0.179239,-0.983806
69.1,-0.441202,-7.3271,-0.179239,-0.983806
69.2,-0.441202,-7.3271,-0.179239,-0.983806
69.3,-0.441202,-7.3271,-0.179239,-0.983806
69.4,-0.441202,-7.3271,-0.179239,-0.983806
69.5,-0.441202,-7.3271,-0.179239,-0.983806
69.6,-0.441202,-7.3271,-0.179239,-0.983806
69.7,-0.441202,-7.3271,-0.179239,-0.983806
69.8,-0.441202,-7.3271,-0.179239,-0.983806
69.9,-0.441202,-7.3271,-0.179239,-0.983806
70,-0.441202,-7.3271,-0.179239,-0.983806
70.1,-0.441202,-7.3271,-0.179239,-0.983806
70.2,-0.441202,-7.3271,-0.179239,-0.983806
70.3,-0.441202,-7.3271,-0.179239,-0.983806
70.4,-0.441202,-7.3271,-0.179239,-0.983806
70.5,-0.441202,-7.3271,-0.179239,-0.983806
70.6,-0.441202,-7.3271,-0.179239,-0.983806
70.7,-0.441202,-7.3271,-0.179239,-0.983806
70.8,-0.441202,-7.3271,-0.179239,-0.983806
70.9,-0.441202,-7.3271,-0.179239,-0.983806
71,-0.441202,-7.3271,-0.179239,-0.983806
71.1,-0.441202,-7.3271,-0.179239,-0.983806
71.2,-0.441202,-7.3271,-0.179239,-0.983806
71.3,-0.441202,-7.3271,-0.179239,-0.983806
71.4,-0.441202,-7.3271,-0.179239,-0.983806
71.5,-0.441202,-7.3271,-0.179239,-0.983806
71.6,-0.441202,-7.3271,-0.179239,-0.983806
71.7,-0.441202,-7.3271,-0.179239,-0.983806
71.8,-0.441202,-7.3271,-0.179239,-0.983806
71.9,-0.441202,-7.3271,-0.179239,-0.983806
72,-0.441202,-7.3271,-0.179239,-0.983806
72.1,-0.441202,-7.3271,-0.179239,-0.983806
72.2,-0.441202,-7.3271,-0.179239,-0.983806
72.3,-0.441202,-7.3271,-0.179239,-0.983806
72.4,-0.441202,-7.3271,-0.179239,-0.983806
72.5,-0.441202,-7.3271,-0.179239,-0.983806
72.6,-0.441202,-7.3271,-0.179239,-0.983806
72.7,-0.441202,-7.3271,-0.179239,-0.983806
72.8,-0.441202,-7.3271,-0.179239,-0.983806
72.9,-0.441202,-7.3271,-0.179239,-0.983806
73,-0.441202,-7.3271,-0.179239,-0.983806
73.1,-0.441202,-7.3271,-0.179239,-0.983806
73.2,-0.441202,-7.3271,-0.179239,-0.983806
73.3,-0.441202,-7.3271,-0.179239,-0.983806
73.4,-0.441202,-7.3271,-0.179239,-0.983806
73.5,-0.441202,-7.3271,-0.179239,-0.983806
73.6,-0.441202,-7.3271,-0.179239,-0.983806
73.7,-0.441202,-7.3271,-0.179239,-0.983806
73.8,-0.441202,-7.3271,-0.179239,-0.983806
73.9,-0.441202,-7.3271,-0.179239,-0.983806
74,-0.441202,-7.3271,-0.179239,-0.983806
74.1,-0.441202,-7.3271,-0.179239,-0.983806
74.2,-0.441202,-7.3271,-0.179239,-0.983806
74.3,-0.441202,-7.3271,-0.179239,-0.983806
74.4,-0.441202,-7.3271,-0.179239,-0.983806
74.5,-0.441202,-7.3271,-0.179239,-0.983806
74.6,-0.441202,-7.3271,-0.179239,-0.983806
74.7,-0.441202,-7.3271,-0.179239,-0.983806
74.8,-0.441202,-7.3271,-0.179239,-0.983806
74.9,-0.441202,-7.3271,-0.179239,-0.983806
75,-0.441202,-7.3271,-0.179239,-0.983806
75.1,-0.441202,-7.3271,-0.179239,-0.983806
75.2,-0.441202,-7.3271,-0.179239,-0.983806
75.3,-0.441202,-7.3271,-0.179239,-0.983806
75.4,-0.441202,-7.3271,-0.179239,-0.983806
75.5,-0.441202,-7.3271,-0.179239,-0.983806
75.6,-0.441202,-7.3271,-0.179239,-0.983806
75.7,-0.441202,-7.3271,-0.179239,-0.983806
75.8,-0.441202,-7.3271,-0.179239,-0.983806
75.9,-0.441202,-7.3271,-0.179239,-0.983806
76,-0.441202,-7.3271,-0.179239,-0.983806
76.1,-0.441202,-7.3271,-0.179239,-0.983806
76.2,-0.441202,-7.3271,-0.179239,-0.983806
76.3,-0.441202,-7.3271,-0.179239,-0.983806
76.4,-0.441202,-7.3271,-0.179239,-0.983806
76.5,-0.441202,-7.3271,-0.179239,-0.983806
76.6,-0.441202,-7.3271,-0.179239,-0.983806
76.7,-0.441202,-7.3271,-0.179239,-0.983806
76.8,-0.441202,-7.3271,-0.179239,-0.983806
76.9,-0.441202,-7.3271,-0.179239,-0.983806
77,-0.441202,-7.3271,-0.179239,-0.983806
77.1,-0.441202,-7.3271,-0.179239,-0.983806
77.2,-0.441202,-7.3271,-0.179239,-0.983806
77.3,-0.441202,-7.3271,-0.179239,-0.983806
77.4,-0.441202,-7.3271,-0.179239,-0.983806
77.5,-0.441202,-7.3271,-0.179239,-0.983806
77.6,-0.441202,-7.3271,-0.179239,-0.983806
77.7,-0.441202,-7.3271,-0.179239,-0.983806
77.8,-0.441202,-7.3271,-0.179239,-0.983806
77.9,-0.441202,-7.3271,-0.179239,-0.983806
78,-0.441202,-7.3271,-0.179239,-0.983806
78.1,-0.441202,-7.3271,-0.179239,-0.983806
78.2,-0.441202,-7.3271,-0.179239,-0.983806
78.3,-0.441202,-7.3271,-0.179239,-0.983806
78.4,-0.441202,-7.3271,-0.179239,-0.983806
78.5,-0.441202,-7.3271,-0.179239,-0.983806
78.6,-0.441202,-7.3271,-0.179239,-0.983806
78.7,-0.441202,-7.3271,-0.179239,-0.983806
78.8,-0.441202,-7.3271,-0.179239,-0.983806
78.9,-0.441202,-7.3271,-0.179239,-0.983806
79,-0.441202,-7.3271,-0.179239,-0.983806
79.1,-0.441202,-7.3271,-0.179239,-0.983806
79.2,-0.441202,-7.3271,-0.179239,-0.983806
79.3,-0.441202,-7.3271,-0.179239,-0.983806
79.4,-0.441202,-7.3271,-0.179239,-0.983806
79.5,-0.441202,-7.3271,-0.179239,-0.983806
79.6,-0.441202,-7.3271,-0.179239,-0.983806
79.7,-0.441202,-7.3271,-0.179239,-0.983806
79.8,-0.441202,-7.3271,-0.179239,-0.983806
79.9,-0.441202,-7.3271,-0.179239,-0.983806
80,-0.441202,-7.3271,-0.179239,-0.983806
