0.1,-1.38532,7.32155,0.282446,-0.959283
0.2,-1.35745,7.22678,0.244463,-0.969659
0.3,-1.33804,7.09976,0.162845,-0.986652
0.4,-1.31968,6.98358,0.166885,-0.985976
0.5,-1.30022,6.8446,0.153854,-0.988093
0.6,-1.27973,6.72786,0.177901,-0.984048
0.7,-1.25653,6.58918,0.172009,-0.985095
0.8,-1.23235,6.47123,0.196103,-0.980583
0.9,-1.20328,6.32826,0.195553,-0.980693
1,-1.1784,6.20588,0.19506,-0.980791
1.1,-1.15356,6.06252,0.175754,-0.984434
1.2,-1.12607,5.94941,0.218703,-0.975791
1.3,-1.09776,5.80672,0.192166,-0.981362
1.4,-1.07686,5.68736,0.177406,-0.984138
1.5,-1.04934,5.54182,0.186121,-0.982527
1.6,-1.02731,5.42705,0.187918,-0.982185
1.7,-0.998779,5.28302,0.191989,-0.981397
1.8,-0.975163,5.16342,0.191286,-0.981534
1.9,-0.942791,5.00761,0.198564,-0.980088
2,-0.909136,4.85152,0.203734,-0.979026
2.1,-0.881895,4.72059,0.197958,-0.980211
2.2,-0.864509,4.59262,0.151838,-0.988405
2.3,-0.847572,4.4907,0.172647,-0.984984
2.4,-0.824961,4.34931,0.166899,-0.985974
2.5,-0.808542,4.22578,0.150752,-0.988572
2.6,-0.780345,4.08,0.189198,-0.981939
2.7,-0.759762,3.95152,0.167986,-0.985789
2.8,-0.727059,3.80362,0.207505,-0.978234
2.9,-0.697497,3.67792,0.215097,-0.976593
3,-0.664353,3.5305,0.209653,-0.977776
3.1,-0.638848,3.42217,0.213519,-0.976939
3.2,-0.618858,3.29565,0.166215,-0.98609
3.3,-0.594352,3.14276,0.166627,-0.98602
3.4,-0.566878,3.03387,0.22357,-0.974688
3.5,-0.53089,2.88188,0.217495,-0.976061
3.6,-0.504951,2.74516,0.186155,-0.98252
3.7,-0.483284,2.61721,0.173197,-0.984887
3.8,-0.45795,2.49077,0.192911,-0.981216
3.9,-0.437972,2.36368,0.165525,-0.986206
4,-0.419211,2.25482,0.175878,-0.984412
4.1,-0.401378,2.1455,0.170367,-0.985381
4.2,-0.384729,2.04304,0.170499,-0.985358
4.3,-0.368906,1.94512,0.170364,-0.985381
4.4,-0.345716,1.85805,0.228087,-0.973641
4.5,-0.328909,1.7677,0.18437,-0.982857
4.6,-0.310282,1.68225,0.201722,-0.979443
4.7,-0.287332,1.60889,0.247528,-0.968881
4.8,-0.265872,1.53405,0.234786,-0.972047
4.9,-0.235408,1.47734,0.332109,-0.943241
5,-0.206379,1.42112,0.322182,-0.946678
5.1,-0.176655,1.36742,0.33233,-0.943163
5.2,-0.144463,1.32482,0.380006,-0.924984
5.3,-0.121502,1.29231,0.335532,-0.942029
5.4,-0.0675619,1.27099,0.607289,-0.794481
5.5,-0.0525438,1.27604,0.402372,-0.915476
5.6,-0.0251441,1.27728,0.519498,-0.854472
5.7,-0.018148,1.28543,0.300046,-0.953925
5.8,-0.0173991,1.29351,0.197625,-0.980278
5.9,-0.0252236,1.30698,0.0534493,-0.998571
6,-0.0367953,1.32597,-0.022024,-0.999757
6.1,-0.0479577,1.34634,-0.0119876,-0.999928
6.2,-0.0590608,1.36548,-0.00910383,-0.999959
6.3,-0.0723991,1.38637,-0.0597897,-0.998211
6.4,-0.0844309,1.406,-0.0272401,-0.999629
6.5,-0.0983524,1.42351,-0.0651353,-0.997876
6.6,-0.11268,1.44005,-0.0706763,-0.997499
6.7,-0.127359,1.45579,-0.0751017,-0.997176
6.8,-0.14201,1.47124,-0.0723503,-0.997379
6.9,-0.156335,1.48662,-0.063932,-0.997954
7,-0.171339,1.50239,-0.0767317,-0.997052
7.1,-0.186877,1.51889,-0.0872905,-0.996183
7.2,-0.202869,1.53723,-0.0987203,-0.995115
7.3,-0.217771,1.55307,-0.0694116,-0.997588
7.4,-0.233352,1.56893,-0.0817578,-0.996652
7.5,-0.248499,1.58509,-0.071461,-0.997443
7.6,-0.264072,1.60093,-0.0780617,-0.996949
7.7,-0.279856,1.61645,-0.0801126,-0.996786
7.8,-0.297106,1.63087,-0.10585,-0.994382
7.9,-0.314618,1.64533,-0.109227,-0.994017
8,-0.331883,1.65978,-0.102299,-0.994754
8.1,-0.350461,1.67316,-0.123789,-0.992309
8.2,-0.369187,1.68632,-0.124075,-0.992273
8.3,-0.388248,1.69888,-0.126998,-0.991903
8.4,-0.407606,1.71111,-0.129755,-0.991546
8.5,-0.426673,1.72348,-0.122421,-0.992478
8.6,-0.445762,1.73558,-0.120164,-0.992754
8.7,-0.464772,1.74786,-0.116981,-0.993134
8.8,-0.483577,1.76021,-0.111187,-0.9938
8.9,-0.502485,1.77245,-0.110847,-0.993838
9,-0.521846,1.78443,-0.116884,-0.993146
9.1,-0.540465,1.79649,-0.10085,-0.994902
9.2,-0.558926,1.80833,-0.0954349,-0.995436
9.3,-0.577466,1.82026,-0.0950992,-0.995468
9.4,-0.594963,1.83266,-0.0738142,-0.997272
9.5,-0.612397,1.84468,-0.0701946,-0.997533
9.6,-0.62961,1.85667,-0.0640261,-0.997948
9.7,-0.646715,1.86925,-0.0608356,-0.998148
9.8,-0.663928,1.8817,-0.0609624,-0.99814
9.9,-0.680738,1.89428,-0.051415,-0.998677
10,-0.698864,1.90647,-0.0748172,-0.997197
10.1,-0.716524,1.9191,-0.0644165,-0.997923
10.2,-0.733895,1.93175,-0.056933,-0.998378
10.3,-0.751652,1.94412,-0.0623495,-0.998054
10.4,-0.769322,1.95626,-0.0585364,-0.998285
10.5,-0.787089,1.96837,-0.0585271,-0.998286
10.6,-0.804484,1.98055,-0.0495337,-0.998772
10.7,-0.82189,1.9926,-0.0478447,-0.998855
10.8,-0.839654,2.00454,-0.0528775,-0.998601
10.9,-0.857276,2.01673,-0.0485379,-0.998821
11,-0.874887,2.02889,-0.0464833,-0.998919
11.1,-0.892341,2.04125,-0.0417917,-0.999126
11.2,-0.90987,2.05337,-0.0412703,-0.999148
11.3,-0.927887,2.06587,-0.0494213,-0.998778
11.4,-0.94668,2.0776,-0.0618859,-0.998083
11.5,-0.966589,2.08875,-0.080654,-0.996742
11.6,-0.986706,2.09991,-0.082645,-0.996579
11.7,-1.00694,2.11059,-0.0821264,-0.996622
11.8,-1.02673,2.12125,-0.0715474,-0.997437
11.9,-1.0465,2.13176,-0.0690564,-0.997613
12,-1.06799,2.14163,-0.0984018,-0.995147
12.1,-1.08845,2.15141,-0.0767891,-0.997047
12.2,-1.08588,2.15849,0.323015,-0.946394
12.3,-1.07352,2.11693,0.265845,-0.964016
12.4,-1.05819,2.03044,0.207996,-0.97813
12.5,-1.04323,1.99015,0.291606,-0.956538
12.6,-1.02305,1.97275,0.415139,-0.909758
12.7,-1.00471,1.96344,0.433012,-0.901388
12.8,-0.985664,1.95264,0.4318,-0.90197
12.9,-0.972999,1.9502,0.403254,-0.915088
13,-0.962548,1.9536,0.406716,-0.913555
13.1,-0.95446,1.95585,0.368654,-0.929567
13.2,-0.944265,1.95808,0.39518,-0.918604
13.3,-0.935226,1.95893,0.372003,-0.928231
13.4,-0.926925,1.95923,0.358823,-0.933406
13.5,-0.918636,1.95892,0.354967,-0.934879
13.6,-0.910478,1.9585,0.35199,-0.936004
13.7,-0.901744,1.95789,0.357677,-0.933846
13.8,-0.892059,1.95579,0.361769,-0.932268
13.9,-0.880872,1.95357,0.378747,-0.9255
14,-0.869603,1.9512,0.378133,-0.925751
14.1,-0.858509,1.94836,0.372793,-0.927915
14.2,-0.84719,1.94523,0.373241,-0.927734
14.3,-0.834414,1.94082,0.383417,-0.923575
14.4,-0.82079,1.9364,0.392214,-0.919874
14.5,-0.807415,1.93129,0.385006,-0.922914
14.6,-0.793276,1.92573,0.390554,-0.92058
14.7,-0.777755,1.91982,0.403328,-0.915056
14.8,-0.762227,1.91389,0.402203,-0.915551
14.9,-0.746042,1.90737,0.405462,-0.914112
15,-0.729755,1.90036,0.403067,-0.91517
15.1,-0.713485,1.89348,0.402389,-0.915469
15.2,-0.697091,1.88659,0.40249,-0.915425
15.3,-0.680692,1.8791,0.398562,-0.917142
15.4,-0.664332,1.87155,0.39675,-0.917927
15.5,-0.649909,1.8665,0.385729,-0.922612
15.6,-0.635655,1.8609,0.380124,-0.924935
15.7,-0.621198,1.85422,0.376345,-0.926479
15.8,-0.604856,1.84601,0.389248,-0.921133
15.9,-0.590742,1.84006,0.373557,-0.927607
16,-0.574961,1.83231,0.383003,-0.923747
16.1,-0.558014,1.82264,0.385887,-0.922546
16.2,-0.523685,1.79662,0.471598,-0.881814
16.3,-0.472262,1.75874,0.538257,-0.842781
16.4,-0.412236,1.70832,0.539607,-0.841917
16.5,-0.373322,1.65585,0.406372,-0.913708
16.6,-0.328607,1.59885,0.428536,-0.903525
16.7,-0.298187,1.5403,0.329895,-0.944018
16.8,-0.274491,1.47595,0.269725,-0.962938
16.9,-0.248997,1.40233,0.26396,-0.964534
17,-0.225308,1.30898,0.221655,-0.975125
17.1,-0.208276,1.19482,0.160973,-0.986959
17.2,-0.186877,1.0714,0.175752,-0.984434
17.3,-0.162966,0.944054,0.184829,-0.982771
17.4,-0.138713,0.816437,0.18628,-0.982497
17.5,-0.114478,0.688581,0.185959,-0.982558
17.6,-0.0902621,0.560718,0.185851,-0.982578
17.7,-0.0662125,0.432888,0.185056,-0.982728
17.8,-0.0422138,0.305049,0.184799,-0.982776
17.9,-0.0181675,0.177243,0.18507,-0.982725
18,0.00586184,0.0495144,0.185062,-0.982727
18.1,0.0299261,-0.077802,0.185623,-0.982621
18.2,0.0537687,-0.205515,0.184152,-0.982898
18.3,0.0776057,-0.333182,0.184178,-0.982893
18.4,0.101531,-0.460851,0.184624,-0.982809
18.5,0.125747,-0.588735,0.185877,-0.982573
18.6,0.150005,-0.716992,0.185725,-0.982602
18.7,0.174229,-0.844755,0.18602,-0.982546
18.8,0.198481,-0.97256,0.186115,-0.982528
18.9,0.222499,-1.10027,0.185039,-0.982731
19,0.246655,-1.22795,0.185753,-0.982597
19.1,0.270627,-1.35581,0.184666,-0.982801
19.2,0.294644,-1.48368,0.184898,-0.982758
19.3,0.318715,-1.61143,0.185279,-0.982686
19.4,0.342765,-1.73921,0.185152,-0.98271
19.5,0.366763,-1.86703,0.184853,-0.982766
19.6,0.390811,-1.99511,0.184883,-0.982761
19.7,0.415076,-2.12311,0.186018,-0.982546
19.8,0.439451,-2.25113,0.186552,-0.982445
19.9,0.463532,-2.37847,0.18572,-0.982603
20,0.487674,-2.50584,0.185983,-0.982553
20.1,0.511822,-2.63359,0.18566,-0.982614
20.2,0.53681,-2.7611,0.190037,-0.981777
20.3,0.561473,-2.88843,0.188534,-0.982067
20.4,0.586282,-3.01624,0.188769,-0.982022
20.5,0.611076,-3.14404,0.188635,-0.982047
20.6,0.635464,-3.27172,0.186695,-0.982418
20.7,0.659229,-3.39923,0.183727,-0.982977
20.8,0.683074,-3.52682,0.184075,-0.982912
20.9,0.707803,-3.65422,0.18864,-0.982046
21,0.731746,-3.7821,0.184234,-0.982882
21.1,0.755656,-3.90996,0.184101,-0.982907
21.2,0.779636,-4.03751,0.184739,-0.982788
21.3,0.803629,-4.16506,0.184807,-0.982775
21.4,0.828551,-4.29257,0.189454,-0.98189
21.5,0.852803,-4.42011,0.185994,-0.982551
21.6,0.876584,-4.54784,0.183448,-0.983029
21.7,0.900509,-4.67543,0.184317,-0.982867
21.8,0.92443,-4.80302,0.184297,-0.982871
21.9,0.94839,-4.9306,0.184503,-0.982832
22,0.972312,-5.05831,0.18419,-0.982891
22.1,0.996258,-5.18601,0.184313,-0.982868
22.2,1.02019,-5.31371,0.184248,-0.98288
22.3,1.0443,-5.44136,0.185177,-0.982705
22.4,1.06843,-5.56908,0.185206,-0.9827
22.5,1.09223,-5.69692,0.183379,-0.983042
22.6,1.11607,-5.82473,0.183662,-0.982989
22.7,1.1399,-5.95255,0.183659,-0.98299
22.8,1.16372,-6.08023,0.183722,-0.982978
22.9,1.18769,-6.20774,0.184677,-0.982799
23,1.21145,-6.33516,0.183726,-0.982978
23.1,1.23538,-6.46294,0.184278,-0.982874
23.2,1.25936,-6.59067,0.184579,-0.982818
23.3,1.28371,-6.71844,0.186418,-0.982471
23.4,1.30769,-6.84625,0.18438,-0.982855
23.5,1.33199,-6.97382,0.186164,-0.982519
23.6,1.35564,-7.10178,0.1823,-0.983243
23.7,1.3702,-7.18057,0.18176,-0.983343
23.8,1.37568,-7.2102,0.18176,-0.983343
23.9,1.37568,-7.2102,0.18176,-0.983343
24,1.37568,-7.2102,0.18176,-0.983343
24.1,1.37568,-7.2102,0.18176,-0.983343
24.2,1.37568,-7.2102,0.18176,-0.983343
24.3,1.37568,-7.2102,0.18176,-0.983343
24.4,1.37568,-7.2102,0.18176,-0.983343
24.5,1.37568,-7.2102,0.18176,-0.983343
24.6,1.37568,-7.2102,0.18176,-0.983343
24.7,1.37568,-7.2102,0.18176,-0.983343
24.8,1.37568,-7.2102,0.18176,-0.983343
24.9,1.37568,-7.2102,0.18176,-0.983343
25,1.37568,-7.2102,0.18176,-0.983343
25.1,1.37568,-7.2102,0.18176,-0.983343
25.2,1.37568,-7.2102,0.18176,-0.983343
25.3,1.37568,-7.2102,0.18176,-0.983343
25.4,1.37568,-7.2102,0.18176,-0.983343
25.5,1.37568,-7.2102,0.18176,-0.983343
25.6,1.37568,-7.2102,0.18176,-0.983343
25.7,1.37568,-7.2102,0.18176,-0.983343
25.8,1.37568,-7.2102,0.18176,-0.983343
25.9,1.37568,-7.2102,0.18176,-0.983343
26,1.37568,-7.2102,0.18176,-0.983343
26.1,1.37568,-7.2102,0.18176,-0.983343
26.2,1.37568,-7.2102,0.18176,-0.983343
26.3,1.37568,-7.2102,0.18176,-0.983343
26.4,1.37568,-7.2102,0.18176,-0.983343
26.5,1.37568,-7.2102,0.18176,-0.983343
26.6,1.37568,-7.2102,0.18176,-0.983343
26.7,1.37568,-7.2102,0.18176,-0.983343
26.8,1.37568,-7.2102,0.18176,-0.983343
26.9,1.37568,-7.2102,0.18176,-0.983343
27,1.37568,-7.2102,0.18176,-0.983343
27.1,1.37568,-7.2102,0.18176,-0.983343
27.2,1.37568,-7.2102,0.18176,-0.983343
27.3,1.37568,-7.2102,0.18176,-0.983343
27.4,1.37568,-7.2102,0.18176,-0.983343
27.5,1.37568,-7.2102,0.18176,-0.983343
27.6,1.37568,-7.2102,0.18176,-0.983343
27.7,1.37568,-7.2102,0.18176,-0.983343
27.8,1.37568,-7.2102,0.18176,-0.983343
27.9,1.37568,-7.2102,0.18176,-0.983343
28,1.37568,-7.2102,0.18176,-0.983343
28.1,1.37568,-7.2102,0.18176,-0.983343
28.2,1.37568,-7.2102,0.18176,-0.983343
28.3,1.37568,-7.2102,0.18176,-0.983343
28.4,1.37568,-7.2102,0.18176,-0.983343
28.5,1.37568,-7.2102,0.18176,-0.983343
28.6,1.37568,-7.2102,0.18176,-0.983343
28.7,1.37568,-7.2102,0.18176,-0.983343
28.8,1.37568,-7.2102,0.18176,-0.983343
28.9,1.37568,-7.2102,0.18176,-0.983343
29,1.37568,-7.2102,0.18176,-0.983343
29.1,1.37568,-7.2102,0.18176,-0.983343
29.2,1.37568,-7.2102,0.18176,-0.983343
29.3,1.37568,-7.2102,0.18176,-0.983343
29.4,1.37568,-7.2102,0.18176,-0.983343
29.5,1.37568,-7.2102,0.18176,-0.983343
29.6,1.37568,-7.2102,0.18176,-0.983343
29.7,1.37568,-7.2102,0.18176,-0.983343
29.8,1.37568,-7.2102,0.18176,-0.983343
29.9,1.37568,-7.2102,0.18176,-0.983343
30,1.37568,-7.2102,0.18176,-0.983343
30.1,1.37568,-7.2102,0.18176,-0.983343
30.2,1.37568,-7.2102,0.18176,-0.983343
30.3,1.37568,-7.2102,0.18176,-0.983343
30.4,1.37568,-7.2102,0.18176,-0.983343
30.5,1.37568,-7.2102,0.18176,-0.983343
30.6,1.37568,-7.2102,0.18176,-0.983343
30.7,1.37568,-7.2102,0.18176,-0.983343
30.8,1.37568,-7.2102,0.18176,-0.983343
30.9,1.37568,-7.2102,0.18176,-0.983343
31,1.37568,-7.2102,0.18176,-0.983343
31.1,1.37568,-7.2102,0.18176,-0.983343
31.2,1.37568,-7.2102,0.18176,-0.983343
31.3,1.37568,-7.2102,0.18176,-0.983343
31.4,1.37568,-7.2102,0.18176,-0.983343
31.5,1.37568,-7.2102,0.18176,-0.983343
31.6,1.37568,-7.2102,0.18176,-0.983343
31.7,1.37568,-7.2102,0.18176,-0.983343
31.8,1.37568,-7.2102,0.18176,-0.983343
31.9,1.37568,-7.2102,0.18176,-0.983343
32,1.37568,-7.2102,0.18176,-0.983343
32.1,1.37568,-7.2102,0.18176,-0.983343
32.2,1.37568,-7.2102,0.18176,-0.983343
32.3,1.37568,-7.2102,0.18176,-0.983343
32.4,1.37568,-7.2102,0.18176,-0.983343
32.5,1.37568,-7.2102,0.18176,-0.983343
32.6,1.37568,-7.2102,0.18176,-0.983343
32.7,1.37568,-7.2102,0.18176,-0.983343
32.8,1.37568,-7.2102,0.18176,-0.983343
32.9,1.37568,-7.2102,0.18176,-0.983343
33,1.37568,-7.2102,0.18176,-0.983343
33.1,1.37568,-7.2102,0.18176,-0.983343
33.2,1.37568,-7.2102,0.18176,-0.983343
33.3,1.37568,-7.2102,0.18176,-0.983343
33.4,1.37568,-7.2102,0.18176,-0.983343
33.5,1.37568,-7.2102,0.18176,-0.983343
33.6,1.37568,-7.2102,0.18176,-0.983343
33.7,1.37568,-7.2102,0.18176,-0.983343
33.8,1.37568,-7.2102,0.18176,-0.983343
33.9,1.37568,-7.2102,0.18176,-0.983343
34,1.37568,-7.2102,0.18176,-0.983343
34.1,1.37568,-7.2102,0.18176,-0.983343
34.2,1.37568,-7.2102,0.18176,-0.983343
34.3,1.37568,-7.2102,0.18176,-0.983343
34.4,1.37568,-7.2102,0.18176,-0.983343
34.5,1.37568,-7.2102,0.18176,-0.983343
34.6,1.37568,-7.2102,0.18176,-0.983343
34.7,1.37568,-7.2102,0.18176,-0.983343
34.8,1.37568,-7.2102,0.18176,-0.983343
34.9,1.37568,-7.2102,0.18176,-0.983343
35,1.37568,-7.2102,0.18176,-0.983343
35.1,1.37568,-7.2102,0.18176,-0.983343
35.2,1.37568,-7.2102,0.18176,-0.983343
35.3,1.37568,-7.2102,0.18176,-0.983343
35.4,1.37568,-7.2102,0.18176,-0.983343
35.5,1.37568,-7.2102,0.18176,-0.983343
35.6,1.37568,-7.2102,0.18176,-0.983343
35.7,1.37568,-7.2102,0.18176,-0.983343
35.8,1.37568,-7.2102,0.18176,-0.983343
35.9,1.37568,-7.2102,0.18176,-0.983343
36,1.37568,-7.2102,0.18176,-0.983343
36.1,1.37568,-7.2102,0.18176,-0.983343
36.2,1.37568,-7.2102,0.18176,-0.983343
36.3,1.37568,-7.2102,0.18176,-0.983343
36.4,1.37568,-7.2102,0.18176,-0.983343
36.5,1.37568,-7.2102,0.18176,-0.983343
36.6,1.37568,-7.2102,0.18176,-0.983343
36.7,1.37568,-7.2102,0.18176,-0.983343
36.8,1.37568,-7.2102,0.18176,-0.983343
36.9,1.37568,-7.2102,0.18176,-0.983343
37,1.37568,-7.2102,0.18176,-0.983343
37.1,1.37568,-7.2102,0.18176,-0.983343
37.2,1.37568,-7.2102,0.18176,-0.983343
37.3,1.37568,-7.2102,0.18176,-0.983343
37.4,1.37568,-7.2102,0.18176,-0.983343
37.5,1.37568,-7.2102,0.18176,-0.983343
37.6,1.37568,-7.2102,0.18176,-0.983343
37.7,1.37568,-7.2102,0.18176,-0.983343
37.8,1.37568,-7.2102,0.18176,-0.983343
37.9,1.37568,-7.2102,0.18176,-0.983343
38,1.37568,-7.2102,0.18176,-0.983343
38.1,1.37568,-7.2102,0.18176,-0.983343
38.2,1.37568,-7.2102,0.18176,-0.983343
38.3,1.37568,-7.2102,0.18176,-0.983343
38.4,1.37568,-7.2102,0.18176,-0.983343
38.5,1.37568,-7.2102,0.18176,-0.983343
38.6,1.37568,-7.2102,0.18176,-0.983343
38.7,1.37568,-7.2102,0.18176,-0.983343
38.8,1.37568,-7.2102,0.18176,-0.983343
38.9,1.37568,-7.2102,0.18176,-0.983343
39,1.37568,-7.2102,0.18176,-0.983343
39.1,1.37568,-7.2102,0.18176,-0.983343
39.2,1.37568,-7.2102,0.18176,-0.983343
39.3,1.37568,-7.2102,0.18176,-0.983343
39.4,1.37568,-7.2102,0.18176,-0.983343
39.5,1.37568,-7.2102,0.18176,-0.983343
39.6,1.37568,-7.2102,0.18176,-0.983343
39.7,1.37568,-7.2102,0.18176,-0.983343
39.8,1.37568,-7.2102,0.18176,-0.983343
39.9,1.37568,-7.2102,0.18176,-0.983343
40,1.37568,-7.2102,0.18176,-0.983343
40.1,1.37568,-7.2102,0.18176,-0.983343
40.2,1.37568,-7.2102,0.18176,-0.983343
40.3,1.37568,-7.2102,0.18176,-0.983343
40.4,1.37568,-7.2102,0.18176,-0.983343
40.5,1.37568,-7.2102,0.18176,-0.983343
40.6,1.37568,-7.2102,0.18176,-0.983343
40.7,1.37568,-7.2102,0.18176,-0.983343
40.8,1.37568,-7.2102,0.18176,-0.983343
40.9,1.37568,-7.2102,0.18176,-0.983343
41,1.37568,-7.2102,0.18176,-0.983343
41.1,1.37568,-7.2102,0.18176,-0.983343
41.2,1.37568,-7.2102,0.18176,-0.983343
41.3,1.37568,-7.2102,0.18176,-0.983343
41.4,1.37568,-7.2102,0.18176,-0.983343
41.5,1.37568,-7.2102,0.18176,-0.983343
41.6,1.37568,-7.2102,0.18176,-0.983343
41.7,1.37568,-7.2102,0.18176,-0.983343
41.8,1.37568,-7.2102,0.18176,-0.983343
41.9,1.37568,-7.2102,0.18176,-0.983343
42,1.37568,-7.2102,0.18176,-0.983343
42.1,1.37568,-7.2102,0.18176,-0.983343
42.2,1.37568,-7.2102,0.18176,-0.983343
42.3,1.37568,-7.2102,0.18176,-0.983343
42.4,1.37568,-7.2102,0.18176,-0.983343
42.5,1.37568,-7.2102,0.18176,-0.983343
42.6,1.37568,-7.2102,0.18176,-0.983343
42.7,1.37568,-7.2102,0.18176,-0.983343
42.8,1.37568,-7.2102,0.18176,-0.983343
42.9,1.37568,-7.2102,0.18176,-0.983343
43,1.37568,-7.2102,0.18176,-0.983343
43.1,1.37568,-7.2102,0.18176,-0.983343
43.2,1.37568,-7.2102,0.18176,-0.983343
43.3,1.37568,-7.2102,0.18176,-0.983343
43.4,1.37568,-7.2102,0.18176,-0.983343
43.5,1.37568,-7.2102,0.18176,-0.983343
43.6,1.37568,-7.2102,0.18176,-0.983343
43.7,1.37568,-7.2102,0.18176,-0.983343
43.8,1.37568,-7.2102,0.18176,-0.983343
43.9,1.37568,-7.2102,0.18176,-0.983343
44,1.37568,-7.2102,0.18176,-0.983343
44.1,1.37568,-7.2102,0.18176,-0.983343
44.2,1.37568,-7.2102,0.18176,-0.983343
44.3,1.37568,-7.2102,0.18176,-0.983343
44.4,1.37568,-7.2102,0.18176,-0.983343
44.5,1.37568,-7.2102,0.18176,-0.983343
44.6,1.37568,-7.2102,0.18176,-0.983343
44.7,1.37568,-7.2102,0.18176,-0.983343
44.8,1.37568,-7.2102,0.18176,-0.983343
44.9,1.37568,-7.2102,0.18176,-0.983343
45,1.37568,-7.2102,0.18176,-0.983343
45.1,1.37568,-7.2102,0.18176,-0.983343
45.2,1.37568,-7.2102,0.18176,-0.983343
45.3,1.37568,-7.2102,0.18176,-0.983343
45.4,1.37568,-7.2102,0.18176,-0.983343
45.5,1.37568,-7.2102,0.18176,-0.983343
45.6,1.37568,-7.2102,0.18176,-0.983343
45.7,1.37568,-7.2102,0.18176,-0.983343
45.8,1.37568,-7.2102,0.18176,-0.983343
45.9,1.37568,-7.2102,0.18176,-0.983343
46,1.37568,-7.2102,0.18176,-0.983343
46.1,1.37568,-7.2102,0.18176,-0.983343
46.2,1.37568,-7.2102,0.18176,-0.983343
46.3,1.37568,-7.2102,0.18176,-0.983343
46.4,1.37568,-7.2102,0.18176,-0.983343
46.5,1.37568,-7.2102,0.18176,-0.983343
46.6,1.37568,-7.2102,0.18176,-0.983343
46.7,1.37568,-7.2102,0.18176,-0.983343
46.8,1.37568,-7.2102,0.18176,-0.983343
46.9,1.37568,-7.2102,0.18176,-0.983343
47,1.37568,-7.2102,0.18176,-0.983343
47.1,1.37568,-7.2102,0.18176,-0.983343
47.2,1.37568,-7.2102,0.18176,-0.983343
47.3,1.37568,-7.2102,0.18176,-0.983343
47.4,1.37568,-7.2102,0.18176,-0.983343
47.5,1.37568,-7.2102,0.18176,-0.983343
47.6,1.37568,-7.2102,0.18176,-0.983343
47.7,1.37568,-7.2102,0.18176,-0.983343
47.8,1.37568,-7.2102,0.18176,-0.983343
47.9,1.37568,-7.2102,0.18176,-0.983343
48,1.37568,-7.2102,0.18176,-0.983343
48.1,1.37568,-7.2102,0.18176,-0.983343
48.2,1.37568,-7.2102,0.18176,-0.983343
48.3,1.37568,-7.2102,0.18176,-0.983343
48.4,1.37568,-7.2102,0.18176,-0.983343
48.5,1.37568,-7.2102,0.18176,-0.983343
48.6,1.37568,-7.2102,0.18176,-0.983343
48.7,1.37568,-7.2102,0.18176,-0.983343
48.8,1.37568,-7.2102,0.18176,-0.983343
48.9,1.37568,-7.2102,0.18176,-0.983343
49,1.37568,-7.2102,0.18176,-0.983343
49.1,1.37568,-7.2102,0.18176,-0.983343
49.2,1.37568,-7.2102,0.18176,-0.983343
49.3,1.37568,-7.2102,0.18176,-0.983343
49.4,1.37568,-7.2102,0.18176,-0.983343
49.5,1.37568,-7.2102,0.18176,-0.983343
49.6,1.37568,-7.2102,0.18176,-0.983343
49.7,1.37568,-7.2102,0.18176,-0.983343
49.8,1.37568,-7.2102,0.18176,-0.983343
49.9,1.37568,-7.2102,0.18176,-0.983343
50,1.37568,-7.2102,0.18176,-0.983343
50.1,1.37568,-7.2102,0.18176,-0.983343
50.2,1.37568,-7.2102,0.18176,-0.983343
50.3,1.37568,-7.2102,0.18176,-0.983343
50.4,1.37568,-7.2102,0.18176,-0.983343
50.5,1.37568,-7.2102,0.18176,-0.983343
50.6,1.37568,-7.2102,0.18176,-0.983343
50.7,1.37568,-7.2102,0.18176,-0.983343
50.8,1.37568,-7.2102,0.18176,-0.983343
50.9,1.37568,-7.2102,0.18176,-0.983343
51,1.37568,-7.2102,0.18176,-0.983343
51.1,1.37568,-7.2102,0.18176,-0.983343
51.2,1.37568,-7.2102,0.18176,-0.983343
51.3,1.37568,-7.2102,0.18176,-0.983343
51.4,1.37568,-7.2102,0.18176,-0.983343
51.5,1.37568,-7.2102,0.18176,-0.983343
51.6,1.37568,-7.2102,0.18176,-0.983343
51.7,1.37568,-7.2102,0.18176,-0.983343
51.8,1.37568,-7.2102,0.18176,-0.983343
51.9,1.37568,-7.2102,0.18176,-0.983343
52,1.37568,-7.2102,0.18176,-0.983343
52.1,1.37568,-7.2102,0.18176,-0.983343
52.2,1.37568,-7.2102,0.18176,-0.983343
52.3,1.37568,-7.2102,0.18176,-0.983343
52.4,1.37568,-7.2102,0.18176,-0.983343
52.5,1.37568,-7.2102,0.18176,-0.983343
52.6,1.37568,-7.2102,0.18176,-0.983343
52.7,1.37568,-7.2102,0.18176,-0.983343
52.8,1.37568,-7.2102,0.18176,-0.983343
52.9,1.37568,-7.2102,0.18176,-0.983343
53,1.37568,-7.2102,0.18176,-0.983343
53.1,1.37568,-7.2102,0.18176,-0.983343
53.2,1.37568,-7.2102,0.18176,-0.983343
53.3,1.37568,-7.2102,0.18176,-0.983343
53.4,1.37568,-7.2102,0.18176,-0.983343
53.5,1.37568,-7.2102,0.18176,-0.983343
53.6,1.37568,-7.2102,0.18176,-0.983343
53.7,1.37568,-7.2102,0.18176,-0.983343
53.8,1.37568,-7.2102,0.18176,-0.983343
53.9,1.37568,-7.2102,0.18176,-0.983343
54,1.37568,-7.2102,0.18176,-0.983343
54.1,1.37568,-7.2102,0.18176,-0.983343
54.2,1.37568,-7.2102,0.18176,-0.983343
54.3,1.37568,-7.2102,0.18176,-0.983343
54.4,1.37568,-7.2102,0.18176,-0.983343
54.5,1.37568,-7.2102,0.18176,-0.983343
54.6,1.37568,-7.2102,0.18176,-0.983343
54.7,1.37568,-7.2102,0.18176,-0.983343
54.8,1.37568,-7.2102,0.18176,-0.983343
54.9,1.37568,-7.2102,0.18176,-0.983343
55,1.37568,-7.2102,0.18176,-0.983343
55.1,1.37568,-7.2102,0.18176,-0.983343
55.2,1.37568,-7.2102,0.18176,-0.983343
55.3,1.37568,-7.2102,0.18176,-0.983343
55.4,1.37568,-7.2102,0.18176,-0.983343
55.5,1.37568,-7.2102,0.18176,-0.983343
55.6,1.37568,-7.2102,0.18176,-0.983343
55.7,1.37568,-7.2102,0.18176,-0.983343
55.8,1.37568,-7.2102,0.18176,-0.983343
55.9,1.37568,-7.2102,0.18176,-0.983343
56,1.37568,-7.2102,0.18176,-0.983343
56.1,1.37568,-7.2102,0.18176,-0.983343
56.2,1.37568,-7.2102,0.18176,-0.983343
56.3,1.37568,-7.2102,0.18176,-0.983343
56.4,1.37568,-7.2102,0.18176,-0.983343
56.5,1.37568,-7.2102,0.18176,-0.983343
56.6,1.37568,-7.2102,0.18176,-0.983343
56.7,1.37568,-7.2102,0.18176,-0.983343
56.8,1.37568,-7.2102,0.18176,-0.983343
56.9,1.37568,-7.2102,0.18176,-0.983343
57,1.37568,-7.2102,0.18176,-0.983343
57.1,1.37568,-7.2102,0.18176,-0.983343
57.2,1.37568,-7.2102,0.18176,-0.983343
57.3,1.37568,-7.2102,0.18176,-0.983343
57.4,1.37568,-7.2102,0.18176,-0.983343
57.5,1.37568,-7.2102,0.18176,-0.983343
57.6,1.37568,-7.2102,0.18176,-0.983343
57.7,1.37568,-7.2102,0.18176,-0.983343
57.8,1.37568,-7.2102,0.18176,-0.983343
57.9,1.37568,-7.2102,0.18176,-0.983343
58,1.37568,-7.2102,0.18176,-0.983343
58.1,1.37568,-7.2102,0.18176,-0.983343
58.2,1.37568,-7.2102,0.18176,-0.983343
58.3,1.37568,-7.2102,0.18176,-0.983343
58.4,1.37568,-7.2102,0.18176,-0.983343
58.5,1.37568,-7.2102,0.18176,-0.983343
58.6,1.37568,-7.2102,0.18176,-0.983343
58.7,1.37568,-7.2102,0.18176,-0.983343
58.8,1.37568,-7.2102,0.18176,-0.983343
58.9,1.37568,-7.2102,0.18176,-0.983343
59,1.37568,-7.2102,0.18176,-0.983343
59.1,1.37568,-7.2102,0.18176,-0.983343
59.2,1.37568,-7.2102,0.18176,-0.983343
59.3,1.37568,-7.2102,0.18176,-0.983343
59.4,1.37568,-7.2102,0.18176,-0.983343
59.5,1.37568,-7.2102,0.18176,-0.983343
59.6,1.37568,-7.2102,0.18176,-0.983343
59.7,1.37568,-7.2102,0.18176,-0.983343
59.8,1.37568,-7.2102,0.18176,-0.983343
59.9,1.37568,-7.2102,0.18176,-0.983343
60,1.37568,-7.2102,0.18176,-0.983343
60.1,1.37568,-7.2102,0.18176,-0.983343
60.2,1.37568,-7.2102,0.18176,-0.983343
60.3,1.37568,-7.2102,0.18176,-0.983343
60.4,1.37568,-7.2102,0.18176,-0.983343
60.5,1.37568,-7.2102,0.18176,-0.983343
60.6,1.37568,-7.2102,0.18176,-0.983343
60.7,1.37568,-7.2102,0.18176,-0.983343
60.8,1.37568,-7.2102,0.18176,-0.983343
60.9,1.37568,-7.2102,0.18176,-0.983343
61,1.37568,-7.2102,0.18176,-0.983343
61.1,1.37568,-7.2102,0.18176,-0.983343
61.2,1.37568,-7.2102,0.18176,-0.983343
61.3,1.37568,-7.2102,0.18176,-0.983343
61.4,1.37568,-7.2102,0.18176,-0.983343
61.5,1.37568,-7.2102,0.18176,-0.983343
61.6,1.37568,-7.2102,0.18176,-0.983343
61.7,1.37568,-7.2102,0.18176,-0.983343
61.8,1.37568,-7.2102,0.18176,-0.983343
61.9,1.37568,-7.2102,0.18176,-0.983343
62,1.37568,-7.2102,0.18176,-0.983343
62.1,1.37568,-7.2102,0.18176,-0.983343
62.2,1.37568,-7.2102,0.18176,-0.983343
62.3,1.37568,-7.2102,0.18176,-0.983343
62.4,1.37568,-7.2102,0.18176,-0.983343
62.5,1.37568,-7.2102,0.18176,-0.983343
62.6,1.37568,-7.2102,0.18176,-0.983343
62.7,1.37568,-7.2102,0.18176,-0.983343
62.8,1.37568,-7.2102,0.18176,-0.983343
62.9,1.37568,-7.2102,0.18176,-0.983343
63,1.37568,-7.2102,0.18176,-0.983343
63.1,1.37568,-7.2102,0.18176,-0.983343
63.2,1.37568,-7.2102,0.18176,-0.983343
63.3,1.37568,-7.2102,0.18176,-0.983343
63.4,1.37568,-7.2102,0.18176,-0.983343
63.5,1.37568,-7.2102,0.18176,-0.983343
63.6,1.37568,-7.2102,0.18176,-0.983343
63.7,1.37568,-7.2102,0.18176,-0.983343
63.8,1.37568,-7.2102,0.18176,-0.983343
63.9,1.37568,-7.2102,0.18176,-0.983343
64,1.37568,-7.2102,0.18176,-0.983343
64.1,1.37568,-7.2102,0.18176,-0.983343
64.2,1.37568,-7.2102,0.18176,-0.983343
64.3,1.37568,-7.2102,0.18176,-0.983343
64.4,1.37568,-7.2102,0.18176,-0.983343
64.5,1.37568,-7.2102,0.18176,-0.983343
64.6,1.37568,-7.2102,0.18176,-0.983343
64.7,1.37568,-7.2102,0.18176,-0.983343
64.8,1.37568,-7.2102,0.18176,-0.983343
64.9,1.37568,-7.2102,0.18176,-0.983343
65,1.37568,-7.2102,0.18176,-0.983343
65.1,1.37568,-7.2102,0.18176,-0.983343
65.2,1.37568,-7.2102,0.18176,-0.983343
65.3,1.37568,-7.2102,0.18176,-0.983343
65.4,1.37568,-7.2102,0.18176,-0.983343
65.5,1.37568,-7.2102,0.18176,-0.983343
65.6,1.37568,-7.2102,0.18176,-0.983343
65.7,1.37568,-7.2102,0.18176,-0.983343
65.8,1.37568,-7.2102,0.18176,-0.983343
65.9,1.37568,-7.2102,0.18176,-0.983343
66,1.37568,-7.2102,0.18176,-0.983343
66.1,1.37568,-7.2102,0.18176,-0.983343
66.2,1.37568,-7.2102,0.18176,-0.983343
66.3,1.37568,-7.2102,0.18176,-0.983343
66.4,1.37568,-7.2102,0.18176,-0.983343
66.5,1.37568,-7.2102,0.18176,-0.983343
66.6,1.37568,-7.2102,0.18176,-0.983343
66.7,1.37568,-7.2102,0.18176,-0.983343
66.8,1.37568,-7.2102,0.18176,-0.983343
66.9,1.37568,-7.2102,0.18176,-0.983343
67,1.37568,-7.2102,0.18176,-0.983343
67.1,1.37568,-7.2102,0.18176,-0.983343
67.2,1.37568,-7.2102,0.18176,-0.983343
67.3,1.37568,-7.2102,0.18176,-0.983343
67.4,1.37568,-7.2102,0.18176,-0.983343
67.5,1.37568,-7.2102,0.18176,-0.983343
67.6,1.37568,-7.2102,0.18176,-0.983343
67.7,1.37568,-7.2102,0.18176,-0.983343
67.8,1.37568,-7.2102,0.18176,-0.983343
67.9,1.37568,-7.2102,0.18176,-0.983343
68,1.37568,-7.2102,0.18176,-0.983343
68.1,1.37568,-7.2102,0.18176,-0.983343
68.2,1.37568,-7.2102,0.18176,-0.983343
68.3,1.37568,-7.2102,0.18176,-0.983343
68.4,1.37568,-7.2102,0.18176,-0.983343
68.5,1.37568,-7.2102,0.18176,-0.983343
68.6,1.37568,-7.2102,0.18176,-0.983343
68.7,1.37568,-7.2102,0.18176,-0.983343
68.8,1.37568,-7.2102,0.18176,-0.983343
68.9,1.37568,-7.2102,0.18176,-0.983343
69,1.37568,-7.2102,0.18176,-0.983343
69.1,1.37568,-7.2102,0.18176,-0.983343
69.2,1.37568,-7.2102,0.18176,-0.983343
69.3,1.37568,-7.2102,0.18176,-0.983343
69.4,1.37568,-7.2102,0.18176,-0.983343
69.5,1.37568,-7.2102,0.18176,-0.983343
69.6,1.37568,-7.2102,0.18176,-0.983343
69.7,1.37568,-7.2102,0.18176,-0.983343
69.8,1.37568,-7.2102,0.18176,-0.983343
69.9,1.37568,-7.2102,0.18176,-0.983343
70,1.37568,-7.2102,0.18176,-0.983343
70.1,1.37568,-7.2102,0.18176,-0.983343
70.2,1.37568,-7.2102,0.18176,-0.983343
70.3,1.37568,-7.2102,0.18176,-0.983343
70.4,1.37568,-7.2102,0.18176,-0.983343
70.5,1.37568,-7.2102,0.18176,-0.983343
70.6,1.37568,-7.2102,0.18176,-0.983343
70.7,1.37568,-7.2102,0.18176,-0.983343
70.8,1.37568,-7.2102,0.18176,-0.983343
70.9,1.37568,-7.2102,0.18176,-0.983343
71,1.37568,-7.2102,0.18176,-0.983343
71.1,1.37568,-7.2102,0.18176,-0.983343
71.2,1.37568,-7.2102,0.18176,-0.983343
71.3,1.37568,-7.2102,0.18176,-0.983343
71.4,1.37568,-7.2102,0.18176,-0.983343
71.5,1.37568,-7.2102,0.18176,-0.983343
71.6,1.37568,-7.2102,0.18176,-0.983343
71.7,1.37568,-7.2102,0.18176,-0.983343
71.8,1.37568,-7.2102,0.18176,-0.983343
71.9,1.37568,-7.2102,0.18176,-0.983343
72,1.37568,-7.2102,0.18176,-0.983343
72.1,1.37568,-7.2102,0.18176,-0.983343
72.2,1.37568,-7.2102,0.18176,-0.983343
72.3,1.37568,-7.2102,0.18176,-0.983343
72.4,1.37568,-7.2102,0.18176,-0.983343
72.5,1.37568,-7.2102,0.18176,-0.983343
72.6,1.37568,-7.2102,0.18176,-0.983343
72.7,1.37568,-7.2102,0.18176,-0.983343
72.8,1.37568,-7.2102,0.18176,-0.983343
72.9,1.37568,-7.2102,0.18176,-0.983343
73,1.37568,-7.2102,0.18176,-0.983343
73.1,1.37568,-7.2102,0.18176,-0.983343
73.2,1.37568,-7.2102,0.18176,-0.983343
73.3,1.37568,-7.2102,0.18176,-0.983343
73.4,1.37568,-7.2102,0.18176,-0.983343
73.5,1.37568,-7.2102,0.18176,-0.983343
73.6,1.37568,-7.2102,0.18176,-0.983343
73.7,1.37568,-7.2102,0.18176,-0.983343
73.8,1.37568,-7.2102,0.18176,-0.983343
73.9,1.37568,-7.2102,0.18176,-0.983343
74,1.37568,-7.2102,0.18176,-0.983343
74.1,1.37568,-7.2102,0.18176,-0.983343
74.2,1.37568,-7.2102,0.18176,-0.983343
74.3,1.37568,-7.2102,0.18176,-0.983343
74.4,1.37568,-7.2102,0.18176,-0.983343
74.5,1.37568,-7.2102,0.18176,-0.983343
74.6,1.37568,-7.2102,0.18176,-0.983343
74.7,1.37568,-7.2102,0.18176,-0.983343
74.8,1.37568,-7.2102,0.18176,-0.983343
74.9,1.37568,-7.2102,0.18176,-0.983343
75,1.37568,-7.2102,0.18176,-0.983343
75.1,1.37568,-7.2102,0.18176,-0.983343
75.2,1.37568,-7.2102,0.18176,-0.983343
75.3,1.37568,-7.2102,0.18176,-0.983343
75.4,1.37568,-7.2102,0.18176,-0.983343
75.5,1.37568,-7.2102,0.18176,-0.983343
75.6,1.37568,-7.2102,0.18176,-0.983343
75.7,1.37568,-7.2102,0.18176,-0.983343
75.8,1.37568,-7.2102,0.18176,-0.983343
75.9,1.37568,-7.2102,0.18176,-0.983343
76,1.37568,-7.2102,0.18176,-0.983343
76.1,1.37568,-7.2102,0.18176,-0.983343
76.2,1.37568,-7.2102,0.18176,-0.983343
76.3,1.37568,-7.2102,0.18176,-0.983343
76.4,1.37568,-7.2102,0.18176,-0.983343
76.5,1.37568,-7.2102,0.18176,-0.983343
76.6,1.37568,-7.2102,0.18176,-0.983343
76.7,1.37568,-7.2102,0.18176,-0.983343
76.8,1.37568,-7.2102,0.18176,-0.983343
76.9,1.37568,-7.2102,0.18176,-0.983343
77,1.37568,-7.2102,0.18176,-0.983343
77.1,1.37568,-7.2102,0.18176,-0.983343
77.2,1.37568,-7.2102,0.18176,-0.983343
77.3,1.37568,-7.2102,0.18176,-0.983343
77.4,1.37568,-7.2102,0.18176,-0.983343
77.5,1.37568,-7.2102,0.18176,-0.983343
77.6,1.37568,-7.2102,0.18176,-0.983343
77.7,1.37568,-7.2102,0.18176,-0.983343
77.8,1.37568,-7.2102,0.18176,-0.983343
77.9,1.37568,-7.2102,0.18176,-0.983343
78,1.37568,-7.2102,0.18176,-0.983343
78.1,1.37568,-7.2102,0.18176,-0.983343
78.2,1.37568,-7.2102,0.18176,-0.983343
78.3,1.37568,-7.2102,0.18176,-0.983343
78.4,1.37568,-7.2102,0.18176,-0.983343
78.5,1.37568,-7.2102,0.18176,-0.983343
78.6,1.37568,-7.2102,0.18176,-0.983343
78.7,1.37568,-7.2102,0.18176,-0.983343
78.8,1.37568,-7.2102,0.18176,-0.983343
78.9,1.37568,-7.2102,0.18176,-0.983343
79,1.37568,-7.2102,0.18176,-0.983343
79.1,1.37568,-7.2102,0.18176,-0.983343
79.2,1.37568,-7.2102,0.18176,-0.983343
79.3,1.37568,-7.2102,0.18176,-0.983343
79.4,1.37568,-7.2102,0.18176,-0.983343
79.5,1.37568,-7.2102,0.18176,-0.983343
79.6,1.37568,-7.2102,0.18176,-0.983343
79.7,1.37568,-7.2102,0.18176,-0.983343
79.8,1.37568,-7.2102,0.18176,-0.983343
79.9,1.37568,-7.2102,0.18176,-0.983343
80,1.37568,-7.2102,0.18176,-0.983343
