0.1,1.40453,7.32324,-0.119846,-0.992792
0.2,1.39167,7.23355,-0.161161,-0.986928
0.3,1.36431,7.10795,-0.204568,-0.978852
0.4,1.3368,6.97089,-0.193969,-0.981008
0.5,1.30746,6.85197,-0.221702,-0.975114
0.6,1.27667,6.71625,-0.210483,-0.977598
0.7,1.24698,6.59956,-0.225837,-0.974165
0.8,1.21429,6.46071,-0.215872,-0.976422
0.9,1.18435,6.34208,-0.224482,-0.974478
1,1.16109,6.22967,-0.196516,-0.980501
1.1,1.13788,6.12639,-0.206407,-0.978466
1.2,1.1089,5.99312,-0.203699,-0.979033
1.3,1.08348,5.88104,-0.20814,-0.978099
1.4,1.04916,5.73851,-0.218976,-0.97573
1.5,1.02599,5.62083,-0.189976,-0.981789
1.6,0.99265,5.47367,-0.209853,-0.977733
1.7,0.965917,5.3562,-0.208502,-0.978022
1.8,0.951059,5.2524,-0.157613,-0.987501
1.9,0.933555,5.15603,-0.180646,-0.983548
2,0.933824,5.06078,-0.0730941,-0.997325
2.1,0.921759,4.982,-0.1665,-0.986041
2.2,0.918112,4.91727,-0.121062,-0.992645
2.3,0.893236,4.82799,-0.23457,-0.972099
2.4,0.881063,4.75271,-0.171423,-0.985197
2.5,0.848942,4.66364,-0.277457,-0.960738
2.6,0.825174,4.58461,-0.242604,-0.970125
2.7,0.79485,4.4782,-0.24077,-0.970582
2.8,0.771857,4.38945,-0.222653,-0.974898
2.9,0.742387,4.28671,-0.240579,-0.97063
3,0.726618,4.16694,-0.148319,-0.98894
3.1,0.700239,4.06184,-0.220419,-0.975405
3.2,0.686892,3.97776,-0.167352,-0.985897
3.3,0.689308,3.90982,-0.0709074,-0.997483
3.4,0.683244,3.80946,-0.108533,-0.994093
3.5,0.678165,3.71804,-0.108925,-0.99405
3.6,0.663086,3.65557,-0.209613,-0.977785
3.7,0.640814,3.61081,-0.300738,-0.953707
3.8,0.616539,3.57199,-0.332234,-0.943197
3.9,0.589665,3.51114,-0.296169,-0.955136
4,0.562243,3.47376,-0.360445,-0.93278
4.1,0.53577,3.41341,-0.292902,-0.956142
4.2,0.511046,3.37251,-0.326637,-0.94515
4.3,0.478391,3.30945,-0.327758,-0.944762
4.4,0.448728,3.26451,-0.351856,-0.936054
4.5,0.429513,3.24932,-0.358105,-0.933681
4.6,0.392574,3.20268,-0.397895,-0.917431
4.7,0.373847,3.17831,-0.317606,-0.948223
4.8,0.340722,3.13192,-0.369536,-0.929217
4.9,0.303981,3.1074,-0.471617,-0.881803
5,0.267317,3.10235,-0.562945,-0.826495
5.1,0.231374,3.08058,-0.473387,-0.880854
5.2,0.196611,3.08661,-0.610281,-0.792185
5.3,0.164633,3.07627,-0.489069,-0.872245
5.4,0.12728,3.07705,-0.595074,-0.803671
5.5,0.0917823,3.09199,-0.673094,-0.739557
5.6,0.0501524,3.08759,-0.594642,-0.803991
5.7,0.00826931,3.10111,-0.706982,-0.707231
5.8,-0.0331714,3.11443,-0.70044,-0.713711
5.9,-0.0732109,3.11214,-0.587688,-0.809088
6,-0.115136,3.12076,-0.667809,-0.744333
6.1,-0.158215,3.13942,-0.743731,-0.668479
6.2,-0.198121,3.14848,-0.650819,-0.759233
6.3,-0.239471,3.15111,-0.618555,-0.785742
6.4,-0.279957,3.15278,-0.603618,-0.797273
6.5,-0.319268,3.15314,-0.583925,-0.811808
6.6,-0.358699,3.15074,-0.566563,-0.824018
6.7,-0.397983,3.14789,-0.560586,-0.828096
6.8,-0.436843,3.14386,-0.548303,-0.83628
6.9,-0.475057,3.14077,-0.545796,-0.837918
7,-0.513474,3.13781,-0.546246,-0.837625
7.1,-0.550962,3.13406,-0.531427,-0.847104
7.2,-0.588336,3.12973,-0.525089,-0.851047
7.3,-0.62724,3.12744,-0.547922,-0.83653
7.4,-0.666417,3.12432,-0.543458,-0.839436
7.5,-0.705604,3.11988,-0.533963,-0.845508
7.6,-0.744839,3.11512,-0.530493,-0.84769
7.7,-0.78463,3.10831,-0.522067,-0.852904
7.8,-0.824109,3.10004,-0.509534,-0.86045
7.9,-0.863581,3.09172,-0.507102,-0.861886
8,-0.903326,3.08347,-0.507639,-0.86157
8.1,-0.942788,3.07538,-0.50375,-0.863849
8.2,-0.982185,3.06714,-0.500213,-0.865903
8.3,-1.02135,3.05863,-0.494623,-0.869108
8.4,-1.06072,3.04889,-0.487972,-0.872859
8.5,-1.0999,3.03761,-0.476538,-0.879154
8.6,-1.13892,3.02626,-0.472642,-0.881255
8.7,-1.17862,3.01441,-0.474002,-0.880524
8.8,-1.21766,3.00289,-0.467562,-0.88396
8.9,-1.25667,2.99125,-0.46435,-0.885652
9,-1.29636,2.97901,-0.465572,-0.88501
9.1,-1.33631,2.96585,-0.461297,-0.887246
9.2,-1.37602,2.95208,-0.454098,-0.890952
9.3,-1.41546,2.9381,-0.448413,-0.893826
9.4,-1.45477,2.9243,-0.4458,-0.895133
9.5,-1.49499,2.91052,-0.451927,-0.892055
9.6,-1.53458,2.89686,-0.444412,-0.895823
9.7,-1.57459,2.88305,-0.445266,-0.895398
9.8,-1.61499,2.86777,-0.439968,-0.898014
9.9,-1.65779,2.85199,-0.456749,-0.889595
10,-1.69911,2.83581,-0.43957,-0.898208
10.1,-1.74136,2.81749,-0.436267,-0.899817
10.2,-1.78379,2.79843,-0.432333,-0.901714
10.3,-1.8257,2.77916,-0.424477,-0.905438
10.4,-1.86821,2.7592,-0.424688,-0.90534
10.5,-1.91289,2.73694,-0.431536,-0.902095
10.6,-1.95988,2.71232,-0.438814,-0.898578
10.7,-2.00789,2.68663,-0.440453,-0.897776
10.8,-2.05617,2.65819,-0.429522,-0.903056
10.9,-2.10526,2.62745,-0.424927,-0.905228
11,-2.15646,2.59331,-0.426393,-0.904538
11.1,-2.20819,2.55662,-0.41904,-0.907968
11.2,-2.25497,2.51891,-0.37553,-0.92681
11.3,-2.30247,2.47818,-0.369409,-0.929267
11.4,-2.34942,2.43594,-0.358306,-0.933604
11.5,-2.39364,2.39458,-0.337173,-0.941443
11.6,-2.43674,2.35072,-0.319236,-0.947675
11.7,-2.47996,2.3064,-0.316488,-0.948597
11.8,-2.52211,2.26009,-0.300783,-0.953693
11.9,-2.56263,2.20439,-0.264824,-0.964297
12,-2.60302,2.14866,-0.261519,-0.965198
12.1,-2.64279,2.09318,-0.255158,-0.966899
12.2,-2.68201,2.03562,-0.244634,-0.969616
12.3,-2.71936,1.97211,-0.218266,-0.975889
12.4,-2.75869,1.89341,-0.207037,-0.978333
12.5,-2.7981,1.80353,-0.190996,-0.981591
12.6,-2.83641,1.70869,-0.176656,-0.984273
12.7,-2.87419,1.60303,-0.160705,-0.987002
12.8,-2.90963,1.49579,-0.143974,-0.989581
12.9,-2.94405,1.3852,-0.13359,-0.991037
13,-2.97692,1.27594,-0.123768,-0.992311
13.1,-3.00968,1.16675,-0.121141,-0.992635
13.2,-3.04193,1.05588,-0.115033,-0.993362
13.3,-3.07274,0.944948,-0.104798,-0.994494
13.4,-3.10304,0.832951,-0.0991821,-0.995069
13.5,-3.13443,0.714327,-0.0994619,-0.995041
13.6,-3.1648,0.595947,-0.091737,-0.995783
13.7,-3.19498,0.476415,-0.0879629,-0.996124
13.8,-3.22396,0.358317,-0.0797987,-0.996811
13.9,-3.25138,0.237604,-0.06792,-0.997691
14,-3.2761,0.120662,-0.0520177,-0.998646
14.1,-3.29864,0.00432455,-0.0377974,-0.999285
14.2,-3.31944,-0.114366,-0.0254584,-0.999676
14.3,-3.33864,-0.233419,-0.0143984,-0.999896
14.4,-3.35647,-0.360517,-0.00433954,-0.999991
14.5,-3.3709,-0.487278,0.0158476,-0.999874
14.6,-3.37069,-0.623833,0.090373,-0.995908
14.7,-3.33237,-0.750067,0.286974,-0.957939
14.8,-3.29655,-0.874658,0.27742,-0.960749
14.9,-3.26047,-0.999276,0.278643,-0.960395
15,-3.22407,-1.1242,0.279716,-0.960083
15.1,-3.18754,-1.24904,0.280452,-0.959868
15.2,-3.15104,-1.37381,0.280417,-0.959878
15.3,-3.11422,-1.49838,0.28217,-0.959365
15.4,-3.07763,-1.62329,0.280596,-0.959826
15.5,-3.0416,-1.74763,0.278754,-0.960363
15.6,-3.00537,-1.87281,0.278507,-0.960434
15.7,-2.96886,-1.99763,0.280376,-0.95989
15.8,-2.93232,-2.12234,0.280622,-0.959818
15.9,-2.89588,-2.24733,0.279747,-0.960074
16,-2.85959,-2.37221,0.279219,-0.960227
16.1,-2.82412,-2.49692,0.275557,-0.961285
16.2,-2.78846,-2.62141,0.276854,-0.960912
16.3,-2.7518,-2.7458,0.281741,-0.959491
16.4,-2.71515,-2.87016,0.281678,-0.959509
16.5,-2.67868,-2.99474,0.280516,-0.959849
16.6,-2.6423,-3.11987,0.27929,-0.960207
16.7,-2.60587,-3.24486,0.279762,-0.960069
16.8,-2.56946,-3.3699,0.279612,-0.960113
16.9,-2.5332,-3.49485,0.27897,-0.9603
17,-2.49691,-3.61977,0.279225,-0.960226
17.1,-2.46028,-3.74479,0.280645,-0.959812
17.2,-2.42413,-3.86958,0.278702,-0.960378
17.3,-2.38751,-3.99372,0.281845,-0.95946
17.4,-2.35098,-4.11782,0.281444,-0.959578
17.5,-2.3144,-4.24163,0.282025,-0.959407
17.6,-2.27834,-4.36644,0.278131,-0.960543
17.7,-2.24222,-4.49131,0.278354,-0.960478
17.8,-2.20604,-4.61624,0.278614,-0.960403
17.9,-2.16966,-4.74095,0.279803,-0.960057
18,-2.13326,-4.86564,0.279969,-0.960009
18.1,-2.09682,-4.99041,0.280046,-0.959987
18.2,-2.06023,-5.11522,0.280691,-0.959798
18.3,-2.02363,-5.24003,0.280656,-0.959809
18.4,-1.98707,-5.36467,0.280689,-0.959799
18.5,-1.95047,-5.48936,0.280736,-0.959785
18.6,-1.91425,-5.61411,0.278802,-0.960349
18.7,-1.87795,-5.73883,0.279224,-0.960226
18.8,-1.84151,-5.86345,0.280044,-0.959987
18.9,-1.80421,-5.98785,0.284302,-0.958735
19,-1.76726,-6.11286,0.281573,-0.95954
19.1,-1.73187,-6.23717,0.274952,-0.961458
19.2,-1.69537,-6.36253,0.278923,-0.960313
19.3,-1.65915,-6.48739,0.2782,-0.960523
19.4,-1.62325,-6.61244,0.276327,-0.961064
19.5,-1.587,-6.73728,0.278366,-0.960475
19.6,-1.55083,-6.86209,0.277913,-0.960606
19.7,-1.51493,-6.98712,0.276273,-0.961079
19.8,-1.479,-7.11199,0.276683,-0.960961
19.9,-1.4569,-7.1888,0.276508,-0.961012
20,-1.44862,-7.21757,0.276508,-0.961012
20.1,-1.44862,-7.21757,0.276508,-0.961012
20.2,-1.44862,-7.21757,0.276508,-0.961012
20.3,-1.44862,-7.21757,0.276508,-0.961012
20.4,-1.44862,-7.21757,0.276508,-0.961012
20.5,-1.44862,-7.21757,0.276508,-0.961012
20.6,-1.44862,-7.21757,0.276508,-0.961012
20.7,-1.44862,-7.21757,0.276508,-0.961012
20.8,-1.44862,-7.21757,0.276508,-0.961012
20.9,-1.44862,-7.21757,0.276508,-0.961012
21,-1.44862,-7.21757,0.276508,-0.961012
21.1,-1.44862,-7.21757,0.276508,-0.961012
21.2,-1.44862,-7.21757,0.276508,-0.961012
21.3,-1.44862,-7.21757,0.276508,-0.961012
21.4,-1.44862,-7.21757,0.276508,-0.961012
21.5,-1.44862,-7.21757,0.276508,-0.961012
21.6,-1.44862,-7.21757,0.276508,-0.961012
21.7,-1.44862,-7.21757,0.276508,-0.961012
21.8,-1.44862,-7.21757,0.276508,-0.961012
21.9,-1.44862,-7.21757,0.276508,-0.961012
22,-1.44862,-7.21757,0.276508,-0.961012
22.1,-1.44862,-7.21757,0.276508,-0.961012
22.2,-1.44862,-7.21757,0.276508,-0.961012
22.3,-1.44862,-7.21757,0.276508,-0.961012
22.4,-1.44862,-7.21757,0.276508,-0.961012
22.5,-1.44862,-7.21757,0.276508,-0.961012
22.6,-1.44862,-7.21757,0.276508,-0.961012
22.7,-1.44862,-7.21757,0.276508,-0.961012
22.8,-1.44862,-7.21757,0.276508,-0.961012
22.9,-1.44862,-7.21757,0.276508,-0.961012
23,-1.44862,-7.21757,0.276508,-0.961012
23.1,-1.44862,-7.21757,0.276508,-0.961012
23.2,-1.44862,-7.21757,0.276508,-0.961012
23.3,-1.44862,-7.21757,0.276508,-0.961012
23.4,-1.44862,-7.21757,0.276508,-0.961012
23.5,-1.44862,-7.21757,0.276508,-0.961012
23.6,-1.44862,-7.21757,0.276508,-0.961012
23.7,-1.44862,-7.21757,0.276508,-0.961012
23.8,-1.44862,-7.21757,0.276508,-0.961012
23.9,-1.44862,-7.21757,0.276508,-0.961012
24,-1.44862,-7.21757,0.276508,-0.961012
24.1,-1.44862,-7.21757,0.276508,-0.961012
24.2,-1.44862,-7.21757,0.276508,-0.961012
24.3,-1.44862,-7.21757,0.276508,-0.961012
24.4,-1.44862,-7.21757,0.276508,-0.961012
24.5,-1.44862,-7.21757,0.276508,-0.961012
24.6,-1.44862,-7.21757,0.276508,-0.961012
24.7,-1.44862,-7.21757,0.276508,-0.961012
24.8,-1.44862,-7.21757,0.276508,-0.961012
24.9,-1.44862,-7.21757,0.276508,-0.961012
25,-1.44862,-7.21757,0.276508,-0.961012
25.1,-1.44862,-7.21757,0.276508,-0.961012
25.2,-1.44862,-7.21757,0.276508,-0.961012
25.3,-1.44862,-7.21757,0.276508,-0.961012
25.4,-1.44862,-7.21757,0.276508,-0.961012
25.5,-1.44862,-7.21757,0.276508,-0.961012
25.6,-1.44862,-7.21757,0.276508,-0.961012
25.7,-1.44862,-7.21757,0.276508,-0.961012
25.8,-1.44862,-7.21757,0.276508,-0.961012
25.9,-1.44862,-7.21757,0.276508,-0.961012
26,-1.44862,-7.21757,0.276508,-0.961012
26.1,-1.44862,-7.21757,0.276508,-0.961012
26.2,-1.44862,-7.21757,0.276508,-0.961012
26.3,-1.44862,-7.21757,0.276508,-0.961012
26.4,-1.44862,-7.21757,0.276508,-0.961012
26.5,-1.44862,-7.21757,0.276508,-0.961012
26.6,-1.44862,-7.21757,0.276508,-0.961012
26.7,-1.44862,-7.21757,0.276508,-0.961012
26.8,-1.44862,-7.21757,0.276508,-0.961012
26.9,-1.44862,-7.21757,0.276508,-0.961012
27,-1.44862,-7.21757,0.276508,-0.961012
27.1,-1.44862,-7.21757,0.276508,-0.961012
27.2,-1.44862,-7.21757,0.276508,-0.961012
27.3,-1.44862,-7.21757,0.276508,-0.961012
27.4,-1.44862,-7.21757,0.276508,-0.961012
27.5,-1.44862,-7.21757,0.276508,-0.961012
27.6,-1.44862,-7.21757,0.276508,-0.961012
27.7,-1.44862,-7.21757,0.276508,-0.961012
27.8,-1.44862,-7.21757,0.276508,-0.961012
27.9,-1.44862,-7.21757,0.276508,-0.961012
28,-1.44862,-7.21757,0.276508,-0.961012
28.1,-1.44862,-7.21757,0.276508,-0.961012
28.2,-1.44862,-7.21757,0.276508,-0.961012
28.3,-1.44862,-7.21757,0.276508,-0.961012
28.4,-1.44862,-7.21757,0.276508,-0.961012
28.5,-1.44862,-7.21757,0.276508,-0.961012
28.6,-1.44862,-7.21757,0.276508,-0.961012
28.7,-1.44862,-7.21757,0.276508,-0.961012
28.8,-1.44862,-7.21757,0.276508,-0.961012
28.9,-1.44862,-7.21757,0.276508,-0.961012
29,-1.44862,-7.21757,0.276508,-0.961012
29.1,-1.44862,-7.21757,0.276508,-0.961012
29.2,-1.44862,-7.21757,0.276508,-0.961012
29.3,-1.44862,-7.21757,0.276508,-0.961012
29.4,-1.44862,-7.21757,0.276508,-0.961012
29.5,-1.44862,-7.21757,0.276508,-0.961012
29.6,-1.44862,-7.21757,0.276508,-0.961012
29.7,-1.44862,-7.21757,0.276508,-0.961012
29.8,-1.44862,-7.21757,0.276508,-0.961012
29.9,-1.44862,-7.21757,0.276508,-0.961012
30,-1.44862,-7.21757,0.276508,-0.961012
30.1,-1.44862,-7.21757,0.276508,-0.961012
30.2,-1.44862,-7.21757,0.276508,-0.961012
30.3,-1.44862,-7.21757,0.276508,-0.961012
30.4,-1.44862,-7.21757,0.276508,-0.961012
30.5,-1.44862,-7.21757,0.276508,-0.961012
30.6,-1.44862,-7.21757,0.276508,-0.961012
30.7,-1.44862,-7.21757,0.276508,-0.961012
30.8,-1.44862,-7.21757,0.276508,-0.961012
30.9,-1.44862,-7.21757,0.276508,-0.961012
31,-1.44862,-7.21757,0.276508,-0.961012
31.1,-1.44862,-7.21757,0.276508,-0.961012
31.2,-1.44862,-7.21757,0.276508,-0.961012
31.3,-1.44862,-7.21757,0.276508,-0.961012
31.4,-1.44862,-7.21757,0.276508,-0.961012
31.5,-1.44862,-7.21757,0.276508,-0.961012
31.6,-1.44862,-7.21757,0.276508,-0.961012
31.7,-1.44862,-7.21757,0.276508,-0.961012
31.8,-1.44862,-7.21757,0.276508,-0.961012
31.9,-1.44862,-7.21757,0.276508,-0.961012
32,-1.44862,-7.21757,0.276508,-0.961012
32.1,-1.44862,-7.21757,0.276508,-0.961012
32.2,-1.44862,-7.21757,0.276508,-0.961012
32.3,-1.44862,-7.21757,0.276508,-0.961012
32.4,-1.44862,-7.21757,0.276508,-0.961012
32.5,-1.44862,-7.21757,0.276508,-0.961012
32.6,-1.44862,-7.21757,0.276508,-0.961012
32.7,-1.44862,-7.21757,0.276508,-0.961012
32.8,-1.44862,-7.21757,0.276508,-0.961012
32.9,-1.44862,-7.21757,0.276508,-0.961012
33,-1.44862,-7.21757,0.276508,-0.961012
33.1,-1.44862,-7.21757,0.276508,-0.961012
33.2,-1.44862,-7.21757,0.276508,-0.961012
33.3,-1.44862,-7.21757,0.276508,-0.961012
33.4,-1.44862,-7.21757,0.276508,-0.961012
33.5,-1.44862,-7.21757,0.276508,-0.961012
33.6,-1.44862,-7.21757,0.276508,-0.961012
33.7,-1.44862,-7.21757,0.276508,-0.961012
33.8,-1.44862,-7.21757,0.276508,-0.961012
33.9,-1.44862,-7.21757,0.276508,-0.961012
34,-1.44862,-7.21757,0.276508,-0.961012
34.1,-1.44862,-7.21757,0.276508,-0.961012
34.2,-1.44862,-7.21757,0.276508,-0.961012
34.3,-1.44862,-7.21757,0.276508,-0.961012
34.4,-1.44862,-7.21757,0.276508,-0.961012
34.5,-1.44862,-7.21757,0.276508,-0.961012
34.6,-1.44862,-7.21757,0.276508,-0.961012
34.7,-1.44862,-7.21757,0.276508,-0.961012
34.8,-1.44862,-7.21757,0.276508,-0.961012
34.9,-1.44862,-7.21757,0.276508,-0.961012
35,-1.44862,-7.21757,0.276508,-0.961012
35.1,-1.44862,-7.21757,0.276508,-0.961012
35.2,-1.44862,-7.21757,0.276508,-0.961012
35.3,-1.44862,-7.21757,0.276508,-0.961012
35.4,-1.44862,-7.21757,0.276508,-0.961012
35.5,-1.44862,-7.21757,0.276508,-0.961012
35.6,-1.44862,-7.21757,0.276508,-0.961012
35.7,-1.44862,-7.21757,0.276508,-0.961012
35.8,-1.44862,-7.21757,0.276508,-0.961012
35.9,-1.44862,-7.21757,0.276508,-0.961012
36,-1.44862,-7.21757,0.276508,-0.961012
36.1,-1.44862,-7.21757,0.276508,-0.961012
36.2,-1.44862,-7.21757,0.276508,-0.961012
36.3,-1.44862,-7.21757,0.276508,-0.961012
36.4,-1.44862,-7.21757,0.276508,-0.961012
36.5,-1.44862,-7.21757,0.276508,-0.961012
36.6,-1.44862,-7.21757,0.276508,-0.961012
36.7,-1.44862,-7.21757,0.276508,-0.961012
36.8,-1.44862,-7.21757,0.276508,-0.961012
36.9,-1.44862,-7.21757,0.276508,-0.961012
37,-1.44862,-7.21757,0.276508,-0.961012
37.1,-1.44862,-7.21757,0.276508,-0.961012
37.2,-1.44862,-7.21757,0.276508,-0.961012
37.3,-1.44862,-7.21757,0.276508,-0.961012
37.4,-1.44862,-7.21757,0.276508,-0.961012
37.5,-1.44862,-7.21757,0.276508,-0.961012
37.6,-1.44862,-7.21757,0.276508,-0.961012
37.7,-1.44862,-7.21757,0.276508,-0.961012
37.8,-1.44862,-7.21757,0.276508,-0.961012
37.9,-1.44862,-7.21757,0.276508,-0.961012
38,-1.44862,-7.21757,0.276508,-0.961012
38.1,-1.44862,-7.21757,0.276508,-0.961012
38.2,-1.44862,-7.21757,0.276508,-0.961012
38.3,-1.44862,-7.21757,0.276508,-0.961012
38.4,-1.44862,-7.21757,0.276508,-0.961012
38.5,-1.44862,-7.21757,0.276508,-0.961012
38.6,-1.44862,-7.21757,0.276508,-0.961012
38.7,-1.44862,-7.21757,0.276508,-0.961012
38.8,-1.44862,-7.21757,0.276508,-0.961012
38.9,-1.44862,-7.21757,0.276508,-0.961012
39,-1.44862,-7.21757,0.276508,-0.961012
39.1,-1.44862,-7.21757,0.276508,-0.961012
39.2,-1.44862,-7.21757,0.276508,-0.961012
39.3,-1.44862,-7.21757,0.276508,-0.961012
39.4,-1.44862,-7.21757,0.276508,-0.961012
39.5,-1.44862,-7.21757,0.276508,-0.961012
39.6,-1.44862,-7.21757,0.276508,-0.961012
39.7,-1.44862,-7.21757,0.276508,-0.961012
39.8,-1.44862,-7.21757,0.276508,-0.961012
39.9,-1.44862,-7.21757,0.276508,-0.961012
40,-1.44862,-7.21757,0.276508,-0.961012
40.1,-1.44862,-7.21757,0.276508,-0.961012
40.2,-1.44862,-7.21757,0.276508,-0.961012
40.3,-1.44862,-7.21757,0.276508,-0.961012
40.4,-1.44862,-7.21757,0.276508,-0.961012
40.5,-1.44862,-7.21757,0.276508,-0.961012
40.6,-1.44862,-7.21757,0.276508,-0.961012
40.7,-1.44862,-7.21757,0.276508,-0.961012
40.8,-1.44862,-7.21757,0.276508,-0.961012
40.9,-1.44862,-7.21757,0.276508,-0.961012
41,-1.44862,-7.21757,0.276508,-0.961012
41.1,-1.44862,-7.21757,0.276508,-0.961012
41.2,-1.44862,-7.21757,0.276508,-0.961012
41.3,-1.44862,-7.21757,0.276508,-0.961012
41.4,-1.44862,-7.21757,0.276508,-0.961012
41.5,-1.44862,-7.21757,0.276508,-0.961012
41.6,-1.44862,-7.21757,0.276508,-0.961012
41.7,-1.44862,-7.21757,0.276508,-0.961012
41.8,-1.44862,-7.21757,0.276508,-0.961012
41.9,-1.44862,-7.21757,0.276508,-0.961012
42,-1.44862,-7.21757,0.276508,-0.961012
42.1,-1.44862,-7.21757,0.276508,-0.961012
42.2,-1.44862,-7.21757,0.276508,-0.961012
42.3,-1.44862,-7.21757,0.276508,-0.961012
42.4,-1.44862,-7.21757,0.276508,-0.961012
42.5,-1.44862,-7.21757,0.276508,-0.961012
42.6,-1.44862,-7.21757,0.276508,-0.961012
42.7,-1.44862,-7.21757,0.276508,-0.961012
42.8,-1.44862,-7.21757,0.276508,-0.961012
42.9,-1.44862,-7.21757,0.276508,-0.961012
43,-1.44862,-7.21757,0.276508,-0.961012
43.1,-1.44862,-7.21757,0.276508,-0.961012
43.2,-1.44862,-7.21757,0.276508,-0.961012
43.3,-1.44862,-7.21757,0.276508,-0.961012
43.4,-1.44862,-7.21757,0.276508,-0.961012
43.5,-1.44862,-7.21757,0.276508,-0.961012
43.6,-1.44862,-7.21757,0.276508,-0.961012
43.7,-1.44862,-7.21757,0.276508,-0.961012
43.8,-1.44862,-7.21757,0.276508,-0.961012
43.9,-1.44862,-7.21757,0.276508,-0.961012
44,-1.44862,-7.21757,0.276508,-0.961012
44.1,-1.44862,-7.21757,0.276508,-0.961012
44.2,-1.44862,-7.21757,0.276508,-0.961012
44.3,-1.44862,-7.21757,0.276508,-0.961012
44.4,-1.44862,-7.21757,0.276508,-0.961012
44.5,-1.44862,-7.21757,0.276508,-0.961012
44.6,-1.44862,-7.21757,0.276508,-0.961012
44.7,-1.44862,-7.21757,0.276508,-0.961012
44.8,-1.44862,-7.21757,0.276508,-0.961012
44.9,-1.44862,-7.21757,0.276508,-0.961012
45,-1.44862,-7.21757,0.276508,-0.961012
45.1,-1.44862,-7.21757,0.276508,-0.961012
45.2,-1.44862,-7.21757,0.276508,-0.961012
45.3,-1.44862,-7.21757,0.276508,-0.961012
45.4,-1.44862,-7.21757,0.276508,-0.961012
45.5,-1.44862,-7.21757,0.276508,-0.961012
45.6,-1.44862,-7.21757,0.276508,-0.961012
45.7,-1.44862,-7.21757,0.276508,-0.961012
45.8,-1.44862,-7.21757,0.276508,-0.961012
45.9,-1.44862,-7.21757,0.276508,-0.961012
46,-1.44862,-7.21757,0.276508,-0.961012
46.1,-1.44862,-7.21757,0.276508,-0.961012
46.2,-1.44862,-7.21757,0.276508,-0.961012
46.3,-1.44862,-7.21757,0.276508,-0.961012
46.4,-1.44862,-7.21757,0.276508,-0.961012
46.5,-1.44862,-7.21757,0.276508,-0.961012
46.6,-1.44862,-7.21757,0.276508,-0.961012
46.7,-1.44862,-7.21757,0.276508,-0.961012
46.8,-1.44862,-7.21757,0.276508,-0.961012
46.9,-1.44862,-7.21757,0.276508,-0.961012
47,-1.44862,-7.21757,0.276508,-0.961012
47.1,-1.44862,-7.21757,0.276508,-0.961012
47.2,-1.44862,-7.21757,0.276508,-0.961012
47.3,-1.44862,-7.21757,0.276508,-0.961012
47.4,-1.44862,-7.21757,0.276508,-0.961012
47.5,-1.44862,-7.21757,0.276508,-0.961012
47.6,-1.44862,-7.21757,0.276508,-0.961012
47.7,-1.44862,-7.21757,0.276508,-0.961012
47.8,-1.44862,-7.21757,0.276508,-0.961012
47.9,-1.44862,-7.21757,0.276508,-0.961012
48,-1.44862,-7.21757,0.276508,-0.961012
48.1,-1.44862,-7.21757,0.276508,-0.961012
48.2,-1.44862,-7.21757,0.276508,-0.961012
48.3,-1.44862,-7.21757,0.276508,-0.961012
48.4,-1.44862,-7.21757,0.276508,-0.961012
48.5,-1.44862,-7.21757,0.276508,-0.961012
48.6,-1.44862,-7.21757,0.276508,-0.961012
48.7,-1.44862,-7.21757,0.276508,-0.961012
48.8,-1.44862,-7.21757,0.276508,-0.961012
48.9,-1.44862,-7.21757,0.276508,-0.961012
49,-1.44862,-7.21757,0.276508,-0.961012
49.1,-1.44862,-7.21757,0.276508,-0.961012
49.2,-1.44862,-7.21757,0.276508,-0.961012
49.3,-1.44862,-7.21757,0.276508,-0.961012
49.4,-1.44862,-7.21757,0.276508,-0.961012
49.5,-1.44862,-7.21757,0.276508,-0.961012
49.6,-1.44862,-7.21757,0.276508,-0.961012
49.7,-1.44862,-7.21757,0.276508,-0.961012
49.8,-1.44862,-7.21757,0.276508,-0.961012
49.9,-1.44862,-7.21757,0.276508,-0.961012
50,-1.44862,-7.21757,0.276508,-0.961012
50.1,-1.44862,-7.21757,0.276508,-0.961012
50.2,-1.44862,-7.21757,0.276508,-0.961012
50.3,-1.44862,-7.21757,0.276508,-0.961012
50.4,-1.44862,-7.21757,0.276508,-0.961012
50.5,-1.44862,-7.21757,0.276508,-0.961012
50.6,-1.44862,-7.21757,0.276508,-0.961012
50.7,-1.44862,-7.21757,0.276508,-0.961012
50.8,-1.44862,-7.21757,0.276508,-0.961012
50.9,-1.44862,-7.21757,0.276508,-0.961012
51,-1.44862,-7.21757,0.276508,-0.961012
51.1,-1.44862,-7.21757,0.276508,-0.961012
51.2,-1.44862,-7.21757,0.276508,-0.961012
51.3,-1.44862,-7.21757,0.276508,-0.961012
51.4,-1.44862,-7.21757,0.276508,-0.961012
51.5,-1.44862,-7.21757,0.276508,-0.961012
51.6,-1.44862,-7.21757,0.276508,-0.961012
51.7,-1.44862,-7.21757,0.276508,-0.961012
51.8,-1.44862,-7.21757,0.276508,-0.961012
51.9,-1.44862,-7.21757,0.276508,-0.961012
52,-1.44862,-7.21757,0.276508,-0.961012
52.1,-1.44862,-7.21757,0.276508,-0.961012
52.2,-1.44862,-7.21757,0.276508,-0.961012
52.3,-1.44862,-7.21757,0.276508,-0.961012
52.4,-1.44862,-7.21757,0.276508,-0.961012
52.5,-1.44862,-7.21757,0.276508,-0.961012
52.6,-1.44862,-7.21757,0.276508,-0.961012
52.7,-1.44862,-7.21757,0.276508,-0.961012
52.8,-1.44862,-7.21757,0.276508,-0.961012
52.9,-1.44862,-7.21757,0.276508,-0.961012
53,-1.44862,-7.21757,0.276508,-0.961012
53.1,-1.44862,-7.21757,0.276508,-0.961012
53.2,-1.44862,-7.21757,0.276508,-0.961012
53.3,-1.44862,-7.21757,0.276508,-0.961012
53.4,-1.44862,-7.21757,0.276508,-0.961012
53.5,-1.44862,-7.21757,0.276508,-0.961012
53.6,-1.44862,-7.21757,0.276508,-0.961012
53.7,-1.44862,-7.21757,0.276508,-0.961012
53.8,-1.44862,-7.21757,0.276508,-0.961012
53.9,-1.44862,-7.21757,0.276508,-0.961012
54,-1.44862,-7.21757,0.276508,-0.961012
54.1,-1.44862,-7.21757,0.276508,-0.961012
54.2,-1.44862,-7.21757,0.276508,-0.961012
54.3,-1.44862,-7.21757,0.276508,-0.961012
54.4,-1.44862,-7.21757,0.276508,-0.961012
54.5,-1.44862,-7.21757,0.276508,-0.961012
54.6,-1.44862,-7.21757,0.276508,-0.961012
54.7,-1.44862,-7.21757,0.276508,-0.961012
54.8,-1.44862,-7.21757,0.276508,-0.961012
54.9,-1.44862,-7.21757,0.276508,-0.961012
55,-1.44862,-7.21757,0.276508,-0.961012
55.1,-1.44862,-7.21757,0.276508,-0.961012
55.2,-1.44862,-7.21757,0.276508,-0.961012
55.3,-1.44862,-7.21757,0.276508,-0.961012
55.4,-1.44862,-7.21757,0.276508,-0.961012
55.5,-1.44862,-7.21757,0.276508,-0.961012
55.6,-1.44862,-7.21757,0.276508,-0.961012
55.7,-1.44862,-7.21757,0.276508,-0.961012
55.8,-1.44862,-7.21757,0.276508,-0.961012
55.9,-1.44862,-7.21757,0.276508,-0.961012
56,-1.44862,-7.21757,0.276508,-0.961012
56.1,-1.44862,-7.21757,0.276508,-0.961012
56.2,-1.44862,-7.21757,0.276508,-0.961012
56.3,-1.44862,-7.21757,0.276508,-0.961012
56.4,-1.44862,-7.21757,0.276508,-0.961012
56.5,-1.44862,-7.21757,0.276508,-0.961012
56.6,-1.44862,-7.21757,0.276508,-0.961012
56.7,-1.44862,-7.21757,0.276508,-0.961012
56.8,-1.44862,-7.21757,0.276508,-0.961012
56.9,-1.44862,-7.21757,0.276508,-0.961012
57,-1.44862,-7.21757,0.276508,-0.961012
57.1,-1.44862,-7.21757,0.276508,-0.961012
57.2,-1.44862,-7.21757,0.276508,-0.961012
57.3,-1.44862,-7.21757,0.276508,-0.961012
57.4,-1.44862,-7.21757,0.276508,-0.961012
57.5,-1.44862,-7.21757,0.276508,-0.961012
57.6,-1.44862,-7.21757,0.276508,-0.961012
57.7,-1.44862,-7.21757,0.276508,-0.961012
57.8,-1.44862,-7.21757,0.276508,-0.961012
57.9,-1.44862,-7.21757,0.276508,-0.961012
58,-1.44862,-7.21757,0.276508,-0.961012
58.1,-1.44862,-7.21757,0.276508,-0.961012
58.2,-1.44862,-7.21757,0.276508,-0.961012
58.3,-1.44862,-7.21757,0.276508,-0.961012
58.4,-1.44862,-7.21757,0.276508,-0.961012
58.5,-1.44862,-7.21757,0.276508,-0.961012
58.6,-1.44862,-7.21757,0.276508,-0.961012
58.7,-1.44862,-7.21757,0.276508,-0.961012
58.8,-1.44862,-7.21757,0.276508,-0.961012
58.9,-1.44862,-7.21757,0.276508,-0.961012
59,-1.44862,-7.21757,0.276508,-0.961012
59.1,-1.44862,-7.21757,0.276508,-0.961012
59.2,-1.44862,-7.21757,0.276508,-0.961012
59.3,-1.44862,-7.21757,0.276508,-0.961012
59.4,-1.44862,-7.21757,0.276508,-0.961012
59.5,-1.44862,-7.21757,0.276508,-0.961012
59.6,-1.44862,-7.21757,0.276508,-0.961012
59.7,-1.44862,-7.21757,0.276508,-0.961012
59.8,-1.44862,-7.21757,0.276508,-0.961012
59.9,-1.44862,-7.21757,0.276508,-0.961012
60,-1.44862,-7.21757,0.276508,-0.961012
60.1,-1.44862,-7.21757,0.276508,-0.961012
60.2,-1.44862,-7.21757,0.276508,-0.961012
60.3,-1.44862,-7.21757,0.276508,-0.961012
60.4,-1.44862,-7.21757,0.276508,-0.961012
60.5,-1.44862,-7.21757,0.276508,-0.961012
60.6,-1.44862,-7.21757,0.276508,-0.961012
60.7,-1.44862,-7.21757,0.276508,-0.961012
60.8,-1.44862,-7.21757,0.276508,-0.961012
60.9,-1.44862,-7.21757,0.276508,-0.961012
61,-1.44862,-7.21757,0.276508,-0.961012
61.1,-1.44862,-7.21757,0.276508,-0.961012
61.2,-1.44862,-7.21757,0.276508,-0.961012
61.3,-1.44862,-7.21757,0.276508,-0.961012
61.4,-1.44862,-7.21757,0.276508,-0.961012
61.5,-1.44862,-7.21757,0.276508,-0.961012
61.6,-1.44862,-7.21757,0.276508,-0.961012
61.7,-1.44862,-7.21757,0.276508,-0.961012
61.8,-1.44862,-7.21757,0.276508,-0.961012
61.9,-1.44862,-7.21757,0.276508,-0.961012
62,-1.44862,-7.21757,0.276508,-0.961012
62.1,-1.44862,-7.21757,0.276508,-0.961012
62.2,-1.44862,-7.21757,0.276508,-0.961012
62.3,-1.44862,-7.21757,0.276508,-0.961012
62.4,-1.44862,-7.21757,0.276508,-0.961012
62.5,-1.44862,-7.21757,0.276508,-0.961012
62.6,-1.44862,-7.21757,0.276508,-0.961012
62.7,-1.44862,-7.21757,0.276508,-0.961012
62.8,-1.44862,-7.21757,0.276508,-0.961012
62.9,-1.44862,-7.21757,0.276508,-0.961012
63,-1.44862,-7.21757,0.276508,-0.961012
63.1,-1.44862,-7.21757,0.276508,-0.961012
63.2,-1.44862,-7.21757,0.276508,-0.961012
63.3,-1.44862,-7.21757,0.276508,-0.961012
63.4,-1.44862,-7.21757,0.276508,-0.961012
63.5,-1.44862,-7.21757,0.276508,-0.961012
63.6,-1.44862,-7.21757,0.276508,-0.961012
63.7,-1.44862,-7.21757,0.276508,-0.961012
63.8,-1.44862,-7.21757,0.276508,-0.961012
63.9,-1.44862,-7.21757,0.276508,-0.961012
64,-1.44862,-7.21757,0.276508,-0.961012
64.1,-1.44862,-7.21757,0.276508,-0.961012
64.2,-1.44862,-7.21757,0.276508,-0.961012
64.3,-1.44862,-7.21757,0.276508,-0.961012
64.4,-1.44862,-7.21757,0.276508,-0.961012
64.5,-1.44862,-7.21757,0.276508,-0.961012
64.6,-1.44862,-7.21757,0.276508,-0.961012
64.7,-1.44862,-7.21757,0.276508,-0.961012
64.8,-1.44862,-7.21757,0.276508,-0.961012
64.9,-1.44862,-7.21757,0.276508,-0.961012
65,-1.44862,-7.21757,0.276508,-0.961012
65.1,-1.44862,-7.21757,0.276508,-0.961012
65.2,-1.44862,-7.21757,0.276508,-0.961012
65.3,-1.44862,-7.21757,0.276508,-0.961012
65.4,-1.44862,-7.21757,0.276508,-0.961012
65.5,-1.44862,-7.21757,0.276508,-0.961012
65.6,-1.44862,-7.21757,0.276508,-0.961012
65.7,-1.44862,-7.21757,0.276508,-0.961012
65.8,-1.44862,-7.21757,0.276508,-0.961012
65.9,-1.44862,-7.21757,0.276508,-0.961012
66,-1.44862,-7.21757,0.276508,-0.961012
66.1,-1.44862,-7.21757,0.276508,-0.961012
66.2,-1.44862,-7.21757,0.276508,-0.961012
66.3,-1.44862,-7.21757,0.276508,-0.961012
66.4,-1.44862,-7.21757,0.276508,-0.961012
66.5,-1.44862,-7.21757,0.276508,-0.961012
66.6,-1.44862,-7.21757,0.276508,-0.961012
66.7,-1.44862,-7.21757,0.276508,-0.961012
66.8,-1.44862,-7.21757,0.276508,-0.961012
66.9,-1.44862,-7.21757,0.276508,-0.961012
67,-1.44862,-7.21757,0.276508,-0.961012
67.1,-1.44862,-7.21757,0.276508,-0.961012
67.2,-1.44862,-7.21757,0.276508,-0.961012
67.3,-1.44862,-7.21757,0.276508,-0.961012
67.4,-1.44862,-7.21757,0.276508,-0.961012
67.5,-1.44862,-7.21757,0.276508,-0.961012
67.6,-1.44862,-7.21757,0.276508,-0.961012
67.7,-1.44862,-7.21757,0.276508,-0.961012
67.8,-1.44862,-7.21757,0.276508,-0.961012
67.9,-1.44862,-7.21757,0.276508,-0.961012
68,-1.44862,-7.21757,0.276508,-0.961012
68.1,-1.44862,-7.21757,0.276508,-0.961012
68.2,-1.44862,-7.21757,0.276508,-0.961012
68.3,-1.44862,-7.21757,0.276508,-0.961012
68.4,-1.44862,-7.21757,0.276508,-0.961012
68.5,-1.44862,-7.21757,0.276508,-0.961012
68.6,-1.44862,-7.21757,0.276508,-0.961012
68.7,-1.44862,-7.21757,0.276508,-0.961012
68.8,-1.44862,-7.21757,0.276508,-0.961012
68.9,-1.44862,-7.21757,0.276508,-0.961012
69,-1.44862,-7.21757,0.276508,-0.961012
69.1,-1.44862,-7.21757,0.276508,-0.961012
69.2,-1.44862,-7.21757,0.276508,-0.961012
69.3,-1.44862,-7.21757,0.276508,-0.961012
69.4,-1.44862,-7.21757,0.276508,-0.961012
69.5,-1.44862,-7.21757,0.276508,-0.961012
69.6,-1.44862,-7.21757,0.276508,-0.961012
69.7,-1.44862,-7.21757,0.276508,-0.961012
69.8,-1.44862,-7.21757,0.276508,-0.961012
69.9,-1.44862,-7.21757,0.276508,-0.961012
70,-1.44862,-7.21757,0.276508,-0.961012
70.1,-1.44862,-7.21757,0.276508,-0.961012
70.2,-1.44862,-7.21757,0.276508,-0.961012
70.3,-1.44862,-7.21757,0.276508,-0.961012
70.4,-1.44862,-7.21757,0.276508,-0.961012
70.5,-1.44862,-7.21757,0.276508,-0.961012
70.6,-1.44862,-7.21757,0.276508,-0.961012
70.7,-1.44862,-7.21757,0.276508,-0.961012
70.8,-1.44862,-7.21757,0.276508,-0.961012
70.9,-1.44862,-7.21757,0.276508,-0.961012
71,-1.44862,-7.21757,0.276508,-0.961012
71.1,-1.44862,-7.21757,0.276508,-0.961012
71.2,-1.44862,-7.21757,0.276508,-0.961012
71.3,-1.44862,-7.21757,0.276508,-0.961012
71.4,-1.44862,-7.21757,0.276508,-0.961012
71.5,-1.44862,-7.21757,0.276508,-0.961012
71.6,-1.44862,-7.21757,0.276508,-0.961012
71.7,-1.44862,-7.21757,0.276508,-0.961012
71.8,-1.44862,-7.21757,0.276508,-0.961012
71.9,-1.44862,-7.21757,0.276508,-0.961012
72,-1.44862,-7.21757,0.276508,-0.961012
72.1,-1.44862,-7.21757,0.276508,-0.961012
72.2,-1.44862,-7.21757,0.276508,-0.961012
72.3,-1.44862,-7.21757,0.276508,-0.961012
72.4,-1.44862,-7.21757,0.276508,-0.961012
72.5,-1.44862,-7.21757,0.276508,-0.961012
72.6,-1.44862,-7.21757,0.276508,-0.961012
72.7,-1.44862,-7.21757,0.276508,-0.961012
72.8,-1.44862,-7.21757,0.276508,-0.961012
72.9,-1.44862,-7.21757,0.276508,-0.961012
73,-1.44862,-7.21757,0.276508,-0.961012
73.1,-1.44862,-7.21757,0.276508,-0.961012
73.2,-1.44862,-7.21757,0.276508,-0.961012
73.3,-1.44862,-7.21757,0.276508,-0.961012
73.4,-1.44862,-7.21757,0.276508,-0.961012
73.5,-1.44862,-7.21757,0.276508,-0.961012
73.6,-1.44862,-7.21757,0.276508,-0.961012
73.7,-1.44862,-7.21757,0.276508,-0.961012
73.8,-1.44862,-7.21757,0.276508,-0.961012
73.9,-1.44862,-7.21757,0.276508,-0.961012
74,-1.44862,-7.21757,0.276508,-0.961012
74.1,-1.44862,-7.21757,0.276508,-0.961012
74.2,-1.44862,-7.21757,0.276508,-0.961012
74.3,-1.44862,-7.21757,0.276508,-0.961012
74.4,-1.44862,-7.21757,0.276508,-0.961012
74.5,-1.44862,-7.21757,0.276508,-0.961012
74.6,-1.44862,-7.21757,0.276508,-0.961012
74.7,-1.44862,-7.21757,0.276508,-0.961012
74.8,-1.44862,-7.21757,0.276508,-0.961012
74.9,-1.44862,-7.21757,0.276508,-0.961012
75,-1.44862,-7.21757,0.276508,-0.961012
75.1,-1.44862,-7.21757,0.276508,-0.961012
75.2,-1.44862,-7.21757,0.276508,-0.961012
75.3,-1.44862,-7.21757,0.276508,-0.961012
75.4,-1.44862,-7.21757,0.276508,-0.961012
75.5,-1.44862,-7.21757,0.276508,-0.961012
75.6,-1.44862,-7.21757,0.276508,-0.961012
75.7,-1.44862,-7.21757,0.276508,-0.961012
75.8,-1.44862,-7.21757,0.276508,-0.961012
75.9,-1.44862,-7.21757,0.276508,-0.961012
76,-1.44862,-7.21757,0.276508,-0.961012
76.1,-1.44862,-7.21757,0.276508,-0.961012
76.2,-1.44862,-7.21757,0.276508,-0.961012
76.3,-1.44862,-7.21757,0.276508,-0.961012
76.4,-1.44862,-7.21757,0.276508,-0.961012
76.5,-1.44862,-7.21757,0.276508,-0.961012
76.6,-1.44862,-7.21757,0.276508,-0.961012
76.7,-1.44862,-7.21757,0.276508,-0.961012
76.8,-1.44862,-7.21757,0.276508,-0.961012
76.9,-1.44862,-7.21757,0.276508,-0.961012
77,-1.44862,-7.21757,0.276508,-0.961012
77.1,-1.44862,-7.21757,0.276508,-0.961012
77.2,-1.44862,-7.21757,0.276508,-0.961012
77.3,-1.44862,-7.21757,0.276508,-0.961012
77.4,-1.44862,-7.21757,0.276508,-0.961012
77.5,-1.44862,-7.21757,0.276508,-0.961012
77.6,-1.44862,-7.21757,0.276508,-0.961012
77.7,-1.44862,-7.21757,0.276508,-0.961012
77.8,-1.44862,-7.21757,0.276508,-0.961012
77.9,-1.44862,-7.21757,0.276508,-0.961012
78,-1.44862,-7.21757,0.276508,-0.961012
78.1,-1.44862,-7.21757,0.276508,-0.961012
78.2,-1.44862,-7.21757,0.276508,-0.961012
78.3,-1.44862,-7.21757,0.276508,-0.961012
78.4,-1.44862,-7.21757,0.276508,-0.961012
78.5,-1.44862,-7.21757,0.276508,-0.961012
78.6,-1.44862,-7.21757,0.276508,-0.961012
78.7,-1.44862,-7.21757,0.276508,-0.961012
78.8,-1.44862,-7.21757,0.276508,-0.961012
78.9,-1.44862,-7.21757,0.276508,-0.961012
79,-1.44862,-7.21757,0.276508,-0.961012
79.1,-1.44862,-7.21757,0.276508,-0.961012
79.2,-1.44862,-7.21757,0.276508,-0.961012
79.3,-1.44862,-7.21757,0.276508,-0.961012
79.4,-1.44862,-7.21757,0.276508,-0.961012
79.5,-1.44862,-7.21757,0.276508,-0.961012
79.6,-1.44862,-7.21757,0.276508,-0.961012
79.7,-1.44862,-7.21757,0.276508,-0.961012
79.8,-1.44862,-7.21757,0.276508,-0.961012
79.9,-1.44862,-7.21757,0.276508,-0.961012
80,-1.44862,-7.21757,0.276508,-0.961012
