0.1,6.93026,-2.74265,-0.925967,0.377605
0.2,6.84099,-2.70707,-0.929274,0.369392
0.3,6.72125,-2.65887,-0.928389,0.371609
0.4,6.58705,-2.6083,-0.93394,0.35743
0.5,6.48388,-2.55821,-0.911097,0.412192
0.6,6.35676,-2.4968,-0.910276,0.414001
0.7,6.2447,-2.44977,-0.924984,0.380006
0.8,6.11223,-2.3946,-0.925423,0.378936
0.9,6.00501,-2.34677,-0.919571,0.392924
1,5.86681,-2.2927,-0.931042,0.364913
1.1,5.7518,-2.24367,-0.923598,0.383362
1.2,5.61619,-2.18529,-0.9223,0.386475
1.3,5.50222,-2.14146,-0.932458,0.361279
1.4,5.36718,-2.09266,-0.937511,0.347955
1.5,5.2529,-2.05569,-0.944546,0.328379
1.6,5.11754,-2.00942,-0.941513,0.336977
1.7,5.00975,-1.9652,-0.926994,0.375075
1.8,4.87547,-1.91436,-0.9337,0.358056
1.9,4.76551,-1.87404,-0.935842,0.352421
2,4.69268,-1.84382,-0.926586,0.376083
2.1,4.62943,-1.81178,-0.91129,0.411766
2.2,4.57166,-1.79015,-0.933394,0.358854
2.3,4.51897,-1.76948,-0.930604,0.366026
2.4,4.47099,-1.73767,-0.889683,0.456579
2.5,4.41492,-1.711,-0.917732,0.397201
2.6,4.36528,-1.68515,-0.911789,0.410658
2.7,4.30537,-1.65769,-0.920309,0.391193
2.8,4.21505,-1.63191,-0.950164,0.31175
2.9,4.12998,-1.61111,-0.95622,0.29265
3,4.02437,-1.57359,-0.938075,0.346431
3.1,3.94446,-1.53258,-0.907848,0.4193
3.2,3.8435,-1.49146,-0.927817,0.373034
3.3,3.75048,-1.4603,-0.94151,0.336984
3.4,3.66638,-1.44745,-0.96934,0.245724
3.5,3.60777,-1.42296,-0.926377,0.376596
3.6,3.53663,-1.40129,-0.944932,0.327268
3.7,3.47969,-1.36042,-0.875434,0.483338
3.8,3.43462,-1.31758,-0.845406,0.534124
3.9,3.38855,-1.3127,-0.965848,0.259109
4,3.35167,-1.31461,-0.975691,0.219153
4.1,3.29603,-1.31248,-0.975843,0.218471
4.2,3.26295,-1.29602,-0.917854,0.396917
4.3,3.22169,-1.27933,-0.928604,0.371073
4.4,3.18468,-1.26056,-0.915846,0.401531
4.5,3.16195,-1.22913,-0.832463,0.554081
4.6,3.10316,-1.20583,-0.930067,0.36739
4.7,3.04401,-1.18851,-0.945675,0.325114
4.8,3.00685,-1.15613,-0.866598,0.499007
4.9,2.9355,-1.14935,-0.974216,0.225617
5,2.89981,-1.11874,-0.870102,0.492872
5.1,2.84109,-1.10615,-0.956503,0.291723
5.2,2.76944,-1.10659,-0.98469,0.174315
5.3,2.69093,-1.11341,-0.992452,0.122631
5.4,2.62877,-1.10651,-0.969274,0.245983
5.5,2.54,-1.0982,-0.976923,0.213592
5.6,2.46542,-1.08463,-0.962487,0.271327
5.7,2.38648,-1.07815,-0.976055,0.217522
5.8,2.31796,-1.06904,-0.967232,0.253893
5.9,2.27473,-1.05352,-0.931666,0.363315
6,2.23245,-1.04518,-0.951425,0.307881
6.1,2.20379,-1.0417,-0.952673,0.303998
6.2,2.1658,-1.03707,-0.957547,0.288276
6.3,2.12172,-1.03179,-0.960342,0.278826
6.4,2.07704,-1.02591,-0.959102,0.283059
6.5,2.04023,-1.01895,-0.949285,0.314416
6.6,2.00666,-1.01131,-0.943691,0.330828
6.7,1.9784,-1.00326,-0.935818,0.352483
6.8,1.95543,-0.995465,-0.929091,0.369852
6.9,1.93664,-0.989939,-0.931513,0.363708
7,1.91783,-0.984429,-0.931525,0.363678
7.1,1.89915,-0.979009,-0.93163,0.363409
7.2,1.88057,-0.973681,-0.931779,0.363026
7.3,1.86361,-0.967907,-0.92725,0.374442
7.4,1.84711,-0.962379,-0.927454,0.373937
7.5,1.83041,-0.956809,-0.927572,0.373645
7.6,1.81429,-0.951158,-0.926201,0.37703
7.7,1.79827,-0.945587,-0.926331,0.376711
7.8,1.78249,-0.939899,-0.925385,0.37903
7.9,1.76634,-0.933972,-0.924976,0.380026
8,1.75038,-0.928788,-0.927777,0.373136
8.1,1.73452,-0.923698,-0.927969,0.372658
8.2,1.71859,-0.919031,-0.929829,0.367992
8.3,1.7033,-0.916004,-0.935548,0.353199
8.4,1.68759,-0.912947,-0.935989,0.352028
8.5,1.6709,-0.91087,-0.941244,0.337727
8.6,1.65362,-0.909496,-0.944623,0.328156
8.7,1.63615,-0.907954,-0.944077,0.329724
8.8,1.61917,-0.905019,-0.937824,0.347112
8.9,1.60213,-0.902041,-0.937627,0.347643
9,1.58499,-0.898746,-0.936393,0.350953
9.1,1.56772,-0.894854,-0.934069,0.357092
9.2,1.5503,-0.891649,-0.936965,0.349423
9.3,1.53303,-0.888106,-0.935269,0.353937
9.4,1.51576,-0.884361,-0.934345,0.356369
9.5,1.4984,-0.880829,-0.935241,0.354011
9.6,1.48095,-0.877311,-0.935328,0.353782
9.7,1.46351,-0.873807,-0.935258,0.353968
9.8,1.44587,-0.870018,-0.934297,0.356495
9.9,1.42839,-0.866102,-0.933442,0.358729
10,1.41096,-0.862547,-0.934715,0.355397
10.1,1.39303,-0.858611,-0.933838,0.357695
10.2,1.37517,-0.854583,-0.933245,0.359241
10.3,1.35706,-0.850737,-0.934271,0.356565
10.4,1.33891,-0.846907,-0.934282,0.356534
10.5,1.31976,-0.837654,-0.913282,0.407327
10.6,1.30119,-0.830904,-0.922893,0.385057
10.7,1.28238,-0.82665,-0.933479,0.358631
10.8,1.2631,-0.822541,-0.934635,0.35561
10.9,1.24346,-0.818408,-0.934973,0.354719
11,1.22398,-0.814419,-0.935176,0.354184
11.1,1.20457,-0.810406,-0.934849,0.355045
11.2,1.18514,-0.806389,-0.934743,0.355324
11.3,1.1657,-0.801973,-0.933043,0.359765
11.4,1.14629,-0.801067,-0.946311,0.323259
11.5,1.12648,-0.79907,-0.942579,0.333983
11.6,1.10661,-0.79752,-0.944144,0.329534
11.7,1.08744,-0.797031,-0.946987,0.321272
11.8,1.06753,-0.794393,-0.9397,0.342001
11.9,1.04688,-0.79129,-0.938812,0.344431
12,1.02627,-0.787454,-0.935777,0.352594
12.1,1.00491,-0.783778,-0.937319,0.348473
12.2,0.983341,-0.779401,-0.934781,0.355224
12.3,0.961488,-0.773326,-0.928461,0.371429
12.4,0.938358,-0.768716,-0.935891,0.35229
12.5,0.914276,-0.763113,-0.933378,0.358894
12.6,0.889477,-0.760856,-0.946213,0.323544
12.7,0.862226,-0.760853,-0.955977,0.293441
12.8,0.833422,-0.760157,-0.955051,0.296443
12.9,0.803967,-0.759542,-0.955641,0.294534
13,0.775058,-0.759557,-0.95677,0.290847
13.1,0.743151,-0.759548,-0.959059,0.283208
13.2,0.710416,-0.759002,-0.957929,0.287005
13.3,0.675627,-0.756413,-0.953547,0.301245
13.4,0.637237,-0.756321,-0.963055,0.269303
13.5,0.596462,-0.75751,-0.967497,0.252882
13.6,0.55516,-0.758851,-0.967842,0.25156
13.7,0.511935,-0.760829,-0.970089,0.24275
13.8,0.467596,-0.761737,-0.96795,0.251142
13.9,0.420561,-0.763574,-0.971149,0.238472
14,0.371811,-0.763112,-0.966715,0.255855
14.1,0.320932,-0.761116,-0.964195,0.265196
14.2,0.266067,-0.757894,-0.963548,0.267535
14.3,0.209787,-0.754424,-0.963491,0.267741
14.4,0.150742,-0.75016,-0.963057,0.269298
14.5,0.0905225,-0.74462,-0.960639,0.2778
14.6,0.0290628,-0.737793,-0.958228,0.286006
14.7,-0.044226,-0.735229,-0.972267,0.233873
14.8,-0.149036,-0.74146,-0.99013,0.140154
14.9,-0.241675,-0.741004,-0.980529,0.196373
15,-0.338221,-0.738659,-0.978706,0.205265
15.1,-0.441043,-0.735502,-0.978881,0.204433
15.2,-0.539504,-0.729097,-0.972818,0.231572
15.3,-0.642919,-0.722292,-0.973388,0.229165
15.4,-0.746298,-0.708294,-0.962273,0.272085
15.5,-0.856135,-0.688224,-0.955071,0.296376
15.6,-0.967342,-0.661443,-0.943918,0.33018
15.7,-1.07558,-0.62794,-0.928867,0.370413
15.8,-1.19091,-0.587523,-0.920652,0.390384
15.9,-1.30551,-0.542036,-0.90956,0.415573
16,-1.42215,-0.486957,-0.891506,0.453008
16.1,-1.53852,-0.427515,-0.881755,0.471707
16.2,-1.65196,-0.363253,-0.867595,0.497271
16.3,-1.76454,-0.298145,-0.864561,0.502527
16.4,-1.87641,-0.232552,-0.862538,0.505992
16.5,-1.98832,-0.166881,-0.862406,0.506218
16.6,-2.09833,-0.100686,-0.858677,0.512517
16.7,-2.2095,-0.0343254,-0.859906,0.510452
16.8,-2.32111,0.0314466,-0.861848,0.507166
16.9,-2.43275,0.0972311,-0.861884,0.507105
17,-2.54546,0.16312,-0.863046,0.505125
17.1,-2.65782,0.22871,-0.863253,0.504771
17.2,-2.76953,0.294192,-0.862625,0.505845
17.3,-2.88161,0.359846,-0.862735,0.505656
17.4,-2.9937,0.425518,-0.862703,0.505711
17.5,-3.10584,0.491302,-0.862518,0.506027
17.6,-3.21798,0.557087,-0.862515,0.506031
17.7,-3.33051,0.622185,-0.864546,0.502553
17.8,-3.44298,0.687312,-0.864375,0.502848
17.9,-3.55488,0.752697,-0.863026,0.505159
18,-3.66688,0.818332,-0.862587,0.505909
18.1,-3.77942,0.884068,-0.863054,0.505112
18.2,-3.89152,0.949698,-0.862711,0.505698
18.3,-4.00357,1.01569,-0.861833,0.507192
18.4,-4.11513,1.08215,-0.860101,0.510124
18.5,-4.2266,1.14768,-0.862151,0.506651
18.6,-4.33866,1.21317,-0.862998,0.505206
18.7,-4.45093,1.27907,-0.862341,0.506329
18.8,-4.56304,1.34508,-0.861892,0.507093
18.9,-4.67439,1.41147,-0.860045,0.510219
19,-4.78669,1.4777,-0.861709,0.507403
19.1,-4.899,1.54356,-0.862554,0.505966
19.2,-5.01083,1.60991,-0.860834,0.508886
19.3,-5.12278,1.67527,-0.863259,0.504762
19.4,-5.23473,1.74097,-0.862475,0.5061
19.5,-5.3467,1.8067,-0.862442,0.506156
19.6,-5.45883,1.87245,-0.862597,0.505892
19.7,-5.57179,1.93827,-0.863509,0.504333
19.8,-5.68372,2.00433,-0.861611,0.50757
19.9,-5.79553,2.06998,-0.862406,0.506217
20,-5.90773,2.13541,-0.863391,0.504535
20.1,-6.01994,2.20085,-0.863374,0.504564
20.2,-6.13218,2.26661,-0.862613,0.505865
20.3,-6.24447,2.33228,-0.862859,0.505444
20.4,-6.35661,2.39814,-0.86218,0.506602
20.5,-6.46847,2.46404,-0.861709,0.507402
20.6,-6.58072,2.52953,-0.863161,0.504928
20.7,-6.69284,2.59559,-0.86155,0.507672
20.8,-6.80493,2.66148,-0.861881,0.507111
20.9,-6.87392,2.70203,-0.862091,0.506753
21,-6.8998,2.71725,-0.862091,0.506753
21.1,-6.8998,2.71725,-0.862091,0.506753
21.2,-6.8998,2.71725,-0.862091,0.506753
21.3,-6.8998,2.71725,-0.862091,0.506753
21.4,-6.8998,2.71725,-0.862091,0.506753
21.5,-6.8998,2.71725,-0.862091,0.506753
21.6,-6.8998,2.71725,-0.862091,0.506753
21.7,-6.8998,2.71725,-0.862091,0.506753
21.8,-6.8998,2.71725,-0.862091,0.506753
21.9,-6.8998,2.71725,-0.862091,0.506753
22,-6.8998,2.71725,-0.862091,0.506753
22.1,-6.8998,2.71725,-0.862091,0.506753
22.2,-6.8998,2.71725,-0.862091,0.506753
22.3,-6.8998,2.71725,-0.862091,0.506753
22.4,-6.8998,2.71725,-0.862091,0.506753
22.5,-6.8998,2.71725,-0.862091,0.506753
22.6,-6.8998,2.71725,-0.862091,0.506753
22.7,-6.8998,2.71725,-0.862091,0.506753
22.8,-6.8998,2.71725,-0.862091,0.506753
22.9,-6.8998,2.71725,-0.862091,0.506753
23,-6.8998,2.71725,-0.862091,0.506753
23.1,-6.8998,2.71725,-0.862091,0.506753
23.2,-6.8998,2.71725,-0.862091,0.506753
23.3,-6.8998,2.71725,-0.862091,0.506753
23.4,-6.8998,2.71725,-0.862091,0.506753
23.5,-6.8998,2.71725,-0.862091,0.506753
23.6,-6.8998,2.71725,-0.862091,0.506753
23.7,-6.8998,2.71725,-0.862091,0.506753
23.8,-6.8998,2.71725,-0.862091,0.506753
23.9,-6.8998,2.71725,-0.862091,0.506753
24,-6.8998,2.71725,-0.862091,0.506753
24.1,-6.8998,2.71725,-0.862091,0.506753
24.2,-6.8998,2.71725,-0.862091,0.506753
24.3,-6.8998,2.71725,-0.862091,0.506753
24.4,-6.8998,2.71725,-0.862091,0.506753
24.5,-6.8998,2.71725,-0.862091,0.506753
24.6,-6.8998,2.71725,-0.862091,0.506753
24.7,-6.8998,2.71725,-0.862091,0.506753
24.8,-6.8998,2.71725,-0.862091,0.506753
24.9,-6.8998,2.71725,-0.862091,0.506753
25,-6.8998,2.71725,-0.862091,0.506753
25.1,-6.8998,2.71725,-0.862091,0.506753
25.2,-6.8998,2.71725,-0.862091,0.506753
25.3,-6.8998,2.71725,-0.862091,0.506753
25.4,-6.8998,2.71725,-0.862091,0.506753
25.5,-6.8998,2.71725,-0.862091,0.506753
25.6,-6.8998,2.71725,-0.862091,0.506753
25.7,-6.8998,2.71725,-0.862091,0.506753
25.8,-6.8998,2.71725,-0.862091,0.506753
25.9,-6.8998,2.71725,-0.862091,0.506753
26,-6.8998,2.71725,-0.862091,0.506753
26.1,-6.8998,2.71725,-0.862091,0.506753
26.2,-6.8998,2.71725,-0.862091,0.506753
26.3,-6.8998,2.71725,-0.862091,0.506753
26.4,-6.8998,2.71725,-0.862091,0.506753
26.5,-6.8998,2.71725,-0.862091,0.506753
26.6,-6.8998,2.71725,-0.862091,0.506753
26.7,-6.8998,2.71725,-0.862091,0.506753
26.8,-6.8998,2.71725,-0.862091,0.506753
26.9,-6.8998,2.71725,-0.862091,0.506753
27,-6.8998,2.71725,-0.862091,0.506753
27.1,-6.8998,2.71725,-0.862091,0.506753
27.2,-6.8998,2.71725,-0.862091,0.506753
27.3,-6.8998,2.71725,-0.862091,0.506753
27.4,-6.8998,2.71725,-0.862091,0.506753
27.5,-6.8998,2.71725,-0.862091,0.506753
27.6,-6.8998,2.71725,-0.862091,0.506753
27.7,-6.8998,2.71725,-0.862091,0.506753
27.8,-6.8998,2.71725,-0.862091,0.506753
27.9,-6.8998,2.71725,-0.862091,0.506753
28,-6.8998,2.71725,-0.862091,0.506753
28.1,-6.8998,2.71725,-0.862091,0.506753
28.2,-6.8998,2.71725,-0.862091,0.506753
28.3,-6.8998,2.71725,-0.862091,0.506753
28.4,-6.8998,2.71725,-0.862091,0.506753
28.5,-6.8998,2.71725,-0.862091,0.506753
28.6,-6.8998,2.71725,-0.862091,0.506753
28.7,-6.8998,2.71725,-0.862091,0.506753
28.8,-6.8998,2.71725,-0.862091,0.506753
28.9,-6.8998,2.71725,-0.862091,0.506753
29,-6.8998,2.71725,-0.862091,0.506753
29.1,-6.8998,2.71725,-0.862091,0.506753
29.2,-6.8998,2.71725,-0.862091,0.506753
29.3,-6.8998,2.71725,-0.862091,0.506753
29.4,-6.8998,2.71725,-0.862091,0.506753
29.5,-6.8998,2.71725,-0.862091,0.506753
29.6,-6.8998,2.71725,-0.862091,0.506753
29.7,-6.8998,2.71725,-0.862091,0.506753
29.8,-6.8998,2.71725,-0.862091,0.506753
29.9,-6.8998,2.71725,-0.862091,0.506753
30,-6.8998,2.71725,-0.862091,0.506753
30.1,-6.8998,2.71725,-0.862091,0.506753
30.2,-6.8998,2.71725,-0.862091,0.506753
30.3,-6.8998,2.71725,-0.862091,0.506753
30.4,-6.8998,2.71725,-0.862091,0.506753
30.5,-6.8998,2.71725,-0.862091,0.506753
30.6,-6.8998,2.71725,-0.862091,0.506753
30.7,-6.8998,2.71725,-0.862091,0.506753
30.8,-6.8998,2.71725,-0.862091,0.506753
30.9,-6.8998,2.71725,-0.862091,0.506753
31,-6.8998,2.71725,-0.862091,0.506753
31.1,-6.8998,2.71725,-0.862091,0.506753
31.2,-6.8998,2.71725,-0.862091,0.506753
31.3,-6.8998,2.71725,-0.862091,0.506753
31.4,-6.8998,2.71725,-0.862091,0.506753
31.5,-6.8998,2.71725,-0.862091,0.506753
31.6,-6.8998,2.71725,-0.862091,0.506753
31.7,-6.8998,2.71725,-0.862091,0.506753
31.8,-6.8998,2.71725,-0.862091,0.506753
31.9,-6.8998,2.71725,-0.862091,0.506753
32,-6.8998,2.71725,-0.862091,0.506753
32.1,-6.8998,2.71725,-0.862091,0.506753
32.2,-6.8998,2.71725,-0.862091,0.506753
32.3,-6.8998,2.71725,-0.862091,0.506753
32.4,-6.8998,2.71725,-0.862091,0.506753
32.5,-6.8998,2.71725,-0.862091,0.506753
32.6,-6.8998,2.71725,-0.862091,0.506753
32.7,-6.8998,2.71725,-0.862091,0.506753
32.8,-6.8998,2.71725,-0.862091,0.506753
32.9,-6.8998,2.71725,-0.862091,0.506753
33,-6.8998,2.71725,-0.862091,0.506753
33.1,-6.8998,2.71725,-0.862091,0.506753
33.2,-6.8998,2.71725,-0.862091,0.506753
33.3,-6.8998,2.71725,-0.862091,0.506753
33.4,-6.8998,2.71725,-0.862091,0.506753
33.5,-6.8998,2.71725,-0.862091,0.506753
33.6,-6.8998,2.71725,-0.862091,0.506753
33.7,-6.8998,2.71725,-0.862091,0.506753
33.8,-6.8998,2.71725,-0.862091,0.506753
33.9,-6.8998,2.71725,-0.862091,0.506753
34,-6.8998,2.71725,-0.862091,0.506753
34.1,-6.8998,2.71725,-0.862091,0.506753
34.2,-6.8998,2.71725,-0.862091,0.506753
34.3,-6.8998,2.71725,-0.862091,0.506753
34.4,-6.8998,2.71725,-0.862091,0.506753
34.5,-6.8998,2.71725,-0.862091,0.506753
34.6,-6.8998,2.71725,-0.862091,0.506753
34.7,-6.8998,2.71725,-0.862091,0.506753
34.8,-6.8998,2.71725,-0.862091,0.506753
34.9,-6.8998,2.71725,-0.862091,0.506753
35,-6.8998,2.71725,-0.862091,0.506753
35.1,-6.8998,2.71725,-0.862091,0.506753
35.2,-6.8998,2.71725,-0.862091,0.506753
35.3,-6.8998,2.71725,-0.862091,0.506753
35.4,-6.8998,2.71725,-0.862091,0.506753
35.5,-6.8998,2.71725,-0.862091,0.506753
35.6,-6.8998,2.71725,-0.862091,0.506753
35.7,-6.8998,2.71725,-0.862091,0.506753
35.8,-6.8998,2.71725,-0.862091,0.506753
35.9,-6.8998,2.71725,-0.862091,0.506753
36,-6.8998,2.71725,-0.862091,0.506753
36.1,-6.8998,2.71725,-0.862091,0.506753
36.2,-6.8998,2.71725,-0.862091,0.506753
36.3,-6.8998,2.71725,-0.862091,0.506753
36.4,-6.8998,2.71725,-0.862091,0.506753
36.5,-6.8998,2.71725,-0.862091,0.506753
36.6,-6.8998,2.71725,-0.862091,0.506753
36.7,-6.8998,2.71725,-0.862091,0.506753
36.8,-6.8998,2.71725,-0.862091,0.506753
36.9,-6.8998,2.71725,-0.862091,0.506753
37,-6.8998,2.71725,-0.862091,0.506753
37.1,-6.8998,2.71725,-0.862091,0.506753
37.2,-6.8998,2.71725,-0.862091,0.506753
37.3,-6.8998,2.71725,-0.862091,0.506753
37.4,-6.8998,2.71725,-0.862091,0.506753
37.5,-6.8998,2.71725,-0.862091,0.506753
37.6,-6.8998,2.71725,-0.862091,0.506753
37.7,-6.8998,2.71725,-0.862091,0.506753
37.8,-6.8998,2.71725,-0.862091,0.506753
37.9,-6.8998,2.71725,-0.862091,0.506753
38,-6.8998,2.71725,-0.862091,0.506753
38.1,-6.8998,2.71725,-0.862091,0.506753
38.2,-6.8998,2.71725,-0.862091,0.506753
38.3,-6.8998,2.71725,-0.862091,0.506753
38.4,-6.8998,2.71725,-0.862091,0.506753
38.5,-6.8998,2.71725,-0.862091,0.506753
38.6,-6.8998,2.71725,-0.862091,0.506753
38.7,-6.8998,2.71725,-0.862091,0.506753
38.8,-6.8998,2.71725,-0.862091,0.506753
38.9,-6.8998,2.71725,-0.862091,0.506753
39,-6.8998,2.71725,-0.862091,0.506753
39.1,-6.8998,2.71725,-0.862091,0.506753
39.2,-6.8998,2.71725,-0.862091,0.506753
39.3,-6.8998,2.71725,-0.862091,0.506753
39.4,-6.8998,2.71725,-0.862091,0.506753
39.5,-6.8998,2.71725,-0.862091,0.506753
39.6,-6.8998,2.71725,-0.862091,0.506753
39.7,-6.8998,2.71725,-0.862091,0.506753
39.8,-6.8998,2.71725,-0.862091,0.506753
39.9,-6.8998,2.71725,-0.862091,0.506753
40,-6.8998,2.71725,-0.862091,0.506753
40.1,-6.8998,2.71725,-0.862091,0.506753
40.2,-6.8998,2.71725,-0.862091,0.506753
40.3,-6.8998,2.71725,-0.862091,0.506753
40.4,-6.8998,2.71725,-0.862091,0.506753
40.5,-6.8998,2.71725,-0.862091,0.506753
40.6,-6.8998,2.71725,-0.862091,0.506753
40.7,-6.8998,2.71725,-0.862091,0.506753
40.8,-6.8998,2.71725,-0.862091,0.506753
40.9,-6.8998,2.71725,-0.862091,0.506753
41,-6.8998,2.71725,-0.862091,0.506753
41.1,-6.8998,2.71725,-0.862091,0.506753
41.2,-6.8998,2.71725,-0.862091,0.506753
41.3,-6.8998,2.71725,-0.862091,0.506753
41.4,-6.8998,2.71725,-0.862091,0.506753
41.5,-6.8998,2.71725,-0.862091,0.506753
41.6,-6.8998,2.71725,-0.862091,0.506753
41.7,-6.8998,2.71725,-0.862091,0.506753
41.8,-6.8998,2.71725,-0.862091,0.506753
41.9,-6.8998,2.71725,-0.862091,0.506753
42,-6.8998,2.71725,-0.862091,0.506753
42.1,-6.8998,2.71725,-0.862091,0.506753
42.2,-6.8998,2.71725,-0.862091,0.506753
42.3,-6.8998,2.71725,-0.862091,0.506753
42.4,-6.8998,2.71725,-0.862091,0.506753
42.5,-6.8998,2.71725,-0.862091,0.506753
42.6,-6.8998,2.71725,-0.862091,0.506753
42.7,-6.8998,2.71725,-0.862091,0.506753
42.8,-6.8998,2.71725,-0.862091,0.506753
42.9,-6.8998,2.71725,-0.862091,0.506753
43,-6.8998,2.71725,-0.862091,0.506753
43.1,-6.8998,2.71725,-0.862091,0.506753
43.2,-6.8998,2.71725,-0.862091,0.506753
43.3,-6.8998,2.71725,-0.862091,0.506753
43.4,-6.8998,2.71725,-0.862091,0.506753
43.5,-6.8998,2.71725,-0.862091,0.506753
43.6,-6.8998,2.71725,-0.862091,0.506753
43.7,-6.8998,2.71725,-0.862091,0.506753
43.8,-6.8998,2.71725,-0.862091,0.506753
43.9,-6.8998,2.71725,-0.862091,0.506753
44,-6.8998,2.71725,-0.862091,0.506753
44.1,-6.8998,2.71725,-0.862091,0.506753
44.2,-6.8998,2.71725,-0.862091,0.506753
44.3,-6.8998,2.71725,-0.862091,0.506753
44.4,-6.8998,2.71725,-0.862091,0.506753
44.5,-6.8998,2.71725,-0.862091,0.506753
44.6,-6.8998,2.71725,-0.862091,0.506753
44.7,-6.8998,2.71725,-0.862091,0.506753
44.8,-6.8998,2.71725,-0.862091,0.506753
44.9,-6.8998,2.71725,-0.862091,0.506753
45,-6.8998,2.71725,-0.862091,0.506753
45.1,-6.8998,2.71725,-0.862091,0.506753
45.2,-6.8998,2.71725,-0.862091,0.506753
45.3,-6.8998,2.71725,-0.862091,0.506753
45.4,-6.8998,2.71725,-0.862091,0.506753
45.5,-6.8998,2.71725,-0.862091,0.506753
45.6,-6.8998,2.71725,-0.862091,0.506753
45.7,-6.8998,2.71725,-0.862091,0.506753
45.8,-6.8998,2.71725,-0.862091,0.506753
45.9,-6.8998,2.71725,-0.862091,0.506753
46,-6.8998,2.71725,-0.862091,0.506753
46.1,-6.8998,2.71725,-0.862091,0.506753
46.2,-6.8998,2.71725,-0.862091,0.506753
46.3,-6.8998,2.71725,-0.862091,0.506753
46.4,-6.8998,2.71725,-0.862091,0.506753
46.5,-6.8998,2.71725,-0.862091,0.506753
46.6,-6.8998,2.71725,-0.862091,0.506753
46.7,-6.8998,2.71725,-0.862091,0.506753
46.8,-6.8998,2.71725,-0.862091,0.506753
46.9,-6.8998,2.71725,-0.862091,0.506753
47,-6.8998,2.71725,-0.862091,0.506753
47.1,-6.8998,2.71725,-0.862091,0.506753
47.2,-6.8998,2.71725,-0.862091,0.506753
47.3,-6.8998,2.71725,-0.862091,0.506753
47.4,-6.8998,2.71725,-0.862091,0.506753
47.5,-6.8998,2.71725,-0.862091,0.506753
47.6,-6.8998,2.71725,-0.862091,0.506753
47.7,-6.8998,2.71725,-0.862091,0.506753
47.8,-6.8998,2.71725,-0.862091,0.506753
47.9,-6.8998,2.71725,-0.862091,0.506753
48,-6.8998,2.71725,-0.862091,0.506753
48.1,-6.8998,2.71725,-0.862091,0.506753
48.2,-6.8998,2.71725,-0.862091,0.506753
48.3,-6.8998,2.71725,-0.862091,0.506753
48.4,-6.8998,2.71725,-0.862091,0.506753
48.5,-6.8998,2.71725,-0.862091,0.506753
48.6,-6.8998,2.71725,-0.862091,0.506753
48.7,-6.8998,2.71725,-0.862091,0.506753
48.8,-6.8998,2.71725,-0.862091,0.506753
48.9,-6.8998,2.71725,-0.862091,0.506753
49,-6.8998,2.71725,-0.862091,0.506753
49.1,-6.8998,2.71725,-0.862091,0.506753
49.2,-6.8998,2.71725,-0.862091,0.506753
49.3,-6.8998,2.71725,-0.862091,0.506753
49.4,-6.8998,2.71725,-0.862091,0.506753
49.5,-6.8998,2.71725,-0.862091,0.506753
49.6,-6.8998,2.71725,-0.862091,0.506753
49.7,-6.8998,2.71725,-0.862091,0.506753
49.8,-6.8998,2.71725,-0.862091,0.506753
49.9,-6.8998,2.71725,-0.862091,0.506753
50,-6.8998,2.71725,-0.862091,0.506753
50.1,-6.8998,2.71725,-0.862091,0.506753
50.2,-6.8998,2.71725,-0.862091,0.506753
50.3,-6.8998,2.71725,-0.862091,0.506753
50.4,-6.8998,2.71725,-0.862091,0.506753
50.5,-6.8998,2.71725,-0.862091,0.506753
50.6,-6.8998,2.71725,-0.862091,0.506753
50.7,-6.8998,2.71725,-0.862091,0.506753
50.8,-6.8998,2.71725,-0.862091,0.506753
50.9,-6.8998,2.71725,-0.862091,0.506753
51,-6.8998,2.71725,-0.862091,0.506753
51.1,-6.8998,2.71725,-0.862091,0.506753
51.2,-6.8998,2.71725,-0.862091,0.506753
51.3,-6.8998,2.71725,-0.862091,0.506753
51.4,-6.8998,2.71725,-0.862091,0.506753
51.5,-6.8998,2.71725,-0.862091,0.506753
51.6,-6.8998,2.71725,-0.862091,0.506753
51.7,-6.8998,2.71725,-0.862091,0.506753
51.8,-6.8998,2.71725,-0.862091,0.506753
51.9,-6.8998,2.71725,-0.862091,0.506753
52,-6.8998,2.71725,-0.862091,0.506753
52.1,-6.8998,2.71725,-0.862091,0.506753
52.2,-6.8998,2.71725,-0.862091,0.506753
52.3,-6.8998,2.71725,-0.862091,0.506753
52.4,-6.8998,2.71725,-0.862091,0.506753
52.5,-6.8998,2.71725,-0.862091,0.506753
52.6,-6.8998,2.71725,-0.862091,0.506753
52.7,-6.8998,2.71725,-0.862091,0.506753
52.8,-6.8998,2.71725,-0.862091,0.506753
52.9,-6.8998,2.71725,-0.862091,0.506753
53,-6.8998,2.71725,-0.862091,0.506753
53.1,-6.8998,2.71725,-0.862091,0.506753
53.2,-6.8998,2.71725,-0.862091,0.506753
53.3,-6.8998,2.71725,-0.862091,0.506753
53.4,-6.8998,2.71725,-0.862091,0.506753
53.5,-6.8998,2.71725,-0.862091,0.506753
53.6,-6.8998,2.71725,-0.862091,0.506753
53.7,-6.8998,2.71725,-0.862091,0.506753
53.8,-6.8998,2.71725,-0.862091,0.506753
53.9,-6.8998,2.71725,-0.862091,0.506753
54,-6.8998,2.71725,-0.862091,0.506753
54.1,-6.8998,2.71725,-0.862091,0.506753
54.2,-6.8998,2.71725,-0.862091,0.506753
54.3,-6.8998,2.71725,-0.862091,0.506753
54.4,-6.8998,2.71725,-0.862091,0.506753
54.5,-6.8998,2.71725,-0.862091,0.506753
54.6,-6.8998,2.71725,-0.862091,0.506753
54.7,-6.8998,2.71725,-0.862091,0.506753
54.8,-6.8998,2.71725,-0.862091,0.506753
54.9,-6.8998,2.71725,-0.862091,0.506753
55,-6.8998,2.71725,-0.862091,0.506753
55.1,-6.8998,2.71725,-0.862091,0.506753
55.2,-6.8998,2.71725,-0.862091,0.506753
55.3,-6.8998,2.71725,-0.862091,0.506753
55.4,-6.8998,2.71725,-0.862091,0.506753
55.5,-6.8998,2.71725,-0.862091,0.506753
55.6,-6.8998,2.71725,-0.862091,0.506753
55.7,-6.8998,2.71725,-0.862091,0.506753
55.8,-6.8998,2.71725,-0.862091,0.506753
55.9,-6.8998,2.71725,-0.862091,0.506753
56,-6.8998,2.71725,-0.862091,0.506753
56.1,-6.8998,2.71725,-0.862091,0.506753
56.2,-6.8998,2.71725,-0.862091,0.506753
56.3,-6.8998,2.71725,-0.862091,0.506753
56.4,-6.8998,2.71725,-0.862091,0.506753
56.5,-6.8998,2.71725,-0.862091,0.506753
56.6,-6.8998,2.71725,-0.862091,0.506753
56.7,-6.8998,2.71725,-0.862091,0.506753
56.8,-6.8998,2.71725,-0.862091,0.506753
56.9,-6.8998,2.71725,-0.862091,0.506753
57,-6.8998,2.71725,-0.862091,0.506753
57.1,-6.8998,2.71725,-0.862091,0.506753
57.2,-6.8998,2.71725,-0.862091,0.506753
57.3,-6.8998,2.71725,-0.862091,0.506753
57.4,-6.8998,2.71725,-0.862091,0.506753
57.5,-6.8998,2.71725,-0.862091,0.506753
57.6,-6.8998,2.71725,-0.862091,0.506753
57.7,-6.8998,2.71725,-0.862091,0.506753
57.8,-6.8998,2.71725,-0.862091,0.506753
57.9,-6.8998,2.71725,-0.862091,0.506753
58,-6.8998,2.71725,-0.862091,0.506753
58.1,-6.8998,2.71725,-0.862091,0.506753
58.2,-6.8998,2.71725,-0.862091,0.506753
58.3,-6.8998,2.71725,-0.862091,0.506753
58.4,-6.8998,2.71725,-0.862091,0.506753
58.5,-6.8998,2.71725,-0.862091,0.506753
58.6,-6.8998,2.71725,-0.862091,0.506753
58.7,-6.8998,2.71725,-0.862091,0.506753
58.8,-6.8998,2.71725,-0.862091,0.506753
58.9,-6.8998,2.71725,-0.862091,0.506753
59,-6.8998,2.71725,-0.862091,0.506753
59.1,-6.8998,2.71725,-0.862091,0.506753
59.2,-6.8998,2.71725,-0.862091,0.506753
59.3,-6.8998,2.71725,-0.862091,0.506753
59.4,-6.8998,2.71725,-0.862091,0.506753
59.5,-6.8998,2.71725,-0.862091,0.506753
59.6,-6.8998,2.71725,-0.862091,0.506753
59.7,-6.8998,2.71725,-0.862091,0.506753
59.8,-6.8998,2.71725,-0.862091,0.506753
59.9,-6.8998,2.71725,-0.862091,0.506753
60,-6.8998,2.71725,-0.862091,0.506753
60.1,-6.8998,2.71725,-0.862091,0.506753
60.2,-6.8998,2.71725,-0.862091,0.506753
60.3,-6.8998,2.71725,-0.862091,0.506753
60.4,-6.8998,2.71725,-0.862091,0.506753
60.5,-6.8998,2.71725,-0.862091,0.506753
60.6,-6.8998,2.71725,-0.862091,0.506753
60.7,-6.8998,2.71725,-0.862091,0.506753
60.8,-6.8998,2.71725,-0.862091,0.506753
60.9,-6.8998,2.71725,-0.862091,0.506753
61,-6.8998,2.71725,-0.862091,0.506753
61.1,-6.8998,2.71725,-0.862091,0.506753
61.2,-6.8998,2.71725,-0.862091,0.506753
61.3,-6.8998,2.71725,-0.862091,0.506753
61.4,-6.8998,2.71725,-0.862091,0.506753
61.5,-6.8998,2.71725,-0.862091,0.506753
61.6,-6.8998,2.71725,-0.862091,0.506753
61.7,-6.8998,2.71725,-0.862091,0.506753
61.8,-6.8998,2.71725,-0.862091,0.506753
61.9,-6.8998,2.71725,-0.862091,0.506753
62,-6.8998,2.71725,-0.862091,0.506753
62.1,-6.8998,2.71725,-0.862091,0.506753
62.2,-6.8998,2.71725,-0.862091,0.506753
62.3,-6.8998,2.71725,-0.862091,0.506753
62.4,-6.8998,2.71725,-0.862091,0.506753
62.5,-6.8998,2.71725,-0.862091,0.506753
62.6,-6.8998,2.71725,-0.862091,0.506753
62.7,-6.8998,2.71725,-0.862091,0.506753
62.8,-6.8998,2.71725,-0.862091,0.506753
62.9,-6.8998,2.71725,-0.862091,0.506753
63,-6.8998,2.71725,-0.862091,0.506753
63.1,-6.8998,2.71725,-0.862091,0.506753
63.2,-6.8998,2.71725,-0.862091,0.506753
63.3,-6.8998,2.71725,-0.862091,0.506753
63.4,-6.8998,2.71725,-0.862091,0.506753
63.5,-6.8998,2.71725,-0.862091,0.506753
63.6,-6.8998,2.71725,-0.862091,0.506753
63.7,-6.8998,2.71725,-0.862091,0.506753
63.8,-6.8998,2.71725,-0.862091,0.506753
63.9,-6.8998,2.71725,-0.862091,0.506753
64,-6.8998,2.71725,-0.862091,0.506753
64.1,-6.8998,2.71725,-0.862091,0.506753
64.2,-6.8998,2.71725,-0.862091,0.506753
64.3,-6.8998,2.71725,-0.862091,0.506753
64.4,-6.8998,2.71725,-0.862091,0.506753
64.5,-6.8998,2.71725,-0.862091,0.506753
64.6,-6.8998,2.71725,-0.862091,0.506753
64.7,-6.8998,2.71725,-0.862091,0.506753
64.8,-6.8998,2.71725,-0.862091,0.506753
64.9,-6.8998,2.71725,-0.862091,0.506753
65,-6.8998,2.71725,-0.862091,0.506753
65.1,-6.8998,2.71725,-0.862091,0.506753
65.2,-6.8998,2.71725,-0.862091,0.506753
65.3,-6.8998,2.71725,-0.862091,0.506753
65.4,-6.8998,2.71725,-0.862091,0.506753
65.5,-6.8998,2.71725,-0.862091,0.506753
65.6,-6.8998,2.71725,-0.862091,0.506753
65.7,-6.8998,2.71725,-0.862091,0.506753
65.8,-6.8998,2.71725,-0.862091,0.506753
65.9,-6.8998,2.71725,-0.862091,0.506753
66,-6.8998,2.71725,-0.862091,0.506753
66.1,-6.8998,2.71725,-0.862091,0.506753
66.2,-6.8998,2.71725,-0.862091,0.506753
66.3,-6.8998,2.71725,-0.862091,0.506753
66.4,-6.8998,2.71725,-0.862091,0.506753
66.5,-6.8998,2.71725,-0.862091,0.506753
66.6,-6.8998,2.71725,-0.862091,0.506753
66.7,-6.8998,2.71725,-0.862091,0.506753
66.8,-6.8998,2.71725,-0.862091,0.506753
66.9,-6.8998,2.71725,-0.862091,0.506753
67,-6.8998,2.71725,-0.862091,0.506753
67.1,-6.8998,2.71725,-0.862091,0.506753
67.2,-6.8998,2.71725,-0.862091,0.506753
67.3,-6.8998,2.71725,-0.862091,0.506753
67.4,-6.8998,2.71725,-0.862091,0.506753
67.5,-6.8998,2.71725,-0.862091,0.506753
67.6,-6.8998,2.71725,-0.862091,0.506753
67.7,-6.8998,2.71725,-0.862091,0.506753
67.8,-6.8998,2.71725,-0.862091,0.506753
67.9,-6.8998,2.71725,-0.862091,0.506753
68,-6.8998,2.71725,-0.862091,0.506753
68.1,-6.8998,2.71725,-0.862091,0.506753
68.2,-6.8998,2.71725,-0.862091,0.506753
68.3,-6.8998,2.71725,-0.862091,0.506753
68.4,-6.8998,2.71725,-0.862091,0.506753
68.5,-6.8998,2.71725,-0.862091,0.506753
68.6,-6.8998,2.71725,-0.862091,0.506753
68.7,-6.8998,2.71725,-0.862091,0.506753
68.8,-6.8998,2.71725,-0.862091,0.506753
68.9,-6.8998,2.71725,-0.862091,0.506753
69,-6.8998,2.71725,-0.862091,0.506753
69.1,-6.8998,2.71725,-0.862091,0.506753
69.2,-6.8998,2.71725,-0.862091,0.506753
69.3,-6.8998,2.71725,-0.862091,0.506753
69.4,-6.8998,2.71725,-0.862091,0.506753
69.5,-6.8998,2.71725,-0.862091,0.506753
69.6,-6.8998,2.71725,-0.862091,0.506753
69.7,-6.8998,2.71725,-0.862091,0.506753
69.8,-6.8998,2.71725,-0.862091,0.506753
69.9,-6.8998,2.71725,-0.862091,0.506753
70,-6.8998,2.71725,-0.862091,0.506753
70.1,-6.8998,2.71725,-0.862091,0.506753
70.2,-6.8998,2.71725,-0.862091,0.506753
70.3,-6.8998,2.71725,-0.862091,0.506753
70.4,-6.8998,2.71725,-0.862091,0.506753
70.5,-6.8998,2.71725,-0.862091,0.506753
70.6,-6.8998,2.71725,-0.862091,0.506753
70.7,-6.8998,2.71725,-0.862091,0.506753
70.8,-6.8998,2.71725,-0.862091,0.506753
70.9,-6.8998,2.71725,-0.862091,0.506753
71,-6.8998,2.71725,-0.862091,0.506753
71.1,-6.8998,2.71725,-0.862091,0.506753
71.2,-6.8998,2.71725,-0.862091,0.506753
71.3,-6.8998,2.71725,-0.862091,0.506753
71.4,-6.8998,2.71725,-0.862091,0.506753
71.5,-6.8998,2.71725,-0.862091,0.506753
71.6,-6.8998,2.71725,-0.862091,0.506753
71.7,-6.8998,2.71725,-0.862091,0.506753
71.8,-6.8998,2.71725,-0.862091,0.506753
71.9,-6.8998,2.71725,-0.862091,0.506753
72,-6.8998,2.71725,-0.862091,0.506753
72.1,-6.8998,2.71725,-0.862091,0.506753
72.2,-6.8998,2.71725,-0.862091,0.506753
72.3,-6.8998,2.71725,-0.862091,0.506753
72.4,-6.8998,2.71725,-0.862091,0.506753
72.5,-6.8998,2.71725,-0.862091,0.506753
72.6,-6.8998,2.71725,-0.862091,0.506753
72.7,-6.8998,2.71725,-0.862091,0.506753
72.8,-6.8998,2.71725,-0.862091,0.506753
72.9,-6.8998,2.71725,-0.862091,0.506753
73,-6.8998,2.71725,-0.862091,0.506753
73.1,-6.8998,2.71725,-0.862091,0.506753
73.2,-6.8998,2.71725,-0.862091,0.506753
73.3,-6.8998,2.71725,-0.862091,0.506753
73.4,-6.8998,2.71725,-0.862091,0.506753
73.5,-6.8998,2.71725,-0.862091,0.506753
73.6,-6.8998,2.71725,-0.862091,0.506753
73.7,-6.8998,2.71725,-0.862091,0.506753
73.8,-6.8998,2.71725,-0.862091,0.506753
73.9,-6.8998,2.71725,-0.862091,0.506753
74,-6.8998,2.71725,-0.862091,0.506753
74.1,-6.8998,2.71725,-0.862091,0.506753
74.2,-6.8998,2.71725,-0.862091,0.506753
74.3,-6.8998,2.71725,-0.862091,0.506753
74.4,-6.8998,2.71725,-0.862091,0.506753
74.5,-6.8998,2.71725,-0.862091,0.506753
74.6,-6.8998,2.71725,-0.862091,0.506753
74.7,-6.8998,2.71725,-0.862091,0.506753
74.8,-6.8998,2.71725,-0.862091,0.506753
74.9,-6.8998,2.71725,-0.862091,0.506753
75,-6.8998,2.71725,-0.862091,0.506753
75.1,-6.8998,2.71725,-0.862091,0.506753
75.2,-6.8998,2.71725,-0.862091,0.506753
75.3,-6.8998,2.71725,-0.862091,0.506753
75.4,-6.8998,2.71725,-0.862091,0.506753
75.5,-6.8998,2.71725,-0.862091,0.506753
75.6,-6.8998,2.71725,-0.862091,0.506753
75.7,-6.8998,2.71725,-0.862091,0.506753
75.8,-6.8998,2.71725,-0.862091,0.506753
75.9,-6.8998,2.71725,-0.862091,0.506753
76,-6.8998,2.71725,-0.862091,0.506753
76.1,-6.8998,2.71725,-0.862091,0.506753
76.2,-6.8998,2.71725,-0.862091,0.506753
76.3,-6.8998,2.71725,-0.862091,0.506753
76.4,-6.8998,2.71725,-0.862091,0.506753
76.5,-6.8998,2.71725,-0.862091,0.506753
76.6,-6.8998,2.71725,-0.862091,0.506753
76.7,-6.8998,2.71725,-0.862091,0.506753
76.8,-6.8998,2.71725,-0.862091,0.506753
76.9,-6.8998,2.71725,-0.862091,0.506753
77,-6.8998,2.71725,-0.862091,0.506753
77.1,-6.8998,2.71725,-0.862091,0.506753
77.2,-6.8998,2.71725,-0.862091,0.506753
77.3,-6.8998,2.71725,-0.862091,0.506753
77.4,-6.8998,2.71725,-0.862091,0.506753
77.5,-6.8998,2.71725,-0.862091,0.506753
77.6,-6.8998,2.71725,-0.862091,0.506753
77.7,-6.8998,2.71725,-0.862091,0.506753
77.8,-6.8998,2.71725,-0.862091,0.506753
77.9,-6.8998,2.71725,-0.862091,0.506753
78,-6.8998,2.71725,-0.862091,0.506753
78.1,-6.8998,2.71725,-0.862091,0.506753
78.2,-6.8998,2.71725,-0.862091,0.506753
78.3,-6.8998,2.71725,-0.862091,0.506753
78.4,-6.8998,2.71725,-0.862091,0.506753
78.5,-6.8998,2.71725,-0.862091,0.506753
78.6,-6.8998,2.71725,-0.862091,0.506753
78.7,-6.8998,2.71725,-0.862091,0.506753
78.8,-6.8998,2.71725,-0.862091,0.506753
78.9,-6.8998,2.71725,-0.862091,0.506753
79,-6.8998,2.71725,-0.862091,0.506753
79.1,-6.8998,2.71725,-0.862091,0.506753
79.2,-6.8998,2.71725,-0.862091,0.506753
79.3,-6.8998,2.71725,-0.862091,0.506753
79.4,-6.8998,2.71725,-0.862091,0.506753
79.5,-6.8998,2.71725,-0.862091,0.506753
79.6,-6.8998,2.71725,-0.862091,0.506753
79.7,-6.8998,2.71725,-0.862091,0.506753
79.8,-6.8998,2.71725,-0.862091,0.506753
79.9,-6.8998,2.71725,-0.862091,0.506753
80,-6.8998,2.71725,-0.862091,0.506753
