0.1,4.00022,6.2891,-0.476924,-0.878944
0.2,3.95109,6.2074,-0.523883,-0.85179
0.3,3.88221,6.10027,-0.539338,-0.842089
0.4,3.81707,5.99855,-0.538222,-0.842803
0.5,3.74127,5.88151,-0.541294,-0.840833
0.6,3.67015,5.77997,-0.560947,-0.827851
0.7,3.59193,5.66047,-0.544008,-0.83908
0.8,3.53035,5.5552,-0.515766,-0.85673
0.9,3.45075,5.43137,-0.539285,-0.842124
1,3.38102,5.32563,-0.545636,-0.838022
1.1,3.29912,5.20271,-0.548829,-0.835935
1.2,3.23347,5.10324,-0.545506,-0.838107
1.3,3.15137,4.98196,-0.552931,-0.833227
1.4,3.09021,4.88066,-0.523427,-0.852071
1.5,3.01063,4.75991,-0.545706,-0.837977
1.6,2.95236,4.6606,-0.516692,-0.856171
1.7,2.87354,4.53159,-0.525616,-0.850722
1.8,2.80577,4.42505,-0.536396,-0.843967
1.9,2.72213,4.29688,-0.543278,-0.839553
2,2.66387,4.20682,-0.540265,-0.841495
2.1,2.62815,4.14986,-0.533381,-0.845875
2.2,2.5946,4.09735,-0.536935,-0.843624
2.3,2.5596,4.03463,-0.510404,-0.859935
2.4,2.53269,3.97407,-0.471562,-0.881833
2.5,2.49766,3.90621,-0.494944,-0.868925
2.6,2.46218,3.83788,-0.496128,-0.86825
2.7,2.43098,3.76007,-0.446236,-0.894915
2.8,2.38433,3.69958,-0.578075,-0.815984
2.9,2.34493,3.62287,-0.492235,-0.870463
3,2.30936,3.56381,-0.526977,-0.849879
3.1,2.27294,3.49254,-0.493114,-0.869965
3.2,2.24581,3.43149,-0.473129,-0.880993
3.3,2.20054,3.38714,-0.630073,-0.776536
3.4,2.14799,3.30127,-0.528701,-0.848808
3.5,2.10224,3.22618,-0.528302,-0.849056
3.6,2.06725,3.16849,-0.528769,-0.848766
3.7,2.03373,3.12351,-0.566701,-0.823924
3.8,2.01583,3.07148,-0.444225,-0.895915
3.9,2.00988,3.01923,-0.358361,-0.933583
4,1.98714,2.97087,-0.490397,-0.871499
4.1,1.94434,2.91109,-0.563625,-0.826031
4.2,1.93643,2.85932,-0.375793,-0.926704
4.3,1.90672,2.80174,-0.501835,-0.864964
4.4,1.89172,2.76321,-0.476023,-0.879433
4.5,1.86538,2.74862,-0.666396,-0.745598
4.6,1.82873,2.72319,-0.669072,-0.743197
4.7,1.81921,2.69769,-0.487923,-0.872887
4.8,1.79673,2.69464,-0.70793,-0.706282
4.9,1.76349,2.68708,-0.740021,-0.672584
5,1.72998,2.68258,-0.756906,-0.653524
5.1,1.66126,2.66744,-0.828998,-0.559251
5.2,1.60636,2.67541,-0.885531,-0.46458
5.3,1.51111,2.66378,-0.889076,-0.457759
5.4,1.43557,2.66447,-0.894774,-0.446519
5.5,1.37513,2.67139,-0.888341,-0.459184
5.6,1.32464,2.68823,-0.907126,-0.420859
5.7,1.28031,2.70842,-0.908033,-0.418898
5.8,1.23738,2.72813,-0.901562,-0.432651
5.9,1.19341,2.74645,-0.896276,-0.443497
6,1.14882,2.76733,-0.908048,-0.418866
6.1,1.10466,2.78801,-0.905003,-0.425404
6.2,1.05775,2.80362,-0.886696,-0.462354
6.3,1.01252,2.81935,-0.881743,-0.47173
6.4,0.967108,2.83143,-0.863174,-0.504906
6.5,0.920861,2.84181,-0.855901,-0.51714
6.6,0.874674,2.85219,-0.854285,-0.519805
6.7,0.828055,2.86301,-0.856325,-0.516438
6.8,0.779507,2.87288,-0.855959,-0.517044
6.9,0.730583,2.88214,-0.852736,-0.522342
7,0.683077,2.88965,-0.838241,-0.5453
7.1,0.63585,2.89612,-0.830723,-0.556686
7.2,0.589553,2.90165,-0.821198,-0.570643
7.3,0.542791,2.9068,-0.819433,-0.573174
7.4,0.496349,2.91197,-0.816918,-0.576754
7.5,0.449692,2.91668,-0.813738,-0.581231
7.6,0.402836,2.92125,-0.81226,-0.583295
7.7,0.355603,2.92476,-0.806634,-0.591051
7.8,0.307261,2.92727,-0.804191,-0.594371
7.9,0.25906,2.92976,-0.801937,-0.597409
8,0.210949,2.93113,-0.794295,-0.607533
8.1,0.162967,2.93203,-0.789821,-0.613337
8.2,0.114924,2.93286,-0.788068,-0.615589
8.3,0.0673621,2.93435,-0.78793,-0.615765
8.4,0.0187285,2.93539,-0.788233,-0.615377
8.5,-0.0299772,2.93603,-0.78489,-0.619635
8.6,-0.0786904,2.93552,-0.77734,-0.629081
8.7,-0.127832,2.9343,-0.773842,-0.633379
8.8,-0.177327,2.93268,-0.771585,-0.636127
8.9,-0.22681,2.93051,-0.767015,-0.64163
9,-0.276431,2.92818,-0.765121,-0.643886
9.1,-0.32612,2.9252,-0.760377,-0.649481
9.2,-0.375887,2.92173,-0.756455,-0.654046
9.3,-0.425627,2.91816,-0.754128,-0.656727
9.4,-0.475454,2.91456,-0.752561,-0.658523
9.5,-0.52528,2.91095,-0.750783,-0.660549
9.6,-0.575684,2.90726,-0.751144,-0.660139
9.7,-0.625591,2.90336,-0.745996,-0.665951
9.8,-0.675629,2.89941,-0.744532,-0.667586
9.9,-0.725797,2.89541,-0.743053,-0.669232
10,-0.775994,2.89138,-0.741207,-0.671277
10.1,-0.826257,2.88788,-0.742372,-0.669988
10.2,-0.876355,2.88419,-0.738698,-0.674036
10.3,-0.926956,2.88011,-0.737209,-0.675665
10.4,-0.977612,2.87603,-0.735559,-0.67746
10.5,-1.0284,2.87186,-0.733844,-0.679318
10.6,-1.07989,2.86739,-0.733637,-0.679542
10.7,-1.13135,2.86295,-0.731751,-0.681572
10.8,-1.18341,2.85821,-0.731088,-0.682283
10.9,-1.23579,2.8534,-0.730289,-0.683138
11,-1.28841,2.84839,-0.728419,-0.685132
11.1,-1.34108,2.84329,-0.726183,-0.687502
11.2,-1.39386,2.83796,-0.723536,-0.690286
11.3,-1.44669,2.83248,-0.721001,-0.692934
11.4,-1.50311,2.82565,-0.729278,-0.684217
11.5,-1.55927,2.82079,-0.735722,-0.677284
11.6,-1.61479,2.81488,-0.725443,-0.688282
11.7,-1.6705,2.80826,-0.720665,-0.693283
11.8,-1.72595,2.8012,-0.71509,-0.699033
11.9,-1.78097,2.79401,-0.710141,-0.704059
12,-1.83598,2.7868,-0.707856,-0.706357
12.1,-1.89252,2.77854,-0.708097,-0.706116
12.2,-1.95103,2.76885,-0.708536,-0.705674
12.3,-2.01029,2.75697,-0.699392,-0.714738
12.4,-2.06869,2.74306,-0.68339,-0.730054
12.5,-2.13127,2.72668,-0.690195,-0.723624
12.6,-2.1866,2.70285,-0.617047,-0.786926
12.7,-2.24298,2.67299,-0.595179,-0.803593
12.8,-2.30389,2.62728,-0.557284,-0.830322
12.9,-2.3649,2.56771,-0.510341,-0.859972
13,-2.42395,2.48997,-0.447745,-0.894161
13.1,-2.48039,2.40265,-0.409968,-0.9121
13.2,-2.53636,2.31259,-0.400003,-0.916514
13.3,-2.59099,2.21923,-0.384732,-0.923028
13.4,-2.64457,2.12146,-0.369019,-0.929422
13.5,-2.69785,2.0204,-0.359815,-0.933024
13.6,-2.75105,1.91833,-0.356047,-0.934468
13.7,-2.80485,1.81472,-0.35464,-0.935003
13.8,-2.85807,1.71113,-0.350338,-0.936624
13.9,-2.9119,1.6035,-0.344583,-0.938756
14,-2.96478,1.49423,-0.335577,-0.942013
14.1,-3.0173,1.38505,-0.332456,-0.943119
14.2,-3.07005,1.27132,-0.324403,-0.945919
14.3,-3.12115,1.15868,-0.316698,-0.948526
14.4,-3.17277,1.04427,-0.314841,-0.949144
14.5,-3.22364,0.926813,-0.304872,-0.952393
14.6,-3.27469,0.802908,-0.294647,-0.955606
14.7,-3.32571,0.679127,-0.293083,-0.956087
14.8,-3.3738,0.555241,-0.27758,-0.960702
14.9,-3.40971,0.429831,-0.215563,-0.97649
15,-3.44115,0.298932,-0.187103,-0.98234
15.1,-3.46273,0.171815,-0.140499,-0.990081
15.2,-3.47775,0.0404022,-0.10418,-0.994558
15.3,-3.48935,-0.0885486,-0.0879424,-0.996126
15.4,-3.5003,-0.218223,-0.0842603,-0.996444
15.5,-3.51134,-0.348208,-0.0845712,-0.996417
15.6,-3.52238,-0.4776,-0.0848354,-0.996395
15.7,-3.53331,-0.607096,-0.0842108,-0.996448
15.8,-3.54416,-0.736803,-0.0837529,-0.996487
15.9,-3.55532,-0.866683,-0.085208,-0.996363
16,-3.56616,-0.996336,-0.083743,-0.996487
16.1,-3.57701,-1.12599,-0.0837524,-0.996487
16.2,-3.58796,-1.25553,-0.0843169,-0.996439
16.3,-3.59872,-1.385,-0.0833806,-0.996518
16.4,-3.60957,-1.51458,-0.0838213,-0.996481
16.5,-3.62008,-1.6445,-0.0819698,-0.996635
16.6,-3.63142,-1.7738,-0.086508,-0.996251
16.7,-3.64225,-1.90326,-0.0837603,-0.996486
16.8,-3.65318,-2.03258,-0.0844123,-0.996431
16.9,-3.66409,-2.16227,-0.0841134,-0.996456
17,-3.67505,-2.29182,-0.084428,-0.99643
17.1,-3.68616,-2.4213,-0.0852402,-0.99636
17.2,-3.69725,-2.55081,-0.0851276,-0.99637
17.3,-3.70833,-2.68029,-0.0850686,-0.996375
17.4,-3.71962,-2.80952,-0.0862165,-0.996276
17.5,-3.73055,-2.93885,-0.0843523,-0.996436
17.6,-3.7416,-3.06831,-0.084896,-0.99639
17.7,-3.7523,-3.1979,-0.0830737,-0.996543
17.8,-3.76299,-3.32753,-0.0830022,-0.996549
17.9,-3.77373,-3.45732,-0.0832257,-0.996531
18,-3.78445,-3.58709,-0.0832176,-0.996531
18.1,-3.79528,-3.71694,-0.083735,-0.996488
18.2,-3.80607,-3.84653,-0.0837003,-0.996491
18.3,-3.81687,-3.97607,-0.0838,-0.996483
18.4,-3.82777,-4.10581,-0.0842623,-0.996444
18.5,-3.83898,-4.23536,-0.0859151,-0.996302
18.6,-3.85014,-4.36488,-0.0857102,-0.99632
18.7,-3.86119,-4.49425,-0.0852052,-0.996363
18.8,-3.87221,-4.62349,-0.0850863,-0.996374
18.9,-3.88353,-4.75293,-0.0865537,-0.996247
19,-3.89495,-4.88259,-0.0869008,-0.996217
19.1,-3.90604,-5.01231,-0.0851438,-0.996369
19.2,-3.91699,-5.14205,-0.0844056,-0.996432
19.3,-3.92817,-5.27167,-0.085658,-0.996325
19.4,-3.93944,-5.40151,-0.086007,-0.996294
19.5,-3.9504,-5.5312,-0.0843945,-0.996432
19.6,-3.96157,-5.66079,-0.085596,-0.99633
19.7,-3.97288,-5.79032,-0.0862073,-0.996277
19.8,-3.98405,-5.91972,-0.0854295,-0.996344
19.9,-3.99461,-6.04927,-0.0820244,-0.99663
20,-4.0011,-6.12899,-0.081211,-0.996697
20.1,-4.00354,-6.15886,-0.081211,-0.996697
20.2,-4.00354,-6.15886,-0.081211,-0.996697
20.3,-4.00354,-6.15886,-0.081211,-0.996697
20.4,-4.00354,-6.15886,-0.081211,-0.996697
20.5,-4.00354,-6.15886,-0.081211,-0.996697
20.6,-4.00354,-6.15886,-0.081211,-0.996697
20.7,-4.00354,-6.15886,-0.081211,-0.996697
20.8,-4.00354,-6.15886,-0.081211,-0.996697
20.9,-4.00354,-6.15886,-0.081211,-0.996697
21,-4.00354,-6.15886,-0.081211,-0.996697
21.1,-4.00354,-6.15886,-0.081211,-0.996697
21.2,-4.00354,-6.15886,-0.081211,-0.996697
21.3,-4.00354,-6.15886,-0.081211,-0.996697
21.4,-4.00354,-6.15886,-0.081211,-0.996697
21.5,-4.00354,-6.15886,-0.081211,-0.996697
21.6,-4.00354,-6.15886,-0.081211,-0.996697
21.7,-4.00354,-6.15886,-0.081211,-0.996697
21.8,-4.00354,-6.15886,-0.081211,-0.996697
21.9,-4.00354,-6.15886,-0.081211,-0.996697
22,-4.00354,-6.15886,-0.081211,-0.996697
22.1,-4.00354,-6.15886,-0.081211,-0.996697
22.2,-4.00354,-6.15886,-0.081211,-0.996697
22.3,-4.00354,-6.15886,-0.081211,-0.996697
22.4,-4.00354,-6.15886,-0.081211,-0.996697
22.5,-4.00354,-6.15886,-0.081211,-0.996697
22.6,-4.00354,-6.15886,-0.081211,-0.996697
22.7,-4.00354,-6.15886,-0.081211,-0.996697
22.8,-4.00354,-6.15886,-0.081211,-0.996697
22.9,-4.00354,-6.15886,-0.081211,-0.996697
23,-4.00354,-6.15886,-0.081211,-0.996697
23.1,-4.00354,-6.15886,-0.081211,-0.996697
23.2,-4.00354,-6.15886,-0.081211,-0.996697
23.3,-4.00354,-6.15886,-0.081211,-0.996697
23.4,-4.00354,-6.15886,-0.081211,-0.996697
23.5,-4.00354,-6.15886,-0.081211,-0.996697
23.6,-4.00354,-6.15886,-0.081211,-0.996697
23.7,-4.00354,-6.15886,-0.081211,-0.996697
23.8,-4.00354,-6.15886,-0.081211,-0.996697
23.9,-4.00354,-6.15886,-0.081211,-0.996697
24,-4.00354,-6.15886,-0.081211,-0.996697
24.1,-4.00354,-6.15886,-0.081211,-0.996697
24.2,-4.00354,-6.15886,-0.081211,-0.996697
24.3,-4.00354,-6.15886,-0.081211,-0.996697
24.4,-4.00354,-6.15886,-0.081211,-0.996697
24.5,-4.00354,-6.15886,-0.081211,-0.996697
24.6,-4.00354,-6.15886,-0.081211,-0.996697
24.7,-4.00354,-6.15886,-0.081211,-0.996697
24.8,-4.00354,-6.15886,-0.081211,-0.996697
24.9,-4.00354,-6.15886,-0.081211,-0.996697
25,-4.00354,-6.15886,-0.081211,-0.996697
25.1,-4.00354,-6.15886,-0.081211,-0.996697
25.2,-4.00354,-6.15886,-0.081211,-0.996697
25.3,-4.00354,-6.15886,-0.081211,-0.996697
25.4,-4.00354,-6.15886,-0.081211,-0.996697
25.5,-4.00354,-6.15886,-0.081211,-0.996697
25.6,-4.00354,-6.15886,-0.081211,-0.996697
25.7,-4.00354,-6.15886,-0.081211,-0.996697
25.8,-4.00354,-6.15886,-0.081211,-0.996697
25.9,-4.00354,-6.15886,-0.081211,-0.996697
26,-4.00354,-6.15886,-0.081211,-0.996697
26.1,-4.00354,-6.15886,-0.081211,-0.996697
26.2,-4.00354,-6.15886,-0.081211,-0.996697
26.3,-4.00354,-6.15886,-0.081211,-0.996697
26.4,-4.00354,-6.15886,-0.081211,-0.996697
26.5,-4.00354,-6.15886,-0.081211,-0.996697
26.6,-4.00354,-6.15886,-0.081211,-0.996697
26.7,-4.00354,-6.15886,-0.081211,-0.996697
26.8,-4.00354,-6.15886,-0.081211,-0.996697
26.9,-4.00354,-6.15886,-0.081211,-0.996697
27,-4.00354,-6.15886,-0.081211,-0.996697
27.1,-4.00354,-6.15886,-0.081211,-0.996697
27.2,-4.00354,-6.15886,-0.081211,-0.996697
27.3,-4.00354,-6.15886,-0.081211,-0.996697
27.4,-4.00354,-6.15886,-0.081211,-0.996697
27.5,-4.00354,-6.15886,-0.081211,-0.996697
27.6,-4.00354,-6.15886,-0.081211,-0.996697
27.7,-4.00354,-6.15886,-0.081211,-0.996697
27.8,-4.00354,-6.15886,-0.081211,-0.996697
27.9,-4.00354,-6.15886,-0.081211,-0.996697
28,-4.00354,-6.15886,-0.081211,-0.996697
28.1,-4.00354,-6.15886,-0.081211,-0.996697
28.2,-4.00354,-6.15886,-0.081211,-0.996697
28.3,-4.00354,-6.15886,-0.081211,-0.996697
28.4,-4.00354,-6.15886,-0.081211,-0.996697
28.5,-4.00354,-6.15886,-0.081211,-0.996697
28.6,-4.00354,-6.15886,-0.081211,-0.996697
28.7,-4.00354,-6.15886,-0.081211,-0.996697
28.8,-4.00354,-6.15886,-0.081211,-0.996697
28.9,-4.00354,-6.15886,-0.081211,-0.996697
29,-4.00354,-6.15886,-0.081211,-0.996697
29.1,-4.00354,-6.15886,-0.081211,-0.996697
29.2,-4.00354,-6.15886,-0.081211,-0.996697
29.3,-4.00354,-6.15886,-0.081211,-0.996697
29.4,-4.00354,-6.15886,-0.081211,-0.996697
29.5,-4.00354,-6.15886,-0.081211,-0.996697
29.6,-4.00354,-6.15886,-0.081211,-0.996697
29.7,-4.00354,-6.15886,-0.081211,-0.996697
29.8,-4.00354,-6.15886,-0.081211,-0.996697
29.9,-4.00354,-6.15886,-0.081211,-0.996697
30,-4.00354,-6.15886,-0.081211,-0.996697
30.1,-4.00354,-6.15886,-0.081211,-0.996697
30.2,-4.00354,-6.15886,-0.081211,-0.996697
30.3,-4.00354,-6.15886,-0.081211,-0.996697
30.4,-4.00354,-6.15886,-0.081211,-0.996697
30.5,-4.00354,-6.15886,-0.081211,-0.996697
30.6,-4.00354,-6.15886,-0.081211,-0.996697
30.7,-4.00354,-6.15886,-0.081211,-0.996697
30.8,-4.00354,-6.15886,-0.081211,-0.996697
30.9,-4.00354,-6.15886,-0.081211,-0.996697
31,-4.00354,-6.15886,-0.081211,-0.996697
31.1,-4.00354,-6.15886,-0.081211,-0.996697
31.2,-4.00354,-6.15886,-0.081211,-0.996697
31.3,-4.00354,-6.15886,-0.081211,-0.996697
31.4,-4.00354,-6.15886,-0.081211,-0.996697
31.5,-4.00354,-6.15886,-0.081211,-0.996697
31.6,-4.00354,-6.15886,-0.081211,-0.996697
31.7,-4.00354,-6.15886,-0.081211,-0.996697
31.8,-4.00354,-6.15886,-0.081211,-0.996697
31.9,-4.00354,-6.15886,-0.081211,-0.996697
32,-4.00354,-6.15886,-0.081211,-0.996697
32.1,-4.00354,-6.15886,-0.081211,-0.996697
32.2,-4.00354,-6.15886,-0.081211,-0.996697
32.3,-4.00354,-6.15886,-0.081211,-0.996697
32.4,-4.00354,-6.15886,-0.081211,-0.996697
32.5,-4.00354,-6.15886,-0.081211,-0.996697
32.6,-4.00354,-6.15886,-0.081211,-0.996697
32.7,-4.00354,-6.15886,-0.081211,-0.996697
32.8,-4.00354,-6.15886,-0.081211,-0.996697
32.9,-4.00354,-6.15886,-0.081211,-0.996697
33,-4.00354,-6.15886,-0.081211,-0.996697
33.1,-4.00354,-6.15886,-0.081211,-0.996697
33.2,-4.00354,-6.15886,-0.081211,-0.996697
33.3,-4.00354,-6.15886,-0.081211,-0.996697
33.4,-4.00354,-6.15886,-0.081211,-0.996697
33.5,-4.00354,-6.15886,-0.081211,-0.996697
33.6,-4.00354,-6.15886,-0.081211,-0.996697
33.7,-4.00354,-6.15886,-0.081211,-0.996697
33.8,-4.00354,-6.15886,-0.081211,-0.996697
33.9,-4.00354,-6.15886,-0.081211,-0.996697
34,-4.00354,-6.15886,-0.081211,-0.996697
34.1,-4.00354,-6.15886,-0.081211,-0.996697
34.2,-4.00354,-6.15886,-0.081211,-0.996697
34.3,-4.00354,-6.15886,-0.081211,-0.996697
34.4,-4.00354,-6.15886,-0.081211,-0.996697
34.5,-4.00354,-6.15886,-0.081211,-0.996697
34.6,-4.00354,-6.15886,-0.081211,-0.996697
34.7,-4.00354,-6.15886,-0.081211,-0.996697
34.8,-4.00354,-6.15886,-0.081211,-0.996697
34.9,-4.00354,-6.15886,-0.081211,-0.996697
35,-4.00354,-6.15886,-0.081211,-0.996697
35.1,-4.00354,-6.15886,-0.081211,-0.996697
35.2,-4.00354,-6.15886,-0.081211,-0.996697
35.3,-4.00354,-6.15886,-0.081211,-0.996697
35.4,-4.00354,-6.15886,-0.081211,-0.996697
35.5,-4.00354,-6.15886,-0.081211,-0.996697
35.6,-4.00354,-6.15886,-0.081211,-0.996697
35.7,-4.00354,-6.15886,-0.081211,-0.996697
35.8,-4.00354,-6.15886,-0.081211,-0.996697
35.9,-4.00354,-6.15886,-0.081211,-0.996697
36,-4.00354,-6.15886,-0.081211,-0.996697
36.1,-4.00354,-6.15886,-0.081211,-0.996697
36.2,-4.00354,-6.15886,-0.081211,-0.996697
36.3,-4.00354,-6.15886,-0.081211,-0.996697
36.4,-4.00354,-6.15886,-0.081211,-0.996697
36.5,-4.00354,-6.15886,-0.081211,-0.996697
36.6,-4.00354,-6.15886,-0.081211,-0.996697
36.7,-4.00354,-6.15886,-0.081211,-0.996697
36.8,-4.00354,-6.15886,-0.081211,-0.996697
36.9,-4.00354,-6.15886,-0.081211,-0.996697
37,-4.00354,-6.15886,-0.081211,-0.996697
37.1,-4.00354,-6.15886,-0.081211,-0.996697
37.2,-4.00354,-6.15886,-0.081211,-0.996697
37.3,-4.00354,-6.15886,-0.081211,-0.996697
37.4,-4.00354,-6.15886,-0.081211,-0.996697
37.5,-4.00354,-6.15886,-0.081211,-0.996697
37.6,-4.00354,-6.15886,-0.081211,-0.996697
37.7,-4.00354,-6.15886,-0.081211,-0.996697
37.8,-4.00354,-6.15886,-0.081211,-0.996697
37.9,-4.00354,-6.15886,-0.081211,-0.996697
38,-4.00354,-6.15886,-0.081211,-0.996697
38.1,-4.00354,-6.15886,-0.081211,-0.996697
38.2,-4.00354,-6.15886,-0.081211,-0.996697
38.3,-4.00354,-6.15886,-0.081211,-0.996697
38.4,-4.00354,-6.15886,-0.081211,-0.996697
38.5,-4.00354,-6.15886,-0.081211,-0.996697
38.6,-4.00354,-6.15886,-0.081211,-0.996697
38.7,-4.00354,-6.15886,-0.081211,-0.996697
38.8,-4.00354,-6.15886,-0.081211,-0.996697
38.9,-4.00354,-6.15886,-0.081211,-0.996697
39,-4.00354,-6.15886,-0.081211,-0.996697
39.1,-4.00354,-6.15886,-0.081211,-0.996697
39.2,-4.00354,-6.15886,-0.081211,-0.996697
39.3,-4.00354,-6.15886,-0.081211,-0.996697
39.4,-4.00354,-6.15886,-0.081211,-0.996697
39.5,-4.00354,-6.15886,-0.081211,-0.996697
39.6,-4.00354,-6.15886,-0.081211,-0.996697
39.7,-4.00354,-6.15886,-0.081211,-0.996697
39.8,-4.00354,-6.15886,-0.081211,-0.996697
39.9,-4.00354,-6.15886,-0.081211,-0.996697
40,-4.00354,-6.15886,-0.081211,-0.996697
40.1,-4.00354,-6.15886,-0.081211,-0.996697
40.2,-4.00354,-6.15886,-0.081211,-0.996697
40.3,-4.00354,-6.15886,-0.081211,-0.996697
40.4,-4.00354,-6.15886,-0.081211,-0.996697
40.5,-4.00354,-6.15886,-0.081211,-0.996697
40.6,-4.00354,-6.15886,-0.081211,-0.996697
40.7,-4.00354,-6.15886,-0.081211,-0.996697
40.8,-4.00354,-6.15886,-0.081211,-0.996697
40.9,-4.00354,-6.15886,-0.081211,-0.996697
41,-4.00354,-6.15886,-0.081211,-0.996697
41.1,-4.00354,-6.15886,-0.081211,-0.996697
41.2,-4.00354,-6.15886,-0.081211,-0.996697
41.3,-4.00354,-6.15886,-0.081211,-0.996697
41.4,-4.00354,-6.15886,-0.081211,-0.996697
41.5,-4.00354,-6.15886,-0.081211,-0.996697
41.6,-4.00354,-6.15886,-0.081211,-0.996697
41.7,-4.00354,-6.15886,-0.081211,-0.996697
41.8,-4.00354,-6.15886,-0.081211,-0.996697
41.9,-4.00354,-6.15886,-0.081211,-0.996697
42,-4.00354,-6.15886,-0.081211,-0.996697
42.1,-4.00354,-6.15886,-0.081211,-0.996697
42.2,-4.00354,-6.15886,-0.081211,-0.996697
42.3,-4.00354,-6.15886,-0.081211,-0.996697
42.4,-4.00354,-6.15886,-0.081211,-0.996697
42.5,-4.00354,-6.15886,-0.081211,-0.996697
42.6,-4.00354,-6.15886,-0.081211,-0.996697
42.7,-4.00354,-6.15886,-0.081211,-0.996697
42.8,-4.00354,-6.15886,-0.081211,-0.996697
42.9,-4.00354,-6.15886,-0.081211,-0.996697
43,-4.00354,-6.15886,-0.081211,-0.996697
43.1,-4.00354,-6.15886,-0.081211,-0.996697
43.2,-4.00354,-6.15886,-0.081211,-0.996697
43.3,-4.00354,-6.15886,-0.081211,-0.996697
43.4,-4.00354,-6.15886,-0.081211,-0.996697
43.5,-4.00354,-6.15886,-0.081211,-0.996697
43.6,-4.00354,-6.15886,-0.081211,-0.996697
43.7,-4.00354,-6.15886,-0.081211,-0.996697
43.8,-4.00354,-6.15886,-0.081211,-0.996697
43.9,-4.00354,-6.15886,-0.081211,-0.996697
44,-4.00354,-6.15886,-0.081211,-0.996697
44.1,-4.00354,-6.15886,-0.081211,-0.996697
44.2,-4.00354,-6.15886,-0.081211,-0.996697
44.3,-4.00354,-6.15886,-0.081211,-0.996697
44.4,-4.00354,-6.15886,-0.081211,-0.996697
44.5,-4.00354,-6.15886,-0.081211,-0.996697
44.6,-4.00354,-6.15886,-0.081211,-0.996697
44.7,-4.00354,-6.15886,-0.081211,-0.996697
44.8,-4.00354,-6.15886,-0.081211,-0.996697
44.9,-4.00354,-6.15886,-0.081211,-0.996697
45,-4.00354,-6.15886,-0.081211,-0.996697
45.1,-4.00354,-6.15886,-0.081211,-0.996697
45.2,-4.00354,-6.15886,-0.081211,-0.996697
45.3,-4.00354,-6.15886,-0.081211,-0.996697
45.4,-4.00354,-6.15886,-0.081211,-0.996697
45.5,-4.00354,-6.15886,-0.081211,-0.996697
45.6,-4.00354,-6.15886,-0.081211,-0.996697
45.7,-4.00354,-6.15886,-0.081211,-0.996697
45.8,-4.00354,-6.15886,-0.081211,-0.996697
45.9,-4.00354,-6.15886,-0.081211,-0.996697
46,-4.00354,-6.15886,-0.081211,-0.996697
46.1,-4.00354,-6.15886,-0.081211,-0.996697
46.2,-4.00354,-6.15886,-0.081211,-0.996697
46.3,-4.00354,-6.15886,-0.081211,-0.996697
46.4,-4.00354,-6.15886,-0.081211,-0.996697
46.5,-4.00354,-6.15886,-0.081211,-0.996697
46.6,-4.00354,-6.15886,-0.081211,-0.996697
46.7,-4.00354,-6.15886,-0.081211,-0.996697
46.8,-4.00354,-6.15886,-0.081211,-0.996697
46.9,-4.00354,-6.15886,-0.081211,-0.996697
47,-4.00354,-6.15886,-0.081211,-0.996697
47.1,-4.00354,-6.15886,-0.081211,-0.996697
47.2,-4.00354,-6.15886,-0.081211,-0.996697
47.3,-4.00354,-6.15886,-0.081211,-0.996697
47.4,-4.00354,-6.15886,-0.081211,-0.996697
47.5,-4.00354,-6.15886,-0.081211,-0.996697
47.6,-4.00354,-6.15886,-0.081211,-0.996697
47.7,-4.00354,-6.15886,-0.081211,-0.996697
47.8,-4.00354,-6.15886,-0.081211,-0.996697
47.9,-4.00354,-6.15886,-0.081211,-0.996697
48,-4.00354,-6.15886,-0.081211,-0.996697
48.1,-4.00354,-6.15886,-0.081211,-0.996697
48.2,-4.00354,-6.15886,-0.081211,-0.996697
48.3,-4.00354,-6.15886,-0.081211,-0.996697
48.4,-4.00354,-6.15886,-0.081211,-0.996697
48.5,-4.00354,-6.15886,-0.081211,-0.996697
48.6,-4.00354,-6.15886,-0.081211,-0.996697
48.7,-4.00354,-6.15886,-0.081211,-0.996697
48.8,-4.00354,-6.15886,-0.081211,-0.996697
48.9,-4.00354,-6.15886,-0.081211,-0.996697
49,-4.00354,-6.15886,-0.081211,-0.996697
49.1,-4.00354,-6.15886,-0.081211,-0.996697
49.2,-4.00354,-6.15886,-0.081211,-0.996697
49.3,-4.00354,-6.15886,-0.081211,-0.996697
49.4,-4.00354,-6.15886,-0.081211,-0.996697
49.5,-4.00354,-6.15886,-0.081211,-0.996697
49.6,-4.00354,-6.15886,-0.081211,-0.996697
49.7,-4.00354,-6.15886,-0.081211,-0.996697
49.8,-4.00354,-6.15886,-0.081211,-0.996697
49.9,-4.00354,-6.15886,-0.081211,-0.996697
50,-4.00354,-6.15886,-0.081211,-0.996697
50.1,-4.00354,-6.15886,-0.081211,-0.996697
50.2,-4.00354,-6.15886,-0.081211,-0.996697
50.3,-4.00354,-6.15886,-0.081211,-0.996697
50.4,-4.00354,-6.15886,-0.081211,-0.996697
50.5,-4.00354,-6.15886,-0.081211,-0.996697
50.6,-4.00354,-6.15886,-0.081211,-0.996697
50.7,-4.00354,-6.15886,-0.081211,-0.996697
50.8,-4.00354,-6.15886,-0.081211,-0.996697
50.9,-4.00354,-6.15886,-0.081211,-0.996697
51,-4.00354,-6.15886,-0.081211,-0.996697
51.1,-4.00354,-6.15886,-0.081211,-0.996697
51.2,-4.00354,-6.15886,-0.081211,-0.996697
51.3,-4.00354,-6.15886,-0.081211,-0.996697
51.4,-4.00354,-6.15886,-0.081211,-0.996697
51.5,-4.00354,-6.15886,-0.081211,-0.996697
51.6,-4.00354,-6.15886,-0.081211,-0.996697
51.7,-4.00354,-6.15886,-0.081211,-0.996697
51.8,-4.00354,-6.15886,-0.081211,-0.996697
51.9,-4.00354,-6.15886,-0.081211,-0.996697
52,-4.00354,-6.15886,-0.081211,-0.996697
52.1,-4.00354,-6.15886,-0.081211,-0.996697
52.2,-4.00354,-6.15886,-0.081211,-0.996697
52.3,-4.00354,-6.15886,-0.081211,-0.996697
52.4,-4.00354,-6.15886,-0.081211,-0.996697
52.5,-4.00354,-6.15886,-0.081211,-0.996697
52.6,-4.00354,-6.15886,-0.081211,-0.996697
52.7,-4.00354,-6.15886,-0.081211,-0.996697
52.8,-4.00354,-6.15886,-0.081211,-0.996697
52.9,-4.00354,-6.15886,-0.081211,-0.996697
53,-4.00354,-6.15886,-0.081211,-0.996697
53.1,-4.00354,-6.15886,-0.081211,-0.996697
53.2,-4.00354,-6.15886,-0.081211,-0.996697
53.3,-4.00354,-6.15886,-0.081211,-0.996697
53.4,-4.00354,-6.15886,-0.081211,-0.996697
53.5,-4.00354,-6.15886,-0.081211,-0.996697
53.6,-4.00354,-6.15886,-0.081211,-0.996697
53.7,-4.00354,-6.15886,-0.081211,-0.996697
53.8,-4.00354,-6.15886,-0.081211,-0.996697
53.9,-4.00354,-6.15886,-0.081211,-0.996697
54,-4.00354,-6.15886,-0.081211,-0.996697
54.1,-4.00354,-6.15886,-0.081211,-0.996697
54.2,-4.00354,-6.15886,-0.081211,-0.996697
54.3,-4.00354,-6.15886,-0.081211,-0.996697
54.4,-4.00354,-6.15886,-0.081211,-0.996697
54.5,-4.00354,-6.15886,-0.081211,-0.996697
54.6,-4.00354,-6.15886,-0.081211,-0.996697
54.7,-4.00354,-6.15886,-0.081211,-0.996697
54.8,-4.00354,-6.15886,-0.081211,-0.996697
54.9,-4.00354,-6.15886,-0.081211,-0.996697
55,-4.00354,-6.15886,-0.081211,-0.996697
55.1,-4.00354,-6.15886,-0.081211,-0.996697
55.2,-4.00354,-6.15886,-0.081211,-0.996697
55.3,-4.00354,-6.15886,-0.081211,-0.996697
55.4,-4.00354,-6.15886,-0.081211,-0.996697
55.5,-4.00354,-6.15886,-0.081211,-0.996697
55.6,-4.00354,-6.15886,-0.081211,-0.996697
55.7,-4.00354,-6.15886,-0.081211,-0.996697
55.8,-4.00354,-6.15886,-0.081211,-0.996697
55.9,-4.00354,-6.15886,-0.081211,-0.996697
56,-4.00354,-6.15886,-0.081211,-0.996697
56.1,-4.00354,-6.15886,-0.081211,-0.996697
56.2,-4.00354,-6.15886,-0.081211,-0.996697
56.3,-4.00354,-6.15886,-0.081211,-0.996697
56.4,-4.00354,-6.15886,-0.081211,-0.996697
56.5,-4.00354,-6.15886,-0.081211,-0.996697
56.6,-4.00354,-6.15886,-0.081211,-0.996697
56.7,-4.00354,-6.15886,-0.081211,-0.996697
56.8,-4.00354,-6.15886,-0.081211,-0.996697
56.9,-4.00354,-6.15886,-0.081211,-0.996697
57,-4.00354,-6.15886,-0.081211,-0.996697
57.1,-4.00354,-6.15886,-0.081211,-0.996697
57.2,-4.00354,-6.15886,-0.081211,-0.996697
57.3,-4.00354,-6.15886,-0.081211,-0.996697
57.4,-4.00354,-6.15886,-0.081211,-0.996697
57.5,-4.00354,-6.15886,-0.081211,-0.996697
57.6,-4.00354,-6.15886,-0.081211,-0.996697
57.7,-4.00354,-6.15886,-0.081211,-0.996697
57.8,-4.00354,-6.15886,-0.081211,-0.996697
57.9,-4.00354,-6.15886,-0.081211,-0.996697
58,-4.00354,-6.15886,-0.081211,-0.996697
58.1,-4.00354,-6.15886,-0.081211,-0.996697
58.2,-4.00354,-6.15886,-0.081211,-0.996697
58.3,-4.00354,-6.15886,-0.081211,-0.996697
58.4,-4.00354,-6.15886,-0.081211,-0.996697
58.5,-4.00354,-6.15886,-0.081211,-0.996697
58.6,-4.00354,-6.15886,-0.081211,-0.996697
58.7,-4.00354,-6.15886,-0.081211,-0.996697
58.8,-4.00354,-6.15886,-0.081211,-0.996697
58.9,-4.00354,-6.15886,-0.081211,-0.996697
59,-4.00354,-6.15886,-0.081211,-0.996697
59.1,-4.00354,-6.15886,-0.081211,-0.996697
59.2,-4.00354,-6.15886,-0.081211,-0.996697
59.3,-4.00354,-6.15886,-0.081211,-0.996697
59.4,-4.00354,-6.15886,-0.081211,-0.996697
59.5,-4.00354,-6.15886,-0.081211,-0.996697
59.6,-4.00354,-6.15886,-0.081211,-0.996697
59.7,-4.00354,-6.15886,-0.081211,-0.996697
59.8,-4.00354,-6.15886,-0.081211,-0.996697
59.9,-4.00354,-6.15886,-0.081211,-0.996697
60,-4.00354,-6.15886,-0.081211,-0.996697
60.1,-4.00354,-6.15886,-0.081211,-0.996697
60.2,-4.00354,-6.15886,-0.081211,-0.996697
60.3,-4.00354,-6.15886,-0.081211,-0.996697
60.4,-4.00354,-6.15886,-0.081211,-0.996697
60.5,-4.00354,-6.15886,-0.081211,-0.996697
60.6,-4.00354,-6.15886,-0.081211,-0.996697
60.7,-4.00354,-6.15886,-0.081211,-0.996697
60.8,-4.00354,-6.15886,-0.081211,-0.996697
60.9,-4.00354,-6.15886,-0.081211,-0.996697
61,-4.00354,-6.15886,-0.081211,-0.996697
61.1,-4.00354,-6.15886,-0.081211,-0.996697
61.2,-4.00354,-6.15886,-0.081211,-0.996697
61.3,-4.00354,-6.15886,-0.081211,-0.996697
61.4,-4.00354,-6.15886,-0.081211,-0.996697
61.5,-4.00354,-6.15886,-0.081211,-0.996697
61.6,-4.00354,-6.15886,-0.081211,-0.996697
61.7,-4.00354,-6.15886,-0.081211,-0.996697
61.8,-4.00354,-6.15886,-0.081211,-0.996697
61.9,-4.00354,-6.15886,-0.081211,-0.996697
62,-4.00354,-6.15886,-0.081211,-0.996697
62.1,-4.00354,-6.15886,-0.081211,-0.996697
62.2,-4.00354,-6.15886,-0.081211,-0.996697
62.3,-4.00354,-6.15886,-0.081211,-0.996697
62.4,-4.00354,-6.15886,-0.081211,-0.996697
62.5,-4.00354,-6.15886,-0.081211,-0.996697
62.6,-4.00354,-6.15886,-0.081211,-0.996697
62.7,-4.00354,-6.15886,-0.081211,-0.996697
62.8,-4.00354,-6.15886,-0.081211,-0.996697
62.9,-4.00354,-6.15886,-0.081211,-0.996697
63,-4.00354,-6.15886,-0.081211,-0.996697
63.1,-4.00354,-6.15886,-0.081211,-0.996697
63.2,-4.00354,-6.15886,-0.081211,-0.996697
63.3,-4.00354,-6.15886,-0.081211,-0.996697
63.4,-4.00354,-6.15886,-0.081211,-0.996697
63.5,-4.00354,-6.15886,-0.081211,-0.996697
63.6,-4.00354,-6.15886,-0.081211,-0.996697
63.7,-4.00354,-6.15886,-0.081211,-0.996697
63.8,-4.00354,-6.15886,-0.081211,-0.996697
63.9,-4.00354,-6.15886,-0.081211,-0.996697
64,-4.00354,-6.15886,-0.081211,-0.996697
64.1,-4.00354,-6.15886,-0.081211,-0.996697
64.2,-4.00354,-6.15886,-0.081211,-0.996697
64.3,-4.00354,-6.15886,-0.081211,-0.996697
64.4,-4.00354,-6.15886,-0.081211,-0.996697
64.5,-4.00354,-6.15886,-0.081211,-0.996697
64.6,-4.00354,-6.15886,-0.081211,-0.996697
64.7,-4.00354,-6.15886,-0.081211,-0.996697
64.8,-4.00354,-6.15886,-0.081211,-0.996697
64.9,-4.00354,-6.15886,-0.081211,-0.996697
65,-4.00354,-6.15886,-0.081211,-0.996697
65.1,-4.00354,-6.15886,-0.081211,-0.996697
65.2,-4.00354,-6.15886,-0.081211,-0.996697
65.3,-4.00354,-6.15886,-0.081211,-0.996697
65.4,-4.00354,-6.15886,-0.081211,-0.996697
65.5,-4.00354,-6.15886,-0.081211,-0.996697
65.6,-4.00354,-6.15886,-0.081211,-0.996697
65.7,-4.00354,-6.15886,-0.081211,-0.996697
65.8,-4.00354,-6.15886,-0.081211,-0.996697
65.9,-4.00354,-6.15886,-0.081211,-0.996697
66,-4.00354,-6.15886,-0.081211,-0.996697
66.1,-4.00354,-6.15886,-0.081211,-0.996697
66.2,-4.00354,-6.15886,-0.081211,-0.996697
66.3,-4.00354,-6.15886,-0.081211,-0.996697
66.4,-4.00354,-6.15886,-0.081211,-0.996697
66.5,-4.00354,-6.15886,-0.081211,-0.996697
66.6,-4.00354,-6.15886,-0.081211,-0.996697
66.7,-4.00354,-6.15886,-0.081211,-0.996697
66.8,-4.00354,-6.15886,-0.081211,-0.996697
66.9,-4.00354,-6.15886,-0.081211,-0.996697
67,-4.00354,-6.15886,-0.081211,-0.996697
67.1,-4.00354,-6.15886,-0.081211,-0.996697
67.2,-4.00354,-6.15886,-0.081211,-0.996697
67.3,-4.00354,-6.15886,-0.081211,-0.996697
67.4,-4.00354,-6.15886,-0.081211,-0.996697
67.5,-4.00354,-6.15886,-0.081211,-0.996697
67.6,-4.00354,-6.15886,-0.081211,-0.996697
67.7,-4.00354,-6.15886,-0.081211,-0.996697
67.8,-4.00354,-6.15886,-0.081211,-0.996697
67.9,-4.00354,-6.15886,-0.081211,-0.996697
68,-4.00354,-6.15886,-0.081211,-0.996697
68.1,-4.00354,-6.15886,-0.081211,-0.996697
68.2,-4.00354,-6.15886,-0.081211,-0.996697
68.3,-4.00354,-6.15886,-0.081211,-0.996697
68.4,-4.00354,-6.15886,-0.081211,-0.996697
68.5,-4.00354,-6.15886,-0.081211,-0.996697
68.6,-4.00354,-6.15886,-0.081211,-0.996697
68.7,-4.00354,-6.15886,-0.081211,-0.996697
68.8,-4.00354,-6.15886,-0.081211,-0.996697
68.9,-4.00354,-6.15886,-0.081211,-0.996697
69,-4.00354,-6.15886,-0.081211,-0.996697
69.1,-4.00354,-6.15886,-0.081211,-0.996697
69.2,-4.00354,-6.15886,-0.081211,-0.996697
69.3,-4.00354,-6.15886,-0.081211,-0.996697
69.4,-4.00354,-6.15886,-0.081211,-0.996697
69.5,-4.00354,-6.15886,-0.081211,-0.996697
69.6,-4.00354,-6.15886,-0.081211,-0.996697
69.7,-4.00354,-6.15886,-0.081211,-0.996697
69.8,-4.00354,-6.15886,-0.081211,-0.996697
69.9,-4.00354,-6.15886,-0.081211,-0.996697
70,-4.00354,-6.15886,-0.081211,-0.996697
70.1,-4.00354,-6.15886,-0.081211,-0.996697
70.2,-4.00354,-6.15886,-0.081211,-0.996697
70.3,-4.00354,-6.15886,-0.081211,-0.996697
70.4,-4.00354,-6.15886,-0.081211,-0.996697
70.5,-4.00354,-6.15886,-0.081211,-0.996697
70.6,-4.00354,-6.15886,-0.081211,-0.996697
70.7,-4.00354,-6.15886,-0.081211,-0.996697
70.8,-4.00354,-6.15886,-0.081211,-0.996697
70.9,-4.00354,-6.15886,-0.081211,-0.996697
71,-4.00354,-6.15886,-0.081211,-0.996697
71.1,-4.00354,-6.15886,-0.081211,-0.996697
71.2,-4.00354,-6.15886,-0.081211,-0.996697
71.3,-4.00354,-6.15886,-0.081211,-0.996697
71.4,-4.00354,-6.15886,-0.081211,-0.996697
71.5,-4.00354,-6.15886,-0.081211,-0.996697
71.6,-4.00354,-6.15886,-0.081211,-0.996697
71.7,-4.00354,-6.15886,-0.081211,-0.996697
71.8,-4.00354,-6.15886,-0.081211,-0.996697
71.9,-4.00354,-6.15886,-0.081211,-0.996697
72,-4.00354,-6.15886,-0.081211,-0.996697
72.1,-4.00354,-6.15886,-0.081211,-0.996697
72.2,-4.00354,-6.15886,-0.081211,-0.996697
72.3,-4.00354,-6.15886,-0.081211,-0.996697
72.4,-4.00354,-6.15886,-0.081211,-0.996697
72.5,-4.00354,-6.15886,-0.081211,-0.996697
72.6,-4.00354,-6.15886,-0.081211,-0.996697
72.7,-4.00354,-6.15886,-0.081211,-0.996697
72.8,-4.00354,-6.15886,-0.081211,-0.996697
72.9,-4.00354,-6.15886,-0.081211,-0.996697
73,-4.00354,-6.15886,-0.081211,-0.996697
73.1,-4.00354,-6.15886,-0.081211,-0.996697
73.2,-4.00354,-6.15886,-0.081211,-0.996697
73.3,-4.00354,-6.15886,-0.081211,-0.996697
73.4,-4.00354,-6.15886,-0.081211,-0.996697
73.5,-4.00354,-6.15886,-0.081211,-0.996697
73.6,-4.00354,-6.15886,-0.081211,-0.996697
73.7,-4.00354,-6.15886,-0.081211,-0.996697
73.8,-4.00354,-6.15886,-0.081211,-0.996697
73.9,-4.00354,-6.15886,-0.081211,-0.996697
74,-4.00354,-6.15886,-0.081211,-0.996697
74.1,-4.00354,-6.15886,-0.081211,-0.996697
74.2,-4.00354,-6.15886,-0.081211,-0.996697
74.3,-4.00354,-6.15886,-0.081211,-0.996697
74.4,-4.00354,-6.15886,-0.081211,-0.996697
74.5,-4.00354,-6.15886,-0.081211,-0.996697
74.6,-4.00354,-6.15886,-0.081211,-0.996697
74.7,-4.00354,-6.15886,-0.081211,-0.996697
74.8,-4.00354,-6.15886,-0.081211,-0.996697
74.9,-4.00354,-6.15886,-0.081211,-0.996697
75,-4.00354,-6.15886,-0.081211,-0.996697
75.1,-4.00354,-6.15886,-0.081211,-0.996697
75.2,-4.00354,-6.15886,-0.081211,-0.996697
75.3,-4.00354,-6.15886,-0.081211,-0.996697
75.4,-4.00354,-6.15886,-0.081211,-0.996697
75.5,-4.00354,-6.15886,-0.081211,-0.996697
75.6,-4.00354,-6.15886,-0.081211,-0.996697
75.7,-4.00354,-6.15886,-0.081211,-0.996697
75.8,-4.00354,-6.15886,-0.081211,-0.996697
75.9,-4.00354,-6.15886,-0.081211,-0.996697
76,-4.00354,-6.15886,-0.081211,-0.996697
76.1,-4.00354,-6.15886,-0.081211,-0.996697
76.2,-4.00354,-6.15886,-0.081211,-0.996697
76.3,-4.00354,-6.15886,-0.081211,-0.996697
76.4,-4.00354,-6.15886,-0.081211,-0.996697
76.5,-4.00354,-6.15886,-0.081211,-0.996697
76.6,-4.00354,-6.15886,-0.081211,-0.996697
76.7,-4.00354,-6.15886,-0.081211,-0.996697
76.8,-4.00354,-6.15886,-0.081211,-0.996697
76.9,-4.00354,-6.15886,-0.081211,-0.996697
77,-4.00354,-6.15886,-0.081211,-0.996697
77.1,-4.00354,-6.15886,-0.081211,-0.996697
77.2,-4.00354,-6.15886,-0.081211,-0.996697
77.3,-4.00354,-6.15886,-0.081211,-0.996697
77.4,-4.00354,-6.15886,-0.081211,-0.996697
77.5,-4.00354,-6.15886,-0.081211,-0.996697
77.6,-4.00354,-6.15886,-0.081211,-0.996697
77.7,-4.00354,-6.15886,-0.081211,-0.996697
77.8,-4.00354,-6.15886,-0.081211,-0.996697
77.9,-4.00354,-6.15886,-0.081211,-0.996697
78,-4.00354,-6.15886,-0.081211,-0.996697
78.1,-4.00354,-6.15886,-0.081211,-0.996697
78.2,-4.00354,-6.15886,-0.081211,-0.996697
78.3,-4.00354,-6.15886,-0.081211,-0.996697
78.4,-4.00354,-6.15886,-0.081211,-0.996697
78.5,-4.00354,-6.15886,-0.081211,-0.996697
78.6,-4.00354,-6.15886,-0.081211,-0.996697
78.7,-4.00354,-6.15886,-0.081211,-0.996697
78.8,-4.00354,-6.15886,-0.081211,-0.996697
78.9,-4.00354,-6.15886,-0.081211,-0.996697
79,-4.00354,-6.15886,-0.081211,-0.996697
79.1,-4.00354,-6.15886,-0.081211,-0.996697
79.2,-4.00354,-6.15886,-0.081211,-0.996697
79.3,-4.00354,-6.15886,-0.081211,-0.996697
79.4,-4.00354,-6.15886,-0.081211,-0.996697
79.5,-4.00354,-6.15886,-0.081211,-0.996697
79.6,-4.00354,-6.15886,-0.081211,-0.996697
79.7,-4.00354,-6.15886,-0.081211,-0.996697
79.8,-4.00354,-6.15886,-0.081211,-0.996697
79.9,-4.00354,-6.15886,-0.081211,-0.996697
80,-4.00354,-6.15886,-0.081211,-0.996697
