0.1,-10.4881,0.294554,0.999997,-0.00248567
0.2,-0.388074,0.294418,0.999999,-0.0010265
0.3,-0.2628,0.294355,1,-0.000500193
0.4,-0.137526,0.294293,1,-0.000500193
0.5,-0.0122521,0.29423,1,-0.000500193
0.6,0.113022,0.294167,1,-0.000500193
0.7,0.238296,0.294105,1,-0.000500193
0.8,0.36357,0.294042,1,-0.000500193
0.9,0.488844,0.293979,1,-0.000500193
1,0.614118,0.293917,1,-0.000500193
1.1,0.739392,0.293854,1,-0.000500193
1.2,0.864665,0.293791,1,-0.000500193
1.3,0.989939,0.293729,1,-0.000500193
1.4,1.11521,0.293666,1,-0.000500193
1.5,1.24049,0.293603,1,-0.000500193
1.6,1.36576,0.293541,1,-0.000500193
1.7,1.49104,0.293478,1,-0.000500193
1.8,1.61631,0.293415,1,-0.000500193
1.9,1.74158,0.293353,1,-0.000500193
2,1.86686,0.29329,1,-0.000500193
2.1,1.99213,0.293227,1,-0.000500193
2.2,2.1174,0.293165,1,-0.000500193
2.3,2.24268,0.293102,1,-0.000500193
2.4,2.36795,0.293039,1,-0.000500193
2.5,2.49323,0.292977,1,-0.000500193
2.6,2.6185,0.292914,1,-0.000500193
2.7,2.74377,0.292851,1,-0.000500193
2.8,2.86905,0.292789,1,-0.000500193
2.9,2.99444,0.292591,0.999999,-0.00121598
3,3.11996,0.292223,0.999998,-0.00212461
3.1,3.24558,0.291685,0.999995,-0.00302505
3.2,3.37127,0.290981,0.999992,-0.00390534
3.3,3.49701,0.290117,0.999989,-0.00475035
3.4,3.62276,0.289104,0.999985,-0.00554235
3.5,3.7485,0.287956,0.99998,-0.00626099
3.6,3.87421,0.286691,0.999976,-0.00688462
3.7,3.99985,0.28533,0.999973,-0.00739122
3.8,4.12541,0.283901,0.99997,-0.00776014
3.9,4.25088,0.282432,0.999968,-0.0079743
4,4.37628,0.280955,0.999968,-0.00802566
4.1,4.50167,0.279477,0.999968,-0.00802565
4.2,4.62707,0.277999,0.999968,-0.00802565
4.3,4.75246,0.276521,0.999968,-0.00802564
4.4,4.87786,0.275043,0.999968,-0.00802563
4.5,-4.99674,0.273566,0.999968,-0.00802563
4.6,-4.87135,0.272088,0.999968,-0.00802558
4.7,-4.74595,0.27061,0.999968,-0.00802558
4.8,-4.62056,0.269132,0.999968,-0.00802557
4.9,-4.49516,0.267654,0.999968,-0.00802556
5,-4.36977,0.266177,0.999968,-0.00802555
5.1,-4.24437,0.264699,0.999968,-0.00802555
5.2,-4.11897,0.263221,0.999968,-0.00802554
5.3,-3.99358,0.261743,0.999968,-0.00802552
5.4,-3.86818,0.260265,0.999968,-0.00802551
5.5,-3.74279,0.258787,0.999968,-0.00802551
5.6,-3.61739,0.25731,0.999968,-0.0080255
5.7,-3.49199,0.255832,0.999968,-0.00802548
5.8,-3.3666,0.254354,0.999968,-0.00802547
5.9,-3.2412,0.252876,0.999968,-0.00802546
6,-3.11581,0.251398,0.999968,-0.00802546
6.1,-2.99041,0.249921,0.999968,-0.00802544
6.2,-2.86501,0.248443,0.999968,-0.00802543
6.3,-2.73962,0.246965,0.999968,-0.00802542
6.4,-2.61422,0.245487,0.999968,-0.0080254
6.5,-2.48883,0.244009,0.999968,-0.00802539
6.6,-2.36343,0.242531,0.999968,-0.00802538
6.7,-2.23803,0.241054,0.999968,-0.00802537
6.8,-2.11264,0.239576,0.999968,-0.00802536
6.9,-1.98724,0.238098,0.999968,-0.00802535
7,-1.86185,0.23662,0.999968,-0.00802533
7.1,-1.73645,0.235142,0.999968,-0.00802531
7.2,-1.61105,0.233665,0.999968,-0.0080253
7.3,-1.48566,0.232187,0.999968,-0.00802529
7.4,-1.36026,0.230709,0.999968,-0.00802529
7.5,-1.23487,0.229231,0.999968,-0.00802527
7.6,-1.10947,0.227753,0.999968,-0.00802526
7.7,-0.984073,0.226275,0.999968,-0.00802524
7.8,-0.858677,0.224798,0.999968,-0.00802522
7.9,-0.733281,0.22332,0.999968,-0.00802521
8,-0.607885,0.221842,0.999968,-0.00802519
8.1,-0.482489,0.220364,0.999968,-0.00802519
8.2,-0.357093,0.218886,0.999968,-0.00802516
8.3,-0.231697,0.217409,0.999968,-0.00802514
8.4,-0.106302,0.215931,0.999968,-0.00802514
8.5,0.0190945,0.214453,0.999968,-0.00802516
8.6,0.14449,0.212975,0.999968,-0.0080251
8.7,0.269886,0.211497,0.999968,-0.00802514
8.8,0.395282,0.21002,0.999968,-0.00802505
8.9,0.520678,0.208542,0.999968,-0.00802536
9,0.645958,0.208181,0.999998,-0.00208714
9.1,0.771232,0.208118,1,-0.000498478
9.2,0.896506,0.208056,1,-0.000498478
9.3,1.02178,0.207993,1,-0.000498478
9.4,1.14705,0.207931,1,-0.000498478
9.5,1.27233,0.207869,1,-0.000498478
9.6,1.3976,0.207806,1,-0.000498478
9.7,1.52288,0.207744,1,-0.000498478
9.8,1.64815,0.207681,1,-0.000498478
9.9,1.77342,0.207619,1,-0.000498478
10,1.8987,0.207556,1,-0.000498478
10.1,2.02397,0.207494,1,-0.000498478
10.2,2.14925,0.207431,1,-0.000498478
10.3,2.27452,0.207369,1,-0.000498478
10.4,2.39979,0.207306,1,-0.000498478
10.5,2.52507,0.207244,1,-0.000498478
10.6,2.65034,0.207182,1,-0.000498478
10.7,2.77562,0.207119,1,-0.000498478
10.8,2.90089,0.207057,1,-0.000498478
10.9,3.02616,0.206994,1,-0.000498478
11,3.15144,0.206932,1,-0.000498478
11.1,3.27671,0.206869,1,-0.000498478
11.2,3.40198,0.206807,1,-0.000498478
11.3,3.52726,0.206744,1,-0.000498478
11.4,3.65253,0.206682,1,-0.000498478
11.5,3.77781,0.206619,1,-0.000498478
11.6,3.90308,0.206557,1,-0.000498478
11.7,4.02835,0.206495,1,-0.000498478
11.8,4.15363,0.206432,1,-0.000498478
11.9,4.2789,0.20637,1,-0.000498478
12,4.40418,0.206307,1,-0.000498478
12.1,4.52945,0.206245,1,-0.000498478
12.2,4.65472,0.206182,1,-0.000498478
12.3,4.78,0.20612,1,-0.000498478
12.4,4.90527,0.206057,1,-0.000498478
12.5,-4.96946,0.205995,1,-0.000498478
12.6,-4.84418,0.205933,1,-0.000498378
12.7,-4.71891,0.20587,1,-0.000498378
12.8,-4.59363,0.205808,1,-0.000498378
12.9,-4.46836,0.205745,1,-0.000498378
13,-4.34309,0.205683,1,-0.000498378
13.1,-4.21781,0.20562,1,-0.000498378
13.2,-4.09254,0.205558,1,-0.000498378
13.3,-3.96727,0.205495,1,-0.000498378
13.4,-3.84199,0.205433,1,-0.000498378
13.5,-3.71672,0.205371,1,-0.000498378
13.6,-3.59144,0.205308,1,-0.000498378
13.7,-3.46617,0.205246,1,-0.000498378
13.8,-3.3409,0.205183,1,-0.000498378
13.9,-3.21562,0.205121,1,-0.000498378
14,-3.09035,0.205058,1,-0.000498378
14.1,-2.96507,0.204996,1,-0.000498378
14.2,-2.8398,0.204934,1,-0.000498378
14.3,-2.71453,0.204871,1,-0.000498378
14.4,-2.58925,0.204809,1,-0.000498378
14.5,-2.46398,0.204746,1,-0.000498378
14.6,-2.3387,0.204684,1,-0.000498378
14.7,-2.21343,0.204621,1,-0.000498378
14.8,-2.08816,0.204559,1,-0.000498378
14.9,-1.96288,0.204497,1,-0.000498378
15,-1.83761,0.204434,1,-0.000498378
15.1,-1.71233,0.204372,1,-0.000498378
15.2,-1.58706,0.204309,1,-0.000498378
15.3,-1.46179,0.204247,1,-0.000498378
15.4,-1.33638,0.204122,1,-0.000828132
15.5,-1.21082,0.203917,0.999999,-0.00125591
15.6,-1.0851,0.203628,0.999999,-0.0016981
15.7,-0.959239,0.203253,0.999998,-0.00215574
15.8,-0.833241,0.202789,0.999997,-0.00262955
15.9,-0.707113,0.202231,0.999995,-0.00312042
16,-0.580865,0.201576,0.999993,-0.00362908
16.1,-0.454505,0.200822,0.999991,-0.00415598
16.2,-0.328042,0.199964,0.999989,-0.00470153
16.3,-0.201488,0.198999,0.999986,-0.00526575
16.4,-0.0748532,0.197924,0.999983,-0.00584837
16.5,0.0518514,0.196734,0.999979,-0.00644878
16.6,0.178613,0.195427,0.999975,-0.00706563
16.7,0.305419,0.194,0.99997,-0.00769712
16.8,0.432255,0.192451,0.999965,-0.00834052
16.9,0.559105,0.190778,0.99996,-0.00899218
17,0.685955,0.188981,0.999954,-0.00964743
17.1,0.812788,0.18706,0.999947,-0.0103004
17.2,0.939587,0.185018,0.99994,-0.0109439
17.3,1.06633,0.182858,0.999933,-0.0115695
17.4,1.19301,0.180586,0.999926,-0.0121674
17.5,1.3196,0.178208,0.999919,-0.0127267
17.6,1.44609,0.175736,0.999912,-0.0132356
17.7,1.57246,0.173181,0.999906,-0.0136816
17.8,1.69869,0.170558,0.999901,-0.0140526
17.9,1.82478,0.167883,0.999897,-0.0143367
18,1.9508,0.165192,0.999896,-0.0144291
18.1,2.07683,0.162501,0.999896,-0.0144291
18.2,2.20285,0.159809,0.999896,-0.014429
18.3,2.32887,0.157118,0.999896,-0.014429
18.4,2.4549,0.154427,0.999896,-0.014429
18.5,2.58092,0.151735,0.999896,-0.014429
18.6,2.70694,0.149044,0.999896,-0.014429
18.7,2.83297,0.146353,0.999896,-0.014429
18.8,2.95899,0.143662,0.999896,-0.0144289
18.9,3.08501,0.14097,0.999896,-0.0144289
19,3.21104,0.138279,0.999896,-0.0144289
19.1,3.33706,0.135588,0.999896,-0.0144289
19.2,3.46308,0.132896,0.999896,-0.0144289
19.3,3.58911,0.130205,0.999896,-0.0144288
19.4,3.71513,0.127514,0.999896,-0.0144288
19.5,3.84115,0.124822,0.999896,-0.0144288
19.6,3.96718,0.122131,0.999896,-0.0144288
19.7,4.0932,0.11944,0.999896,-0.0144288
19.8,4.21922,0.116749,0.999896,-0.0144288
19.9,4.34525,0.114057,0.999896,-0.0144288
20,4.47127,0.111366,0.999896,-0.0144288
20.1,4.59729,0.108675,0.999896,-0.0144287
20.2,4.72332,0.105983,0.999896,-0.0144287
20.3,4.84934,0.103292,0.999896,-0.0144287
20.4,4.97536,0.100601,0.999896,-0.0144287
20.5,-4.89861,0.0979094,0.999896,-0.0144287
20.6,-4.77259,0.0952181,0.999896,-0.0144286
20.7,-4.64657,0.0925268,0.999896,-0.0144286
20.8,-4.52055,0.0898354,0.999896,-0.0144286
20.9,-4.39452,0.0871441,0.999896,-0.0144286
21,-4.2685,0.0844528,0.999896,-0.0144286
21.1,-4.14248,0.0817615,0.999896,-0.0144286
21.2,-4.01645,0.0790702,0.999896,-0.0144286
21.3,-3.89043,0.0763788,0.999896,-0.0144286
21.4,-3.7644,0.0736875,0.999896,-0.0144285
21.5,-3.63838,0.0709962,0.999896,-0.0144285
21.6,-3.51236,0.0683049,0.999896,-0.0144285
21.7,-3.38633,0.0656135,0.999896,-0.0144285
21.8,-3.26031,0.0629222,0.999896,-0.0144285
21.9,-3.13429,0.0602309,0.999896,-0.0144284
22,-3.00826,0.0575396,0.999896,-0.0144284
22.1,-2.88224,0.0548483,0.999896,-0.0144284
22.2,-2.75622,0.0521569,0.999896,-0.0144284
22.3,-2.63019,0.0494656,0.999896,-0.0144283
22.4,-2.50417,0.0467743,0.999896,-0.0144283
22.5,-2.37815,0.044083,0.999896,-0.0144283
22.6,-2.25212,0.0413917,0.999896,-0.0144283
22.7,-2.1261,0.0387004,0.999896,-0.0144282
22.8,-2.00008,0.0360091,0.999896,-0.014428
22.9,-1.87417,0.0335287,0.999911,-0.0133194
23,-1.74846,0.0314169,0.999935,-0.0113754
23.1,-1.62284,0.0295363,0.999948,-0.0101541
23.2,-1.49735,0.0280483,0.999967,-0.00807393
23.3,-1.37194,0.0268067,0.999977,-0.00676701
23.4,-1.2466,0.0259744,0.999989,-0.00459263
23.5,-1.1213,0.0253979,0.999995,-0.00323244
23.6,-0.996024,0.0252391,1,-0.00101006
23.7,-0.870751,0.0251771,1,-0.000494801
23.8,-0.745477,0.0251152,1,-0.000494801
23.9,-0.620203,0.0250532,1,-0.000494801
24,-0.494929,0.0249912,1,-0.000494801
24.1,-0.369655,0.0249292,1,-0.000494801
24.2,-0.244381,0.0248672,1,-0.000494801
24.3,-0.119107,0.0248052,1,-0.000494801
24.4,0.00616701,0.0247432,1,-0.000494801
24.5,0.131441,0.0246813,1,-0.000494801
24.6,0.256715,0.0246193,1,-0.000494801
24.7,0.381989,0.0245573,1,-0.000494801
24.8,0.507263,0.0244953,1,-0.000494801
24.9,0.632537,0.0244333,1,-0.000494801
25,0.757811,0.0243713,1,-0.000494801
25.1,0.883085,0.0243093,1,-0.000494801
25.2,1.00836,0.0242474,1,-0.000494801
25.3,1.13363,0.0241854,1,-0.000494801
25.4,1.25891,0.0241234,1,-0.000494801
25.5,1.38418,0.0240614,1,-0.000494801
25.6,1.50945,0.0239994,1,-0.000494801
25.7,1.63473,0.0239374,1,-0.000494801
25.8,1.76,0.0238755,1,-0.000494801
25.9,1.88528,0.0238135,1,-0.000494801
26,2.01055,0.0237515,1,-0.000494801
26.1,2.13582,0.0236895,1,-0.000494801
26.2,2.2611,0.0236275,1,-0.000494801
26.3,2.38637,0.0235655,1,-0.000494801
26.4,2.51165,0.0235035,1,-0.000494801
26.5,2.63692,0.0234416,1,-0.000494801
26.6,2.76219,0.0233796,1,-0.000494801
26.7,2.88747,0.0233176,1,-0.000494801
26.8,3.01274,0.0232556,1,-0.000494801
26.9,3.13802,0.0231936,1,-0.000494801
27,3.26329,0.0231316,1,-0.000494801
27.1,3.38856,0.0230696,1,-0.000494801
27.2,3.51384,0.0230077,1,-0.000494801
27.3,3.63911,0.0229457,1,-0.000494801
27.4,3.76439,0.0228837,1,-0.000494801
27.5,3.88966,0.0228217,1,-0.000494801
27.6,4.01493,0.0227597,1,-0.000494801
27.7,4.14021,0.0226977,1,-0.000494801
27.8,4.26548,0.0226358,1,-0.000494801
27.9,4.39075,0.0225738,1,-0.000494801
28,4.51603,0.0225118,1,-0.000494801
28.1,4.6413,0.0224498,1,-0.000494801
28.2,4.76658,0.0223878,1,-0.000494801
28.3,4.89185,0.0223258,1,-0.000494801
28.4,-4.98288,0.0222638,1,-0.000494801
28.5,-4.8576,0.0222019,1,-0.000494703
28.6,-4.73233,0.0221399,1,-0.000494702
28.7,-4.60706,0.0220779,1,-0.000494703
28.8,-4.48178,0.0220159,1,-0.000494703
28.9,-4.35651,0.021954,1,-0.000494703
29,-4.23124,0.021892,1,-0.000494703
29.1,-4.10596,0.02183,1,-0.000494703
29.2,-3.98069,0.021768,1,-0.000494702
29.3,-3.85541,0.0217061,1,-0.000494703
29.4,-3.73014,0.0216441,1,-0.000494703
29.5,-3.60487,0.0215821,1,-0.000494703
29.6,-3.47959,0.0215202,1,-0.000494702
29.7,-3.35432,0.0214582,1,-0.000494702
29.8,-3.22904,0.0213962,1,-0.000494702
29.9,-3.10377,0.0213342,1,-0.000494703
30,-2.9785,0.0212723,1,-0.000494702
30.1,-2.85322,0.0212103,1,-0.000494703
30.2,-2.72795,0.0211483,1,-0.000494703
30.3,-2.60267,0.0210863,1,-0.000494703
30.4,-2.4774,0.0210244,1,-0.000494703
30.5,-2.35213,0.0209624,1,-0.000494702
30.6,-2.22685,0.0209004,1,-0.000494703
30.7,-2.10158,0.0208384,1,-0.000494703
30.8,-1.9763,0.0207765,1,-0.000494702
30.9,-1.85103,0.0207145,1,-0.000494703
31,-1.72576,0.0206525,1,-0.000494702
31.1,-1.60048,0.0205905,1,-0.000494703
31.2,-1.47521,0.0205286,1,-0.000494702
31.3,-1.34993,0.0204666,1,-0.000494703
31.4,-1.22466,0.0204046,1,-0.000494702
31.5,-1.09939,0.0203426,1,-0.000494702
31.6,-0.974113,0.0202807,1,-0.000494703
31.7,-0.848839,0.0202187,1,-0.000494703
31.8,-0.723565,0.0201567,1,-0.000494702
31.9,-0.598291,0.0200948,1,-0.000494703
32,-0.473017,0.0200328,1,-0.000494703
32.1,-0.347743,0.0199708,1,-0.000494703
32.2,-0.222469,0.0199088,1,-0.000494702
32.3,-0.0971952,0.0198469,1,-0.000494702
32.4,0.0280787,0.0197849,1,-0.000494702
32.5,0.153353,0.0197229,1,-0.000494703
32.6,0.278627,0.0196609,1,-0.000494702
32.7,0.403901,0.019599,1,-0.000494702
32.8,0.529175,0.019537,1,-0.000494703
32.9,0.654448,0.019475,1,-0.000494702
33,0.779722,0.019413,1,-0.000494703
33.1,0.904996,0.0193511,1,-0.000494702
33.2,1.03027,0.0192891,1,-0.000494703
33.3,1.15554,0.0192271,1,-0.000494703
33.4,1.28082,0.0191651,1,-0.000494703
33.5,1.40609,0.0191032,1,-0.000494703
33.6,1.53137,0.0190412,1,-0.000494703
33.7,1.65664,0.0189792,1,-0.000494702
33.8,1.78191,0.0189172,1,-0.000494703
33.9,1.90719,0.0188553,1,-0.000494703
34,2.03246,0.0187933,1,-0.000494703
34.1,2.15774,0.0187313,1,-0.000494702
34.2,2.28301,0.0186694,1,-0.000494702
34.3,2.40828,0.0186074,1,-0.000494702
34.4,2.53356,0.0185454,1,-0.000494703
34.5,2.65883,0.0184834,1,-0.000494703
34.6,2.78411,0.0184215,1,-0.000494703
34.7,2.90938,0.0183595,1,-0.000494703
34.8,3.03457,0.018322,1,-0.000364638
34.9,3.15958,0.0183366,1,-8.72964e-05
35,3.28442,0.0184054,1,0.000201845
35.1,3.4091,0.0185308,1,0.000503905
35.2,3.53361,0.0187152,1,0.000819933
35.3,3.65798,0.0189615,0.999999,0.0011511
35.4,3.78219,0.0192725,0.999999,0.00149871
35.5,3.90626,0.0196515,0.999998,0.00186403
35.6,4.03019,0.020102,0.999997,0.00224849
35.7,4.15399,0.0206277,0.999996,0.00265355
35.8,4.27766,0.0212327,0.999995,0.00308074
35.9,4.40122,0.0219212,0.999994,0.00353156
36,4.52466,0.022698,0.999992,0.00400758
36.1,4.648,0.0235678,0.99999,0.00451039
36.2,4.77125,0.0245359,0.999987,0.00504132
36.3,4.89441,0.0256077,0.999984,0.00560182
36.4,-4.9825,0.0267889,0.999981,0.00619283
36.5,-4.85948,0.0280852,0.999977,0.00681523
36.6,-4.73651,0.0295025,0.999972,0.00746903
36.7,-4.61358,0.0310467,0.999967,0.0081539
36.8,-4.49068,0.0327232,0.999961,0.00886856
36.9,-4.36779,0.0345373,0.999954,0.00961051
37,-4.24488,0.0364936,0.999946,0.010376
37.1,-4.12196,0.0385955,0.999938,0.0111594
37.2,-3.99898,0.0408454,0.999929,0.0119532
37.3,-3.87594,0.0432436,0.999919,0.0127476
37.4,-3.7528,0.0457883,0.999908,0.01353
37.5,-3.62955,0.0484751,0.999898,0.0142856
37.6,-3.50617,0.0512963,0.999888,0.0149971
37.7,-3.38262,0.0542405,0.999878,0.015645
37.8,-3.25888,0.0572928,0.999869,0.0162087
37.9,-3.13494,0.060434,0.999861,0.0166674
38,-3.01091,0.0636043,0.999859,0.0168155
38.1,-2.88689,0.0667747,0.999859,0.0168155
38.2,-2.76286,0.069945,0.999859,0.0168154
38.3,-2.63884,0.0731153,0.999859,0.0168154
38.4,-2.51481,0.0762856,0.999859,0.0168154
38.5,-2.39078,0.0794559,0.999859,0.0168154
38.6,-2.26676,0.0826262,0.999859,0.0168153
38.7,-2.14273,0.0857965,0.999859,0.0168153
38.8,-2.01871,0.0889668,0.999859,0.0168153
38.9,-1.89468,0.0921371,0.999859,0.0168152
39,-1.77065,0.0953074,0.999859,0.0168152
39.1,-1.64663,0.0984777,0.999859,0.0168152
39.2,-1.5226,0.101648,0.999859,0.0168152
39.3,-1.39858,0.104818,0.999859,0.0168151
39.4,-1.27455,0.107989,0.999859,0.0168151
39.5,-1.15052,0.111159,0.999859,0.0168151
39.6,-1.0265,0.114329,0.999859,0.016815
39.7,-0.902471,0.117499,0.999859,0.016815
39.8,-0.778445,0.12067,0.999859,0.016815
39.9,-0.654419,0.12384,0.999859,0.016815
40,-0.530393,0.12701,0.999859,0.016815
40.1,-0.406367,0.130181,0.999859,0.0168149
40.2,-0.282341,0.133351,0.999859,0.0168149
40.3,-0.158315,0.136521,0.999859,0.0168149
40.4,-0.0342887,0.139692,0.999859,0.0168149
40.5,0.0897374,0.142862,0.999859,0.0168148
40.6,0.213763,0.146032,0.999859,0.0168148
40.7,0.337789,0.149202,0.999859,0.0168148
40.8,0.461816,0.152373,0.999859,0.0168147
40.9,0.585842,0.155543,0.999859,0.0168147
41,0.709868,0.158713,0.999859,0.0168147
41.1,0.833894,0.161884,0.999859,0.0168147
41.2,0.95792,0.165054,0.999859,0.0168146
41.3,1.08195,0.168224,0.999859,0.0168146
41.4,1.20597,0.171394,0.999859,0.0168146
41.5,1.33,0.174565,0.999859,0.0168146
41.6,1.45402,0.177735,0.999859,0.0168145
41.7,1.57805,0.180905,0.999859,0.0168145
41.8,1.70208,0.184075,0.999859,0.0168145
41.9,1.8261,0.187246,0.999859,0.0168144
42,1.95013,0.190416,0.999859,0.0168144
42.1,2.07415,0.193586,0.999859,0.0168144
42.2,2.19818,0.196757,0.999859,0.0168144
42.3,2.32221,0.199927,0.999859,0.0168144
42.4,2.44623,0.203097,0.999859,0.0168144
42.5,2.57026,0.206267,0.999859,0.0168145
42.6,2.69428,0.209438,0.999859,0.0168144
42.7,2.81831,0.212608,0.999859,0.0168144
42.8,2.94234,0.215778,0.999859,0.0168141
42.9,3.06668,0.218564,0.999891,0.0147311
43,3.19107,0.221279,0.999897,0.0143481
43.1,3.31573,0.223573,0.999927,0.0120783
43.2,3.44043,0.225782,0.999932,0.0116265
43.3,3.56535,0.227539,0.999958,0.009199
43.4,3.6903,0.2292,0.999962,0.00868861
43.5,3.81532,0.230372,0.999982,0.00607856
43.6,3.94027,0.231431,0.999985,0.00547641
43.7,4.06517,0.231995,0.999996,0.0028434
43.8,4.19,0.232453,0.999997,0.00227493
43.9,4.31482,0.232426,1,-0.000310502
44,4.43957,0.232298,1,-0.000850615
44.1,4.56424,0.232083,0.999999,-0.00131348
44.2,4.68883,0.231838,0.999999,-0.00147485
44.3,4.81333,0.231566,0.999999,-0.00162397
44.4,4.93775,0.231265,0.999998,-0.0017745
44.5,-4.93792,0.230936,0.999998,-0.00192815
44.6,-4.81367,0.230577,0.999998,-0.00208513
44.7,-4.68949,0.230189,0.999997,-0.00224589
44.8,-4.56539,0.22977,0.999997,-0.00241046
44.9,-4.44136,0.22932,0.999997,-0.00257904
45,-4.3174,0.228838,0.999996,-0.00275184
45.1,-4.19352,0.228322,0.999996,-0.00292904
45.2,-4.0697,0.227774,0.999995,-0.00311083
45.3,-3.94594,0.22719,0.999995,-0.00329736
45.4,-3.82224,0.226571,0.999994,-0.00348888
45.5,-3.69861,0.225916,0.999993,-0.00368556
45.6,-3.57503,0.225224,0.999992,-0.00388757
45.7,-3.45151,0.224492,0.999992,-0.00409515
45.8,-3.32804,0.223722,0.999991,-0.00430843
45.9,-3.20462,0.222911,0.99999,-0.00452764
46,-3.08125,0.222058,0.999989,-0.00475291
46.1,-2.95793,0.221162,0.999988,-0.00498442
46.2,-2.83464,0.220222,0.999986,-0.00522233
46.3,-2.7114,0.219237,0.999985,-0.00546676
46.4,-2.5882,0.218206,0.999984,-0.00571782
46.5,-2.46503,0.217127,0.999982,-0.00597563
46.6,-2.34189,0.215999,0.999981,-0.00624024
46.7,-2.21878,0.214821,0.999979,-0.00651166
46.8,-2.0957,0.213591,0.999977,-0.00678991
46.9,-1.97264,0.212308,0.999975,-0.00707494
47,-1.8496,0.210972,0.999973,-0.00736666
47.1,-1.72657,0.20958,0.999971,-0.00766495
47.2,-1.60356,0.208131,0.999968,-0.00796957
47.3,-1.48056,0.206625,0.999966,-0.00828025
47.4,-1.35756,0.205061,0.999963,-0.00859659
47.5,-1.23456,0.203436,0.99996,-0.00891826
47.6,-1.11157,0.201751,0.999957,-0.00924465
47.7,-0.98856,0.200005,0.999954,-0.0095752
47.8,-0.865544,0.198196,0.999951,-0.0099091
47.9,-0.742513,0.196325,0.999947,-0.0102456
48,-0.619462,0.194391,0.999944,-0.0105835
48.1,-0.496386,0.192394,0.99994,-0.010922
48.2,-0.373281,0.190333,0.999937,-0.0112597
48.3,-0.250142,0.18821,0.999933,-0.0115952
48.4,-0.126963,0.186025,0.999929,-0.0119272
48.5,-0.00374117,0.183779,0.999925,-0.0122539
48.6,0.11953,0.181472,0.999921,-0.0125736
48.7,0.242855,0.179107,0.999917,-0.0128844
48.8,0.366239,0.176686,0.999913,-0.0131845
48.9,0.489686,0.17421,0.999909,-0.0134717
49,0.613202,0.171682,0.999906,-0.0137439
49.1,0.736781,0.169112,0.999902,-0.0139668
49.2,0.86036,0.166542,0.999902,-0.0139668
49.3,0.983939,0.163972,0.999902,-0.0139668
49.4,1.10752,0.161402,0.999902,-0.0139667
49.5,1.2311,0.158832,0.999902,-0.0139667
49.6,1.35468,0.156263,0.999902,-0.0139667
49.7,1.47826,0.153693,0.999902,-0.0139666
49.8,1.60183,0.151123,0.999902,-0.0139666
49.9,1.72541,0.148553,0.999902,-0.0139666
50,1.84899,0.145983,0.999902,-0.0139666
50.1,1.97257,0.143413,0.999902,-0.0139665
50.2,2.09614,0.14085,0.999903,-0.0139292
50.3,2.21969,0.138298,0.999904,-0.0138749
50.4,2.34323,0.135756,0.999905,-0.0138169
50.5,2.46675,0.133226,0.999905,-0.0137584
50.6,2.59025,0.130707,0.999906,-0.0137
50.7,2.71374,0.128199,0.999907,-0.013642
50.8,2.83721,0.125696,0.999907,-0.0136152
50.9,2.96068,0.123191,0.999907,-0.0136243
51,3.08415,0.120681,0.999907,-0.0136517
51.1,3.20763,0.118164,0.999906,-0.0136879
51.2,3.33111,0.11564,0.999906,-0.0137281
51.3,3.45459,0.113108,0.999905,-0.01377
51.4,3.57808,0.110568,0.999905,-0.0138122
51.5,3.70158,0.10802,0.999904,-0.0138541
51.6,3.82507,0.105465,0.999903,-0.0138954
51.7,3.94857,0.102902,0.999903,-0.0139358
51.8,4.07207,0.100331,0.999902,-0.0139753
51.9,4.19558,0.0977536,0.999902,-0.0140137
52,4.31908,0.0951689,0.999901,-0.0140512
52.1,4.44259,0.0925774,0.999901,-0.0140876
52.2,4.5661,0.0899794,0.9999,-0.0141229
52.3,4.6896,0.0873749,0.9999,-0.014157
52.4,4.81311,0.0847643,0.999899,-0.0141901
52.5,4.93662,0.0821478,0.999899,-0.0142221
52.6,-4.93988,0.0795255,0.999898,-0.0142529
52.7,-4.81637,0.0768977,0.999898,-0.0142831
52.8,-4.69314,0.0745037,0.999915,-0.0130453
52.9,-4.57001,0.0722204,0.999922,-0.012458
53,-4.44694,0.0699758,0.999925,-0.0122526
53.1,-4.32388,0.0677481,0.999926,-0.0121631
53.2,-4.20085,0.0655337,0.999927,-0.0120931
53.3,-4.07784,0.0633289,0.999927,-0.0120425
53.4,-3.95485,0.0611346,0.999928,-0.0119872
53.5,-3.83187,0.0589479,0.999929,-0.011947
53.6,-3.7089,0.05677,0.999929,-0.0119008
53.7,-3.58595,0.0545973,0.999929,-0.0118734
53.8,-3.46301,0.0524225,0.999929,-0.011885
53.9,-3.34006,0.0502325,0.999928,-0.0119669
54,-3.2171,0.0480244,0.999927,-0.0120636
54.1,-3.09413,0.0458027,0.999926,-0.0121365
54.2,-2.97117,0.0435693,0.999926,-0.0121994
54.3,-2.8482,0.0413251,0.999925,-0.0122574
54.4,-2.72522,0.0390703,0.999924,-0.0123138
54.5,-2.60224,0.0368052,0.999923,-0.0123697
54.6,-2.47926,0.0345297,0.999923,-0.0124253
54.7,-2.35628,0.0322438,0.999922,-0.0124807
54.8,-2.23329,0.0299477,0.999921,-0.0125358
54.9,-2.1103,0.0276413,0.999921,-0.0125908
55,-1.98731,0.0253247,0.99992,-0.0126455
55.1,-1.86431,0.0229979,0.999919,-0.0127001
55.2,-1.7413,0.0206609,0.999919,-0.0127544
55.3,-1.61829,0.0183138,0.999918,-0.0128086
55.4,-1.49528,0.0159567,0.999917,-0.0128626
55.5,-1.37226,0.0135895,0.999917,-0.0129163
55.6,-1.24923,0.0112122,0.999916,-0.0129699
55.7,-1.1262,0.00882499,0.999915,-0.0130233
55.8,-1.00317,0.0064278,0.999914,-0.0130765
55.9,-0.880124,0.00402067,0.999914,-0.0131296
56,-0.757076,0.00160364,0.999913,-0.0131824
56.1,-0.634022,-0.000823252,0.999913,-0.0132351
56.2,-0.510961,-0.00325998,0.999912,-0.0132875
56.3,-0.387893,-0.00570652,0.999911,-0.0133399
56.4,-0.264818,-0.00816283,0.99991,-0.013392
56.5,-0.141737,-0.0106289,0.99991,-0.0134439
56.6,-0.0186477,-0.0131047,0.999909,-0.0134957
56.7,0.104449,-0.0155901,0.999908,-0.0135472
56.8,0.227553,-0.0180852,0.999907,-0.0135986
56.9,0.350665,-0.02059,0.999907,-0.0136498
57,0.473785,-0.0231043,0.999906,-0.0137008
57.1,0.596913,-0.0256282,0.999905,-0.0137516
57.2,0.72005,-0.0281616,0.999905,-0.0138022
57.3,0.843195,-0.0307044,0.999904,-0.0138526
57.4,0.96635,-0.0332568,0.999903,-0.0139028
57.5,1.08951,-0.0358186,0.999903,-0.0139528
57.6,1.21269,-0.0383897,0.999902,-0.0140026
57.7,1.33587,-0.0409702,0.999901,-0.0140522
57.8,1.45906,-0.0435601,0.999901,-0.0141016
57.9,1.58226,-0.0461592,0.9999,-0.0141507
58,1.70547,-0.0487675,0.999899,-0.0141997
58.1,1.82869,-0.0513851,0.999898,-0.0142484
58.2,1.95192,-0.0540118,0.999898,-0.0142969
58.3,2.07517,-0.0566476,0.999897,-0.0143451
58.4,2.19842,-0.0592926,0.999896,-0.0143931
58.5,2.32168,-0.0619465,0.999896,-0.0144409
58.6,2.44496,-0.0646095,0.999895,-0.0144883
58.7,2.56825,-0.0672814,0.999894,-0.0145356
58.8,2.69154,-0.0699622,0.999894,-0.0145825
58.9,2.81485,-0.0726519,0.999893,-0.0146292
59,2.93817,-0.0753441,0.999893,-0.0146427
59.1,3.06148,-0.0780363,0.999893,-0.0146426
59.2,3.18479,-0.0807285,0.999893,-0.0146426
59.3,3.30811,-0.0834208,0.999893,-0.0146425
59.4,3.43142,-0.086113,0.999893,-0.0146425
59.5,3.55473,-0.0888052,0.999893,-0.0146425
59.6,3.67805,-0.0914974,0.999893,-0.0146424
59.7,3.80136,-0.0941896,0.999893,-0.0146424
59.8,3.92467,-0.0968818,0.999893,-0.0146424
59.9,4.04799,-0.099574,0.999893,-0.0146424
60,4.1713,-0.102266,0.999893,-0.0146424
60.1,4.29462,-0.104958,0.999893,-0.0146423
60.2,4.41793,-0.107651,0.999893,-0.0146423
60.3,4.54124,-0.110343,0.999893,-0.0146422
60.4,4.66456,-0.113035,0.999893,-0.0146422
60.5,4.78787,-0.115727,0.999893,-0.0146421
60.6,4.91118,-0.118419,0.999893,-0.0146422
60.7,-4.9655,-0.121112,0.999893,-0.0146422
60.8,-4.84023,-0.121173,1,-0.000492311
60.9,-4.71729,-0.124456,0.999841,-0.0178515
61,-4.59368,-0.126892,0.999912,-0.0132469
61.1,-4.47013,-0.129507,0.999899,-0.0142087
61.2,-4.34648,-0.132039,0.999905,-0.0137528
61.3,-4.22276,-0.134549,0.999907,-0.0136366
61.4,-4.09897,-0.13702,0.99991,-0.0134163
61.5,-3.9751,-0.139452,0.999913,-0.0132058
61.6,-3.85116,-0.141843,0.999916,-0.0129744
61.7,-3.72714,-0.144188,0.999919,-0.0127305
61.8,-3.60305,-0.146487,0.999922,-0.0124726
61.9,-3.47889,-0.148735,0.999926,-0.0121998
62,-3.35466,-0.15093,0.999929,-0.011913
62.1,-3.23036,-0.153071,0.999933,-0.0116124
62.2,-3.106,-0.155153,0.999936,-0.0112976
62.3,-2.98156,-0.157174,0.99994,-0.0109693
62.4,-2.85707,-0.159132,0.999944,-0.0106268
62.5,-2.73251,-0.161024,0.999947,-0.0102714
62.6,-2.60789,-0.162848,0.999951,-0.00990265
62.7,-2.48321,-0.164601,0.999955,-0.00952086
62.8,-2.35847,-0.16628,0.999958,-0.00912675
62.9,-2.23368,-0.167884,0.999962,-0.00872089
63,-2.10884,-0.16941,0.999966,-0.00830292
63.1,-1.98395,-0.170856,0.999969,-0.00787402
63.2,-1.85901,-0.172219,0.999972,-0.00743409
63.3,-1.73402,-0.173499,0.999976,-0.00698455
63.4,-1.609,-0.174693,0.999979,-0.00652455
63.5,-1.48393,-0.175799,0.999982,-0.00605697
63.6,-1.35884,-0.176816,0.999985,-0.00557941
63.7,-1.2337,-0.177742,0.999987,-0.00509519
63.8,-1.10854,-0.178576,0.999989,-0.00460352
63.9,-0.983355,-0.179316,0.999992,-0.00410618
64,-0.858145,-0.179962,0.999994,-0.00360222
64.1,-0.732916,-0.180513,0.999995,-0.00309465
64.2,-0.607671,-0.180967,0.999997,-0.00258232
64.3,-0.482413,-0.181325,0.999998,-0.0020669
64.4,-0.357147,-0.181585,0.999999,-0.00154904
64.5,-0.231875,-0.18176,0.999999,-0.00109602
64.6,-0.106601,-0.181864,1,-0.000713498
64.7,0.0186728,-0.181925,1,-0.000490667
64.8,0.143947,-0.181987,1,-0.000490667
64.9,0.269221,-0.182048,1,-0.000490667
65,0.394495,-0.182109,1,-0.000490666
65.1,0.519768,-0.182171,1,-0.000490667
65.2,0.645042,-0.182232,1,-0.000490667
65.3,0.770316,-0.182294,1,-0.000490667
65.4,0.89559,-0.182355,1,-0.000490667
65.5,1.02086,-0.182417,1,-0.000490666
65.6,1.14614,-0.182478,1,-0.000490666
65.7,1.27141,-0.18254,1,-0.000490667
65.8,1.39669,-0.182601,1,-0.000490667
65.9,1.52196,-0.182663,1,-0.000490667
66,1.64723,-0.182724,1,-0.000490667
66.1,1.77251,-0.182786,1,-0.000490667
66.2,1.89778,-0.182847,1,-0.000490667
66.3,2.02306,-0.182909,1,-0.000490666
66.4,2.14833,-0.18297,1,-0.000490667
66.5,2.2736,-0.183031,1,-0.000490667
66.6,2.39888,-0.183093,1,-0.000490667
66.7,2.52415,-0.183154,1,-0.000490667
66.8,2.64943,-0.183216,1,-0.000490666
66.9,2.7747,-0.183277,1,-0.000490666
67,2.89997,-0.183339,1,-0.000490667
67.1,3.02525,-0.1834,1,-0.000490667
67.2,3.15052,-0.183462,1,-0.000490666
67.3,3.2758,-0.183523,1,-0.000490667
67.4,3.40107,-0.183585,1,-0.000490667
67.5,3.52634,-0.183646,1,-0.000490667
67.6,3.65162,-0.183708,1,-0.000490667
67.7,3.77689,-0.183769,1,-0.000490667
67.8,3.90216,-0.183831,1,-0.000490667
67.9,4.02744,-0.183892,1,-0.000490667
68,4.15271,-0.183953,1,-0.000490667
68.1,4.27799,-0.184015,1,-0.000490666
68.2,4.40326,-0.184076,1,-0.000490666
68.3,4.52853,-0.184138,1,-0.000490667
68.4,4.65381,-0.184199,1,-0.000490667
68.5,4.77908,-0.184261,1,-0.000490666
68.6,4.90435,-0.184322,1,-0.000490666
68.7,-4.97037,-0.184384,1,-0.000490667
68.8,-4.8451,-0.184445,1,-0.000490568
68.9,-4.71982,-0.184507,1,-0.000490568
69,-4.59455,-0.184568,1,-0.000490568
69.1,-4.46928,-0.18463,1,-0.000490568
69.2,-4.344,-0.184691,1,-0.000490568
69.3,-4.21873,-0.184752,1,-0.000490568
69.4,-4.09346,-0.184814,1,-0.000490568
69.5,-3.96818,-0.184875,1,-0.000490568
69.6,-3.84291,-0.184937,1,-0.000490568
69.7,-3.71763,-0.184998,1,-0.000490568
69.8,-3.59236,-0.18506,1,-0.000490568
69.9,-3.46709,-0.185121,1,-0.000490568
70,-3.34181,-0.185183,1,-0.000490568
70.1,-3.21654,-0.185244,1,-0.000490568
70.2,-3.09126,-0.185306,1,-0.000490568
70.3,-2.96599,-0.185367,1,-0.000490568
70.4,-2.84072,-0.185428,1,-0.000490568
70.5,-2.71544,-0.18549,1,-0.000490568
70.6,-2.59017,-0.185551,1,-0.000490568
70.7,-2.46489,-0.185613,1,-0.000490568
70.8,-2.33962,-0.185674,1,-0.000490568
70.9,-2.21435,-0.185736,1,-0.000490568
71,-2.08907,-0.185797,1,-0.000490568
71.1,-1.9638,-0.185859,1,-0.000490568
71.2,-1.83852,-0.18592,1,-0.000490568
71.3,-1.71325,-0.185981,1,-0.000490568
71.4,-1.58798,-0.186043,1,-0.000490568
71.5,-1.4627,-0.186104,1,-0.000490568
71.6,-1.33743,-0.186166,1,-0.000490568
71.7,-1.21216,-0.186227,1,-0.000490568
71.8,-1.08688,-0.186289,1,-0.000490568
71.9,-0.961607,-0.18635,1,-0.000490568
72,-0.836333,-0.186412,1,-0.000490568
72.1,-0.711059,-0.186473,1,-0.000490568
72.2,-0.585785,-0.186535,1,-0.000490568
72.3,-0.460511,-0.186596,1,-0.000490568
72.4,-0.335238,-0.186657,1,-0.000490568
72.5,-0.209964,-0.186719,1,-0.000490568
72.6,-0.0846896,-0.18678,1,-0.000490568
72.7,0.0405843,-0.186842,1,-0.000490568
72.8,0.165858,-0.186903,1,-0.000490568
72.9,0.291132,-0.186965,1,-0.000490568
73,0.416406,-0.187026,1,-0.000490568
73.1,0.54168,-0.187088,1,-0.000490568
73.2,0.666954,-0.187149,1,-0.000490568
73.3,0.792228,-0.187211,1,-0.000490568
73.4,0.917502,-0.187272,1,-0.000490568
73.5,1.04278,-0.187333,1,-0.000490568
73.6,1.16805,-0.187395,1,-0.000490568
73.7,1.29332,-0.187456,1,-0.000490568
73.8,1.4186,-0.187518,1,-0.000490568
73.9,1.54387,-0.187579,1,-0.000490568
74,1.66915,-0.187641,1,-0.000490568
74.1,1.79442,-0.187702,1,-0.000490568
74.2,1.91969,-0.187764,1,-0.000490568
74.3,2.04497,-0.187825,1,-0.000490568
74.4,2.17024,-0.187887,1,-0.000490568
74.5,2.29552,-0.187948,1,-0.000490568
74.6,2.42079,-0.188009,1,-0.000490568
74.7,2.54606,-0.188071,1,-0.000490568
74.8,2.67134,-0.188132,1,-0.000490568
74.9,2.79661,-0.188194,1,-0.000490568
75,2.92188,-0.188255,1,-0.000490568
75.1,3.04716,-0.188317,1,-0.000490568
75.2,3.17243,-0.188378,1,-0.000490568
75.3,3.29771,-0.18844,1,-0.000490568
75.4,3.42298,-0.188501,1,-0.000490568
75.5,3.54825,-0.188562,1,-0.000490568
75.6,3.67353,-0.188624,1,-0.000490568
75.7,3.7988,-0.188685,1,-0.000490568
75.8,3.92408,-0.188747,1,-0.000490568
75.9,4.04935,-0.188808,1,-0.000490568
76,4.17462,-0.18887,1,-0.000490568
76.1,4.2999,-0.188931,1,-0.000490568
76.2,4.42517,-0.188993,1,-0.000490568
76.3,4.55045,-0.189054,1,-0.000490568
76.4,4.67572,-0.189116,1,-0.000490568
76.5,4.80099,-0.189177,1,-0.000490568
76.6,4.92627,-0.189238,1,-0.000490568
76.7,-4.94846,-0.1893,1,-0.000490568
76.8,-4.82319,-0.189361,1,-0.00049047
76.9,-4.69791,-0.189423,1,-0.00049047
77,-4.57264,-0.189484,1,-0.00049047
77.1,-4.44737,-0.189546,1,-0.00049047
77.2,-4.32209,-0.189607,1,-0.00049047
77.3,-4.19682,-0.189669,1,-0.00049047
77.4,-4.07154,-0.18973,1,-0.00049047
77.5,-3.94627,-0.189791,1,-0.00049047
77.6,-3.821,-0.189853,1,-0.00049047
77.7,-3.69572,-0.189914,1,-0.00049047
77.8,-3.57045,-0.189976,1,-0.00049047
77.9,-3.44517,-0.190037,1,-0.00049047
78,-3.3199,-0.190099,1,-0.00049047
78.1,-3.19463,-0.19016,1,-0.00049047
78.2,-3.06935,-0.190221,1,-0.00049047
78.3,-2.94408,-0.190283,1,-0.00049047
78.4,-2.8188,-0.190344,1,-0.00049047
78.5,-2.69353,-0.190406,1,-0.00049047
78.6,-2.56826,-0.190467,1,-0.00049047
78.7,-2.44298,-0.190529,1,-0.00049047
78.8,-2.31771,-0.19059,1,-0.00049047
78.9,-2.19244,-0.190652,1,-0.00049047
79,-2.06716,-0.190713,1,-0.00049047
79.1,-1.94189,-0.190774,1,-0.00049047
79.2,-1.81661,-0.190836,1,-0.00049047
79.3,-1.69134,-0.190897,1,-0.00049047
79.4,-1.56607,-0.190959,1,-0.00049047
79.5,-1.44079,-0.19102,1,-0.00049047
79.6,-1.31552,-0.191082,1,-0.00049047
79.7,-1.19024,-0.191143,1,-0.00049047
79.8,-1.06497,-0.191204,1,-0.00049047
79.9,-0.939696,-0.191266,1,-0.00049047
80,-0.814422,-0.191327,1,-0.00049047
