0.1,-10.3445,7.73263,0.583596,0.812044
0.2,-0.248047,7.97046,0.59025,0.80722
0.3,-0.172224,8.11135,0.736181,0.676785
0.4,-0.083233,8.20401,0.873749,0.486378
0.5,0.020281,8.25082,0.968168,0.250302
0.6,0.129844,8.29186,0.976785,0.21422
0.7,0.242501,8.32994,0.980556,0.196239
0.8,0.356739,8.36648,0.98234,0.187106
0.9,0.471776,8.40222,0.98322,0.182424
1,0.58725,8.43745,0.983763,0.179474
1.1,0.703146,8.46926,0.986758,0.162198
1.2,0.819165,8.50082,0.986978,0.160858
1.3,0.935247,8.53226,0.987089,0.160171
1.4,1.05136,8.56362,0.987146,0.159819
1.5,1.16749,8.59495,0.987185,0.159582
1.6,1.28369,8.62605,0.987373,0.158415
1.7,1.39995,8.65693,0.987554,0.157278
1.8,1.51626,8.6876,0.98773,0.15617
1.9,1.63263,8.71804,0.987912,0.155015
2,1.74907,8.74825,0.988104,0.153789
2.1,1.86557,8.77822,0.988295,0.152557
2.2,1.982,8.80844,0.988095,0.153844
2.3,2.09843,8.83866,0.988095,0.153844
2.4,2.21493,8.86865,0.988282,0.152636
2.5,2.33151,8.8983,0.988544,0.15093
2.6,2.44818,8.92764,0.988799,0.149253
2.7,2.56494,8.95665,0.989048,0.147596
2.8,2.68178,8.98535,0.989291,0.145957
2.9,2.79871,9.01373,0.989529,0.144333
3,2.91572,9.04181,0.989762,0.142725
3.1,3.03281,9.06957,0.989991,0.141133
3.2,3.14999,9.09704,0.990214,0.139558
3.3,3.26725,9.1242,0.990432,0.138004
3.4,3.38459,9.15107,0.990643,0.136476
3.5,3.50198,9.17805,0.99057,0.137007
3.6,3.61945,9.20493,0.99065,0.136426
3.7,3.73697,9.2317,0.990729,0.13585
3.8,3.85455,9.25836,0.990808,0.135276
3.9,3.97219,9.28491,0.990886,0.134703
4,4.08989,9.31136,0.990964,0.134131
4.1,4.20764,9.3377,0.991041,0.133561
4.2,4.32544,9.36393,0.991117,0.132993
4.3,4.44328,9.39006,0.991193,0.132425
4.4,4.56117,9.41608,0.991269,0.131858
4.5,4.6791,9.44199,0.991344,0.131292
4.6,4.79708,9.46779,0.991418,0.130727
4.7,4.91509,9.49349,0.991493,0.130163
4.8,-4.96687,9.51907,0.991566,0.1296
4.9,-4.84879,9.54455,0.991642,0.129018
5,-4.73067,9.56991,0.991717,0.128444
5.1,-4.61253,9.59517,0.991786,0.127909
5.2,-4.49435,9.62033,0.991855,0.127373
5.3,-4.37615,9.64538,0.991922,0.126849
5.4,-4.25791,9.67034,0.991988,0.126336
5.5,-4.13965,9.6952,0.992051,0.125834
5.6,-4.02137,9.71996,0.992113,0.125345
5.7,-3.90306,9.74464,0.992173,0.124871
5.8,-3.78474,9.76922,0.992229,0.124427
5.9,-3.66637,9.7937,0.992299,0.123868
6,-3.54882,9.81806,0.992307,0.123805
6.1,-3.43082,9.84234,0.992395,0.123094
6.2,-3.31275,9.86653,0.992458,0.122585
6.3,-3.19463,9.89062,0.992517,0.122106
6.4,-3.07647,9.91463,0.992574,0.121642
6.5,-2.95826,9.93856,0.992628,0.121201
6.6,-2.84001,9.9624,0.99268,0.120772
6.7,-2.72173,9.98617,0.992731,0.120353
6.8,-2.6034,10.0099,0.992781,0.119942
6.9,-2.48503,10.0335,0.99283,0.119539
7,-2.36663,10.057,0.992877,0.119148
7.1,-2.24819,10.0805,0.992922,0.118768
7.2,-2.12972,10.1039,0.992966,0.118403
7.3,-2.01121,10.1272,0.993007,0.118053
7.4,-1.89267,10.1505,0.993047,0.11772
7.5,-1.7741,10.1737,0.993084,0.117405
7.6,-1.6555,10.1968,0.993119,0.117111
7.7,-1.53688,10.2199,0.993151,0.116839
7.8,-1.41823,10.243,0.99318,0.116592
7.9,-1.29956,10.266,0.993205,0.116374
8,-1.18087,10.289,0.993227,0.116187
8.1,-1.06216,10.3119,0.993245,0.116036
8.2,-0.943451,10.3349,0.993258,0.115929
8.3,-0.824732,10.3578,0.993264,0.115872
8.4,-0.706013,10.3807,0.993264,0.115877
8.5,-0.587296,10.4037,0.993261,0.115897
8.6,-0.468579,10.4266,0.993261,0.115897
8.7,-0.349862,10.4495,0.993261,0.115897
8.8,-0.231144,10.4724,0.993261,0.115901
8.9,-0.110102,10.4899,0.996161,0.0875412
9,0.0109394,10.5074,0.996161,0.0875395
9.1,0.132924,10.5227,0.997095,0.0761644
9.2,0.255002,10.5377,0.997181,0.0750364
9.3,0.37774,10.5512,0.997745,0.0671245
9.4,0.500495,10.5647,0.997758,0.0669284
9.5,0.623756,10.577,0.998145,0.0608869
9.6,0.750876,10.5802,0.999878,0.0156395
9.7,0.885703,10.5837,0.999868,0.0162696
9.8,1.0449,10.5869,0.999914,0.0130848
9.9,1.19969,10.5868,1,-0.000562668
10,1.35448,10.5867,1,-0.000562668
10.1,1.50926,10.5866,1,-0.000562668
10.2,1.66405,10.5865,1,-0.000562668
10.3,1.81883,10.5864,1,-0.000562668
10.4,1.97362,10.5863,1,-0.000562668
10.5,2.12841,10.5863,1,-0.000562668
10.6,2.28319,10.5862,1,-0.000562668
10.7,2.43798,10.5861,1,-0.000562668
10.8,2.59277,10.586,1,-0.000562668
10.9,2.74755,10.5859,1,-0.000562668
11,2.90234,10.5858,1,-0.000562668
11.1,3.05712,10.5857,1,-0.000562668
11.2,3.21191,10.5856,1,-0.000562668
11.3,3.3667,10.5856,1,-0.000562668
11.4,3.52148,10.5855,1,-0.000562668
11.5,3.67627,10.5854,1,-0.000562668
11.6,3.83105,10.5853,1,-0.000562668
11.7,3.98584,10.5852,1,-0.000562668
11.8,4.14063,10.5851,1,-0.000562668
11.9,4.29541,10.585,1,-0.000562668
12,4.4502,10.585,1,-0.000562668
12.1,4.60499,10.5849,1,-0.000562665
12.2,4.75977,10.5848,1,-0.00056266
12.3,4.91456,10.5847,1,-0.000562668
12.4,-4.93066,10.5846,1,-0.000562668
12.5,-4.77587,10.5845,1,-0.000562556
12.6,-4.62108,10.5844,1,-0.000562556
12.7,-4.4663,10.5843,1,-0.000562556
12.8,-4.31151,10.5843,1,-0.000562556
12.9,-4.15673,10.5842,1,-0.000562556
13,-4.00194,10.5841,1,-0.000562556
13.1,-3.84715,10.584,1,-0.000562556
13.2,-3.69237,10.5839,1,-0.000562556
13.3,-3.53758,10.5838,1,-0.000562556
13.4,-3.3828,10.5837,1,-0.000562556
13.5,-3.22801,10.5836,1,-0.000562556
13.6,-3.07322,10.5836,1,-0.000562556
13.7,-2.91844,10.5835,1,-0.000562556
13.8,-2.76365,10.5834,1,-0.000562556
13.9,-2.60886,10.5833,1,-0.000562556
14,-2.45408,10.5832,1,-0.000562556
14.1,-2.29929,10.5831,1,-0.000562556
14.2,-2.14451,10.583,1,-0.000562556
14.3,-1.98972,10.583,1,-0.000562556
14.4,-1.83493,10.5829,1,-0.000562556
14.5,-1.68015,10.5828,1,-0.000562556
14.6,-1.52536,10.5827,1,-0.000562556
14.7,-1.37058,10.5826,1,-0.000562556
14.8,-1.21579,10.5825,1,-0.000562556
14.9,-1.061,10.5824,1,-0.000562556
15,-0.906217,10.5823,1,-0.000562556
15.1,-0.75143,10.5823,1,-0.000562556
15.2,-0.596644,10.5822,1,-0.000562556
15.3,-0.441858,10.5821,1,-0.000562556
15.4,-0.287072,10.582,1,-0.000562556
15.5,-0.132285,10.5819,1,-0.000562556
15.6,0.0225007,10.5818,1,-0.000562556
15.7,0.177287,10.5817,1,-0.000562556
15.8,0.332073,10.5817,1,-0.000562556
15.9,0.486859,10.5816,1,-0.000562556
16,0.641646,10.5815,1,-0.000562556
16.1,0.796432,10.5814,1,-0.000562556
16.2,0.951218,10.5813,1,-0.000562556
16.3,1.106,10.5812,1,-0.000562556
16.4,1.26079,10.5811,1,-0.000562556
16.5,1.41558,10.581,1,-0.000562556
16.6,1.57036,10.581,1,-0.000562556
16.7,1.72515,10.5809,1,-0.000562556
16.8,1.87994,10.5808,1,-0.000562556
16.9,2.03472,10.5807,1,-0.000562556
17,2.18951,10.5806,1,-0.000562556
17.1,2.34429,10.5805,1,-0.000562556
17.2,2.49908,10.5804,1,-0.000562556
17.3,2.65387,10.5804,1,-0.000562556
17.4,2.80865,10.5803,1,-0.000562556
17.5,2.96344,10.5802,1,-0.000562556
17.6,3.11822,10.5801,1,-0.000562556
17.7,3.27301,10.58,1,-0.000562556
17.8,3.4278,10.5799,1,-0.000562556
17.9,3.58258,10.5798,1,-0.000562556
18,3.73737,10.5797,1,-0.000562556
18.1,3.89215,10.5797,1,-0.000562556
18.2,4.04694,10.5796,1,-0.000562556
18.3,4.20173,10.5795,1,-0.000562556
18.4,4.35651,10.5794,1,-0.000562556
18.5,4.5113,10.5793,1,-0.000562556
18.6,4.66609,10.5792,1,-0.000562556
18.7,4.82087,10.5791,1,-0.000562556
18.8,4.97566,10.5791,1,-0.000562556
18.9,-4.86956,10.579,1,-0.000562556
19,-4.71477,10.5789,1,-0.000562443
19.1,-4.55998,10.5788,1,-0.000562443
19.2,-4.4052,10.5787,1,-0.000562444
19.3,-4.25041,10.5786,1,-0.000562443
19.4,-4.09563,10.5785,1,-0.000562443
19.5,-3.94084,10.5784,1,-0.000562444
19.6,-3.78605,10.5784,1,-0.000562444
19.7,-3.63127,10.5783,1,-0.000562444
19.8,-3.47648,10.5782,1,-0.000562443
19.9,-3.32169,10.5781,1,-0.000562444
20,-3.16691,10.578,1,-0.000562444
20.1,-3.01212,10.5779,1,-0.000562444
20.2,-2.85734,10.5778,1,-0.000562444
20.3,-2.70255,10.5777,1,-0.000562444
20.4,-2.54776,10.5777,1,-0.000562444
20.5,-2.39298,10.5776,1,-0.000562444
20.6,-2.23819,10.5775,1,-0.000562444
20.7,-2.08341,10.5774,1,-0.000562444
20.8,-1.92862,10.5773,1,-0.000562444
20.9,-1.77383,10.5772,1,-0.000562444
21,-1.61905,10.5771,1,-0.000562444
21.1,-1.46426,10.5771,1,-0.000562444
21.2,-1.30947,10.577,1,-0.000562444
21.3,-1.15469,10.5769,1,-0.000562444
21.4,-0.999902,10.5768,1,-0.000562444
21.5,-0.845116,10.5767,1,-0.000562444
21.6,-0.69033,10.5766,1,-0.000562444
21.7,-0.535544,10.5765,1,-0.000562444
21.8,-0.380757,10.5764,1,-0.000562444
21.9,-0.225971,10.5764,1,-0.000562444
22,-0.071185,10.5763,1,-0.000562444
22.1,0.0836012,10.5762,1,-0.000562444
22.2,0.238387,10.5761,1,-0.000562444
22.3,0.393174,10.576,1,-0.000562444
22.4,0.54796,10.5759,1,-0.000562444
22.5,0.702746,10.5758,1,-0.000562444
22.6,0.857532,10.5758,1,-0.000562444
22.7,1.01232,10.5757,1,-0.000562444
22.8,1.1671,10.5756,1,-0.000562444
22.9,1.32189,10.5755,1,-0.000562444
23,1.47668,10.5754,1,-0.000562444
23.1,1.63146,10.5753,1,-0.000562444
23.2,1.78625,10.5752,1,-0.000562444
23.3,1.94104,10.5751,1,-0.000562444
23.4,2.09582,10.5751,1,-0.000562444
23.5,2.25061,10.575,1,-0.000562444
23.6,2.40539,10.5749,1,-0.000562444
23.7,2.56018,10.5748,1,-0.000562444
23.8,2.71497,10.5747,1,-0.000562444
23.9,2.86975,10.5746,1,-0.000562444
24,3.02454,10.5745,1,-0.000562444
24.1,3.17932,10.5745,1,-0.000562444
24.2,3.33411,10.5744,1,-0.000562444
24.3,3.4889,10.5743,1,-0.000562444
24.4,3.64368,10.5742,1,-0.000562444
24.5,3.79847,10.5741,1,-0.000562444
24.6,3.95326,10.574,1,-0.000562444
24.7,4.10804,10.5739,1,-0.000562444
24.8,4.26283,10.5738,1,-0.000562444
24.9,4.41761,10.5738,1,-0.000562444
25,4.5724,10.5737,1,-0.000562444
25.1,4.72719,10.5736,1,-0.000562444
25.2,4.88197,10.5735,1,-0.000562444
25.3,-4.96324,10.5734,1,-0.000562444
25.4,-4.80846,10.5733,1,-0.000562331
25.5,-4.65367,10.5732,1,-0.000562331
25.6,-4.49888,10.5731,1,-0.000562331
25.7,-4.3441,10.5731,1,-0.000562331
25.8,-4.18931,10.573,1,-0.000562331
25.9,-4.03452,10.5729,1,-0.000562331
26,-3.87974,10.5728,1,-0.000562331
26.1,-3.72495,10.5727,1,-0.000562331
26.2,-3.57017,10.5726,1,-0.000562331
26.3,-3.41538,10.5725,1,-0.000562331
26.4,-3.26059,10.5725,1,-0.000562331
26.5,-3.10581,10.5724,1,-0.000562331
26.6,-2.95102,10.5723,1,-0.000562331
26.7,-2.79624,10.5722,1,-0.000562331
26.8,-2.64146,10.5721,1,-0.000423679
26.9,-2.48674,10.5722,1,7.66592e-05
27,-2.33204,10.5724,1,0.000501309
27.1,-2.17737,10.5726,1,0.0008332
27.2,-2.0227,10.5729,0.999999,0.00106361
27.3,-1.86803,10.5732,0.999999,0.00118523
27.4,-1.71335,10.5735,0.999999,0.00119309
27.5,-1.55865,10.5738,0.999999,0.00108012
27.6,-1.40393,10.5741,1,0.000871041
27.7,-1.24918,10.5742,1,0.000569432
27.8,-1.09442,10.5743,1,0.000161445
27.9,-0.939636,10.5743,1,-0.000371574
28,-0.78485,10.5742,1,-0.000562394
28.1,-0.630064,10.5741,1,-0.000562394
28.2,-0.475277,10.574,1,-0.000562394
28.3,-0.320491,10.5739,1,-0.000562394
28.4,-0.165705,10.5738,1,-0.000562394
28.5,-0.0109186,10.5738,1,-0.000562394
28.6,0.143868,10.5737,1,-0.000562394
28.7,0.298654,10.5736,1,-0.000562394
28.8,0.45344,10.5735,1,-0.000562394
28.9,0.608226,10.5734,1,-0.000562394
29,0.763012,10.5733,1,-0.000562394
29.1,0.917799,10.5732,1,-0.000562394
29.2,1.07258,10.5732,1,-0.000562394
29.3,1.22737,10.5731,1,-0.000562394
29.4,1.38216,10.573,1,-0.000562394
29.5,1.53694,10.5729,1,-0.000562394
29.6,1.69173,10.5728,1,-0.000562394
29.7,1.84652,10.5727,1,-0.000562394
29.8,2.0013,10.5726,1,-0.000562394
29.9,2.15609,10.5725,1,-0.000562394
30,2.31087,10.5725,1,-0.000562394
30.1,2.46566,10.5724,1,-0.000562394
30.2,2.62045,10.5723,1,-0.000562394
30.3,2.77523,10.5722,1,-0.000562394
30.4,2.93015,10.5719,0.999999,-0.00149532
30.5,3.08526,10.5714,0.999997,-0.0025064
30.6,3.24045,10.5707,0.999995,-0.00316319
30.7,3.39572,10.5698,0.999993,-0.00369415
30.8,3.55102,10.5689,0.999992,-0.00409348
30.9,3.70636,10.5679,0.99999,-0.00443116
31,3.86171,10.5669,0.999989,-0.00469008
31.1,4.01707,10.5658,0.999988,-0.00490781
31.2,4.17242,10.5647,0.999987,-0.00506982
31.3,4.32777,10.5635,0.999986,-0.00520133
31.4,4.4831,10.5623,0.999986,-0.00528872
31.5,4.63841,10.5611,0.999986,-0.00535013
31.6,4.7937,10.5599,0.999986,-0.00537648
31.7,4.94897,10.5587,0.999986,-0.00537774
31.8,-4.89579,10.5575,0.999986,-0.00537218
31.9,-4.74056,10.5563,0.999986,-0.00536967
32,-4.58534,10.5551,0.999986,-0.00536516
32.1,-4.43013,10.5539,0.999986,-0.00536348
32.2,-4.27494,10.5527,0.999986,-0.00535962
32.3,-4.11976,10.5515,0.999986,-0.00535825
32.4,-3.96459,10.5503,0.999986,-0.00535475
32.5,-3.80943,10.5491,0.999986,-0.00535347
32.6,-3.65428,10.5479,0.999986,-0.00535048
32.7,-3.49914,10.5467,0.999986,-0.00534921
32.8,-3.34401,10.5455,0.999986,-0.00534639
32.9,-3.18888,10.5443,0.999986,-0.00534496
33,-3.03377,10.5431,0.999986,-0.00534379
33.1,-2.87904,10.5419,0.999986,-0.00525257
33.2,-2.72277,10.5415,0.999999,-0.00173071
33.3,-2.56687,10.5414,1,-0.000758689
33.4,-2.41101,10.5416,1,0.000876104
33.5,-2.25523,10.5421,0.999999,0.00164368
33.6,-2.09951,10.5425,0.999999,0.00150153
33.7,-1.94379,10.5429,0.999999,0.00150192
33.8,-1.78807,10.5432,0.999999,0.0014706
33.9,-1.63237,10.5436,0.999999,0.00144931
34,-1.47667,10.544,0.999999,0.00142677
34.1,-1.32098,10.5444,0.999999,0.00140672
34.2,-1.1653,10.5447,0.999999,0.00138731
34.3,-1.00962,10.5451,0.999999,0.00136882
34.4,-0.853953,10.5455,0.999999,0.00135221
34.5,-0.69829,10.5458,0.999999,0.00133673
34.6,-0.542633,10.5462,0.999999,0.00132236
34.7,-0.386981,10.5465,0.999999,0.0013087
34.8,-0.231394,10.5468,0.999999,0.00117183
34.9,-0.0759935,10.5471,1,0.00076572
35,0.0794137,10.5473,1,0.000778152
35.1,0.234834,10.5475,1,0.000801747
35.2,0.390281,10.5477,1,0.000852138
35.3,0.545781,10.548,1,0.000957999
35.4,0.701366,10.5483,0.999999,0.00112615
35.5,0.857038,10.5487,0.999999,0.00129979
35.6,1.0128,10.5491,0.999999,0.00146319
35.7,1.16862,10.5495,0.999999,0.0016013
35.8,1.3245,10.5499,0.999999,0.00169359
35.9,1.48038,10.5503,0.999999,0.00166977
36,1.63621,10.5508,0.999999,0.00158291
36.1,1.79201,10.5512,0.999999,0.00151566
36.2,1.94778,10.5515,0.999999,0.00144978
36.3,2.10322,10.5518,1,0.000770337
36.4,2.2586,10.552,1,0.00064748
36.5,2.41401,10.5522,1,0.000705341
36.6,2.56947,10.5524,1,0.00080286
36.7,2.72501,10.5527,1,0.000939223
36.8,2.88064,10.553,0.999999,0.00110654
36.9,3.03636,10.5533,0.999999,0.00128643
37,3.19219,10.5537,0.999999,0.0014605
37.1,3.3481,10.5541,0.999999,0.00160872
37.2,3.50407,10.5545,0.999999,0.00170961
37.3,3.66002,10.555,0.999999,0.00166581
37.4,3.81594,10.5554,0.999999,0.00157841
37.5,3.97182,10.5558,0.999999,0.00150801
37.6,4.12766,10.5562,0.999999,0.00143985
37.7,4.28348,10.5565,0.999999,0.00137684
37.8,4.43927,10.5569,0.999999,0.00131751
37.9,4.59503,10.5572,0.999999,0.00126125
38,4.75076,10.5575,0.999999,0.0012092
38.1,4.90646,10.5579,0.999999,0.00115879
38.2,-4.93787,10.5582,0.999999,0.00111132
38.3,-4.78222,10.5584,0.999999,0.00106607
38.4,-4.62659,10.5587,0.999999,0.00102221
38.5,-4.47098,10.559,0.999999,0.00101214
38.6,-4.31536,10.5593,0.999999,0.00101926
38.7,-4.15975,10.5596,0.999999,0.00102142
38.8,-4.00413,10.5599,0.999999,0.00102597
38.9,-3.84852,10.5601,0.999999,0.00102879
39,-3.69291,10.5604,0.999999,0.00103239
39.1,-3.53729,10.5607,0.999999,0.00103619
39.2,-3.38168,10.561,0.999999,0.00103928
39.3,-3.22607,10.5613,0.999999,0.0010427
39.4,-3.07046,10.5616,0.999999,0.00104646
39.5,-2.91486,10.5619,0.999999,0.00104976
39.6,-2.75925,10.5621,0.999999,0.00105387
39.7,-2.60364,10.5624,0.999999,0.00105698
39.8,-2.44803,10.5627,0.999999,0.00106043
39.9,-2.29243,10.563,0.999999,0.00106369
40,-2.13683,10.5633,0.999999,0.00106769
40.1,-1.98122,10.5636,0.999999,0.00107089
40.2,-1.82562,10.5639,0.999999,0.00107444
40.3,-1.67002,10.5642,0.999999,0.00107826
40.4,-1.51442,10.5645,0.999999,0.00108161
40.5,-1.35882,10.5648,0.999999,0.0010849
40.6,-1.20322,10.5651,0.999999,0.00108847
40.7,-1.04762,10.5654,0.999999,0.00109178
40.8,-0.892024,10.5657,0.999999,0.00109577
40.9,-0.736428,10.566,0.999999,0.00109908
41,-0.580833,10.5663,0.999999,0.00110302
41.1,-0.425239,10.5666,0.999999,0.00110641
41.2,-0.269646,10.5669,0.999999,0.00110967
41.3,-0.114053,10.5672,0.999999,0.00111314
41.4,0.0415377,10.5675,0.999999,0.00111655
41.5,0.197128,10.5678,0.999999,0.00112045
41.6,0.352718,10.5681,0.999999,0.0011238
41.7,0.508306,10.5684,0.999999,0.00112757
41.8,0.663894,10.5687,0.999999,0.00113107
41.9,0.819284,10.5681,0.999997,-0.00262469
42,0.974575,10.5661,0.99996,-0.00890095
42.1,1.1302,10.5638,0.999947,-0.0102902
42.2,1.28586,10.5614,0.999946,-0.0103614
42.3,1.44161,10.5594,0.999964,-0.00849696
42.4,1.59709,10.5575,0.999962,-0.00873458
42.5,1.75344,10.5576,1,0.000595195
42.6,1.90762,10.5528,0.999774,-0.0212586
42.7,2.06337,10.5504,0.999949,-0.0101105
42.8,2.21943,10.548,0.999942,-0.0107315
42.9,2.37565,10.5463,0.999972,-0.00754933
43,2.53164,10.5451,0.999987,-0.00511973
43.1,2.68756,10.5447,0.999998,-0.00184974
43.2,2.84329,10.545,1,0.000885355
43.3,2.99888,10.5453,0.999999,0.00104693
43.4,3.15449,10.5456,0.999999,0.00107263
43.5,3.31009,10.5458,0.999999,0.00107027
43.6,3.4657,10.5461,0.999999,0.00107583
43.7,3.6213,10.5464,0.999999,0.0010785
43.8,3.7769,10.5467,0.999999,0.00108253
43.9,3.9325,10.547,0.999999,0.00108589
44,4.0881,10.5473,0.999999,0.00108919
44.1,4.24369,10.5476,0.999999,0.00109291
44.2,4.39929,10.5479,0.999999,0.00109608
44.3,4.55489,10.5482,0.999999,0.00109994
44.4,4.71048,10.5485,0.999999,0.00110347
44.5,4.86608,10.5488,0.999999,0.00110741
44.6,-4.97833,10.5491,0.999999,0.00111019
44.7,-4.82274,10.5494,0.999999,0.00111405
44.8,-4.66715,10.5497,0.999999,0.0011176
44.9,-4.51156,10.55,0.999999,0.00112109
45,-4.35597,10.5503,0.999999,0.00112493
45.1,-4.20038,10.5506,0.999999,0.001128
45.2,-4.04479,10.551,0.999999,0.00113199
45.3,-3.88921,10.5513,0.999999,0.00113535
45.4,-3.73362,10.5516,0.999999,0.00113872
45.5,-3.57804,10.5519,0.999999,0.00114217
45.6,-3.42245,10.5522,0.999999,0.00114534
45.7,-3.26687,10.5525,0.999999,0.00114936
45.8,-3.11129,10.5528,0.999999,0.00115289
45.9,-2.95571,10.5531,0.999999,0.00115672
46,-2.80013,10.5534,0.999999,0.00115997
46.1,-2.64455,10.5538,0.999999,0.00116323
46.2,-2.48897,10.5541,0.999999,0.00116671
46.3,-2.3334,10.5544,0.999999,0.00117019
46.4,-2.17782,10.5547,0.999999,0.00117404
46.5,-2.02225,10.555,0.999999,0.00117747
46.6,-1.86668,10.5553,0.999999,0.00118125
46.7,-1.7111,10.5557,0.999999,0.00118468
46.8,-1.55553,10.556,0.999999,0.00118789
46.9,-1.39996,10.5563,0.999999,0.00119126
47,-1.24439,10.5566,0.999999,0.00119456
47.1,-1.08882,10.5569,0.999999,0.00119845
47.2,-0.933258,10.5573,0.999999,0.00120197
47.3,-0.777692,10.5576,0.999999,0.0012058
47.4,-0.622127,10.5579,0.999999,0.00120911
47.5,-0.466564,10.5582,0.999999,0.00121249
47.6,-0.311001,10.5586,0.999999,0.00121566
47.7,-0.15544,10.5589,0.999999,0.00121906
47.8,0.000120193,10.5592,0.999999,0.00122291
47.9,0.155679,10.5596,0.999999,0.00122624
48,0.311238,10.5599,0.999999,0.00123018
48.1,0.466794,10.5602,0.999999,0.00123343
48.2,0.62235,10.5605,0.999999,0.00123669
48.3,0.777905,10.5609,0.999999,0.00123996
48.4,0.933458,10.5612,0.999999,0.00124384
48.5,1.08901,10.5615,0.999999,0.00124703
48.6,1.24456,10.5619,0.999999,0.00125107
48.7,1.40011,10.5622,0.999999,0.00125427
48.8,1.55566,10.5626,0.999999,0.00125747
48.9,1.71121,10.5629,0.999999,0.00126076
49,1.86676,10.5632,0.999999,0.00126397
49.1,2.0223,10.5636,0.999999,0.00126764
49.2,2.17785,10.5639,0.999999,0.00127179
49.3,2.33339,10.5642,0.999999,0.00127477
49.4,2.48893,10.5646,0.999999,0.00127798
49.5,2.64447,10.5649,0.999999,0.00128136
49.6,2.80001,10.5653,0.999999,0.0012845
49.7,2.95555,10.5656,0.999999,0.0012882
49.8,3.11108,10.566,0.999999,0.00129206
49.9,3.26662,10.5663,0.999999,0.00129536
50,3.42216,10.5666,0.999999,0.00129835
50.1,3.57769,10.567,0.999999,0.0013015
50.2,3.73322,10.5673,0.999999,0.00130465
50.3,3.88875,10.5677,0.999999,0.00130893
50.4,4.04428,10.568,0.999999,0.00131168
50.5,4.19981,10.5684,0.999999,0.00131524
50.6,4.35534,10.5687,0.999999,0.00131864
50.7,4.51086,10.5691,0.999999,0.00132139
50.8,4.66639,10.5694,0.999999,0.0013248
50.9,4.82191,10.5698,0.999999,0.0013291
51,4.97743,10.5702,0.999999,0.00133193
51.1,-4.86705,10.5705,0.999999,0.00133493
51.2,-4.71153,10.5709,0.999999,0.00133804
51.3,-4.55601,10.5712,0.999999,0.0013417
51.4,-4.4005,10.5716,0.999999,0.00134552
51.5,-4.24498,10.5719,0.999999,0.00134877
51.6,-4.08947,10.5723,0.999999,0.00135193
51.7,-3.93395,10.5726,0.999999,0.00135452
51.8,-3.77844,10.573,0.999999,0.00135827
51.9,-3.62293,10.5734,0.999999,0.00136085
52,-3.46742,10.5737,0.999999,0.00136486
52.1,-3.31192,10.5741,0.999999,0.0013676
52.2,-3.15641,10.5745,0.999999,0.00137069
52.3,-3.00091,10.5748,0.999999,0.00137436
52.4,-2.8454,10.5752,0.999999,0.00137804
52.5,-2.6899,10.5755,0.999999,0.00138087
52.6,-2.5344,10.5759,0.999999,0.00138344
52.7,-2.3789,10.5763,0.999999,0.00138712
52.8,-2.2234,10.5766,0.999999,0.00138994
52.9,-2.06791,10.577,0.999999,0.00139319
53,-1.91241,10.5774,0.999999,0.00139618
53.1,-1.75692,10.5778,0.999999,0.00139892
53.2,-1.60143,10.5781,0.999999,0.00140321
53.3,-1.44594,10.5785,0.999999,0.00140602
53.4,-1.29045,10.5789,0.999999,0.00140858
53.5,-1.13496,10.5792,0.999999,0.0014113
53.6,-0.979476,10.5796,0.999999,0.00141534
53.7,-0.823991,10.58,0.999999,0.00141823
53.8,-0.668508,10.5804,0.999999,0.00142077
53.9,-0.513027,10.5807,0.999999,0.00142331
54,-0.357546,10.5811,0.999999,0.00142744
54.1,-0.202068,10.5815,0.999999,0.00143015
54.2,-0.0465905,10.5819,0.999999,0.00143268
54.3,0.108885,10.5822,0.999999,0.00143592
54.4,0.264359,10.5826,0.999999,0.00143925
54.5,0.419832,10.583,0.999999,0.00144186
54.6,0.575303,10.5834,0.999999,0.0014442
54.7,0.730773,10.5838,0.999999,0.00144824
54.8,0.886241,10.5841,0.999999,0.00145075
54.9,1.04171,10.5845,0.999999,0.00145307
55,1.19717,10.5849,0.999999,0.00145621
55.1,1.35264,10.5853,0.999999,0.00145943
55.2,1.5081,10.5857,0.999999,0.00146192
55.3,1.66356,10.5861,0.999999,0.00146414
55.4,1.81902,10.5864,0.999999,0.00146791
55.5,1.97447,10.5868,0.999999,0.00147039
55.6,2.12993,10.5872,0.999999,0.00147241
55.7,2.28538,10.5876,0.999999,0.00147635
55.8,2.44084,10.588,0.999999,0.00147864
55.9,2.59629,10.5884,0.999999,0.00148082
56,2.75174,10.5888,0.999999,0.00148439
56.1,2.90718,10.5892,0.999999,0.00148684
56.2,3.06263,10.5895,0.999999,0.00148873
56.3,3.21807,10.5899,0.999999,0.00149239
56.4,3.37352,10.5903,0.999999,0.00149473
56.5,3.52896,10.5907,0.999999,0.00149641
56.6,3.6844,10.5911,0.999999,0.00150016
56.7,3.83983,10.5915,0.999999,0.00150239
56.8,3.99527,10.5919,0.999999,0.0015048
56.9,4.1507,10.5923,0.999999,0.00150778
57,4.30614,10.5927,0.999999,0.00150942
57.1,4.46157,10.5931,0.999999,0.00151335
57.2,4.617,10.5935,0.999999,0.00151497
57.3,4.77242,10.5939,0.999999,0.00151668
57.4,4.92785,10.5943,0.999999,0.00152002
57.5,-4.91673,10.5947,0.999999,0.00152181
57.6,-4.7613,10.5951,0.999999,0.00152545
57.7,-4.60588,10.5955,0.999999,0.00152732
57.8,-4.45046,10.5959,0.999999,0.0015288
57.9,-4.29505,10.5963,0.999999,0.00153183
58,-4.13963,10.5967,0.999999,0.00153397
58.1,-3.98422,10.5971,0.999999,0.00153679
58.2,-3.82881,10.5975,0.999999,0.00153822
58.3,-3.6734,10.5979,0.999999,0.00154142
58.4,-3.51799,10.5983,0.999999,0.00154284
58.5,-3.36265,10.5988,0.999998,0.00191834
58.6,-3.20749,10.5995,0.999995,0.00304954
58.7,-3.05252,10.6006,0.999991,0.0043604
58.8,-2.89774,10.602,0.999983,0.00575368
58.9,-2.74313,10.6037,0.999974,0.00716937
59,-2.58867,10.6057,0.999963,0.00855658
59.1,-2.4344,10.608,0.999954,0.00961724
59.2,-2.28017,10.6087,0.999996,0.00286182
59.3,-2.12572,10.6096,0.999993,0.00366936
59.4,-1.97117,10.6103,0.999995,0.00305314
59.5,-1.81618,10.6109,0.999997,0.00241446
59.6,-1.66083,10.6114,0.999998,0.00188283
59.7,-1.50538,10.612,0.999997,0.00230798
59.8,-1.34978,10.6126,0.999997,0.00263948
59.9,-1.19403,10.6134,0.999996,0.0029498
60,-1.0381,10.6142,0.999994,0.00340469
60.1,-0.883231,10.6142,1,-0.000263207
60.2,-0.727317,10.6151,0.999994,0.00361226
60.3,-0.571442,10.6159,0.999994,0.00344635
60.4,-0.415381,10.6169,0.999992,0.00411423
60.5,-0.259219,10.618,0.99999,0.00446056
60.6,-0.103047,10.6191,0.99999,0.00448625
60.7,0.0531382,10.6202,0.99999,0.00451972
60.8,0.209296,10.6213,0.999989,0.00466498
60.9,0.365297,10.6226,0.999987,0.0050997
61,0.521099,10.6239,0.999985,0.00550989
61.1,0.676707,10.6253,0.999983,0.00589364
61.2,0.832201,10.6268,0.99998,0.0062547
61.3,0.987635,10.6284,0.999978,0.00658846
61.4,1.14304,10.6301,0.999976,0.00697729
61.5,1.29849,10.6317,0.999977,0.0068007
61.6,1.45395,10.6332,0.999981,0.0061306
61.7,1.60948,10.6345,0.999984,0.00560206
61.8,1.76509,10.6358,0.999985,0.00549224
61.9,1.92079,10.6372,0.999985,0.00551249
62,2.07653,10.6385,0.999986,0.00536791
62.1,2.23231,10.6397,0.999987,0.00506859
62.2,2.38816,10.6408,0.99999,0.00456774
62.3,2.54408,10.6418,0.999992,0.00391089
62.4,2.70003,10.6427,0.999993,0.00384931
62.5,2.85637,10.644,0.999986,0.00528204
62.6,3.01285,10.6454,0.999983,0.00574648
62.7,3.16939,10.6468,0.999983,0.00589747
62.8,3.32589,10.6482,0.999984,0.00572227
62.9,3.48243,10.6496,0.999983,0.00579267
63,3.639,10.651,0.999983,0.00579802
63.1,3.79566,10.6524,0.999982,0.00604203
63.2,3.95239,10.6539,0.999981,0.00613635
63.3,4.1092,10.6554,0.99998,0.00626033
63.4,4.2661,10.657,0.999979,0.00643304
63.5,4.42307,10.6585,0.999979,0.00652058
63.6,4.58011,10.6604,0.999971,0.00757879
63.7,4.73709,10.6624,0.999964,0.00851801
63.8,4.89401,10.6645,0.999963,0.00865455
63.9,-4.94828,10.667,0.999945,0.0105308
64,-4.79102,10.6693,0.999952,0.00975167
64.1,-4.63349,10.6716,0.999955,0.00953961
64.2,-4.47623,10.6736,0.999966,0.00822328
64.3,-4.31881,10.6754,0.999972,0.0074876
64.4,-4.16151,10.6769,0.99998,0.00632541
64.5,-4.00411,10.6784,0.999982,0.00606481
64.6,-3.84679,10.6797,0.999984,0.00567003
64.7,-3.68945,10.6811,0.999984,0.00558175
64.8,-3.53221,10.6824,0.999986,0.00520429
64.9,-3.37499,10.6836,0.999988,0.00498859
65,-3.21779,10.6848,0.999988,0.00480867
65.1,-3.06065,10.6859,0.99999,0.00452496
65.2,-2.90354,10.6869,0.999991,0.00432453
65.3,-2.74651,10.6879,0.999992,0.00403692
65.4,-2.58953,10.6888,0.999993,0.00381355
65.5,-2.43263,10.6897,0.999994,0.0035467
65.6,-2.27578,10.6905,0.999994,0.00333413
65.7,-2.119,10.6913,0.999995,0.00310216
65.8,-1.96227,10.692,0.999996,0.00290163
65.9,-1.80562,10.6927,0.999996,0.00265861
66,-1.64828,10.6936,0.999993,0.00368175
66.1,-1.49129,10.6943,0.999996,0.00288377
66.2,-1.33371,10.6952,0.999994,0.00355527
66.3,-1.17686,10.6958,0.999997,0.0023349
66.4,-1.01964,10.6965,0.999997,0.00263603
66.5,-0.862944,10.6969,0.999998,0.00179705
66.6,-0.70599,10.6974,0.999998,0.00192672
66.7,-0.549468,10.6978,0.999999,0.00128782
66.8,-0.392805,10.6981,0.999999,0.00128064
66.9,-0.236504,10.6983,1,0.000798528
67,-0.0801249,10.6986,1,0.000735653
67.1,0.0759455,10.6987,1,0.000378597
67.2,0.232043,10.6988,1,0.000291214
67.3,0.387877,10.6989,1,3.61235e-05
67.4,0.543713,10.6989,1,-4.61968e-05
67.5,0.699334,10.6989,1,-0.000216231
67.6,0.854949,10.6989,1,-0.000281314
67.7,1.0104,10.6988,1,-0.0003843
67.8,1.16588,10.6988,1,-0.000426646
67.9,1.32134,10.6987,1,-0.000475637
68,1.47704,10.6986,1,-0.000493857
68.1,1.63287,10.6985,1,-0.000527139
68.2,1.78884,10.6985,1,-0.000550221
68.3,1.9448,10.6984,1,-0.000557694
68.4,2.10086,10.6983,1,-0.000558374
68.5,2.25689,10.6982,1,-0.000559828
68.6,2.41294,10.6981,1,-0.00056099
68.7,2.56894,10.698,1,-0.000562246
68.8,2.72492,10.6979,1,-0.000563267
68.9,2.88084,10.6978,1,-0.000564211
69,3.03672,10.6978,1,-0.000564989
69.1,3.19251,10.6977,1,-0.000565608
69.2,3.34826,10.6976,1,-0.000566177
69.3,3.50402,10.6975,1,-0.000566793
69.4,3.65978,10.6974,1,-0.000567395
69.5,3.81554,10.6973,1,-0.000568002
69.6,3.9713,10.6972,1,-0.000568607
69.7,4.12706,10.6971,1,-0.000569213
69.8,4.28282,10.697,1,-0.00056982
69.9,4.43858,10.697,1,-0.000570424
70,4.59434,10.6969,1,-0.000571044
70.1,4.7501,10.6968,1,-0.000571661
70.2,4.90586,10.6967,1,-0.000572282
70.3,-4.93838,10.6966,1,-0.000572899
70.4,-4.78262,10.6965,1,-0.000573407
70.5,-4.62686,10.6964,1,-0.000574025
70.6,-4.4711,10.6963,1,-0.000574652
70.7,-4.31534,10.6962,1,-0.000575282
70.8,-4.15958,10.6961,1,-0.000575916
70.9,-4.00382,10.6961,1,-0.000576546
71,-3.84806,10.696,1,-0.000577179
71.1,-3.6923,10.6959,1,-0.000577811
71.2,-3.53654,10.6958,1,-0.000578442
71.3,-3.38078,10.6957,1,-0.000579089
71.4,-3.22502,10.6956,1,-0.000579735
71.5,-3.06926,10.6955,1,-0.000580379
71.6,-2.9135,10.6954,1,-0.000581026
71.7,-2.75774,10.6953,1,-0.000581669
71.8,-2.60198,10.6952,1,-0.000582317
71.9,-2.44622,10.6951,1,-0.000582974
72,-2.29046,10.695,1,-0.000583633
72.1,-2.1347,10.695,1,-0.000584292
72.2,-1.97894,10.6949,1,-0.00058495
72.3,-1.82318,10.6948,1,-0.000585612
72.4,-1.66742,10.6947,1,-0.000586266
72.5,-1.51166,10.6946,1,-0.000586927
72.6,-1.3559,10.6945,1,-0.000587596
72.7,-1.20014,10.6944,1,-0.00058827
72.8,-1.04438,10.6943,1,-0.000588942
72.9,-0.888621,10.6942,1,-0.000589613
73,-0.732861,10.6941,1,-0.000590285
73.1,-0.577101,10.694,1,-0.000590956
73.2,-0.421341,10.6939,1,-0.000591642
73.3,-0.265582,10.6938,1,-0.000592327
73.4,-0.109822,10.6937,1,-0.000593013
73.5,0.0459379,10.6936,1,-0.000593696
73.6,0.201698,10.6936,1,-0.000594384
73.7,0.357457,10.6935,1,-0.000595067
73.8,0.513217,10.6934,1,-0.000595766
73.9,0.668977,10.6933,1,-0.000596462
74,0.824737,10.6932,1,-0.000597163
74.1,0.980496,10.6931,1,-0.000597859
74.2,1.13626,10.693,1,-0.000598558
74.3,1.29202,10.6929,1,-0.000599264
74.4,1.44778,10.6928,1,-0.000599975
74.5,1.60354,10.6927,1,-0.000600687
74.6,1.75929,10.6926,1,-0.000601397
74.7,1.91505,10.6925,1,-0.000602109
74.8,2.07081,10.6924,1,-0.000602822
74.9,2.22657,10.6923,1,-0.000603546
75,2.38233,10.6922,1,-0.000604272
75.1,2.53809,10.6921,1,-0.000604997
75.2,2.69385,10.692,1,-0.000605722
75.3,2.84961,10.6919,1,-0.000606448
75.4,3.00537,10.6918,1,-0.000607169
75.5,3.16113,10.6917,1,-0.000607908
75.6,3.31689,10.6916,1,-0.000608648
75.7,3.47265,10.6915,1,-0.000609386
75.8,3.62841,10.6914,1,-0.000610124
75.9,3.78417,10.6913,1,-0.000610861
76,3.93993,10.6912,1,-0.000611606
76.1,4.09569,10.6911,1,-0.000612354
76.2,4.25145,10.691,1,-0.000613102
76.3,4.40721,10.6909,1,-0.000613857
76.4,4.56297,10.6908,1,-0.000614612
76.5,4.71873,10.6907,1,-0.000615366
76.6,4.87449,10.6906,1,-0.000616117
76.7,-4.96976,10.6905,1,-0.000616882
76.8,-4.814,10.6904,1,-0.000617532
76.9,-4.65824,10.6903,1,-0.000618297
77,-4.50248,10.6902,1,-0.000619059
77.1,-4.34672,10.6901,1,-0.000619835
77.2,-4.19096,10.69,1,-0.000620624
77.3,-4.0352,10.6899,1,-0.000621397
77.4,-3.87944,10.6898,1,-0.000622171
77.5,-3.72368,10.6897,1,-0.00062296
77.6,-3.56792,10.6896,1,-0.000623729
77.7,-3.41216,10.6895,1,-0.000624511
77.8,-3.2564,10.6894,1,-0.000625321
77.9,-3.10064,10.6893,1,-0.000626098
78,-2.94488,10.6892,1,-0.000626897
78.1,-2.78912,10.6891,1,-0.000627683
78.2,-2.63337,10.689,1,-0.000628483
78.3,-2.47761,10.6889,1,-0.000629289
78.4,-2.32185,10.6888,1,-0.000630097
78.5,-2.16609,10.6887,1,-0.000630901
78.6,-2.01033,10.6886,1,-0.000631706
78.7,-1.85457,10.6885,1,-0.000632521
78.8,-1.69881,10.6884,1,-0.000633331
78.9,-1.54305,10.6883,1,-0.000634154
79,-1.38729,10.6882,1,-0.000634977
79.1,-1.23153,10.6881,1,-0.000635784
79.2,-1.07577,10.688,1,-0.000636615
79.3,-0.920016,10.6879,1,-0.000637448
79.4,-0.764257,10.6878,1,-0.000638277
79.5,-0.608498,10.6877,1,-0.00063911
79.6,-0.452738,10.6875,1,-0.000639941
79.7,-0.296979,10.6874,1,-0.00064078
79.8,-0.14122,10.6873,1,-0.000641627
79.9,0.0145385,10.6872,1,-0.000642468
80,0.170297,10.6871,1,-0.000643309
