0.1,-11.3457,-10.4115,0.725025,-0.688723
0.2,-1.28021,-10.4687,0.903753,-0.428055
0.3,-1.181,-10.495,0.985764,-0.168134
0.4,-1.07941,-10.4979,0.999833,-0.0182873
0.5,-0.968842,-10.4979,1,3.8581e-06
0.6,-0.858279,-10.4979,1,3.85845e-06
0.7,-0.747716,-10.4979,1,3.85845e-06
0.8,-0.637152,-10.4979,1,3.85846e-06
0.9,-0.526589,-10.4979,1,3.85847e-06
1,-0.416025,-10.4979,1,3.85848e-06
1.1,-0.305462,-10.4979,1,3.85849e-06
1.2,-0.194899,-10.4979,1,3.8585e-06
1.3,-0.0843354,-10.4979,1,3.85851e-06
1.4,0.026228,-10.4979,1,3.85851e-06
1.5,0.136791,-10.4979,1,3.85852e-06
1.6,0.247355,-10.4979,1,3.85853e-06
1.7,0.357918,-10.4979,1,3.85854e-06
1.8,0.468481,-10.4979,1,3.85855e-06
1.9,0.579167,-10.498,1,-0.000293753
2,0.690072,-10.4981,1,-0.000839956
2.1,0.801191,-10.4983,0.999999,-0.00137871
2.2,0.91252,-10.4987,0.999998,-0.0019045
2.3,1.02406,-10.4991,0.999997,-0.00241395
2.4,1.13579,-10.4995,0.999996,-0.00291341
2.5,1.24773,-10.5001,0.999994,-0.00341405
2.6,1.35985,-10.5008,0.999992,-0.00392631
2.7,1.47216,-10.5015,0.99999,-0.00445902
2.8,1.58465,-10.5024,0.999987,-0.00502219
2.9,1.69731,-10.5033,0.999984,-0.00562822
3,1.81013,-10.5044,0.99998,-0.00629345
3.1,1.92309,-10.5055,0.999975,-0.00704032
3.2,2.03619,-10.5069,0.999969,-0.00790133
3.3,2.14939,-10.5084,0.99996,-0.0089272
3.4,2.26265,-10.5101,0.999948,-0.0102048
3.5,2.37591,-10.5121,0.99993,-0.0118218
3.6,2.48908,-10.5144,0.999907,-0.0136615
3.7,2.60207,-10.517,0.999878,-0.0156181
3.8,2.71479,-10.52,0.999846,-0.017565
3.9,2.82711,-10.5232,0.999813,-0.0193297
4,2.93894,-10.5267,0.999786,-0.0206772
4.1,3.05066,-10.5301,0.999787,-0.0206588
4.2,3.16244,-10.5335,0.999791,-0.0204657
4.3,3.27422,-10.537,0.999791,-0.0204655
4.4,3.38579,-10.5404,0.999789,-0.0205569
4.5,3.49653,-10.5439,0.999781,-0.0209215
4.6,3.60728,-10.5473,0.999781,-0.0209215
4.7,3.71803,-10.5508,0.999781,-0.0209215
4.8,3.82878,-10.5543,0.999781,-0.0209215
4.9,3.93953,-10.5578,0.999781,-0.0209215
5,4.05028,-10.5612,0.999781,-0.0209216
5.1,4.16102,-10.5647,0.999781,-0.0209216
5.2,4.27177,-10.5682,0.999781,-0.0209216
5.3,4.38252,-10.5717,0.999781,-0.0209216
5.4,4.49327,-10.5751,0.999781,-0.0209216
5.5,4.60402,-10.5786,0.999781,-0.0209216
5.6,4.71477,-10.5821,0.999781,-0.0209216
5.7,4.8255,-10.5854,0.999805,-0.0197372
5.8,4.93585,-10.588,0.999873,-0.015903
5.9,-4.95381,-10.5906,0.999873,-0.0159012
6,-4.84347,-10.5933,0.999873,-0.0159051
6.1,-4.73278,-10.5958,0.999881,-0.0154078
6.2,-4.6221,-10.5982,0.999897,-0.0143449
6.3,-4.51143,-10.6004,0.999913,-0.013198
6.4,-4.40077,-10.6024,0.999925,-0.0122854
6.5,-4.29012,-10.6044,0.999932,-0.011643
6.6,-4.17947,-10.6062,0.999937,-0.0112188
6.7,-4.06882,-10.608,0.99994,-0.0109491
6.8,-3.95817,-10.6098,0.999942,-0.0107818
6.9,-3.84753,-10.6116,0.999943,-0.0106795
7,-3.73688,-10.6134,0.999944,-0.0106174
7.1,-3.62624,-10.6151,0.999944,-0.0105796
7.2,-3.51559,-10.6169,0.999944,-0.0105569
7.3,-3.40495,-10.6186,0.999944,-0.0105433
7.4,-3.2943,-10.6204,0.999945,-0.0105349
7.5,-3.18366,-10.6221,0.999945,-0.0105304
7.6,-3.07301,-10.6239,0.999945,-0.0105274
7.7,-2.96237,-10.6256,0.999945,-0.010526
7.8,-2.85173,-10.6274,0.999945,-0.0105252
7.9,-2.74108,-10.6291,0.999945,-0.0105247
8,-2.6305,-10.6303,0.999973,-0.00732693
8.1,-2.51993,-10.6303,1,6.50784e-06
8.2,-2.40937,-10.6303,1,6.50764e-06
8.3,-2.29881,-10.6303,1,6.50764e-06
8.4,-2.18825,-10.6303,1,6.50763e-06
8.5,-2.07768,-10.6303,1,6.50763e-06
8.6,-1.96712,-10.6303,1,6.50762e-06
8.7,-1.85655,-10.6303,1,6.50762e-06
8.8,-1.74599,-10.6303,1,6.50761e-06
8.9,-1.63543,-10.6303,1,6.50761e-06
9,-1.52486,-10.6303,1,6.5076e-06
9.1,-1.4143,-10.6303,1,6.5076e-06
9.2,-1.30374,-10.6303,1,6.5076e-06
9.3,-1.19317,-10.6303,1,6.50759e-06
9.4,-1.08261,-10.6303,1,6.50759e-06
9.5,-0.972048,-10.6303,1,6.50758e-06
9.6,-0.861485,-10.6303,1,6.50758e-06
9.7,-0.750921,-10.6303,1,6.50757e-06
9.8,-0.640358,-10.6303,1,6.50757e-06
9.9,-0.529795,-10.6303,1,6.50756e-06
10,-0.419231,-10.6303,1,6.50756e-06
10.1,-0.308668,-10.6303,1,6.50755e-06
10.2,-0.198104,-10.6303,1,6.50755e-06
10.3,-0.0875411,-10.6303,1,6.50754e-06
10.4,0.0230223,-10.6303,1,6.50754e-06
10.5,0.133586,-10.6303,1,6.50753e-06
10.6,0.244149,-10.6303,1,6.50753e-06
10.7,0.354712,-10.6303,1,6.50753e-06
10.8,0.465276,-10.6303,1,6.50752e-06
10.9,0.575839,-10.6303,1,6.50752e-06
11,0.686402,-10.6303,1,6.50751e-06
11.1,0.796966,-10.6303,1,6.50751e-06
11.2,0.907529,-10.6303,1,6.5075e-06
11.3,1.01809,-10.6303,1,6.5075e-06
11.4,1.12866,-10.6303,1,6.50749e-06
11.5,1.23922,-10.6303,1,6.50749e-06
11.6,1.34978,-10.6303,1,6.50748e-06
11.7,1.46035,-10.6303,1,6.50748e-06
11.8,1.57091,-10.6303,1,6.50747e-06
11.9,1.68147,-10.6303,1,6.50747e-06
12,1.79204,-10.6303,1,6.50746e-06
12.1,1.9026,-10.6303,1,6.50746e-06
12.2,2.01316,-10.6303,1,6.50745e-06
12.3,2.12373,-10.6303,1,6.50745e-06
12.4,2.23429,-10.6303,1,6.50745e-06
12.5,2.34485,-10.6303,1,6.50744e-06
12.6,2.45542,-10.6303,1,6.50744e-06
12.7,2.56598,-10.6303,1,6.50743e-06
12.8,2.67654,-10.6303,1,6.50743e-06
12.9,2.78711,-10.6303,1,6.50742e-06
13,2.89767,-10.6303,1,6.50742e-06
13.1,3.00823,-10.6303,1,6.50741e-06
13.2,3.1188,-10.6303,1,6.50741e-06
13.3,3.22936,-10.6303,1,6.5074e-06
13.4,3.33992,-10.6303,1,6.5074e-06
13.5,3.45049,-10.6303,1,6.50739e-06
13.6,3.56105,-10.6303,1,6.50739e-06
13.7,3.67161,-10.6303,1,6.50738e-06
13.8,3.78218,-10.6303,1,6.50738e-06
13.9,3.89274,-10.6303,1,6.50737e-06
14,4.0033,-10.6303,1,6.50737e-06
14.1,4.11387,-10.6303,1,6.50737e-06
14.2,4.22443,-10.6303,1,6.50736e-06
14.3,4.33499,-10.6303,1,6.50736e-06
14.4,4.44556,-10.6303,1,6.50735e-06
14.5,4.55612,-10.6303,1,6.50735e-06
14.6,4.66668,-10.6303,1,6.50734e-06
14.7,4.77725,-10.6303,1,6.50734e-06
14.8,4.88781,-10.6303,1,6.50733e-06
14.9,4.99837,-10.6303,1,6.50733e-06
15,-4.89107,-10.6303,1,6.50732e-06
15.1,-4.7805,-10.6303,1,6.50602e-06
15.2,-4.66994,-10.6303,1,6.50601e-06
15.3,-4.55938,-10.6303,1,6.50601e-06
15.4,-4.44881,-10.6303,1,6.506e-06
15.5,-4.33825,-10.6303,1,6.506e-06
15.6,-4.22769,-10.6303,1,6.50599e-06
15.7,-4.11712,-10.6303,1,6.50599e-06
15.8,-4.00656,-10.6303,1,6.50598e-06
15.9,-3.896,-10.6303,1,6.50598e-06
16,-3.78543,-10.6303,1,6.50597e-06
16.1,-3.67487,-10.6303,1,6.50597e-06
16.2,-3.56431,-10.6303,1,6.50596e-06
16.3,-3.45374,-10.6303,1,6.50596e-06
16.4,-3.34318,-10.6303,1,6.50596e-06
16.5,-3.23262,-10.6303,1,6.50595e-06
16.6,-3.12205,-10.6302,1,6.50595e-06
16.7,-3.01149,-10.6302,1,6.50594e-06
16.8,-2.90093,-10.6302,1,6.50594e-06
16.9,-2.79036,-10.6302,1,6.50593e-06
17,-2.6798,-10.6302,1,6.50593e-06
17.1,-2.56924,-10.6302,1,6.50592e-06
17.2,-2.45867,-10.6302,1,6.50592e-06
17.3,-2.34811,-10.6302,1,6.50591e-06
17.4,-2.23755,-10.6302,1,6.50591e-06
17.5,-2.12698,-10.6302,1,6.5059e-06
17.6,-2.01642,-10.6302,1,6.5059e-06
17.7,-1.90586,-10.6302,1,6.5059e-06
17.8,-1.79529,-10.6302,1,6.50589e-06
17.9,-1.68473,-10.6302,1,6.50589e-06
18,-1.57417,-10.6302,1,6.50588e-06
18.1,-1.4636,-10.6302,1,6.50588e-06
18.2,-1.35304,-10.6302,1,6.50587e-06
18.3,-1.24248,-10.6302,1,6.50587e-06
18.4,-1.13191,-10.6302,1,6.50586e-06
18.5,-1.02135,-10.6302,1,6.50586e-06
18.6,-0.910786,-10.6302,1,6.50585e-06
18.7,-0.800223,-10.6302,1,6.50585e-06
18.8,-0.689659,-10.6302,1,6.50584e-06
18.9,-0.579096,-10.6302,1,6.50584e-06
19,-0.468533,-10.6302,1,6.50583e-06
19.1,-0.357969,-10.6302,1,6.50583e-06
19.2,-0.247406,-10.6302,1,6.50582e-06
19.3,-0.136842,-10.6302,1,6.50582e-06
19.4,-0.0262791,-10.6302,1,6.50581e-06
19.5,0.0842842,-10.6302,1,6.50581e-06
19.6,0.194848,-10.6302,1,6.50581e-06
19.7,0.305411,-10.6302,1,6.5058e-06
19.8,0.415974,-10.6302,1,6.5058e-06
19.9,0.526538,-10.6302,1,6.50579e-06
20,0.637101,-10.6302,1,6.50579e-06
20.1,0.747664,-10.6302,1,6.50578e-06
20.2,0.858228,-10.6302,1,6.50578e-06
20.3,0.968791,-10.6302,1,6.50577e-06
20.4,1.07935,-10.6302,1,6.50577e-06
20.5,1.18992,-10.6302,1,6.50576e-06
20.6,1.30048,-10.6302,1,6.50576e-06
20.7,1.41104,-10.6302,1,6.50575e-06
20.8,1.52161,-10.6302,1,6.50575e-06
20.9,1.63217,-10.6302,1,6.50575e-06
21,1.74273,-10.6302,1,6.50574e-06
21.1,1.8533,-10.6302,1,6.50574e-06
21.2,1.96386,-10.6302,1,6.50573e-06
21.3,2.07442,-10.6302,1,6.50573e-06
21.4,2.18499,-10.6302,1,6.50572e-06
21.5,2.29555,-10.6302,1,6.50572e-06
21.6,2.40611,-10.6302,1,6.50571e-06
21.7,2.51668,-10.6302,1,6.50571e-06
21.8,2.62724,-10.6302,1,6.5057e-06
21.9,2.7378,-10.6302,1,6.5057e-06
22,2.84837,-10.6302,1,6.50569e-06
22.1,2.95893,-10.6302,1,6.50569e-06
22.2,3.06949,-10.6302,1,6.50568e-06
22.3,3.18006,-10.6302,1,6.50568e-06
22.4,3.29062,-10.6302,1,6.50567e-06
22.5,3.40118,-10.6302,1,6.50567e-06
22.6,3.51175,-10.6302,1,6.50567e-06
22.7,3.62231,-10.6302,1,6.50566e-06
22.8,3.73287,-10.6302,1,6.50566e-06
22.9,3.84344,-10.6302,1,6.50565e-06
23,3.954,-10.6302,1,6.50565e-06
23.1,4.06456,-10.6302,1,6.50564e-06
23.2,4.17513,-10.6302,1,6.50564e-06
23.3,4.28571,-10.6302,1,0.000114157
23.4,4.39633,-10.6301,1,0.000366159
23.5,4.50698,-10.63,1,0.000614818
23.6,4.61767,-10.6299,1,0.00086009
23.7,4.72838,-10.6297,0.999999,0.00110179
23.8,4.83913,-10.6295,0.999999,0.00133993
23.9,4.94991,-10.6292,0.999999,0.00157428
24,-4.93929,-10.6289,0.999998,0.00180472
24.1,-4.82846,-10.6286,0.999998,0.00203118
24.2,-4.71762,-10.6282,0.999997,0.00225348
24.3,-4.60669,-10.6278,0.999998,0.0021869
24.4,-4.49547,-10.6276,0.999999,0.00121797
24.5,-4.38398,-10.6276,1,0.000277074
24.6,-4.27225,-10.6277,1,-0.000622075
24.7,-4.16027,-10.6279,0.999999,-0.00147332
24.8,-4.04807,-10.6283,0.999997,-0.00227061
24.9,-3.93567,-10.6288,0.999996,-0.00300773
25,-3.82309,-10.6294,0.999993,-0.00367796
25.1,-3.71033,-10.6301,0.999991,-0.00427396
25.2,-3.59743,-10.631,0.999988,-0.004788
25.3,-3.48439,-10.6318,0.999986,-0.00521095
25.4,-3.37124,-10.6328,0.999985,-0.0055327
25.5,-3.25799,-10.6337,0.999984,-0.00574088
25.6,-3.14468,-10.6347,0.999983,-0.00582028
25.7,-3.03133,-10.6357,0.999983,-0.00579444
25.8,-2.91792,-10.6367,0.999983,-0.0057694
25.9,-2.80447,-10.6376,0.999983,-0.00574485
26,-2.69097,-10.6386,0.999984,-0.00572082
26.1,-2.57743,-10.6396,0.999984,-0.0056973
26.2,-2.46385,-10.6405,0.999984,-0.00567426
26.3,-2.35022,-10.6415,0.999984,-0.00565172
26.4,-2.23656,-10.6424,0.999984,-0.00562967
26.5,-2.12285,-10.6434,0.999984,-0.00560804
26.6,-2.0091,-10.6443,0.999984,-0.00558688
26.7,-1.89531,-10.6453,0.999985,-0.00556614
26.8,-1.78149,-10.6462,0.999985,-0.00554587
26.9,-1.66762,-10.6471,0.999985,-0.00552601
27,-1.55372,-10.6481,0.999985,-0.00550653
27.1,-1.43979,-10.649,0.999985,-0.00548754
27.2,-1.32582,-10.6499,0.999985,-0.00546894
27.3,-1.21181,-10.6508,0.999985,-0.00545072
27.4,-1.09777,-10.6518,0.999985,-0.0054329
27.5,-0.983698,-10.6527,0.999985,-0.00541546
27.6,-0.869593,-10.6536,0.999985,-0.0053984
27.7,-0.755457,-10.6545,0.999986,-0.00538173
27.8,-0.64129,-10.6554,0.999986,-0.00536545
27.9,-0.527093,-10.6563,0.999986,-0.00534946
28,-0.412866,-10.6572,0.999986,-0.00533384
28.1,-0.29861,-10.6581,0.999986,-0.00531861
28.2,-0.184326,-10.659,0.999986,-0.00530366
28.3,-0.0700145,-10.6599,0.999986,-0.00528911
28.4,0.0443243,-10.6608,0.999986,-0.00527484
28.5,0.15869,-10.6617,0.999986,-0.00526084
28.6,0.273081,-10.6626,0.999986,-0.00524723
28.7,0.387497,-10.6635,0.999986,-0.0052339
28.8,0.501938,-10.6644,0.999986,-0.00522084
28.9,0.616403,-10.6653,0.999986,-0.00520806
29,0.730892,-10.6662,0.999987,-0.00519568
29.1,0.845403,-10.667,0.999987,-0.00518376
29.2,0.959937,-10.6679,0.999987,-0.00517204
29.3,1.07449,-10.6688,0.999987,-0.00516068
29.4,1.18907,-10.6697,0.999987,-0.0051496
29.5,1.30367,-10.6705,0.999987,-0.00513853
29.6,1.41829,-10.6714,0.999987,-0.00512784
29.7,1.53293,-10.6723,0.999987,-0.0051175
29.8,1.64758,-10.6731,0.999987,-0.00510753
29.9,1.76232,-10.6741,0.999986,-0.00532627
30,1.87723,-10.6751,0.999982,-0.00598267
30.1,1.99206,-10.676,0.999985,-0.0055229
30.2,2.10829,-10.6779,0.999938,-0.0111007
30.3,2.22526,-10.6806,0.999883,-0.0153282
30.4,2.34242,-10.6835,0.999859,-0.0168067
30.5,2.45978,-10.6866,0.999836,-0.0181062
30.6,2.57734,-10.69,0.999807,-0.0196608
30.7,2.69505,-10.6936,0.999784,-0.0207737
30.8,2.81283,-10.6973,0.999773,-0.0212941
30.9,2.93066,-10.701,0.999763,-0.021753
31,3.04856,-10.7049,0.999753,-0.0222212
31.1,3.16646,-10.7087,0.999754,-0.022189
31.2,3.28438,-10.7126,0.999752,-0.0222756
31.3,3.40232,-10.7165,0.999751,-0.0223287
31.4,3.52027,-10.7203,0.999749,-0.0223891
31.5,3.63823,-10.7242,0.999748,-0.0224478
31.6,3.75621,-10.7281,0.999747,-0.0225075
31.7,3.8742,-10.732,0.999745,-0.0225677
31.8,3.9922,-10.736,0.999744,-0.0226288
31.9,4.11022,-10.7399,0.999743,-0.0226908
32,4.22824,-10.7438,0.999741,-0.0227537
32.1,4.34628,-10.7478,0.99974,-0.0228174
32.2,4.46433,-10.7518,0.999738,-0.0228822
32.3,4.58239,-10.7557,0.999737,-0.0229478
32.4,4.70045,-10.7597,0.999735,-0.0230143
32.5,4.81853,-10.7637,0.999734,-0.0230817
32.6,4.93661,-10.7677,0.999732,-0.0231502
32.7,-4.94529,-10.7718,0.99973,-0.0232196
32.8,-4.82719,-10.7758,0.999729,-0.0232897
32.9,-4.70908,-10.7799,0.999727,-0.0233607
33,-4.59096,-10.7839,0.999725,-0.0234324
33.1,-4.47284,-10.788,0.999724,-0.0235055
33.2,-4.35471,-10.7921,0.999722,-0.0235791
33.3,-4.23658,-10.7962,0.99972,-0.0236539
33.4,-4.11844,-10.8003,0.999718,-0.0237297
33.5,-4.00029,-10.8045,0.999717,-0.0238058
33.6,-3.88214,-10.8086,0.999715,-0.0238834
33.7,-3.76399,-10.8127,0.999713,-0.0239361
33.8,-3.64584,-10.8169,0.999716,-0.0238416
33.9,-3.52771,-10.821,0.99972,-0.0236468
34,-3.40958,-10.825,0.999726,-0.0234155
34.1,-3.29147,-10.8291,0.999731,-0.0231825
34.2,-3.17338,-10.8331,0.999736,-0.0229659
34.3,-3.05528,-10.837,0.999737,-0.0229259
34.4,-2.93716,-10.8411,0.999724,-0.0234898
34.5,-2.819,-10.8453,0.999714,-0.0239318
34.6,-2.70083,-10.8495,0.999707,-0.024228
34.7,-2.58265,-10.8537,0.999702,-0.0244284
34.8,-2.46446,-10.858,0.999698,-0.0245763
34.9,-2.34627,-10.8623,0.999695,-0.0246972
35,-2.22806,-10.8666,0.999692,-0.0248039
35.1,-2.10985,-10.8709,0.99969,-0.0249039
35.2,-1.99164,-10.8752,0.999687,-0.0250011
35.3,-1.87342,-10.8796,0.999685,-0.0250984
35.4,-1.75519,-10.884,0.999682,-0.0251975
35.5,-1.63696,-10.8883,0.99968,-0.0253005
35.6,-1.51872,-10.8928,0.999677,-0.0254094
35.7,-1.40048,-10.8972,0.999674,-0.0255283
35.8,-1.28223,-10.9016,0.999671,-0.0256667
35.9,-1.16396,-10.9061,0.999666,-0.0258512
36,-1.04566,-10.9107,0.999649,-0.0264767
36.1,-0.92776,-10.9141,0.999808,-0.019592
36.2,-0.810509,-10.9155,0.999966,-0.00827121
36.3,-0.694193,-10.9147,0.999989,0.00473704
36.4,-0.57944,-10.9119,0.999859,0.0168099
36.5,-0.464687,-10.909,0.999859,0.0168099
36.6,-0.349934,-10.9062,0.999859,0.0168099
36.7,-0.235181,-10.9033,0.999859,0.0168099
36.8,-0.120181,-10.901,0.999911,0.0133386
36.9,-0.00516365,-10.8988,0.999914,0.0131444
37,0.109892,-10.8966,0.99992,0.0126693
37.1,0.225004,-10.8946,0.999929,0.0118906
37.2,0.340166,-10.8927,0.999938,0.0111547
37.3,0.455366,-10.8909,0.999944,0.0105635
37.4,0.570567,-10.8891,0.999944,0.0105433
37.5,0.685768,-10.8873,0.999944,0.0105433
37.6,0.800969,-10.8855,0.999944,0.0105433
37.7,0.91617,-10.8837,0.999944,0.0105432
37.8,1.03137,-10.8819,0.999944,0.0105431
37.9,1.14657,-10.8801,0.999944,0.0105431
38,1.26177,-10.8783,0.999944,0.010543
38.1,1.37697,-10.8765,0.999944,0.010543
38.2,1.49217,-10.8747,0.999944,0.0105429
38.3,1.60738,-10.8729,0.999944,0.0105429
38.4,1.72258,-10.8711,0.999944,0.0105428
38.5,1.83778,-10.8694,0.999944,0.0105428
38.6,1.95298,-10.8676,0.999944,0.0105427
38.7,2.06818,-10.8658,0.999944,0.0105427
38.8,2.18338,-10.864,0.999944,0.0105426
38.9,2.29858,-10.8622,0.999944,0.0105425
39,2.41378,-10.8604,0.999944,0.0105425
39.1,2.52898,-10.8586,0.999944,0.0105424
39.2,2.64418,-10.8568,0.999944,0.0105424
39.3,2.75939,-10.855,0.999944,0.0105423
39.4,2.87459,-10.8532,0.999944,0.0105422
39.5,2.98979,-10.8514,0.999944,0.0105422
39.6,3.10499,-10.8496,0.999944,0.0105421
39.7,3.22019,-10.8478,0.999944,0.010542
39.8,3.33539,-10.846,0.999944,0.0105419
39.9,3.45059,-10.8442,0.999944,0.0105418
40,3.56579,-10.8424,0.999944,0.0105418
40.1,3.68099,-10.8406,0.999944,0.0105417
40.2,3.79619,-10.8388,0.999944,0.0105416
40.3,3.9114,-10.837,0.999944,0.0105415
40.4,4.0266,-10.8352,0.999944,0.0105413
40.5,4.1418,-10.8334,0.999944,0.0105409
40.6,4.257,-10.8316,0.999944,0.0105407
40.7,4.3722,-10.8298,0.999945,0.0105405
40.8,4.4874,-10.828,0.999945,0.0105403
40.9,4.6026,-10.8262,0.999945,0.01054
41,4.7178,-10.8244,0.999944,0.010539
41.1,4.833,-10.8226,0.999945,0.0105402
41.2,4.9482,-10.8208,0.999944,0.0105406
41.3,-4.93659,-10.819,0.999944,0.0105391
41.4,-4.82139,-10.8172,0.999944,0.0105395
41.5,-4.70619,-10.8154,0.999945,0.01054
41.6,-4.59099,-10.8137,0.999944,0.0105415
41.7,-4.47579,-10.8119,0.999945,0.0105324
41.8,-4.36059,-10.8101,0.999945,0.0104807
41.9,-4.24538,-10.8083,0.999946,0.0103917
42,-4.13017,-10.8065,0.999947,0.0103388
42.1,-4.01496,-10.8048,0.999948,0.0102449
42.2,-3.89974,-10.8031,0.999948,0.0101946
42.3,-3.78453,-10.8013,0.999949,0.0100989
42.4,-3.66931,-10.7996,0.999949,0.010054
42.5,-3.55409,-10.7979,0.999951,0.00994969
42.6,-3.43886,-10.7962,0.999951,0.00990191
42.7,-3.32364,-10.7946,0.999951,0.0098587
42.8,-3.20843,-10.7928,0.999949,0.0100738
42.9,-3.09787,-10.7928,1,9.99336e-06
43,-2.98271,-10.7911,0.999948,0.0101545
43.1,-2.86871,-10.7898,0.99997,0.00775309
43.2,-2.75444,-10.7884,0.999964,0.00848138
43.3,-2.64026,-10.7869,0.999965,0.00841482
43.4,-2.52608,-10.7855,0.999964,0.00854951
43.5,-2.41191,-10.784,0.999963,0.00863383
43.6,-2.29776,-10.7825,0.999962,0.0087308
43.7,-2.18362,-10.781,0.999961,0.00882567
43.8,-2.0695,-10.7795,0.99996,0.008921
43.9,-1.9554,-10.778,0.999959,0.00901648
44,-1.84131,-10.7765,0.999959,0.00911171
44.1,-1.72724,-10.7749,0.999958,0.00920812
44.2,-1.61319,-10.7733,0.999957,0.00930371
44.3,-1.49916,-10.7717,0.999956,0.00939989
44.4,-1.38515,-10.7701,0.999955,0.00949552
44.5,-1.27115,-10.7685,0.999954,0.00959119
44.6,-1.15718,-10.7669,0.999953,0.00968639
44.7,-1.04323,-10.7652,0.999952,0.00978247
44.8,-0.929291,-10.7635,0.999951,0.00987705
44.9,-0.815378,-10.7619,0.99995,0.00997236
45,-0.701486,-10.7602,0.999949,0.0100672
45.1,-0.587616,-10.7584,0.999948,0.0101614
45.2,-0.473769,-10.7567,0.999947,0.0102542
45.3,-0.359945,-10.755,0.999946,0.0103479
45.4,-0.246143,-10.7532,0.999946,0.0104407
45.5,-0.132366,-10.7514,0.999945,0.010532
45.6,-0.0186128,-10.7496,0.999944,0.0106229
45.7,0.0951156,-10.7478,0.999943,0.0107138
45.8,0.208819,-10.746,0.999942,0.0108026
45.9,0.322496,-10.7441,0.999941,0.0108908
46,0.436146,-10.7423,0.99994,0.0109775
46.1,0.54977,-10.7404,0.999939,0.0110638
46.2,0.663366,-10.7385,0.999938,0.0111481
46.3,0.776934,-10.7366,0.999937,0.0112318
46.4,0.890474,-10.7347,0.999936,0.0113134
46.5,1.00399,-10.7328,0.999935,0.0113936
46.6,1.11747,-10.7309,0.999934,0.0114719
46.7,1.23092,-10.7289,0.999933,0.0115488
46.8,1.34434,-10.727,0.999932,0.0116228
46.9,1.45773,-10.725,0.999932,0.0116963
47,1.57108,-10.723,0.999931,0.011767
47.1,1.68441,-10.721,0.99993,0.0118355
47.2,1.7977,-10.719,0.999929,0.0119012
47.3,1.91096,-10.717,0.999928,0.011965
47.4,2.02418,-10.715,0.999928,0.0120255
47.5,2.13737,-10.7129,0.999927,0.0120844
47.6,2.25053,-10.7109,0.999926,0.0121396
47.7,2.36365,-10.7088,0.999926,0.012191
47.8,2.47673,-10.7068,0.999925,0.0122409
47.9,2.58978,-10.7047,0.999925,0.0122859
48,2.70279,-10.7026,0.999924,0.0123286
48.1,2.81576,-10.7005,0.999923,0.0123675
48.2,2.92869,-10.6985,0.999923,0.0124023
48.3,3.04159,-10.6964,0.999923,0.012434
48.4,3.15444,-10.6943,0.999922,0.0124613
48.5,3.26726,-10.6922,0.999922,0.0124835
48.6,3.38003,-10.6901,0.999922,0.0125023
48.7,3.49277,-10.688,0.999922,0.0125162
48.8,3.60546,-10.6859,0.999922,0.0125268
48.9,3.71812,-10.6838,0.999922,0.0125316
49,3.83073,-10.6817,0.999921,0.0125321
49.1,3.94329,-10.6796,0.999922,0.0125254
49.2,4.05582,-10.6775,0.999922,0.0125169
49.3,4.1683,-10.6754,0.999922,0.0125007
49.4,4.28074,-10.6733,0.999922,0.0124793
49.5,4.39314,-10.6712,0.999922,0.0124534
49.6,4.50549,-10.6691,0.999923,0.0124206
49.7,4.6178,-10.667,0.999923,0.0123813
49.8,4.73006,-10.665,0.999924,0.0123365
49.9,4.84228,-10.6629,0.999925,0.0122864
50,4.95445,-10.6609,0.999925,0.012229
50.1,-4.93342,-10.6588,0.999926,0.0121647
50.2,-4.82133,-10.6568,0.999927,0.0120961
50.3,-4.70929,-10.6548,0.999928,0.0120183
50.4,-4.5973,-10.6528,0.999929,0.0119362
50.5,-4.48535,-10.6508,0.99993,0.0118444
50.6,-4.37345,-10.6488,0.999931,0.0117459
50.7,-4.26159,-10.6469,0.999932,0.0116403
50.8,-4.14978,-10.645,0.999934,0.01153
50.9,-4.03801,-10.6431,0.999935,0.0114087
51,-3.92629,-10.6412,0.999936,0.0112832
51.1,-3.81461,-10.6393,0.999938,0.0111488
51.2,-3.70298,-10.6375,0.999939,0.0110073
51.3,-3.59139,-10.6357,0.999941,0.0108587
51.4,-3.47984,-10.6339,0.999943,0.0107019
51.5,-3.36834,-10.6321,0.999944,0.0105375
51.6,-3.25688,-10.6304,0.999946,0.0103643
51.7,-3.14546,-10.6287,0.999948,0.0101859
51.8,-3.03408,-10.627,0.99995,0.00999739
51.9,-2.92275,-10.6254,0.999952,0.00980323
52,-2.81146,-10.6238,0.999954,0.00960158
52.1,-2.7002,-10.6222,0.999956,0.00939041
52.2,-2.58899,-10.6207,0.999958,0.00917418
52.3,-2.47782,-10.6192,0.99996,0.00894801
52.4,-2.36668,-10.6178,0.999962,0.00871416
52.5,-2.25558,-10.6164,0.999964,0.00847682
52.6,-2.14452,-10.615,0.999966,0.00822791
52.7,-2.03349,-10.6137,0.999968,0.00797627
52.8,-1.92249,-10.6124,0.99997,0.00771398
52.9,-1.81153,-10.6112,0.999972,0.00744678
53,-1.7006,-10.61,0.999974,0.00717394
53.1,-1.5897,-10.6088,0.999976,0.00689147
53.2,-1.47884,-10.6077,0.999978,0.0066059
53.3,-1.368,-10.6067,0.99998,0.00631303
53.4,-1.25719,-10.6057,0.999982,0.0060169
53.5,-1.1464,-10.6047,0.999984,0.00571088
53.6,-1.03564,-10.6038,0.999985,0.0054025
53.7,-0.924904,-10.603,0.999987,0.00508931
53.8,-0.814189,-10.6022,0.999989,0.0047688
53.9,-0.703496,-10.6014,0.99999,0.00444621
54,-0.592821,-10.6008,0.999991,0.00412016
54.1,-0.482164,-10.6001,0.999993,0.00378573
54.2,-0.371524,-10.5996,0.999994,0.00345263
54.3,-0.260898,-10.5991,0.999995,0.00311305
54.4,-0.150286,-10.5986,0.999996,0.00277075
54.5,-0.0396859,-10.5982,0.999997,0.00242569
54.6,0.0709044,-10.5978,0.999998,0.00207875
54.7,0.181486,-10.5976,0.999999,0.00173126
54.8,0.292061,-10.5973,0.999999,0.00138052
54.9,0.402631,-10.5972,0.999999,0.00102875
55,0.513196,-10.597,1,0.000674825
55.1,0.62376,-10.597,1,0.000321653
55.2,0.734324,-10.597,1,5.84094e-06
55.3,0.844887,-10.597,1,5.84098e-06
55.4,0.95545,-10.597,1,5.84097e-06
55.5,1.06601,-10.597,1,5.84097e-06
55.6,1.17658,-10.597,1,5.84096e-06
55.7,1.28714,-10.597,1,5.84096e-06
55.8,1.3977,-10.597,1,5.84095e-06
55.9,1.50827,-10.597,1,5.84094e-06
56,1.61883,-10.597,1,5.84094e-06
56.1,1.72939,-10.597,1,5.84093e-06
56.2,1.83996,-10.597,1,5.84093e-06
56.3,1.95052,-10.597,1,5.84092e-06
56.4,2.06108,-10.597,1,5.84091e-06
56.5,2.17165,-10.597,1,5.72149e-06
56.6,2.28221,-10.597,1,5.56621e-06
56.7,2.39277,-10.597,1,5.05471e-06
56.8,2.50334,-10.597,1,4.65965e-06
56.9,2.6139,-10.597,1,5.30949e-06
57,2.72446,-10.597,1,4.03546e-06
57.1,2.83503,-10.597,1,5.84091e-06
57.2,2.94559,-10.597,1,4.4935e-06
57.3,3.05606,-10.5994,0.99989,-0.0148625
57.4,3.16662,-10.5994,1,5.89098e-06
57.5,3.27719,-10.5994,1,5.89023e-06
57.6,3.38775,-10.5994,1,5.89023e-06
57.7,3.49831,-10.5994,1,5.89022e-06
57.8,3.60888,-10.5994,1,5.89021e-06
57.9,3.71944,-10.5994,1,5.89021e-06
58,3.83,-10.5994,1,5.8902e-06
58.1,3.94062,-10.5994,1,-6.84151e-05
58.2,4.05159,-10.5995,1,-0.000532966
58.3,4.1629,-10.5997,0.999999,-0.00104294
58.4,4.27453,-10.6,0.999999,-0.00160658
58.5,4.38647,-10.6004,0.999998,-0.00223362
58.6,4.49872,-10.6008,0.999996,-0.00293548
58.7,4.61125,-10.6015,0.999993,-0.00372584
58.8,4.72405,-10.6022,0.999989,-0.00462071
58.9,4.8371,-10.6032,0.999984,-0.00563882
59,4.95037,-10.6043,0.999977,-0.00680135
59.1,-4.93617,-10.6057,0.999967,-0.00813151
59.2,-4.82254,-10.6073,0.999953,-0.0096529
59.3,-4.70882,-10.6093,0.999935,-0.0113861
59.4,-4.59505,-10.6115,0.999911,-0.0133422
59.5,-4.48133,-10.6141,0.99988,-0.0155115
59.6,-4.36775,-10.6172,0.999841,-0.0178456
59.7,-4.25445,-10.6206,0.999795,-0.0202329
59.8,-4.14158,-10.6244,0.999747,-0.0224726
59.9,-4.02928,-10.6284,0.999706,-0.0242637
60,-3.91768,-10.6326,0.999681,-0.0252383
60.1,-3.80608,-10.6368,0.999681,-0.0252382
60.2,-3.69448,-10.6411,0.999681,-0.0252382
60.3,-3.58289,-10.6453,0.999681,-0.0252382
60.4,-3.47129,-10.6495,0.999681,-0.0252381
60.5,-3.35969,-10.6537,0.999681,-0.0252381
60.6,-3.24809,-10.6579,0.999681,-0.0252381
60.7,-3.1365,-10.6621,0.999681,-0.025238
60.8,-3.0249,-10.6663,0.999681,-0.025238
60.9,-2.9133,-10.6706,0.999681,-0.025238
61,-2.8017,-10.6748,0.999681,-0.0252379
61.1,-2.6901,-10.679,0.999681,-0.0252379
61.2,-2.57851,-10.6832,0.999681,-0.0252379
61.3,-2.46691,-10.6874,0.999682,-0.0252378
61.4,-2.35531,-10.6916,0.999682,-0.0252378
61.5,-2.24371,-10.6958,0.999682,-0.0252378
61.6,-2.13212,-10.7,0.999682,-0.0252377
61.7,-2.02052,-10.7043,0.999682,-0.0252377
61.8,-1.90892,-10.7085,0.999682,-0.0252377
61.9,-1.79732,-10.7127,0.999682,-0.0252376
62,-1.68572,-10.7169,0.999682,-0.0252376
62.1,-1.57413,-10.7211,0.999682,-0.0252376
62.2,-1.46253,-10.7253,0.999682,-0.0252375
62.3,-1.35093,-10.7295,0.999682,-0.0252375
62.4,-1.23933,-10.7338,0.999682,-0.0252374
62.5,-1.12774,-10.738,0.999682,-0.0252374
62.6,-1.01614,-10.7422,0.999682,-0.0252374
62.7,-0.904541,-10.7464,0.999682,-0.0252373
62.8,-0.792943,-10.7506,0.999682,-0.0252373
62.9,-0.681345,-10.7548,0.999682,-0.0252372
63,-0.569747,-10.759,0.999682,-0.0252372
63.1,-0.458149,-10.7632,0.999682,-0.0252372
63.2,-0.346552,-10.7675,0.999682,-0.0252371
63.3,-0.234954,-10.7717,0.999682,-0.0252371
63.4,-0.123356,-10.7759,0.999682,-0.025237
63.5,-0.0117584,-10.7801,0.999682,-0.025237
63.6,0.0998393,-10.7843,0.999682,-0.0252369
63.7,0.211437,-10.7885,0.999682,-0.0252369
63.8,0.323035,-10.7927,0.999682,-0.0252368
63.9,0.434616,-10.797,0.999681,-0.0252643
64,0.546155,-10.8012,0.999679,-0.0253318
64.1,0.657654,-10.8054,0.999677,-0.0253965
64.2,0.769115,-10.8097,0.999676,-0.0254586
64.3,0.88054,-10.8139,0.999674,-0.025518
64.4,0.991929,-10.8182,0.999673,-0.0255742
64.5,1.10329,-10.8225,0.999672,-0.0256274
64.6,1.21461,-10.8267,0.99967,-0.025678
64.7,1.32591,-10.831,0.999669,-0.0257253
64.8,1.43709,-10.8352,0.999689,-0.0249188
64.9,1.54714,-10.8375,0.999903,-0.0139292
65,1.65671,-10.8383,0.999986,-0.00520832
65.1,1.76613,-10.8386,0.999998,-0.00175446
65.2,1.8755,-10.8389,0.999999,-0.00150263
65.3,1.98484,-10.8391,0.999999,-0.00156788
65.4,2.09413,-10.8394,0.999999,-0.00166568
65.5,2.20338,-10.8397,0.999998,-0.00176884
65.6,2.31259,-10.84,0.999998,-0.00187444
65.7,2.42176,-10.8403,0.999998,-0.00198213
65.8,2.5309,-10.8407,0.999998,-0.00209189
65.9,2.64001,-10.8411,0.999998,-0.00220385
66,2.74907,-10.8414,0.999997,-0.00231823
66.1,2.85811,-10.8418,0.999997,-0.00243481
66.2,2.96711,-10.8423,0.999997,-0.00255337
66.3,3.07608,-10.8427,0.999996,-0.00267379
66.4,3.18502,-10.8432,0.999996,-0.00279598
66.5,3.29393,-10.8436,0.999996,-0.00291988
66.6,3.40281,-10.8441,0.999995,-0.0030454
66.7,3.51166,-10.8447,0.999995,-0.00317254
66.8,3.62049,-10.8452,0.999995,-0.0033012
66.9,3.72929,-10.8458,0.999994,-0.00343138
67,3.83807,-10.8463,0.999994,-0.003563
67.1,3.94682,-10.847,0.999993,-0.00369611
67.2,4.05556,-10.8476,0.999993,-0.00383064
67.3,4.16427,-10.8482,0.999992,-0.00396552
67.4,4.27296,-10.8489,0.999991,-0.00410026
67.5,4.38164,-10.8496,0.999991,-0.0042358
67.6,4.4903,-10.8503,0.99999,-0.00437226
67.7,4.59895,-10.8511,0.99999,-0.0045098
67.8,4.70755,-10.8517,0.999991,-0.00413555
67.9,4.81612,-10.8524,0.999992,-0.00399689
68,4.92467,-10.853,0.999992,-0.00399525
68.1,-4.96679,-10.8537,0.999992,-0.00407555
68.2,-4.85828,-10.8544,0.999991,-0.00420657
68.3,-4.74978,-10.8551,0.99999,-0.00437045
68.4,-4.64128,-10.8559,0.99999,-0.00455694
68.5,-4.5328,-10.8566,0.999989,-0.00476006
68.6,-4.42432,-10.8575,0.999988,-0.0049764
68.7,-4.31585,-10.8583,0.999986,-0.00520386
68.8,-4.20737,-10.8592,0.999985,-0.00544127
68.9,-4.0989,-10.8601,0.999984,-0.00568772
69,-3.99042,-10.8611,0.999982,-0.00594264
69.1,-3.88194,-10.8621,0.999981,-0.00620552
69.2,-3.77344,-10.8632,0.999979,-0.00647586
69.3,-3.66494,-10.8643,0.999977,-0.00675307
69.4,-3.55642,-10.8654,0.999975,-0.00703652
69.5,-3.44788,-10.8667,0.999973,-0.00732547
69.6,-3.33932,-10.8679,0.999971,-0.00761903
69.7,-3.23073,-10.8692,0.999969,-0.00791611
69.8,-3.12211,-10.8705,0.999966,-0.00821556
69.9,-3.01346,-10.8719,0.999964,-0.00851592
70,-2.90478,-10.8734,0.999961,-0.00881561
70.1,-2.79606,-10.8749,0.999959,-0.00908058
70.2,-2.68734,-10.8764,0.999959,-0.00908054
70.3,-2.57861,-10.8779,0.999959,-0.0090805
70.4,-2.46989,-10.8793,0.999959,-0.00908048
70.5,-2.36117,-10.8808,0.999959,-0.00908045
70.6,-2.25245,-10.8823,0.999959,-0.00908043
70.7,-2.14373,-10.8838,0.999959,-0.00908043
70.8,-2.03501,-10.8853,0.999959,-0.00908039
70.9,-1.92628,-10.8868,0.999959,-0.00908037
71,-1.81756,-10.8883,0.999959,-0.00908034
71.1,-1.70884,-10.8898,0.999959,-0.00908032
71.2,-1.60012,-10.8913,0.999959,-0.00908032
71.3,-1.4914,-10.8928,0.999959,-0.00908027
71.4,-1.38267,-10.8942,0.999959,-0.00908029
71.5,-1.27395,-10.8957,0.999959,-0.00908025
71.6,-1.16523,-10.8972,0.999959,-0.00908021
71.7,-1.05651,-10.8987,0.999959,-0.00908018
71.8,-0.947788,-10.9002,0.999959,-0.00908018
71.9,-0.839066,-10.9017,0.999959,-0.00908013
72,-0.730344,-10.9032,0.999959,-0.00908011
72.1,-0.621623,-10.9047,0.999959,-0.00908011
72.2,-0.512901,-10.9062,0.999959,-0.00908005
72.3,-0.40418,-10.9076,0.999959,-0.00908003
72.4,-0.295458,-10.9091,0.999959,-0.00907999
72.5,-0.186736,-10.9106,0.999959,-0.00908001
72.6,-0.0780147,-10.9121,0.999959,-0.00907996
72.7,0.0307069,-10.9136,0.999959,-0.00907991
72.8,0.139429,-10.9151,0.999959,-0.00907988
72.9,0.24815,-10.9166,0.999959,-0.00907987
73,0.356872,-10.9181,0.999959,-0.00907985
73.1,0.465593,-10.9196,0.999959,-0.0090798
73.2,0.574315,-10.9211,0.999959,-0.00907977
73.3,0.683036,-10.9225,0.999959,-0.00907977
73.4,0.791758,-10.924,0.999959,-0.00907971
73.5,0.900479,-10.9255,0.999959,-0.00907972
73.6,1.0092,-10.927,0.999959,-0.0090797
73.7,1.11792,-10.9285,0.999959,-0.00907967
73.8,1.22664,-10.93,0.999959,-0.00907968
73.9,1.33537,-10.9315,0.999959,-0.00907967
74,1.44409,-10.933,0.999959,-0.00907965
74.1,1.55281,-10.9345,0.999959,-0.00907965
74.2,1.66153,-10.936,0.999959,-0.00907961
74.3,1.77025,-10.9374,0.999959,-0.00907959
74.4,1.87897,-10.9389,0.999959,-0.00907956
74.5,1.98769,-10.9404,0.999959,-0.00907955
74.6,2.09642,-10.9419,0.999959,-0.00907952
74.7,2.20514,-10.9434,0.999959,-0.00907949
74.8,2.31386,-10.9449,0.999959,-0.00907947
74.9,2.42258,-10.9464,0.999959,-0.00907941
75,2.53133,-10.9479,0.999959,-0.00908616
75.1,2.64011,-10.9494,0.999959,-0.00909373
75.2,2.74892,-10.9509,0.999959,-0.00910504
75.3,2.85774,-10.9524,0.999959,-0.00911567
75.4,2.96659,-10.9539,0.999958,-0.00913007
75.5,3.07546,-10.9554,0.999958,-0.00914234
75.6,3.18435,-10.9569,0.999958,-0.00915778
75.7,3.29326,-10.9584,0.999958,-0.00917044
75.8,3.40218,-10.9599,0.999958,-0.0091855
75.9,3.51112,-10.9614,0.999958,-0.00919701
76,3.62008,-10.9629,0.999958,-0.00920975
76.1,3.72906,-10.9644,0.999958,-0.00921932
76.2,3.83805,-10.9659,0.999957,-0.00922903
76.3,3.94707,-10.9675,0.999957,-0.0092365
76.4,4.0561,-10.969,0.999957,-0.00924299
76.5,4.16515,-10.9705,0.999957,-0.00924821
76.6,4.27422,-10.972,0.999957,-0.00925173
76.7,4.38331,-10.9735,0.999957,-0.00925424
76.8,4.49241,-10.9751,0.999957,-0.00925494
76.9,4.60154,-10.9766,0.999957,-0.00925414
77,4.71068,-10.9781,0.999957,-0.00925222
77.1,4.81985,-10.9796,0.999957,-0.00924788
77.2,4.92903,-10.9811,0.999957,-0.00924284
77.3,-4.96176,-10.9827,0.999957,-0.00923551
77.4,-4.85254,-10.9842,0.999958,-0.00922705
77.5,-4.7433,-10.9857,0.999958,-0.00921619
77.6,-4.63403,-10.9872,0.999958,-0.00920402
77.7,-4.52475,-10.9887,0.999958,-0.00919053
77.8,-4.41545,-10.9902,0.999958,-0.00917325
77.9,-4.30612,-10.9917,0.999958,-0.00915697
78,-4.19678,-10.9933,0.999958,-0.00913647
78.1,-4.08741,-10.9948,0.999958,-0.00911512
78.2,-3.97803,-10.9963,0.999959,-0.00909002
78.3,-3.86862,-10.9977,0.999959,-0.00906649
78.4,-3.7592,-10.9992,0.999959,-0.00904379
78.5,-3.64976,-11.0007,0.999959,-0.00903028
78.6,-3.5403,-11.0022,0.999959,-0.00901667
78.7,-3.43084,-11.0037,0.999959,-0.00901079
78.8,-3.32136,-11.0052,0.999959,-0.0090038
78.9,-3.21187,-11.0067,0.99996,-0.00900142
79,-3.10237,-11.0081,0.99996,-0.00900107
79.1,-2.9918,-11.0081,1,1.38836e-05
79.2,-2.88375,-11.0117,0.999757,-0.0220255
79.3,-2.77505,-11.0145,0.99986,-0.0167488
79.4,-2.66606,-11.0169,0.999895,-0.0144699
79.5,-2.55693,-11.0191,0.999907,-0.0136144
79.6,-2.44776,-11.0213,0.999908,-0.0135954
79.7,-2.33851,-11.0235,0.999911,-0.0133492
79.8,-2.22921,-11.0257,0.999914,-0.0131446
79.9,-2.11984,-11.0278,0.999917,-0.0129145
80,-2.01041,-11.0299,0.99992,-0.0126757
