0.1,-14.6552,-2.01799,0.996765,-0.0803733
0.2,-4.63881,-2.02454,0.996545,-0.083059
0.3,-4.61333,-2.02829,0.99909,-0.0426472
0.4,-4.5792,-2.03177,0.999358,-0.0358207
0.5,-4.53965,-2.03258,0.99997,-0.00769771
0.6,-4.49502,-2.0324,0.999998,0.00195416
0.7,-4.44493,-2.0274,0.998993,0.0448693
0.8,-4.38609,-2.02353,0.999478,0.0322958
0.9,-4.31393,-2.02427,0.999986,-0.00525406
1,-4.22477,-2.02778,0.999735,-0.0230304
1.1,-4.11889,-2.0342,0.999275,-0.0380802
1.2,-4.00126,-2.03787,0.999795,-0.0202417
1.3,-3.87756,-2.0378,1,0.00050072
1.4,-3.75385,-2.03774,1,0.000500717
1.5,-3.63015,-2.03768,1,0.000500717
1.6,-3.50644,-2.03762,1,0.000500717
1.7,-3.38274,-2.03756,1,0.000500717
1.8,-3.25904,-2.03749,1,0.000500717
1.9,-3.13533,-2.03743,1,0.000500717
2,-3.01163,-2.03737,1,0.000500717
2.1,-2.88792,-2.03731,1,0.000500717
2.2,-2.76422,-2.03725,1,0.000500717
2.3,-2.64051,-2.03718,1,0.000500717
2.4,-2.51681,-2.03712,1,0.000500717
2.5,-2.3931,-2.03706,1,0.000500717
2.6,-2.2694,-2.037,1,0.000500717
2.7,-2.14569,-2.03694,1,0.000500717
2.8,-2.02199,-2.03687,1,0.000500717
2.9,-1.89828,-2.03681,1,0.000500717
3,-1.77458,-2.03675,1,0.000500717
3.1,-1.65087,-2.03669,1,0.000500717
3.2,-1.52717,-2.03663,1,0.000500717
3.3,-1.40346,-2.03656,1,0.000500717
3.4,-1.27976,-2.0365,1,0.000500717
3.5,-1.15606,-2.03644,1,0.000500717
3.6,-1.03235,-2.03638,1,0.000500717
3.7,-0.908646,-2.03632,1,0.000500717
3.8,-0.784941,-2.03625,1,0.000500717
3.9,-0.661236,-2.03619,1,0.000500717
4,-0.537531,-2.03613,1,0.000500717
4.1,-0.413827,-2.03607,1,0.000500717
4.2,-0.290122,-2.03601,1,0.000500717
4.3,-0.166417,-2.03594,1,0.000500717
4.4,-0.0427125,-2.03588,1,0.000500717
4.5,0.080924,-2.0358,1,0.000619664
4.6,0.204436,-2.03567,1,0.000846213
4.7,0.327825,-2.0355,0.999999,0.00107821
4.8,0.451097,-2.03529,0.999999,0.00131613
4.9,0.574254,-2.03503,0.999999,0.00156023
5,0.697301,-2.03473,0.999998,0.00181098
5.1,0.820239,-2.03438,0.999998,0.00206872
5.2,0.943074,-2.03398,0.999997,0.00233383
5.3,1.06581,-2.03353,0.999997,0.00260676
5.4,1.18845,-2.03303,0.999996,0.00288786
5.5,1.31099,-2.03247,0.999995,0.00317766
5.6,1.43345,-2.03186,0.999994,0.0034764
5.7,1.55582,-2.0312,0.999993,0.00378464
5.8,1.67811,-2.03047,0.999992,0.00410263
5.9,1.80032,-2.02969,0.99999,0.00443082
6,1.92246,-2.02884,0.999989,0.00476952
6.1,2.04454,-2.02793,0.999987,0.00511901
6.2,2.16655,-2.02695,0.999985,0.00547962
6.3,2.2885,-2.02591,0.999983,0.00585146
6.4,2.4104,-2.02479,0.999981,0.0062347
6.5,2.53225,-2.02361,0.999978,0.00662931
6.6,2.65405,-2.02235,0.999975,0.00703525
6.7,2.77583,-2.02101,0.999972,0.00745228
6.8,2.89757,-2.01959,0.999969,0.00787998
6.9,3.01929,-2.0181,0.999965,0.00831786
7,3.14099,-2.01652,0.999962,0.00876504
7.1,3.26268,-2.01486,0.999958,0.00922048
7.2,3.38436,-2.01311,0.999953,0.0096829
7.3,3.50605,-2.01128,0.999948,0.0101507
7.4,3.62776,-2.00936,0.999944,0.0106219
7.5,3.74949,-2.00735,0.999938,0.0110941
7.6,3.87124,-2.00526,0.999933,0.0115647
7.7,3.99304,-2.00308,0.999928,0.0120305
7.8,4.11488,-2.00082,0.999922,0.0124881
7.9,4.23678,-1.99847,0.999916,0.0129334
8,4.35874,-1.99605,0.999911,0.0133622
8.1,4.48078,-1.99355,0.999905,0.0137701
8.2,4.60291,-1.99097,0.9999,0.0141521
8.3,4.72512,-1.98833,0.999895,0.0145032
8.4,4.84744,-1.98564,0.99989,0.0148185
8.5,4.96986,-1.98288,0.999886,0.0150931
8.6,-4.9077,-1.98013,0.999885,0.0151285
8.7,-4.78526,-1.97737,0.999885,0.0151284
8.8,-4.66282,-1.97461,0.999885,0.0151284
8.9,-4.54039,-1.97186,0.999885,0.0151284
9,-4.41795,-1.9691,0.999885,0.0151284
9.1,-4.29551,-1.96634,0.999885,0.0151284
9.2,-4.17307,-1.96358,0.999885,0.0151283
9.3,-4.05063,-1.96083,0.999885,0.0151283
9.4,-3.92819,-1.95807,0.999885,0.0151283
9.5,-3.80575,-1.95531,0.999885,0.0151283
9.6,-3.68331,-1.95255,0.999885,0.0151282
9.7,-3.56088,-1.9498,0.999885,0.0151282
9.8,-3.43844,-1.94704,0.999885,0.0151282
9.9,-3.316,-1.94428,0.999885,0.0151282
10,-3.19356,-1.94152,0.999885,0.0151282
10.1,-3.07112,-1.93877,0.999885,0.0151281
10.2,-2.94868,-1.93601,0.999885,0.0151281
10.3,-2.82624,-1.93325,0.999885,0.0151281
10.4,-2.7038,-1.93049,0.999885,0.0151281
10.5,-2.58137,-1.92774,0.999885,0.0151281
10.6,-2.45893,-1.92498,0.999885,0.015128
10.7,-2.33649,-1.92222,0.999885,0.015128
10.8,-2.21405,-1.91946,0.999885,0.015128
10.9,-2.09161,-1.91671,0.999885,0.015128
11,-1.96917,-1.91395,0.999885,0.015128
11.1,-1.84673,-1.91119,0.999885,0.0151279
11.2,-1.7243,-1.90843,0.999885,0.0151279
11.3,-1.60186,-1.90568,0.999886,0.0151279
11.4,-1.47942,-1.90292,0.999886,0.0151279
11.5,-1.35698,-1.90016,0.999886,0.0151279
11.6,-1.23454,-1.8974,0.999886,0.0151279
11.7,-1.1121,-1.89465,0.999886,0.0151279
11.8,-0.989663,-1.89189,0.999886,0.0151278
11.9,-0.867225,-1.88913,0.999886,0.0151278
12,-0.744786,-1.88637,0.999886,0.0151278
12.1,-0.622348,-1.88362,0.999886,0.0151278
12.2,-0.499909,-1.88086,0.999886,0.0151278
12.3,-0.37747,-1.8781,0.999886,0.0151278
12.4,-0.255032,-1.87535,0.999886,0.0151277
12.5,-0.132593,-1.87259,0.999886,0.0151277
12.6,-0.0101546,-1.86983,0.999886,0.0151277
12.7,0.112284,-1.86707,0.999886,0.0151277
12.8,0.234723,-1.86432,0.999886,0.0151277
12.9,0.357161,-1.86156,0.999886,0.0151276
13,0.4796,-1.8588,0.999886,0.0151276
13.1,0.602038,-1.85604,0.999886,0.0151277
13.2,0.724477,-1.85329,0.999886,0.0151276
13.3,0.846916,-1.85053,0.999886,0.0151274
13.4,0.969354,-1.84777,0.999885,0.0151284
13.5,1.09197,-1.84517,0.999898,0.0142574
13.6,1.21463,-1.84262,0.999902,0.0140141
13.7,1.33746,-1.84023,0.999915,0.0130619
13.8,1.46033,-1.8379,0.999918,0.0127821
13.9,1.58335,-1.83576,0.999931,0.0117547
14,1.70641,-1.83368,0.999935,0.0114399
14.1,1.8296,-1.83179,0.999947,0.0103417
14.2,1.95283,-1.82997,0.99995,0.00999511
14.3,2.07618,-1.82837,0.999961,0.00883443
14.4,2.19956,-1.82683,0.999964,0.00845795
14.5,2.32303,-1.82552,0.999974,0.00724627
14.6,2.44653,-1.82428,0.999977,0.00684188
14.7,2.57011,-1.82328,0.999984,0.00558988
14.8,2.6937,-1.82235,0.999987,0.0051629
14.9,2.81735,-1.82166,0.999992,0.00388053
15,2.94101,-1.82105,0.999994,0.00343822
15.1,3.0647,-1.82069,0.999998,0.00213435
15.2,3.1884,-1.82041,0.999999,0.00168394
15.3,3.31211,-1.82035,1,0.000496438
15.4,3.43581,-1.82028,1,0.000496438
15.5,3.55952,-1.82022,1,0.000496438
15.6,3.68322,-1.82016,1,0.000496438
15.7,3.80693,-1.8201,1,0.000496438
15.8,3.93063,-1.82004,1,0.000496438
15.9,4.05433,-1.81998,1,0.000496438
16,4.17804,-1.81992,1,0.000496438
16.1,4.30174,-1.81985,1,0.000496438
16.2,4.42545,-1.81979,1,0.000496438
16.3,4.54915,-1.81973,1,0.000496438
16.4,4.67286,-1.81967,1,0.000496438
16.5,4.79656,-1.81961,1,0.000496438
16.6,4.92027,-1.81955,1,0.000496438
16.7,-4.95603,-1.81949,1,0.000496438
16.8,-4.83232,-1.81942,1,0.000496339
16.9,-4.70862,-1.81936,1,0.000496339
17,-4.58491,-1.8193,1,0.000496339
17.1,-4.46121,-1.81924,1,0.000496339
17.2,-4.3375,-1.81918,1,0.000496339
17.3,-4.2138,-1.81912,1,0.000496339
17.4,-4.09009,-1.81906,1,0.000496339
17.5,-3.96639,-1.81899,1,0.000496339
17.6,-3.84268,-1.81893,1,0.000496339
17.7,-3.71898,-1.81887,1,0.000496339
17.8,-3.59527,-1.81881,1,0.000496339
17.9,-3.47157,-1.81875,1,0.000496339
18,-3.34786,-1.81869,1,0.000496339
18.1,-3.22416,-1.81863,1,0.000496339
18.2,-3.10045,-1.81856,1,0.000496339
18.3,-2.97675,-1.8185,1,0.000496339
18.4,-2.85304,-1.81844,1,0.000496339
18.5,-2.72934,-1.81838,1,0.000496339
18.6,-2.60564,-1.81832,1,0.000496339
18.7,-2.48193,-1.81826,1,0.000496339
18.8,-2.35823,-1.8182,1,0.000496339
18.9,-2.23452,-1.81814,1,0.000496339
19,-2.11082,-1.81807,1,0.000496339
19.1,-1.98711,-1.81801,1,0.000496339
19.2,-1.86341,-1.81795,1,0.000496339
19.3,-1.73971,-1.8179,1,0.000461706
19.4,-1.61603,-1.81785,1,0.000388391
19.5,-1.49236,-1.81783,1,0.00031619
19.6,-1.3687,-1.81781,1,0.000245225
19.7,-1.24506,-1.81781,1,0.000175374
19.8,-1.12143,-1.81782,1,0.000106687
19.9,-0.997807,-1.81784,1,3.9173e-05
20,-0.8742,-1.81788,1,-2.7298e-05
20.1,-0.750605,-1.81793,1,-9.25751e-05
20.2,-0.627021,-1.81799,1,-0.000156874
20.3,-0.503448,-1.81806,1,-0.000219998
20.4,-0.379885,-1.81814,1,-0.000282163
20.5,-0.256332,-1.81824,1,-0.000343216
20.6,-0.13279,-1.81834,1,-0.00040323
20.7,-0.00925612,-1.81846,1,-0.000462283
20.8,0.114268,-1.81859,1,-0.000520303
20.9,0.237784,-1.81872,1,-0.000577315
21,0.361291,-1.81887,1,-0.000633335
21.1,0.48479,-1.81903,1,-0.000688363
21.2,0.60828,-1.8192,1,-0.000742516
21.3,0.731764,-1.81938,1,-0.000795669
21.4,0.85524,-1.81956,1,-0.00084786
21.5,0.978709,-1.81976,1,-0.000899157
21.6,1.10217,-1.81997,1,-0.000949522
21.7,1.22563,-1.82018,1,-0.000998967
21.8,1.34908,-1.82041,0.999999,-0.00104753
21.9,1.47252,-1.82064,0.999999,-0.00109523
22,1.59596,-1.82088,0.999999,-0.00114202
22.1,1.71939,-1.82114,0.999999,-0.00118796
22.2,1.84282,-1.82139,0.999999,-0.00123303
22.3,1.96624,-1.82166,0.999999,-0.00127725
22.4,2.08966,-1.82194,0.999999,-0.00132063
22.5,2.21307,-1.82222,0.999999,-0.00136317
22.6,2.33648,-1.82251,0.999999,-0.00140488
22.7,2.45988,-1.82281,0.999999,-0.00144576
22.8,2.58329,-1.82312,0.999999,-0.00148585
22.9,2.70668,-1.82343,0.999999,-0.00152514
23,2.83008,-1.82375,0.999999,-0.00156359
23.1,2.95347,-1.82408,0.999999,-0.00160129
23.2,3.07686,-1.82441,0.999999,-0.0016382
23.3,3.20024,-1.82475,0.999999,-0.00167432
23.4,3.32362,-1.8251,0.999999,-0.00170971
23.5,3.447,-1.82545,0.999998,-0.00174432
23.6,3.57038,-1.82581,0.999998,-0.00177817
23.7,3.69376,-1.82618,0.999998,-0.00181126
23.8,3.81713,-1.82655,0.999998,-0.00184363
23.9,3.9405,-1.82693,0.999998,-0.00185402
24,4.06375,-1.82722,0.999999,-0.00141879
24.1,4.18689,-1.82743,1,-0.000993013
24.2,4.30992,-1.82757,1,-0.00057857
24.3,4.43285,-1.82763,1,-0.000176062
24.4,4.55568,-1.82763,1,0.000214032
24.5,4.67842,-1.82755,1,0.000591193
24.6,4.80106,-1.8274,1,0.000954986
24.7,4.92363,-1.82719,0.999999,0.0013056
24.8,-4.95389,-1.82692,0.999999,0.00164451
24.9,-4.83148,-1.82659,0.999998,0.00197284
25,-4.70915,-1.8262,0.999997,0.00229151
25.1,-4.58689,-1.82575,0.999997,0.00260099
25.2,-4.4647,-1.82524,0.999996,0.00290165
25.3,-4.34258,-1.82469,0.999995,0.00319359
25.4,-4.22052,-1.82408,0.999994,0.00347693
25.5,-4.09852,-1.82342,0.999993,0.00375171
25.6,-3.97657,-1.82271,0.999992,0.00401808
25.7,-3.85469,-1.82196,0.999991,0.00427597
25.8,-3.73286,-1.82116,0.99999,0.00452546
25.9,-3.61107,-1.82031,0.999989,0.00476656
26,-3.48934,-1.81942,0.999988,0.0049993
26.1,-3.36765,-1.8185,0.999986,0.00522374
26.2,-3.24601,-1.81753,0.999985,0.00543992
26.3,-3.12442,-1.81652,0.999984,0.00564784
26.4,-3.00286,-1.81548,0.999983,0.00584755
26.5,-2.88134,-1.8144,0.999982,0.00603908
26.6,-2.75986,-1.81329,0.999981,0.00622251
26.7,-2.63841,-1.81215,0.999979,0.0063978
26.8,-2.51699,-1.81098,0.999978,0.00655849
26.9,-2.3956,-1.80979,0.999978,0.00664367
27,-2.27419,-1.80863,0.999979,0.00652578
27.1,-2.15276,-1.80749,0.999979,0.00640803
27.2,-2.03134,-1.80634,0.999979,0.00640426
27.3,-1.90992,-1.8052,0.999979,0.00640057
27.4,-1.78851,-1.80406,0.99998,0.00639696
27.5,-1.6671,-1.80292,0.999979,0.00639343
27.6,-1.5457,-1.80178,0.99998,0.00638999
27.7,-1.4243,-1.80064,0.99998,0.00638661
27.8,-1.3029,-1.7995,0.99998,0.0063833
27.9,-1.18151,-1.79836,0.99998,0.00638008
28,-1.06012,-1.79722,0.99998,0.00637693
28.1,-0.938734,-1.79608,0.99998,0.00637384
28.2,-0.817352,-1.79495,0.99998,0.00637084
28.3,-0.695972,-1.79381,0.99998,0.00636789
28.4,-0.574596,-1.79268,0.99998,0.00636502
28.5,-0.453223,-1.79154,0.99998,0.00636221
28.6,-0.331854,-1.79041,0.99998,0.00635947
28.7,-0.210487,-1.78927,0.99998,0.00635679
28.8,-0.0891233,-1.78814,0.99998,0.00635417
28.9,0.0322375,-1.78701,0.99998,0.0063516
29,0.153595,-1.78587,0.99998,0.0063491
29.1,0.274951,-1.78474,0.99998,0.00634665
29.2,0.396303,-1.78361,0.99998,0.00634426
29.3,0.517653,-1.78248,0.99998,0.00634194
29.4,0.639,-1.78135,0.99998,0.00633966
29.5,0.760345,-1.78022,0.99998,0.00633742
29.6,0.881687,-1.77909,0.99998,0.00633523
29.7,1.00303,-1.77796,0.99998,0.00633312
29.8,1.12436,-1.77683,0.99998,0.00633103
29.9,1.2457,-1.7757,0.99998,0.00632901
30,1.36703,-1.77457,0.99998,0.00632702
30.1,1.48836,-1.77344,0.99998,0.00632509
30.2,1.60969,-1.77232,0.99998,0.00632321
30.3,1.73102,-1.77119,0.99998,0.00632137
30.4,1.85234,-1.77006,0.99998,0.00631955
30.5,1.97367,-1.76893,0.99998,0.00631781
30.6,2.09499,-1.76781,0.99998,0.00631608
30.7,2.21631,-1.76668,0.99998,0.00631444
30.8,2.33762,-1.76556,0.99998,0.00631278
30.9,2.45894,-1.76443,0.99998,0.00631123
31,2.58025,-1.76331,0.99998,0.00630963
31.1,2.70156,-1.76218,0.99998,0.00630816
31.2,2.82287,-1.76106,0.99998,0.00630663
31.3,2.94418,-1.75993,0.99998,0.00630527
31.4,3.06549,-1.75881,0.99998,0.00630378
31.5,3.18679,-1.75768,0.99998,0.0063025
31.6,3.3081,-1.75656,0.99998,0.00630096
31.7,3.4294,-1.75544,0.99998,0.00629994
31.8,3.55076,-1.75438,0.999983,0.0059178
31.9,3.67241,-1.75369,0.999992,0.00394703
32,3.79414,-1.75308,0.999994,0.00350332
32.1,3.91622,-1.75285,0.999999,0.00141247
32.2,4.03841,-1.75272,1,0.00088363
32.3,4.16102,-1.753,0.999999,-0.00138395
32.4,4.28379,-1.75341,0.999998,-0.0020379
32.5,4.40689,-1.75409,0.999994,-0.00348559
32.6,4.52998,-1.75476,0.999994,-0.00348555
32.7,4.65308,-1.75544,0.999994,-0.00348558
32.8,4.77617,-1.75611,0.999994,-0.00348556
32.9,4.89927,-1.75679,0.999994,-0.00348557
33,-4.97764,-1.75746,0.999994,-0.00348553
33.1,-4.85455,-1.75814,0.999994,-0.00348563
33.2,-4.73145,-1.75881,0.999994,-0.00348562
33.3,-4.60836,-1.75949,0.999994,-0.00348561
33.4,-4.48526,-1.76016,0.999994,-0.00348556
33.5,-4.36217,-1.76084,0.999994,-0.00348558
33.6,-4.23907,-1.76151,0.999994,-0.00348555
33.7,-4.11598,-1.76219,0.999994,-0.00348559
33.8,-3.99288,-1.76286,0.999994,-0.00348554
33.9,-3.86979,-1.76354,0.999994,-0.00348556
34,-3.7467,-1.76421,0.999994,-0.00348557
34.1,-3.6236,-1.76489,0.999994,-0.00348553
34.2,-3.50051,-1.76557,0.999994,-0.00348554
34.3,-3.37741,-1.76624,0.999994,-0.00348551
34.4,-3.25432,-1.76692,0.999994,-0.00348552
34.5,-3.13122,-1.76759,0.999994,-0.0034855
34.6,-3.00813,-1.76827,0.999994,-0.00348549
34.7,-2.88504,-1.76894,0.999994,-0.00348549
34.8,-2.76194,-1.76962,0.999994,-0.00348548
34.9,-2.63885,-1.77029,0.999994,-0.00348548
35,-2.51575,-1.77097,0.999994,-0.00348547
35.1,-2.39266,-1.77164,0.999994,-0.00348545
35.2,-2.26956,-1.77232,0.999994,-0.00348543
35.3,-2.14647,-1.77299,0.999994,-0.00348544
35.4,-2.02337,-1.77367,0.999994,-0.00348541
35.5,-1.90028,-1.77434,0.999994,-0.0034854
35.6,-1.77719,-1.77502,0.999994,-0.00348539
35.7,-1.65409,-1.7757,0.999994,-0.00348538
35.8,-1.531,-1.77637,0.999994,-0.00348537
35.9,-1.4079,-1.77705,0.999994,-0.00348536
36,-1.28481,-1.77772,0.999994,-0.00348537
36.1,-1.16171,-1.7784,0.999994,-0.00348536
36.2,-1.03862,-1.77907,0.999994,-0.00348537
36.3,-0.915524,-1.77975,0.999994,-0.00348531
36.4,-0.79243,-1.78042,0.999994,-0.00348536
36.5,-0.66933,-1.7811,0.999994,-0.00348108
36.6,-0.546226,-1.78177,0.999994,-0.00347709
36.7,-0.423116,-1.78244,0.999994,-0.00347249
36.8,-0.300002,-1.78312,0.999994,-0.0034679
36.9,-0.176883,-1.78379,0.999994,-0.00346297
37,-0.0537582,-1.78446,0.999994,-0.00345787
37.1,0.0693711,-1.78513,0.999994,-0.00345273
37.2,0.192506,-1.78579,0.999994,-0.00344719
37.3,0.315645,-1.78646,0.999994,-0.00344147
37.4,0.43879,-1.78713,0.999994,-0.00343576
37.5,0.561939,-1.78779,0.999994,-0.00342957
37.6,0.685094,-1.78846,0.999994,-0.00342322
37.7,0.808253,-1.78912,0.999994,-0.00341698
37.8,0.931418,-1.78978,0.999994,-0.00340984
37.9,1.05459,-1.79044,0.999994,-0.00340343
38,1.17776,-1.7911,0.999994,-0.0033956
38.1,1.30094,-1.79176,0.999994,-0.00338878
38.2,1.42413,-1.79242,0.999994,-0.00338081
38.3,1.54732,-1.79307,0.999994,-0.00337344
38.4,1.67051,-1.79372,0.999994,-0.00336492
38.5,1.79371,-1.79438,0.999994,-0.00335721
38.6,1.91692,-1.79503,0.999994,-0.00334814
38.7,2.04013,-1.79567,0.999995,-0.00334027
38.8,2.16334,-1.79632,0.999994,-0.00333041
38.9,2.28661,-1.797,0.999994,-0.00348965
39,2.41005,-1.79779,0.999992,-0.0040817
39.1,2.53365,-1.79868,0.999989,-0.004649
39.2,2.65742,-1.79967,0.999987,-0.0051856
39.3,2.78134,-1.80076,0.999984,-0.00569582
39.4,2.90542,-1.80194,0.999981,-0.00617742
39.5,3.02965,-1.8032,0.999978,-0.00663374
39.6,3.15402,-1.80455,0.999975,-0.00706142
39.7,3.27854,-1.80597,0.999972,-0.0074673
39.8,3.4032,-1.80747,0.999969,-0.00784403
39.9,3.52799,-1.80903,0.999966,-0.00820069
40,3.65292,-1.81065,0.999964,-0.00852805
40.1,3.77798,-1.81233,0.999961,-0.00883807
40.2,3.90316,-1.81407,0.999958,-0.00912243
40.3,4.02847,-1.81586,0.999956,-0.00938522
40.4,4.1539,-1.81769,0.999954,-0.00962815
40.5,4.27945,-1.81957,0.999952,-0.00984924
40.6,4.40511,-1.82148,0.99995,-0.0100508
40.7,4.53089,-1.82344,0.999948,-0.0102327
40.8,4.65678,-1.82542,0.999946,-0.0103966
40.9,4.78278,-1.82743,0.999944,-0.010542
41,4.90889,-1.82947,0.999943,-0.0106693
41.1,-4.9649,-1.83152,0.999942,-0.0107806
41.2,-4.83858,-1.8336,0.999941,-0.0108755
41.3,-4.71216,-1.83569,0.99994,-0.0109525
41.4,-4.58565,-1.8378,0.999939,-0.0110159
41.5,-4.45903,-1.83992,0.999939,-0.0110632
41.6,-4.33232,-1.84204,0.999938,-0.0110965
41.7,-4.20547,-1.84411,0.999941,-0.0108236
41.8,-4.07846,-1.84607,0.999948,-0.0102005
41.9,-3.95136,-1.84803,0.999948,-0.0102233
42,-3.8242,-1.85004,0.999945,-0.01046
42.1,-3.69698,-1.85211,0.999942,-0.0107693
42.2,-3.56971,-1.85424,0.999938,-0.011106
42.3,-3.4424,-1.85644,0.999934,-0.0114556
42.4,-3.31504,-1.8587,0.99993,-0.0118133
42.5,-3.18764,-1.86104,0.999926,-0.0121775
42.6,-3.06022,-1.86344,0.999921,-0.0125481
42.7,-2.93276,-1.86592,0.999916,-0.0129248
42.8,-2.80528,-1.86847,0.999911,-0.0133079
42.9,-2.67777,-1.8711,0.999906,-0.0136974
43,-2.55025,-1.8738,0.999901,-0.0140935
43.1,-2.42271,-1.87657,0.999895,-0.0144961
43.2,-2.29516,-1.87943,0.999889,-0.0149054
43.3,-2.16761,-1.88236,0.999883,-0.0153213
43.4,-2.04006,-1.88537,0.999876,-0.0157439
43.5,-1.91251,-1.88847,0.999869,-0.0161729
43.6,-1.78498,-1.89164,0.999862,-0.0166082
43.7,-1.65746,-1.8949,0.999855,-0.0170497
43.8,-1.52995,-1.89825,0.999847,-0.0174971
43.9,-1.40248,-1.90168,0.999839,-0.0179501
44,-1.27504,-1.90519,0.999831,-0.0184082
44.1,-1.14763,-1.9088,0.999822,-0.0188709
44.2,-1.02027,-1.91249,0.999813,-0.0193377
44.3,-0.892961,-1.91627,0.999804,-0.019808
44.4,-0.765708,-1.92013,0.999794,-0.020281
44.5,-0.63852,-1.92409,0.999785,-0.0207558
44.6,-0.511404,-1.92813,0.999775,-0.0212317
44.7,-0.384368,-1.93226,0.999764,-0.0217072
44.8,-0.257419,-1.93648,0.999754,-0.0221813
44.9,-0.130568,-1.94079,0.999743,-0.0226526
45,-0.00382227,-1.94518,0.999733,-0.0231197
45.1,0.122807,-1.94966,0.999722,-0.0235807
45.2,0.24931,-1.95422,0.999711,-0.024034
45.3,0.375674,-1.95886,0.9997,-0.0244772
45.4,0.501996,-1.96352,0.999697,-0.0246046
45.5,0.628317,-1.96818,0.999697,-0.0246045
45.6,0.754639,-1.97284,0.999697,-0.0246045
45.7,0.880961,-1.97751,0.999697,-0.0246045
45.8,1.00728,-1.98217,0.999697,-0.0246044
45.9,1.1336,-1.98683,0.999697,-0.0246043
46,1.25993,-1.99149,0.999697,-0.0246043
46.1,1.38625,-1.99616,0.999697,-0.0246043
46.2,1.51257,-2.00082,0.999697,-0.0246043
46.3,1.63889,-2.00548,0.999697,-0.0246042
46.4,1.76521,-2.01014,0.999697,-0.0246041
46.5,1.89153,-2.0148,0.999697,-0.0246041
46.6,2.01786,-2.01947,0.999697,-0.024604
46.7,2.14418,-2.02413,0.999697,-0.024604
46.8,2.2705,-2.02879,0.999697,-0.0246039
46.9,2.39682,-2.03345,0.999697,-0.0246039
47,2.52314,-2.03812,0.999697,-0.0246039
47.1,2.64946,-2.04278,0.999697,-0.0246038
47.2,2.77579,-2.04744,0.999697,-0.0246037
47.3,2.90211,-2.0521,0.999697,-0.0246037
47.4,3.02843,-2.05677,0.999697,-0.0246036
47.5,3.15475,-2.06143,0.999697,-0.0246036
47.6,3.28107,-2.06609,0.999697,-0.0246035
47.7,3.4074,-2.07075,0.999697,-0.0246035
47.8,3.53372,-2.07541,0.999697,-0.0246034
47.9,3.66004,-2.08008,0.999697,-0.0246034
48,3.78636,-2.08474,0.999697,-0.0246033
48.1,3.91268,-2.0894,0.999697,-0.0246033
48.2,4.039,-2.09406,0.999697,-0.0246033
48.3,4.16533,-2.09872,0.999697,-0.0246032
48.4,4.29165,-2.10339,0.999697,-0.0246032
48.5,4.41797,-2.10805,0.999697,-0.0246031
48.6,4.54429,-2.11271,0.999697,-0.0246031
48.7,4.67061,-2.11737,0.999697,-0.0246031
48.8,4.79694,-2.12203,0.999697,-0.024603
48.9,4.92326,-2.1267,0.999697,-0.024603
49,-4.95042,-2.13136,0.999697,-0.024603
49.1,-4.8241,-2.13602,0.999697,-0.024603
49.2,-4.69778,-2.14068,0.999697,-0.024603
49.3,-4.57146,-2.14534,0.999697,-0.024603
49.4,-4.44513,-2.15001,0.999697,-0.024603
49.5,-4.31881,-2.15467,0.999697,-0.0246029
49.6,-4.19249,-2.15933,0.999697,-0.0246029
49.7,-4.06617,-2.16399,0.999697,-0.0246029
49.8,-3.93985,-2.16865,0.999697,-0.0246028
49.9,-3.81352,-2.17332,0.999697,-0.0246028
50,-3.6872,-2.17798,0.999697,-0.0246027
50.1,-3.56088,-2.18264,0.999697,-0.0246028
50.2,-3.43456,-2.1873,0.999697,-0.0246027
50.3,-3.30836,-2.19193,0.999702,-0.0244138
50.4,-3.18233,-2.19649,0.99971,-0.0240948
50.5,-3.05642,-2.20099,0.999717,-0.0237991
50.6,-2.93071,-2.20539,0.999729,-0.0232823
50.7,-2.80515,-2.2097,0.99974,-0.0228204
50.8,-2.6798,-2.21384,0.999759,-0.0219692
50.9,-2.55462,-2.21784,0.999775,-0.0211954
51,-2.42968,-2.2216,0.9998,-0.0199825
51.1,-2.30488,-2.22519,0.999819,-0.0190398
51.2,-2.18029,-2.22851,0.999844,-0.0176778
51.3,-2.05584,-2.23164,0.999862,-0.0166222
51.4,-1.93156,-2.23449,0.999885,-0.0151289
51.5,-1.80739,-2.23712,0.999902,-0.0139763
51.6,-1.68336,-2.23945,0.999923,-0.0123738
51.7,-1.55942,-2.24155,0.999938,-0.0111448
51.8,-1.4356,-2.24321,0.999962,-0.00876712
51.9,-1.31187,-2.24425,0.999985,-0.00539841
52,-1.18818,-2.24461,0.999998,-0.00181261
52.1,-1.06447,-2.24455,1,0.000504883
52.2,-0.940766,-2.24449,1,0.000504883
52.3,-0.817061,-2.24443,1,0.000504883
52.4,-0.693356,-2.24436,1,0.000504883
52.5,-0.569651,-2.2443,1,0.000504883
52.6,-0.445947,-2.24424,1,0.000504883
52.7,-0.322242,-2.24418,1,0.000504883
52.8,-0.198537,-2.24412,1,0.000504883
52.9,-0.0748323,-2.24405,1,0.000504883
53,0.0488725,-2.24399,1,0.000504883
53.1,0.172577,-2.24393,1,0.000504883
53.2,0.296282,-2.24387,1,0.000504883
53.3,0.419987,-2.2438,1,0.000504883
53.4,0.543692,-2.24374,1,0.000504883
53.5,0.667396,-2.24368,1,0.000504883
53.6,0.791101,-2.24362,1,0.000504883
53.7,0.914806,-2.24355,1,0.000504883
53.8,1.03851,-2.24349,1,0.000504883
53.9,1.16222,-2.24343,1,0.000504883
54,1.28592,-2.24337,1,0.000504883
54.1,1.40963,-2.2433,1,0.000504883
54.2,1.53333,-2.24324,1,0.000504883
54.3,1.65703,-2.24318,1,0.000504883
54.4,1.78074,-2.24312,1,0.000504882
54.5,1.90444,-2.24305,1,0.000504883
54.6,2.02815,-2.24299,1,0.000504883
54.7,2.15185,-2.24293,1,0.000504883
54.8,2.27556,-2.24287,1,0.000504883
54.9,2.39926,-2.2428,1,0.000504883
55,2.52297,-2.24274,1,0.000504883
55.1,2.64667,-2.24268,1,0.000504883
55.2,2.77038,-2.24262,1,0.000504883
55.3,2.89408,-2.24255,1,0.000504883
55.4,3.01779,-2.24249,1,0.000504883
55.5,3.14149,-2.24243,1,0.000504883
55.6,3.2652,-2.24237,1,0.000504882
55.7,3.3889,-2.2423,1,0.000504883
55.8,3.5126,-2.24224,1,0.000504883
55.9,3.63631,-2.24218,1,0.000504883
56,3.76001,-2.24212,1,0.000504883
56.1,3.88372,-2.24205,1,0.000504883
56.2,4.00742,-2.24199,1,0.000504883
56.3,4.13113,-2.24193,1,0.000504883
56.4,4.25483,-2.24187,1,0.000504883
56.5,4.37854,-2.2418,1,0.000504883
56.6,4.50224,-2.24174,1,0.000504883
56.7,4.62595,-2.24168,1,0.000504883
56.8,4.74965,-2.24162,1,0.000504882
56.9,4.87336,-2.24155,1,0.000504883
57,4.99706,-2.24149,1,0.000504883
57.1,-4.87923,-2.24143,1,0.000504883
57.2,-4.75553,-2.24137,1,0.000504781
57.3,-4.63182,-2.2413,1,0.000504782
57.4,-4.50811,-2.24124,1,0.000539327
57.5,-4.38433,-2.24114,1,0.000704452
57.6,-4.26051,-2.241,1,0.000875428
57.7,-4.13662,-2.24084,0.999999,0.00105343
57.8,-4.01268,-2.24064,0.999999,0.00121853
57.9,-3.88868,-2.24042,0.999999,0.00138337
58,-3.76464,-2.24016,0.999999,0.00153748
58.1,-3.64054,-2.23988,0.999999,0.00169009
58.2,-3.5164,-2.23957,0.999998,0.00183432
58.3,-3.3922,-2.23923,0.999998,0.00197616
58.4,-3.26797,-2.23887,0.999998,0.00211099
58.5,-3.14369,-2.23849,0.999997,0.00224262
58.6,-3.01938,-2.23808,0.999997,0.0023681
58.7,-2.89502,-2.23764,0.999997,0.0024896
58.8,-2.77062,-2.23719,0.999997,0.00260541
58.9,-2.64619,-2.23672,0.999996,0.00271651
59,-2.52173,-2.23622,0.999996,0.00282204
59.1,-2.39723,-2.23571,0.999996,0.00292205
59.2,-2.27274,-2.23519,0.999996,0.00292203
59.3,-2.14824,-2.23468,0.999996,0.00292204
59.4,-2.02375,-2.23417,0.999996,0.00292201
59.5,-1.89925,-2.23365,0.999996,0.00292197
59.6,-1.77475,-2.23314,0.999996,0.00292196
59.7,-1.65026,-2.23263,0.999996,0.00292195
59.8,-1.52576,-2.23212,0.999996,0.00292196
59.9,-1.40127,-2.2316,0.999996,0.00292192
60,-1.27677,-2.23109,0.999996,0.00292193
60.1,-1.15227,-2.23058,0.999996,0.00292189
60.2,-1.02778,-2.23006,0.999996,0.00292181
60.3,-0.903283,-2.22955,0.999996,0.00292179
60.4,-0.778787,-2.22904,0.999996,0.00292176
60.5,-0.654291,-2.22852,0.999996,0.00292165
60.6,-0.529795,-2.22801,0.999996,0.00292151
60.7,-0.405334,-2.22752,0.999996,0.0027668
60.8,-0.280946,-2.2271,0.999997,0.0024487
60.9,-0.15659,-2.2267,0.999997,0.00231663
61,-0.0323084,-2.22635,0.999998,0.0020328
61.1,0.0919426,-2.22603,0.999998,0.0019204
61.2,0.21612,-2.22575,0.999999,0.00166846
61.3,0.340268,-2.22549,0.999999,0.00157307
61.4,0.464344,-2.22527,0.999999,0.00135
61.5,0.588391,-2.22506,0.999999,0.00126975
61.6,0.712365,-2.22489,0.999999,0.00107432
61.7,0.836313,-2.22474,1,0.00100702
61.8,0.960189,-2.22461,1,0.000837398
61.9,1.08404,-2.2245,1,0.000781786
62,1.20782,-2.22441,1,0.000636285
62.1,1.33157,-2.22433,1,0.000591245
62.2,1.45528,-2.22427,1,0.000504502
62.3,1.57898,-2.22421,1,0.000504502
62.4,1.70269,-2.22415,1,0.000504502
62.5,1.82639,-2.22408,1,0.000504502
62.6,1.9501,-2.22402,1,0.000504502
62.7,2.0738,-2.22396,1,0.000504502
62.8,2.1975,-2.2239,1,0.000504502
62.9,2.32121,-2.22383,1,0.000504502
63,2.44491,-2.22377,1,0.000504502
63.1,2.56862,-2.22371,1,0.000504502
63.2,2.69232,-2.22365,1,0.000504502
63.3,2.81603,-2.22358,1,0.000504502
63.4,2.93973,-2.22352,1,0.000504502
63.5,3.06344,-2.22346,1,0.000504502
63.6,3.18714,-2.2234,1,0.000504502
63.7,3.31085,-2.22333,1,0.000504502
63.8,3.43455,-2.22327,1,0.000504502
63.9,3.55826,-2.22321,1,0.000504502
64,3.68196,-2.22315,1,0.000504502
64.1,3.80567,-2.22308,1,0.000504502
64.2,3.92937,-2.22302,1,0.000504502
64.3,4.05308,-2.22296,1,0.000504502
64.4,4.17678,-2.2229,1,0.000504502
64.5,4.30049,-2.22283,1,0.000504502
64.6,4.42419,-2.22277,1,0.000504502
64.7,4.54789,-2.22271,1,0.000504502
64.8,4.6716,-2.22265,1,0.000504502
64.9,4.7953,-2.22258,1,0.000504502
65,4.91901,-2.22252,1,0.000504502
65.1,-4.95729,-2.22246,1,0.000504502
65.2,-4.83358,-2.2224,1,0.000504401
65.3,-4.70988,-2.22233,1,0.000504401
65.4,-4.58617,-2.22227,1,0.000504401
65.5,-4.46247,-2.22221,1,0.000504401
65.6,-4.33876,-2.22215,1,0.000504401
65.7,-4.21506,-2.22208,1,0.000504401
65.8,-4.09134,-2.22199,1,0.000660364
65.9,-3.96762,-2.22187,1,0.000809425
66,-3.84389,-2.22173,1,0.000944035
66.1,-3.72016,-2.22156,0.999999,0.00106378
66.2,-3.59643,-2.22138,0.999999,0.00116847
66.3,-3.4727,-2.22118,0.999999,0.00125779
66.4,-3.34897,-2.22096,0.999999,0.00133158
66.5,-3.22524,-2.22073,0.999999,0.00138971
66.6,-3.10151,-2.2205,0.999999,0.00143212
66.7,-2.97779,-2.22026,0.999999,0.00145877
66.8,-2.85407,-2.22002,0.999999,0.00146974
66.9,-2.73035,-2.21978,0.999999,0.00146999
67,-2.60663,-2.21953,0.999999,0.00147
67.1,-2.48291,-2.21929,0.999999,0.00147001
67.2,-2.35919,-2.21905,0.999999,0.00147002
67.3,-2.23547,-2.21881,0.999999,0.00147002
67.4,-2.11175,-2.21857,0.999999,0.00147003
67.5,-1.98803,-2.21833,0.999999,0.00147003
67.6,-1.86431,-2.21809,0.999999,0.00147005
67.7,-1.74059,-2.21784,0.999999,0.00147005
67.8,-1.61687,-2.2176,0.999999,0.00147006
67.9,-1.49315,-2.21736,0.999999,0.00147007
68,-1.36944,-2.21712,0.999999,0.00147009
68.1,-1.24572,-2.21688,0.999999,0.0014701
68.2,-1.122,-2.21664,0.999999,0.00147011
68.3,-0.998277,-2.21639,0.999999,0.00147013
68.4,-0.874558,-2.21615,0.999999,0.00147014
68.5,-0.750838,-2.21591,0.999999,0.00147016
68.6,-0.627119,-2.21567,0.999999,0.00147017
68.7,-0.5034,-2.21543,0.999999,0.0014702
68.8,-0.37968,-2.21519,0.999999,0.00147022
68.9,-0.255961,-2.21495,0.999999,0.00147019
69,-0.132242,-2.2147,0.999999,0.00147022
69.1,-0.00852213,-2.21446,0.999999,0.00147019
69.2,0.115197,-2.21422,0.999999,0.00147021
69.3,0.238917,-2.21398,0.999999,0.00147019
69.4,0.362636,-2.21374,0.999999,0.00147021
69.5,0.486355,-2.2135,0.999999,0.00147018
69.6,0.610075,-2.21325,0.999999,0.0014702
69.7,0.733794,-2.21301,0.999999,0.00147017
69.8,0.857514,-2.21277,0.999999,0.0014702
69.9,0.981233,-2.21253,0.999999,0.00147017
70,1.10495,-2.21229,0.999999,0.00147019
70.1,1.22867,-2.21205,0.999999,0.0014702
70.2,1.35239,-2.2118,0.999999,0.00147016
70.3,1.47611,-2.21156,0.999999,0.00147019
70.4,1.59983,-2.21132,0.999999,0.00147019
70.5,1.72355,-2.21108,0.999999,0.00147015
70.6,1.84727,-2.21084,0.999999,0.00147019
70.7,1.97099,-2.2106,0.999999,0.00147016
70.8,2.09471,-2.21035,0.999999,0.00147021
70.9,2.21843,-2.21011,0.999999,0.00147019
71,2.34215,-2.20987,0.999999,0.00147016
71.1,2.46587,-2.20963,0.999999,0.00147021
71.2,2.58958,-2.20939,0.999999,0.00147019
71.3,2.7133,-2.20915,0.999999,0.0014701
71.4,2.83702,-2.2089,0.999999,0.00147027
71.5,2.96074,-2.20866,0.999999,0.00147008
71.6,3.08446,-2.20842,0.999999,0.00147015
71.7,3.20818,-2.20821,0.999999,0.00129677
71.8,3.33188,-2.20815,1,0.000504199
71.9,3.45559,-2.20809,1,0.000504198
72,3.57929,-2.20802,1,0.000504198
72.1,3.703,-2.20796,1,0.000504198
72.2,3.8267,-2.2079,1,0.000504198
72.3,3.95041,-2.20784,1,0.000504198
72.4,4.07411,-2.20777,1,0.000504198
72.5,4.19782,-2.20771,1,0.000504198
72.6,4.32152,-2.20765,1,0.000504198
72.7,4.44523,-2.20759,1,0.000504198
72.8,4.56893,-2.20752,1,0.000504198
72.9,4.69264,-2.20746,1,0.000504198
73,4.81634,-2.2074,1,0.000504198
73.1,4.94005,-2.20734,1,0.000504198
73.2,-4.93625,-2.20727,1,0.000504198
73.3,-4.81254,-2.20721,1,0.000504098
73.4,-4.68884,-2.20715,1,0.000504098
73.5,-4.56513,-2.20709,1,0.000504098
73.6,-4.44143,-2.20702,1,0.000504098
73.7,-4.31772,-2.20696,1,0.000504098
73.8,-4.19402,-2.2069,1,0.000504098
73.9,-4.07031,-2.20684,1,0.000504098
74,-3.94661,-2.20677,1,0.000504098
74.1,-3.82291,-2.20671,1,0.000504098
74.2,-3.6992,-2.20665,1,0.000504098
74.3,-3.5755,-2.20659,1,0.000504098
74.4,-3.45179,-2.20653,1,0.000504098
74.5,-3.32809,-2.20646,1,0.000504098
74.6,-3.20438,-2.2064,1,0.000504098
74.7,-3.08068,-2.20634,1,0.000504098
74.8,-2.95699,-2.20628,1,0.000491525
74.9,-2.83346,-2.20624,1,0.000363895
75,-2.71008,-2.20624,1,0.000172789
75.1,-2.58684,-2.20628,1,-7.08749e-05
75.2,-2.46374,-2.20638,1,-0.00035956
75.3,-2.34077,-2.20654,1,-0.000686198
75.4,-2.21791,-2.20677,0.999999,-0.00104651
75.5,-2.09517,-2.20706,0.999999,-0.00143667
75.6,-1.97254,-2.20743,0.999998,-0.00185319
75.7,-1.85,-2.20789,0.999997,-0.00229286
75.8,-1.72754,-2.20843,0.999996,-0.00275297
75.9,-1.60517,-2.20905,0.999995,-0.00323152
76,-1.48287,-2.20977,0.999993,-0.00372542
76.1,-1.36063,-2.21058,0.999991,-0.00423159
76.2,-1.23844,-2.21149,0.999989,-0.00474695
76.3,-1.11629,-2.21249,0.999986,-0.00526833
76.4,-0.994176,-2.21358,0.999983,-0.00579257
76.5,-0.872088,-2.21478,0.99998,-0.00631651
76.6,-0.750016,-2.21607,0.999977,-0.00683695
76.7,-0.627951,-2.21745,0.999973,-0.00735073
76.8,-0.505884,-2.21892,0.999969,-0.00785462
76.9,-0.383808,-2.22049,0.999965,-0.00834556
77,-0.261713,-2.22214,0.999961,-0.00882044
77.1,-0.139592,-2.22388,0.999957,-0.00927621
77.2,-0.0174371,-2.2257,0.999953,-0.00970998
77.3,0.104759,-2.22759,0.999949,-0.0101189
77.4,0.227003,-2.22956,0.999945,-0.0105003
77.5,0.349302,-2.23159,0.999941,-0.0108518
77.6,0.47166,-2.23368,0.999938,-0.0111709
77.7,0.594085,-2.23582,0.999934,-0.0114551
77.8,0.716578,-2.23801,0.999932,-0.0117017
77.9,0.839146,-2.24024,0.999929,-0.0119118
78,0.961723,-2.24247,0.999929,-0.0119335
78.1,1.0843,-2.2447,0.999929,-0.0119334
78.2,1.20688,-2.24693,0.999929,-0.0119334
78.3,1.32945,-2.24916,0.999929,-0.0119334
78.4,1.45203,-2.2514,0.999929,-0.0119334
78.5,1.57461,-2.25363,0.999929,-0.0119333
78.6,1.69718,-2.25586,0.999929,-0.0119333
78.7,1.81976,-2.25809,0.999929,-0.0119333
78.8,1.94234,-2.26033,0.999929,-0.0119333
78.9,2.06491,-2.26256,0.999929,-0.0119333
79,2.18749,-2.26479,0.999929,-0.0119332
79.1,2.31007,-2.26702,0.999929,-0.0119332
79.2,2.43264,-2.26926,0.999929,-0.0119332
79.3,2.55522,-2.27149,0.999929,-0.0119332
79.4,2.6778,-2.27372,0.999929,-0.0119331
79.5,2.80037,-2.27595,0.999929,-0.0119331
79.6,2.92295,-2.27818,0.999929,-0.0119331
79.7,3.04552,-2.28042,0.999929,-0.0119331
79.8,3.1681,-2.28265,0.999929,-0.011933
79.9,3.29068,-2.28488,0.999929,-0.011933
80,3.41325,-2.28711,0.999929,-0.011933
