0.1,-11.7078,6.69197,0.994356,-0.106094
0.2,-1.69549,6.65744,0.921067,-0.389404
0.3,-1.67438,6.61032,0.886871,-0.462018
0.4,-1.64639,6.5684,0.918409,-0.395632
0.5,-1.60464,6.54097,0.970842,-0.23972
0.6,-1.54215,6.52104,0.988762,-0.149496
0.7,-1.45929,6.50938,0.997078,-0.076385
0.8,-1.35716,6.50123,0.998874,-0.0474418
0.9,-1.24108,6.49915,0.999937,-0.0112213
1,-1.11718,6.49957,0.999998,0.00216264
1.1,-0.988999,6.50086,0.999979,0.00655279
1.2,-0.858526,6.50256,0.999964,0.00847773
1.3,-0.726929,6.50444,0.999956,0.0093632
1.4,-0.594908,6.50639,0.999953,0.00969751
1.5,-0.462876,6.50835,0.999953,0.00972002
1.6,-0.331057,6.51027,0.999954,0.00957289
1.7,-0.199452,6.51217,0.999956,0.00942196
1.8,-0.0680561,6.51403,0.999957,0.00927863
1.9,0.0631358,6.51586,0.999958,0.00913911
2,0.194127,6.51766,0.999959,0.00900341
2.1,0.324923,6.51944,0.999961,0.00887134
2.2,0.455526,6.52119,0.999962,0.00874284
2.3,0.58594,6.52291,0.999963,0.00861783
2.4,0.716171,6.5246,0.999964,0.00849619
2.5,0.84622,6.52627,0.999965,0.00837786
2.6,0.976094,6.52792,0.999966,0.00826268
2.7,1.10579,6.52954,0.999967,0.00815058
2.8,1.23533,6.53114,0.999968,0.00804608
2.9,1.3647,6.53272,0.999968,0.00794385
3,1.4939,6.53428,0.999969,0.00784254
3.1,1.62295,6.53581,0.99997,0.00774248
3.2,1.75185,6.53733,0.999971,0.00764368
3.3,1.8806,6.53882,0.999972,0.00754426
3.4,2.0092,6.5403,0.999972,0.00744436
3.5,2.13765,6.54175,0.999973,0.00734499
3.6,2.26597,6.54318,0.999974,0.00724698
3.7,2.39415,6.54459,0.999974,0.00715053
3.8,2.5222,6.54599,0.999975,0.00705577
3.9,2.65011,6.54736,0.999976,0.00696276
4,2.77789,6.54871,0.999976,0.00687145
4.1,2.90555,6.55005,0.999977,0.00678184
4.2,3.03308,6.55137,0.999978,0.00669386
4.3,3.1605,6.55267,0.999978,0.00660746
4.4,3.28779,6.55395,0.999979,0.0065226
4.5,3.41496,6.55521,0.999979,0.00643918
4.6,3.54202,6.55646,0.99998,0.00635704
4.7,3.66896,6.55769,0.99998,0.00627512
4.8,3.79579,6.55891,0.999981,0.00619406
4.9,3.92252,6.56011,0.999981,0.0061166
5,4.04913,6.56129,0.999982,0.00604062
5.1,4.17565,6.56246,0.999982,0.00596618
5.2,4.30206,6.56361,0.999983,0.00589317
5.3,4.42837,6.56475,0.999983,0.00582159
5.4,4.55458,6.56588,0.999983,0.00575143
5.5,4.68069,6.56699,0.999984,0.00568261
5.6,4.80671,6.56808,0.999984,0.00561512
5.7,4.93264,6.56917,0.999985,0.0055492
5.8,-4.94153,6.57024,0.999985,0.0054849
5.9,-4.81578,6.57129,0.999985,0.00542203
6,-4.69012,6.57234,0.999986,0.00536053
6.1,-4.56455,6.57337,0.999986,0.0053003
6.2,-4.43906,6.57439,0.999986,0.00524132
6.3,-4.31366,6.5754,0.999987,0.00518351
6.4,-4.18833,6.5764,0.999987,0.00512685
6.5,-4.06309,6.57739,0.999987,0.00507133
6.6,-3.93792,6.57836,0.999987,0.00501696
6.7,-3.81283,6.57933,0.999988,0.00496387
6.8,-3.68781,6.58028,0.999988,0.00490937
6.9,-3.56284,6.58121,0.999988,0.0047947
7,-3.43774,6.58206,0.999991,0.00433593
7.1,-3.31267,6.58287,0.999991,0.00420258
7.2,-3.18766,6.58368,0.999991,0.0041263
7.3,-3.06269,6.58446,0.999992,0.00405197
7.4,-2.93778,6.58524,0.999992,0.00397922
7.5,-2.81292,6.58599,0.999992,0.00390802
7.6,-2.68811,6.58674,0.999993,0.00383836
7.7,-2.56335,6.58747,0.999993,0.00377021
7.8,-2.43863,6.58819,0.999993,0.00370352
7.9,-2.31396,6.58889,0.999993,0.00363827
8,-2.18934,6.58959,0.999994,0.00357443
8.1,-2.06476,6.59027,0.999994,0.00351196
8.2,-1.94023,6.59094,0.999994,0.00345085
8.3,-1.81573,6.5916,0.999994,0.00339108
8.4,-1.69128,6.59224,0.999994,0.00333262
8.5,-1.56687,6.59288,0.999995,0.00327542
8.6,-1.44249,6.5935,0.999995,0.00321948
8.7,-1.31816,6.59411,0.999995,0.00316478
8.8,-1.19386,6.59471,0.999995,0.0031113
8.9,-1.0696,6.59531,0.999995,0.00305899
9,-0.945381,6.59589,0.999995,0.00300785
9.1,-0.821193,6.59646,0.999996,0.00295785
9.2,-0.69704,6.59702,0.999996,0.00290897
9.3,-0.572921,6.59758,0.999996,0.00286125
9.4,-0.448831,6.59812,0.999996,0.00281903
9.5,-0.324771,6.59866,0.999996,0.0027761
9.6,-0.200742,6.59919,0.999996,0.0027328
9.7,-0.0767432,6.59971,0.999996,0.00268934
9.8,0.0472247,6.60022,0.999996,0.00264592
9.9,0.171162,6.60072,0.999997,0.00260265
10,0.295069,6.60122,0.999997,0.00255963
10.1,0.418947,6.6017,0.999997,0.00251699
10.2,0.542794,6.60218,0.999997,0.00247479
10.3,0.666613,6.60265,0.999997,0.00243312
10.4,0.790402,6.60311,0.999997,0.00239204
10.5,0.914163,6.60357,0.999997,0.00235153
10.6,1.0379,6.60401,0.999997,0.00231164
10.7,1.1616,6.60445,0.999997,0.00227239
10.8,1.28528,6.60488,0.999997,0.00223376
10.9,1.40893,6.60531,0.999998,0.0021958
11,1.53256,6.60572,0.999998,0.00215843
11.1,1.65616,6.60613,0.999998,0.00212169
11.2,1.77973,6.60653,0.999998,0.00208569
11.3,1.90328,6.60693,0.999998,0.00205039
11.4,2.02681,6.60732,0.999998,0.00201585
11.5,2.15031,6.6077,0.999998,0.001982
11.6,2.27379,6.60807,0.999998,0.00194885
11.7,2.39724,6.60844,0.999998,0.00191637
11.8,2.52067,6.60881,0.999998,0.00188456
11.9,2.64409,6.60916,0.999998,0.00185341
12,2.76748,6.60952,0.999998,0.0018229
12.1,2.89085,6.60986,0.999998,0.00179303
12.2,3.01419,6.6102,0.999998,0.00176378
12.3,3.13752,6.61054,0.999999,0.00173515
12.4,3.26083,6.61086,0.999999,0.00170708
12.5,3.38412,6.61119,0.999999,0.0016796
12.6,3.50739,6.61151,0.999999,0.00165271
12.7,3.63065,6.61182,0.999999,0.00162637
12.8,3.75388,6.61213,0.999999,0.00160055
12.9,3.8771,6.61243,0.999999,0.0015753
13,4.0003,6.61273,0.999999,0.00155055
13.1,4.12348,6.61302,0.999999,0.00152633
13.2,4.24665,6.61331,0.999999,0.00150262
13.3,4.3698,6.6136,0.999999,0.00147941
13.4,4.49293,6.61388,0.999999,0.00145668
13.5,4.61605,6.61415,0.999999,0.00143441
13.6,4.73916,6.61442,0.999999,0.0014126
13.7,4.86224,6.61469,0.999999,0.00139129
13.8,4.98532,6.61495,0.999999,0.00137044
13.9,-4.89162,6.61521,0.999999,0.00135001
14,-4.76858,6.61547,0.999999,0.00133001
14.1,-4.64554,6.61572,0.999999,0.00131048
14.2,-4.52252,6.61597,0.999999,0.00129134
14.3,-4.39952,6.61621,0.999999,0.00127259
14.4,-4.27653,6.61646,0.999999,0.00125422
14.5,-4.15354,6.61669,0.999999,0.00123622
14.6,-4.03058,6.61693,0.999999,0.00121868
14.7,-3.90762,6.61716,0.999999,0.0012015
14.8,-3.78468,6.61739,0.999999,0.00118469
14.9,-3.66174,6.61761,0.999999,0.00116826
15,-3.53882,6.61783,0.999999,0.00115212
15.1,-3.41591,6.61805,0.999999,0.00113638
15.2,-3.29301,6.61827,0.999999,0.00112097
15.3,-3.17012,6.61848,0.999999,0.00110583
15.4,-3.04724,6.61869,0.999999,0.00109103
15.5,-2.92437,6.6189,0.999999,0.00107657
15.6,-2.80151,6.6191,0.999999,0.00106242
15.7,-2.67866,6.6193,0.999999,0.00104857
15.8,-2.55582,6.6195,0.999999,0.00103506
15.9,-2.43299,6.6197,0.999999,0.00102179
16,-2.31017,6.61989,0.999999,0.00100875
16.1,-2.18735,6.62008,1,0.000996082
16.2,-2.06455,6.62027,1,0.000983693
16.3,-1.94162,6.62049,0.999999,0.00116659
16.4,-1.81867,6.62072,0.999999,0.00118691
16.5,-1.69529,6.62107,0.999998,0.00181074
16.6,-1.5719,6.62142,0.999998,0.00181026
16.7,-1.44852,6.62177,0.999998,0.00181208
16.8,-1.32511,6.62211,0.999998,0.00176715
16.9,-1.2017,6.62245,0.999998,0.00175586
17,-1.07825,6.62278,0.999999,0.00170895
17.1,-0.954797,6.6231,0.999999,0.00169658
17.2,-0.831313,6.62342,0.999999,0.00164823
17.3,-0.70782,6.62374,0.999999,0.00163407
17.4,-0.584296,6.62404,0.999999,0.00158356
17.5,-0.460764,6.62434,0.999999,0.00157053
17.6,-0.337196,6.62464,0.999999,0.00151397
17.7,-0.21362,6.62493,0.999999,0.00150072
17.8,-0.0900078,6.6252,0.999999,0.00144227
17.9,0.0339765,6.62555,0.999998,0.0018081
18,0.158533,6.62599,0.999997,0.00223187
18.1,0.28361,6.62651,0.999996,0.00268208
18.2,0.409505,6.62713,0.999995,0.00319064
18.3,0.536213,6.62787,0.999993,0.00376714
18.4,0.664268,6.62874,0.99999,0.00443642
18.5,0.793923,6.62979,0.999986,0.00527161
18.6,0.926746,6.63108,0.99998,0.00637894
18.7,1.06527,6.63274,0.999968,0.00799968
18.8,1.20388,6.63399,0.999982,0.0060107
18.9,1.34253,6.635,0.999988,0.00483917
19,1.48122,6.63555,0.999997,0.00262212
19.1,1.6199,6.63579,0.999999,0.00119303
19.2,1.75858,6.63579,1,1.29937e-06
19.3,1.89725,6.63579,1,1.29938e-06
19.4,2.03592,6.63579,1,1.29938e-06
19.5,2.1746,6.63579,1,1.29939e-06
19.6,2.31327,6.63579,1,1.29939e-06
19.7,2.45194,6.63579,1,1.2994e-06
19.8,2.59062,6.63579,1,1.2994e-06
19.9,2.72929,6.63579,1,1.2994e-06
20,2.86797,6.63579,1,1.29941e-06
20.1,3.00664,6.63579,1,1.29941e-06
20.2,3.14531,6.63579,1,1.29941e-06
20.3,3.28399,6.63579,1,1.29942e-06
20.4,3.42266,6.63579,1,1.29942e-06
20.5,3.56134,6.63579,1,1.29942e-06
20.6,3.70001,6.63579,1,1.29943e-06
20.7,3.83868,6.63579,1,1.29943e-06
20.8,3.97736,6.63579,1,1.29944e-06
20.9,4.11603,6.63579,1,1.29944e-06
21,4.2547,6.63579,1,1.29944e-06
21.1,4.39338,6.63579,1,1.29945e-06
21.2,4.53205,6.63579,1,1.29945e-06
21.3,4.67073,6.63579,1,1.29945e-06
21.4,4.8094,6.63579,1,1.29946e-06
21.5,4.94807,6.63579,1,1.29946e-06
21.6,-4.91325,6.63579,1,1.29946e-06
21.7,-4.77458,6.63579,1,1.29921e-06
21.8,-4.63591,6.63579,1,1.29921e-06
21.9,-4.49723,6.63579,1,1.29921e-06
22,-4.35856,6.63579,1,1.29922e-06
22.1,-4.21988,6.63579,1,1.29922e-06
22.2,-4.08121,6.63579,1,1.29923e-06
22.3,-3.94254,6.63579,1,1.29923e-06
22.4,-3.80386,6.63579,1,1.29923e-06
22.5,-3.66519,6.63579,1,1.29924e-06
22.6,-3.52652,6.63579,1,1.29924e-06
22.7,-3.38784,6.63579,1,1.29924e-06
22.8,-3.24917,6.63579,1,1.29925e-06
22.9,-3.11049,6.63579,1,1.29925e-06
23,-2.97182,6.63579,1,1.29925e-06
23.1,-2.83315,6.63579,1,1.29926e-06
23.2,-2.69447,6.63579,1,1.29926e-06
23.3,-2.5558,6.63579,1,1.29927e-06
23.4,-2.41713,6.63579,1,1.29927e-06
23.5,-2.27845,6.63579,1,1.29927e-06
23.6,-2.13978,6.63579,1,1.29928e-06
23.7,-2.0011,6.63579,1,1.29928e-06
23.8,-1.86243,6.63579,1,1.29928e-06
23.9,-1.72376,6.63579,1,1.29929e-06
24,-1.58508,6.63579,1,1.29929e-06
24.1,-1.44641,6.63579,1,1.29929e-06
24.2,-1.30774,6.63579,1,1.2993e-06
24.3,-1.16906,6.63579,1,1.2993e-06
24.4,-1.03039,6.63579,1,1.2993e-06
24.5,-0.891715,6.63579,1,1.29931e-06
24.6,-0.753041,6.63579,1,1.29931e-06
24.7,-0.614367,6.63579,1,1.29932e-06
24.8,-0.475694,6.63579,1,1.29932e-06
24.9,-0.33702,6.63579,1,1.29932e-06
25,-0.198346,6.63579,1,1.29933e-06
25.1,-0.0596725,6.63579,1,1.29933e-06
25.2,0.0790012,6.63579,1,1.29933e-06
25.3,0.217675,6.63579,1,1.29934e-06
25.4,0.356349,6.63579,1,1.29934e-06
25.5,0.495022,6.63579,1,1.29934e-06
25.6,0.633696,6.63579,1,1.29935e-06
25.7,0.772336,6.63582,1,0.000131804
25.8,0.910801,6.636,1,0.000855892
25.9,1.04911,6.63633,0.999999,0.00160118
26,1.18728,6.63682,0.999997,0.00236492
26.1,1.32534,6.63747,0.999995,0.00314271
26.2,1.46331,6.63829,0.999992,0.00392831
26.3,1.60122,6.63927,0.999989,0.00471343
26.4,1.73908,6.6404,0.999985,0.00548735
26.5,1.87693,6.64169,0.999981,0.00623671
26.6,2.0148,6.64313,0.999976,0.00694572
26.7,2.15271,6.64471,0.999971,0.00759627
26.8,2.29069,6.6464,0.999967,0.00816868
26.9,2.42876,6.64819,0.999963,0.00864274
27,2.56694,6.65006,0.99996,0.00899911
27.1,2.70525,6.65198,0.999957,0.00922116
27.2,2.84367,6.65391,0.999957,0.0092926
27.3,2.98209,6.65584,0.999957,0.00929259
27.4,3.1205,6.65777,0.999957,0.00929257
27.5,3.25892,6.6597,0.999957,0.00929256
27.6,3.39734,6.66163,0.999957,0.00929255
27.7,3.53576,6.66356,0.999957,0.00929254
27.8,3.67417,6.66549,0.999957,0.00929252
27.9,3.81259,6.66742,0.999957,0.0092925
28,3.95101,6.66935,0.999957,0.00929249
28.1,4.08943,6.67128,0.999957,0.00929246
28.2,4.22784,6.67321,0.999957,0.00929243
28.3,4.36626,6.67514,0.999957,0.00929241
28.4,4.50468,6.67707,0.999957,0.00929239
28.5,4.64309,6.67901,0.999957,0.00929237
28.6,4.78151,6.68094,0.999957,0.00929234
28.7,4.91993,6.68287,0.999957,0.00929232
28.8,-4.94165,6.6848,0.999957,0.00929229
28.9,-4.8033,6.68672,0.999957,0.00925218
29,-4.66521,6.68861,0.999959,0.00909791
29.1,-4.52737,6.69046,0.99996,0.00894862
29.2,-4.38978,6.69228,0.999961,0.00880178
29.3,-4.25242,6.69407,0.999963,0.00865738
29.4,-4.1153,6.69583,0.999964,0.00851541
29.5,-3.97842,6.69756,0.999965,0.00837587
29.6,-3.84176,6.69925,0.999966,0.00823869
29.7,-3.70532,6.70092,0.999967,0.00810385
29.8,-3.5691,6.70256,0.999968,0.00797132
29.9,-3.4331,6.70417,0.999969,0.00784109
30,-3.29731,6.70575,0.99997,0.00771307
30.1,-3.16172,6.70731,0.999971,0.00758728
30.2,-3.02633,6.70884,0.999972,0.00746366
30.3,-2.89115,6.71034,0.999973,0.00734217
30.4,-2.75615,6.71182,0.999974,0.00724691
30.5,-2.62132,6.71335,0.999972,0.00748655
30.6,-2.48663,6.71495,0.999969,0.0078408
30.7,-2.35208,6.71666,0.999965,0.00839429
30.8,-2.2176,6.71856,0.999956,0.00934651
30.9,-2.08314,6.72075,0.999942,0.0107357
31,-1.94859,6.72332,0.999921,0.0125907
31.1,-1.81378,6.72636,0.999889,0.0148777
31.2,-1.67848,6.72992,0.999849,0.0173969
31.3,-1.5424,6.73395,0.999807,0.0196342
31.4,-1.40559,6.73818,0.99979,0.020505
31.5,-1.26878,6.74241,0.99979,0.0205049
31.6,-1.13197,6.74664,0.99979,0.0205049
31.7,-0.995162,6.75086,0.99979,0.0205048
31.8,-0.858353,6.75509,0.99979,0.0205048
31.9,-0.721545,6.75932,0.99979,0.0205047
32,-0.584736,6.76355,0.99979,0.0205047
32.1,-0.447927,6.76778,0.99979,0.0205046
32.2,-0.311119,6.772,0.99979,0.0205046
32.3,-0.17431,6.77623,0.99979,0.0205045
32.4,-0.0375016,6.78046,0.99979,0.0205045
32.5,0.099307,6.78469,0.99979,0.0205044
32.6,0.236116,6.78892,0.99979,0.0205044
32.7,0.372924,6.79315,0.99979,0.0205043
32.8,0.509733,6.79737,0.99979,0.0205042
32.9,0.646541,6.8016,0.99979,0.0205042
33,0.78335,6.80583,0.99979,0.0205042
33.1,0.919946,6.80996,0.999799,0.0200702
33.2,1.0562,6.81394,0.999812,0.0193653
33.3,1.19211,6.81778,0.999826,0.0186744
33.4,1.3277,6.82147,0.999838,0.0179931
33.5,1.46296,6.82501,0.99985,0.0173213
33.6,1.5979,6.82841,0.999861,0.0166589
33.7,1.73252,6.83168,0.999872,0.0160056
33.8,1.86685,6.83482,0.999881,0.0154166
33.9,2.00106,6.83808,0.999871,0.0160321
34,2.13526,6.84159,0.999852,0.0172143
34.1,2.26953,6.84541,0.999824,0.0187405
34.2,2.40398,6.84958,0.99979,0.0204768
34.3,2.5387,6.85413,0.999751,0.0223149
34.4,2.6738,6.85907,0.999709,0.0241394
34.5,2.8094,6.86436,0.999667,0.025813
34.6,2.94562,6.86995,0.999631,0.0271755
34.7,3.08256,6.87574,0.999606,0.0280584
34.8,3.21949,6.88153,0.999606,0.0280584
34.9,3.35643,6.88732,0.999606,0.0280584
35,3.49336,6.89311,0.999606,0.0280583
35.1,3.6303,6.8989,0.999606,0.0280583
35.2,3.76723,6.90469,0.999606,0.0280582
35.3,3.90417,6.91048,0.999606,0.0280582
35.4,4.0411,6.91627,0.999606,0.0280541
35.5,4.17796,6.92204,0.999609,0.0279604
35.6,4.31475,6.92779,0.999612,0.0278689
35.7,4.45147,6.93351,0.999614,0.0277794
35.8,4.58818,6.93919,0.999621,0.0275194
35.9,4.71779,6.94275,0.999839,0.0179257
36,4.84944,6.94693,0.999784,0.0207863
36.1,4.98196,6.95137,0.999758,0.0219816
36.2,-4.88506,6.95595,0.999744,0.022621
36.3,-4.75186,6.96059,0.999737,0.0229232
36.4,-4.61857,6.96527,0.999734,0.0230523
36.5,-4.48523,6.96995,0.999733,0.0231096
36.6,-4.35188,6.97464,0.999732,0.0231389
36.7,-4.21851,6.97934,0.999732,0.0231538
36.8,-4.08513,6.98403,0.999732,0.0231614
36.9,-3.95176,6.98873,0.999732,0.0231653
37,-3.81838,6.99343,0.999732,0.0231672
37.1,-3.685,6.99813,0.999732,0.0231682
37.2,-3.55162,7.00283,0.999732,0.0231688
37.3,-3.41824,7.00752,0.999732,0.023169
37.4,-3.28486,7.01222,0.999732,0.0231691
37.5,-3.15148,7.01692,0.999732,0.0231692
37.6,-3.0181,7.02162,0.999732,0.0231692
37.7,-2.88472,7.02632,0.999732,0.0231693
37.8,-2.75134,7.03102,0.999732,0.0231693
37.9,-2.61789,7.03574,0.999729,0.0232618
38,-2.48433,7.04049,0.999726,0.0234233
38.1,-2.35062,7.04529,0.999721,0.0236168
38.2,-2.21676,7.05013,0.999716,0.0238221
38.3,-2.08275,7.05502,0.999711,0.0240274
38.4,-1.94859,7.05995,0.999707,0.0242254
38.5,-1.8143,7.06492,0.999702,0.0244112
38.6,-1.67988,7.06993,0.999698,0.0245807
38.7,-1.54535,7.07498,0.999694,0.0247306
38.8,-1.41073,7.08005,0.999691,0.0248582
38.9,-1.2761,7.08512,0.999691,0.024871
39,-1.1415,7.09019,0.999692,0.0248247
39.1,-1.00693,7.09524,0.999693,0.0247798
39.2,-0.872399,7.10029,0.999694,0.0247365
39.3,-0.737897,7.10532,0.999695,0.0246949
39.4,-0.603424,7.11035,0.999696,0.0246547
39.5,-0.46898,7.11537,0.999697,0.024616
39.6,-0.334563,7.12038,0.999698,0.0245785
39.7,-0.200173,7.12538,0.999699,0.0245427
39.8,-0.0658088,7.13037,0.9997,0.0245079
39.9,0.0685311,7.13536,0.9997,0.0244752
40,0.202847,7.14034,0.999701,0.0244404
40.1,0.336891,7.14448,0.999793,0.0203267
40.2,0.470863,7.14833,0.999821,0.0189399
40.3,0.604648,7.1514,0.999885,0.0151376
40.4,0.738382,7.15422,0.999904,0.0138785
40.5,0.871993,7.15631,0.999947,0.0102578
40.6,1.00552,7.15752,0.999982,0.00600176
40.7,1.13903,7.1577,1,0.000847507
40.8,1.27258,7.15729,0.999998,-0.00199435
40.9,1.40614,7.15664,0.999995,-0.00321864
41,1.53968,7.15588,0.999993,-0.00376889
41.1,1.67321,7.15506,0.999992,-0.00403473
41.2,1.80672,7.15421,0.999991,-0.00418017
41.3,1.9402,7.15335,0.999991,-0.00427468
41.4,2.07366,7.15246,0.999991,-0.00434773
41.5,2.2071,7.15157,0.99999,-0.00441198
41.6,2.34051,7.15066,0.99999,-0.00447284
41.7,2.4739,7.14975,0.99999,-0.00453267
41.8,2.60727,7.14882,0.999989,-0.00459249
41.9,2.74062,7.14787,0.999989,-0.00465278
42,2.87394,7.14692,0.999989,-0.00471375
42.1,3.00725,7.14595,0.999989,-0.00477551
42.2,3.14054,7.14497,0.999988,-0.0048381
42.3,3.2738,7.14398,0.999988,-0.00490166
42.4,3.40705,7.14297,0.999988,-0.00496614
42.5,3.54028,7.14195,0.999987,-0.00503164
42.6,3.6735,7.14092,0.999987,-0.00509811
42.7,3.80669,7.13988,0.999987,-0.00516567
42.8,3.93987,7.13882,0.999986,-0.00523429
42.9,4.07303,7.13774,0.999986,-0.00530403
43,4.20618,7.13666,0.999986,-0.00537493
43.1,4.33931,7.13555,0.999985,-0.00544698
43.2,4.47242,7.13444,0.999985,-0.00552032
43.3,4.60552,7.13331,0.999984,-0.00559486
43.4,4.73861,7.13216,0.999984,-0.00567071
43.5,4.87168,7.13099,0.999983,-0.00574783
43.6,-4.99526,7.12982,0.999983,-0.00582644
43.7,-4.86221,7.12862,0.999983,-0.0059063
43.8,-4.72918,7.12741,0.999982,-0.00598764
43.9,-4.59616,7.12618,0.999982,-0.00607044
44,-4.46315,7.12494,0.999981,-0.00615481
44.1,-4.33015,7.12368,0.999981,-0.00623959
44.2,-4.1971,7.1222,0.999973,-0.00729847
44.3,-4.06395,7.1204,0.999961,-0.00886935
44.4,-3.93072,7.11836,0.999949,-0.0101072
44.5,-3.79743,7.11614,0.99994,-0.0109409
44.6,-3.66409,7.1138,0.999933,-0.0115583
44.7,-3.53071,7.11135,0.999927,-0.012061
44.8,-3.39729,7.10882,0.999922,-0.0125043
44.9,-3.26384,7.1062,0.999917,-0.0129181
45,-3.13036,7.1035,0.999911,-0.0133188
45.1,-2.99684,7.10072,0.999906,-0.0137154
45.2,-2.86327,7.09785,0.9999,-0.0141124
45.3,-2.72967,7.09491,0.999895,-0.0145122
45.4,-2.59601,7.09188,0.999889,-0.0149159
45.5,-2.46231,7.08877,0.999883,-0.0153238
45.6,-2.32856,7.08557,0.999876,-0.0157357
45.7,-2.19475,7.08229,0.99987,-0.0161514
45.8,-2.06088,7.07893,0.999863,-0.0165281
45.9,-1.92702,7.07558,0.999863,-0.016528
46,-1.79315,7.07222,0.999863,-0.016528
46.1,-1.65928,7.06886,0.999863,-0.0165279
46.2,-1.52542,7.0655,0.999863,-0.0165279
46.3,-1.39155,7.06214,0.999863,-0.0165278
46.4,-1.25769,7.05878,0.999863,-0.0165278
46.5,-1.12382,7.05543,0.999863,-0.0165277
46.6,-0.989955,7.05207,0.999863,-0.0165277
46.7,-0.856089,7.04871,0.999863,-0.0165276
46.8,-0.722223,7.04535,0.999863,-0.0165276
46.9,-0.588357,7.04199,0.999863,-0.0165275
47,-0.454492,7.03863,0.999863,-0.0165298
47.1,-0.320637,7.03527,0.999863,-0.01656
47.2,-0.186801,7.03189,0.999862,-0.0166171
47.3,-0.052992,7.0285,0.999861,-0.0166956
47.4,0.080786,7.02509,0.999859,-0.0167874
47.5,0.214531,7.02166,0.999857,-0.016883
47.6,0.348243,7.01821,0.999856,-0.0169774
47.7,0.481922,7.01475,0.999854,-0.017068
47.8,0.615571,7.01127,0.999853,-0.0171533
47.9,0.74919,7.00777,0.999851,-0.0172324
48,0.882781,7.00426,0.99985,-0.0173049
48.1,1.01635,7.00073,0.999849,-0.0173702
48.2,1.14989,6.9972,0.999848,-0.0174282
48.3,1.28338,6.99369,0.999851,-0.0172772
48.4,1.41657,6.99059,0.999883,-0.0153222
48.5,1.54949,6.98786,0.999909,-0.0135135
48.6,1.68214,6.98548,0.99993,-0.0117954
48.7,1.81455,6.98342,0.999948,-0.0101639
48.8,1.94673,6.98169,0.999963,-0.00861225
48.9,2.07869,6.98025,0.999975,-0.00713585
49,2.21044,6.9791,0.999984,-0.00573237
49.1,2.342,6.97821,0.99999,-0.00441785
49.2,2.47339,6.97851,0.999999,0.00145573
49.3,2.60443,6.97935,0.999991,0.00420957
49.4,2.73513,6.9805,0.999984,0.00572931
49.5,2.86563,6.98197,0.999973,0.00738298
49.6,2.99605,6.98385,0.999956,0.00940293
49.7,3.12635,6.9861,0.999937,0.011237
49.8,3.25648,6.98865,0.999918,0.0127792
49.9,3.38644,6.99148,0.999899,0.0142012
50,3.51626,6.99459,0.999878,0.0156438
50.1,3.64595,6.99801,0.999853,0.0171548
50.2,3.77553,7.00177,0.999821,0.0189296
50.3,3.90513,7.00608,0.999766,0.0216254
50.4,4.03485,7.01105,0.999688,0.0249729
50.5,4.16487,7.01674,0.999594,0.0285025
50.6,4.29541,7.02302,0.999506,0.0314217
50.7,4.42672,7.02958,0.999465,0.0326987
50.8,4.55866,7.03589,0.99951,0.0312963
50.9,4.69028,7.04168,0.999585,0.0288079
51,4.82215,7.04732,0.999607,0.0280327
51.1,4.95412,7.05272,0.99964,0.0268164
51.2,-4.9138,7.05789,0.999671,0.0256383
51.3,-4.78163,7.06281,0.999701,0.0244338
51.4,-4.64937,7.0675,0.99973,0.0232295
51.5,-4.51703,7.07194,0.999757,0.0220281
51.6,-4.38461,7.07615,0.999783,0.0208293
51.7,-4.25212,7.08011,0.999807,0.0196384
51.8,-4.11955,7.08384,0.99983,0.0184539
51.9,-3.98691,7.08733,0.999851,0.0172779
52,-3.8542,7.09059,0.99987,0.0161114
52.1,-3.72139,7.09364,0.999886,0.0151045
52.2,-3.58846,7.0965,0.9999,0.0141426
52.3,-3.45542,7.09917,0.999913,0.0131931
52.4,-3.32227,7.10166,0.999925,0.0122609
52.5,-3.18902,7.10395,0.999936,0.011341
52.6,-3.05566,7.10607,0.999946,0.0104315
52.7,-2.92219,7.108,0.999955,0.00953053
52.8,-2.78862,7.10976,0.999963,0.0086347
52.9,-2.65495,7.11133,0.99997,0.00774211
53,-2.52117,7.11272,0.999977,0.00685133
53.1,-2.38728,7.11393,0.999982,0.00595922
53.2,-2.25329,7.11496,0.999987,0.00506495
53.3,-2.11919,7.11581,0.999991,0.00416646
53.4,-1.98498,7.11648,0.999995,0.0032622
53.5,-1.85066,7.11695,0.999997,0.00235095
53.6,-1.71623,7.11725,0.999999,0.0014312
53.7,-1.58167,7.11735,1,0.000501655
53.8,-1.447,7.11726,1,-0.000437862
53.9,-1.3122,7.11698,0.999999,-0.00138756
54,-1.17727,7.1165,0.999997,-0.00234815
54.1,-1.04221,7.11582,0.999995,-0.00331905
54.2,-0.907014,7.11494,0.999991,-0.00429922
54.3,-0.771678,7.11386,0.999986,-0.00528737
54.4,-0.636198,7.11258,0.99998,-0.00628154
54.5,-0.500568,7.11108,0.999973,-0.00727745
54.6,-0.364785,7.10939,0.999966,-0.00827126
54.7,-0.228845,7.10749,0.999957,-0.00925554
54.8,-0.0927584,7.10542,0.999949,-0.0100955
54.9,0.0433775,7.10334,0.999949,-0.0100807
55,0.179547,7.10126,0.999949,-0.0101284
55.1,0.315755,7.09918,0.999948,-0.0101561
55.2,0.452001,7.09708,0.999948,-0.0101857
55.3,0.588286,7.09498,0.999948,-0.01021
55.4,0.72461,7.09288,0.999948,-0.0102325
55.5,0.860953,7.09081,0.999949,-0.0100738
55.6,0.993601,7.09622,0.999641,0.0267813
55.7,1.12558,7.10051,0.999773,0.021319
55.8,1.25833,7.10415,0.999839,0.0179659
55.9,1.39169,7.10707,0.999896,0.0144216
56,1.52558,7.10939,0.999935,0.0114159
56.1,1.65984,7.11136,0.999953,0.0096729
56.2,1.79443,7.11283,0.999974,0.0071863
56.3,1.92936,7.11379,0.999989,0.00469149
56.4,2.06461,7.1142,0.999998,0.00202404
56.5,2.20021,7.11411,1,-0.000439399
56.6,2.33616,7.11349,0.999995,-0.00303307
56.7,2.47241,7.11232,0.999984,-0.00568317
56.8,2.60892,7.11059,0.999965,-0.00840628
56.9,2.74567,7.10867,0.999957,-0.00932312
57,2.88257,7.10687,0.999962,-0.00871785
57.1,3.0195,7.10508,0.999962,-0.00870919
57.2,3.1565,7.10333,0.999964,-0.00846838
57.3,3.2936,7.10165,0.999967,-0.00813031
57.4,3.43078,7.10004,0.99997,-0.00780214
57.5,3.56804,7.09849,0.999972,-0.0074939
57.6,3.70537,7.09701,0.999974,-0.00719932
57.7,3.84277,7.09558,0.999976,-0.00691981
57.8,3.98023,7.0942,0.999978,-0.0066566
57.9,4.11775,7.09287,0.999979,-0.00641115
58,4.25532,7.09159,0.999981,-0.00618653
58.1,4.39293,7.09036,0.999982,-0.00598496
58.2,4.53058,7.08916,0.999983,-0.00580656
58.3,4.66827,7.08799,0.999984,-0.00565485
58.4,4.80598,7.08684,0.999985,-0.00552941
58.5,4.94372,7.08572,0.999985,-0.00543391
58.6,-4.91854,7.0846,0.999986,-0.00537046
58.7,-4.78078,7.0835,0.999986,-0.00534066
58.8,-4.64302,7.08239,0.999986,-0.00534521
58.9,-4.50527,7.08128,0.999986,-0.00538669
59,-4.36754,7.08015,0.999985,-0.00546536
59.1,-4.22983,7.07899,0.999984,-0.0055836
59.2,-4.09214,7.0778,0.999983,-0.00574261
59.3,-3.95449,7.07653,0.999981,-0.00615958
59.4,-3.81685,7.07512,0.999977,-0.00678659
59.5,-3.67924,7.07358,0.999972,-0.0074787
59.6,-3.54167,7.07187,0.999966,-0.00823374
59.7,-3.40416,7.07,0.999959,-0.009079
59.8,-3.26673,7.06793,0.99995,-0.0100078
59.9,-3.1294,7.06566,0.99994,-0.0109894
60,-2.99218,7.06318,0.999928,-0.0120099
60.1,-2.85508,7.06049,0.999915,-0.0130264
60.2,-2.71811,7.05763,0.999904,-0.0138607
60.3,-2.58128,7.0546,0.999892,-0.0146739
60.4,-2.44461,7.05143,0.999881,-0.0154134
60.5,-2.30808,7.04814,0.999873,-0.0159486
60.6,-2.17171,7.04481,0.999869,-0.0161996
60.7,-2.03548,7.0415,0.99987,-0.016116
60.8,-1.89938,7.03829,0.999878,-0.0156067
60.9,-1.76338,7.03531,0.999895,-0.0145178
61,-1.6275,7.03226,0.99989,-0.0148609
61.1,-1.49147,7.02934,0.999899,-0.0142228
61.2,-1.35528,7.02658,0.99991,-0.0134229
61.3,-1.21893,7.02397,0.999919,-0.0127031
61.4,-1.08241,7.0215,0.999928,-0.0119976
61.5,-0.945746,7.01917,0.999936,-0.0113095
61.6,-0.80892,7.01698,0.999944,-0.0106271
61.7,-0.671944,7.01493,0.99995,-0.00996643
61.8,-0.534948,7.01285,0.999949,-0.0100769
61.9,-0.3979,7.01079,0.99995,-0.00998574
62,-0.260809,7.00873,0.999951,-0.00994056
62.1,-0.123671,7.0067,0.999951,-0.00987496
62.2,0.0135121,7.00467,0.999952,-0.00980955
62.3,0.150741,7.00266,0.999953,-0.00973555
62.4,0.288016,7.00066,0.999953,-0.00965696
62.5,0.425337,6.99869,0.999954,-0.0095727
62.6,0.562703,6.99673,0.999955,-0.00948343
62.7,0.700115,6.99479,0.999956,-0.00938776
62.8,0.837573,6.99287,0.999957,-0.00928484
62.9,0.975076,6.99097,0.999958,-0.00917814
63,1.11262,6.98909,0.999959,-0.00906298
63.1,1.25022,6.98724,0.99996,-0.00894443
63.2,1.38786,6.98542,0.999961,-0.00881824
63.3,1.52554,6.98362,0.999962,-0.00868641
63.4,1.66326,6.98185,0.999963,-0.00854732
63.5,1.80103,6.98011,0.999965,-0.00840461
63.6,1.93885,6.9784,0.999966,-0.00825346
63.7,2.0767,6.97672,0.999967,-0.00809755
63.8,2.2146,6.97508,0.999969,-0.00793526
63.9,2.35254,6.97347,0.99997,-0.00776708
64,2.49052,6.9719,0.999971,-0.00759202
64.1,2.62854,6.97036,0.999972,-0.00741305
64.2,2.7666,6.96886,0.999974,-0.00722641
64.3,2.90469,6.9674,0.999975,-0.00703542
64.4,3.04283,6.96598,0.999977,-0.00683662
64.5,3.181,6.96461,0.999978,-0.00663373
64.6,3.3192,6.96327,0.999979,-0.00642562
64.7,3.45745,6.96198,0.999981,-0.00621133
64.8,3.59572,6.96074,0.999982,-0.00599244
64.9,3.73403,6.95954,0.999983,-0.00576801
65,3.87237,6.95839,0.999985,-0.00553809
65.1,4.01074,6.95729,0.999986,-0.00530467
65.2,4.14913,6.95624,0.999987,-0.0050642
65.3,4.28756,6.95524,0.999988,-0.00482005
65.4,4.42601,6.95429,0.99999,-0.00457409
65.5,4.56449,6.95339,0.999991,-0.00432047
65.6,4.70299,6.95255,0.999992,-0.00406738
65.7,4.84152,6.95176,0.999993,-0.00380649
65.8,4.98006,6.95102,0.999994,-0.00354268
65.9,-4.88138,6.95034,0.999995,-0.00327731
66,-4.74279,6.94971,0.999995,-0.0030091
66.1,-4.6042,6.94914,0.999996,-0.00273749
66.2,-4.46558,6.94863,0.999997,-0.0024619
66.3,-4.32696,6.94818,0.999998,-0.00218532
66.4,-4.18832,6.94778,0.999998,-0.00190737
66.5,-4.04967,6.94744,0.999999,-0.00162624
66.6,-3.91101,6.94717,0.999999,-0.00134261
66.7,-3.77235,6.94695,0.999999,-0.00106041
66.8,-3.63368,6.94678,1,-0.000775672
66.9,-3.49501,6.94668,1,-0.000490349
67,-3.35634,6.94664,1,-0.000206396
67.1,-3.21766,6.94664,1,-4.91995e-06
67.2,-3.07899,6.94664,1,-4.91996e-06
67.3,-2.94032,6.94664,1,-4.91996e-06
67.4,-2.80164,6.94664,1,-4.91997e-06
67.5,-2.66297,6.94664,1,-4.91997e-06
67.6,-2.52429,6.94664,1,-4.91997e-06
67.7,-2.38562,6.94664,1,-4.91998e-06
67.8,-2.24695,6.94664,1,-4.91998e-06
67.9,-2.10827,6.94664,1,-4.91999e-06
68,-1.9696,6.94664,1,-4.91999e-06
68.1,-1.83093,6.94664,1,-4.91999e-06
68.2,-1.69225,6.94663,1,-4.92e-06
68.3,-1.55358,6.94663,1,-4.92e-06
68.4,-1.4149,6.94663,1,-4.92001e-06
68.5,-1.27623,6.94663,1,-4.92001e-06
68.6,-1.13756,6.94663,1,-4.92001e-06
68.7,-0.998883,6.94663,1,-4.92002e-06
68.8,-0.86021,6.94663,1,-4.92002e-06
68.9,-0.721536,6.94663,1,-4.92003e-06
69,-0.582862,6.94663,1,-4.92003e-06
69.1,-0.444189,6.94663,1,6.61276e-06
69.2,-0.305522,6.94668,1,0.000218932
69.3,-0.166854,6.94675,1,0.000359049
69.4,-0.0281826,6.94684,1,0.000425208
69.5,0.11049,6.94693,1,0.000430891
69.6,0.249163,6.94702,1,0.000430878
69.7,0.387836,6.94711,1,0.000430862
69.8,0.526509,6.9472,1,0.00043085
69.9,0.665182,6.94729,1,0.000430838
70,0.803855,6.94738,1,0.000430824
70.1,0.942528,6.94747,1,0.00043081
70.2,1.0812,6.94756,1,0.000430795
70.3,1.21987,6.94765,1,0.000430779
70.4,1.35855,6.94774,1,0.000430763
70.5,1.49722,6.94783,1,0.000430743
70.6,1.63589,6.94792,1,0.000430727
70.7,1.77457,6.94801,1,0.000430709
70.8,1.91324,6.9481,1,0.000430691
70.9,2.05191,6.94819,1,0.000430667
71,2.19058,6.94828,1,0.000430643
71.1,2.32926,6.94837,1,0.000430619
71.2,2.46793,6.94846,1,0.000430598
71.3,2.6066,6.94855,1,0.000430571
71.4,2.74528,6.94864,1,0.000430543
71.5,2.88395,6.94873,1,0.000430511
71.6,3.02262,6.94882,1,0.000430479
71.7,3.1613,6.94891,1,0.000430444
71.8,3.29997,6.949,1,0.000430452
71.9,3.43864,6.94909,1,0.000430461
72,3.57732,6.94918,1,0.00043042
72.1,3.71599,6.94927,1,0.000430427
72.2,3.85455,6.94938,1,0.000523173
72.3,3.99298,6.94964,0.999999,0.00123695
72.4,4.1313,6.95005,0.999998,0.00195987
72.5,4.26952,6.9506,0.999996,0.00268399
72.6,4.40767,6.95131,0.999994,0.00340233
72.7,4.54576,6.95216,0.999992,0.00410641
72.8,4.68383,6.95316,0.999989,0.00478613
72.9,4.82189,6.95428,0.999985,0.00542967
73,4.95997,6.95553,0.999982,0.00602397
73.1,-4.90191,6.95689,0.999979,0.0065549
73.2,-4.76374,6.95835,0.999975,0.00700802
73.3,-4.62549,6.95988,0.999973,0.00736942
73.4,-4.48716,6.96146,0.999971,0.00762661
73.5,-4.34872,6.96308,0.99997,0.00776968
73.6,-4.21023,6.9647,0.99997,0.00779648
73.7,-4.07174,6.96632,0.99997,0.00779646
73.8,-3.93325,6.96794,0.99997,0.00779644
73.9,-3.79476,6.96956,0.99997,0.00779642
74,-3.65627,6.97118,0.99997,0.0077964
74.1,-3.51778,6.9728,0.99997,0.00779637
74.2,-3.37929,6.97442,0.99997,0.00779635
74.3,-3.2408,6.97604,0.99997,0.00779632
74.4,-3.10231,6.97766,0.99997,0.0077963
74.5,-2.96382,6.97928,0.99997,0.00779627
74.6,-2.82533,6.98091,0.99997,0.00779625
74.7,-2.68684,6.98253,0.99997,0.00779623
74.8,-2.54835,6.98415,0.99997,0.0077962
74.9,-2.40986,6.98577,0.99997,0.00779617
75,-2.27137,6.98739,0.99997,0.00779614
75.1,-2.13288,6.98901,0.99997,0.00779612
75.2,-1.99439,6.99063,0.99997,0.00779609
75.3,-1.8559,6.99225,0.99997,0.00779606
75.4,-1.71741,6.99387,0.99997,0.00779603
75.5,-1.57892,6.99549,0.99997,0.00779599
75.6,-1.44042,6.99711,0.99997,0.00779596
75.7,-1.30193,6.99873,0.99997,0.00779592
75.8,-1.16344,7.00035,0.99997,0.00779588
75.9,-1.02495,7.00198,0.99997,0.00779583
76,-0.886464,7.0036,0.99997,0.00779579
76.1,-0.747974,7.00522,0.99997,0.00779579
76.2,-0.609484,7.00684,0.99997,0.00779574
76.3,-0.470993,7.00846,0.99997,0.00779574
76.4,-0.332503,7.01008,0.99997,0.00779574
76.5,-0.194013,7.0117,0.99997,0.00779568
76.6,-0.0555225,7.01332,0.99997,0.00779568
76.7,0.0829678,7.01494,0.99997,0.00779568
76.8,0.221458,7.01656,0.99997,0.00779568
76.9,0.359948,7.01818,0.99997,0.00779569
77,0.498439,7.0198,0.99997,0.00779562
77.1,0.636929,7.02142,0.99997,0.00779561
77.2,0.775419,7.02305,0.99997,0.00779562
77.3,0.913909,7.02467,0.99997,0.00779563
77.4,1.0524,7.02629,0.99997,0.00779555
77.5,1.19089,7.02791,0.99997,0.00779555
77.6,1.32938,7.02953,0.99997,0.00779556
77.7,1.46787,7.03115,0.99997,0.00779558
77.8,1.60636,7.03277,0.99997,0.00779545
77.9,1.74485,7.03439,0.99997,0.00779545
78,1.88334,7.03601,0.99997,0.00779547
78.1,2.02183,7.03763,0.99997,0.00779549
78.2,2.16032,7.03925,0.99997,0.00779553
78.3,2.29881,7.04087,0.99997,0.00779513
78.4,2.4373,7.04249,0.99997,0.00779506
78.5,2.57579,7.04411,0.99997,0.00779377
78.6,2.71445,7.04458,0.999997,0.00223914
78.7,2.85312,7.04482,0.999999,0.00114487
78.8,2.99179,7.04482,1,-6.88515e-06
78.9,3.13047,7.04482,1,-6.88511e-06
79,3.26914,7.04482,1,-6.88511e-06
79.1,3.40782,7.04482,1,-6.88511e-06
79.2,3.54649,7.04481,1,-6.88511e-06
79.3,3.68516,7.04481,1,-6.88511e-06
79.4,3.82384,7.04481,1,-6.88511e-06
79.5,3.96251,7.04481,1,-6.88511e-06
79.6,4.10118,7.04481,1,-6.88511e-06
79.7,4.23986,7.04481,1,-6.88511e-06
79.8,4.37853,7.04481,1,-6.88511e-06
79.9,4.51721,7.04481,1,-6.88511e-06
80,4.65588,7.04481,1,-6.88511e-06
