0.1,-11.6198,4.9545,0.756926,0.6535
0.2,-1.62712,5.026,0.681124,0.732168
0.3,-1.63072,5.06482,0.8752,0.483761
0.4,-1.6299,5.08616,0.961558,0.274601
0.5,-1.62626,5.10052,0.9833,0.181995
0.6,-1.60465,5.09646,0.999077,-0.0429452
0.7,-1.55946,5.07683,0.986605,-0.163129
0.8,-1.4867,5.05829,0.992058,-0.125782
0.9,-1.39047,5.04553,0.997181,-0.0750374
1,-1.27712,5.04246,0.999862,-0.0166058
1.1,-1.15213,5.04203,0.999997,-0.0023711
1.2,-1.02108,5.04318,0.999985,0.00546464
1.3,-0.886775,5.04566,0.999931,0.0117133
1.4,-0.750517,5.04938,0.999846,0.0175404
1.5,-0.612849,5.05433,0.99973,0.0232192
1.6,-0.473922,5.06046,0.99959,0.0286344
1.7,-0.333686,5.06767,0.999439,0.0334998
1.8,-0.192006,5.07578,0.999298,0.0374584
1.9,-0.048744,5.08454,0.999193,0.0401575
2,0.0947063,5.09331,0.999193,0.040169
2.1,0.238172,5.10205,0.999199,0.0400188
2.2,0.381646,5.11077,0.999202,0.0399419
2.3,0.525124,5.11948,0.999204,0.0399026
2.4,0.668604,5.12819,0.999204,0.0398824
2.5,0.812086,5.1369,0.999205,0.039872
2.6,0.955567,5.1456,0.999205,0.0398666
2.7,1.09905,5.15431,0.999205,0.0398638
2.8,1.24253,5.16301,0.999205,0.0398623
2.9,1.38601,5.17171,0.999205,0.0398615
3,1.5295,5.18042,0.999205,0.0398611
3.1,1.67298,5.18912,0.999205,0.0398608
3.2,1.81646,5.19783,0.999205,0.0398606
3.3,1.95994,5.20653,0.999205,0.0398605
3.4,2.10343,5.21524,0.999205,0.0398604
3.5,2.24691,5.22394,0.999205,0.0398602
3.6,2.39039,5.23264,0.999205,0.0398602
3.7,2.53387,5.24135,0.999205,0.03986
3.8,2.67735,5.25005,0.999205,0.0398599
3.9,2.82084,5.25876,0.999205,0.0398598
4,2.96432,5.26746,0.999205,0.0398597
4.1,3.1078,5.27616,0.999205,0.0398596
4.2,3.25128,5.28487,0.999205,0.0398595
4.3,3.39476,5.29357,0.999205,0.0398594
4.4,3.53825,5.30228,0.999205,0.0398593
4.5,3.68173,5.31098,0.999205,0.0398592
4.6,3.82521,5.31968,0.999205,0.0398592
4.7,3.96869,5.32839,0.999205,0.0398591
4.8,4.11218,5.33709,0.999205,0.039859
4.9,4.25566,5.34579,0.999205,0.039859
5,4.39914,5.3545,0.999205,0.0398589
5.1,4.54262,5.3632,0.999205,0.0398588
5.2,4.6861,5.37191,0.999205,0.0398588
5.3,4.82959,5.38061,0.999205,0.0398587
5.4,4.97307,5.38931,0.999205,0.0398586
5.5,-4.88344,5.39801,0.999207,0.0398178
5.6,-4.73995,5.40669,0.99921,0.0397482
5.7,-4.59644,5.41535,0.999213,0.0396646
5.8,-4.45292,5.42399,0.999217,0.0395747
5.9,-4.30939,5.43262,0.99922,0.0394827
6,-4.16585,5.44122,0.999224,0.0393905
6.1,-4.0223,5.44981,0.999228,0.0392989
6.2,-3.87873,5.45837,0.999231,0.0392071
6.3,-3.73514,5.46692,0.999235,0.0391128
6.4,-3.59153,5.47544,0.999239,0.0390088
6.5,-3.44788,5.48394,0.999245,0.0388622
6.6,-3.30395,5.4923,0.99927,0.0382089
6.7,-3.15939,5.50027,0.99934,0.0363225
6.8,-3.01427,5.50769,0.999432,0.0336907
6.9,-2.86866,5.5145,0.999524,0.030859
7,-2.72266,5.52071,0.999606,0.0280631
7.1,-2.57632,5.52633,0.999678,0.0253668
7.2,-2.4297,5.53138,0.999741,0.0227541
7.3,-2.28283,5.53587,0.999796,0.0201786
7.4,-2.13575,5.5398,0.999845,0.0175963
7.5,-1.98849,5.54315,0.999888,0.0149811
7.6,-1.8411,5.54591,0.999924,0.0123298
7.7,-1.69359,5.54809,0.999953,0.0096592
7.8,-1.54603,5.54967,0.999976,0.00699273
7.9,-1.39844,5.55068,0.999991,0.00435292
8,-1.25086,5.5511,0.999998,0.00175672
8.1,-1.10331,5.55103,1,-0.000513224
8.2,-0.955773,5.55095,1,-0.000513224
8.3,-0.808232,5.55088,1,-0.000513224
8.4,-0.660691,5.5508,1,-0.000513224
8.5,-0.51315,5.55072,1,-0.000513224
8.6,-0.365609,5.55065,1,-0.000513224
8.7,-0.218067,5.55057,1,-0.000513224
8.8,-0.0705262,5.5505,1,-0.000513224
8.9,0.077015,5.55042,1,-0.000513224
9,0.224556,5.55034,1,-0.000513224
9.1,0.372097,5.55027,1,-0.000513224
9.2,0.519638,5.55019,1,-0.000513224
9.3,0.66718,5.55012,1,-0.000513224
9.4,0.814721,5.55004,1,-0.000513224
9.5,0.962262,5.54997,1,-0.000513224
9.6,1.1098,5.54989,1,-0.000513224
9.7,1.25734,5.54981,1,-0.000513224
9.8,1.40489,5.54974,1,-0.000513224
9.9,1.55243,5.54966,1,-0.000513224
10,1.69997,5.54959,1,-0.000513224
10.1,1.84751,5.54951,1,-0.000513224
10.2,1.99505,5.54943,1,-0.000513224
10.3,2.14259,5.54936,1,-0.000513224
10.4,2.29013,5.54928,1,-0.000513224
10.5,2.43767,5.54921,1,-0.000513224
10.6,2.58522,5.54913,1,-0.000513224
10.7,2.73276,5.54906,1,-0.000513224
10.8,2.8803,5.54898,1,-0.000513224
10.9,3.02784,5.5489,1,-0.000513224
11,3.17538,5.54883,1,-0.000513224
11.1,3.32292,5.54875,1,-0.000513224
11.2,3.47046,5.54868,1,-0.000513224
11.3,3.618,5.5486,1,-0.000513224
11.4,3.76555,5.54852,1,-0.000513224
11.5,3.91309,5.54845,1,-0.000513224
11.6,4.06063,5.54837,1,-0.000513224
11.7,4.20817,5.5483,1,-0.000513224
11.8,4.35571,5.54822,1,-0.000513224
11.9,4.50325,5.54815,1,-0.000513224
12,4.65079,5.54807,1,-0.000513224
12.1,4.79833,5.54799,1,-0.000513224
12.2,4.94587,5.54792,1,-0.000513224
12.3,-4.90658,5.54784,1,-0.000513224
12.4,-4.75904,5.54777,1,-0.000513121
12.5,-4.6115,5.54769,1,-0.000513121
12.6,-4.46396,5.54762,1,-0.000513121
12.7,-4.31642,5.54754,1,-0.000513121
12.8,-4.16888,5.54746,1,-0.000513121
12.9,-4.02134,5.54739,1,-0.000513121
13,-3.8738,5.54731,1,-0.000513121
13.1,-3.72626,5.54724,1,-0.000513121
13.2,-3.57871,5.54716,1,-0.000513121
13.3,-3.43117,5.54708,1,-0.000513121
13.4,-3.28363,5.54701,1,-0.000513121
13.5,-3.13609,5.54693,1,-0.000513121
13.6,-2.98855,5.54686,1,-0.000513121
13.7,-2.84101,5.54678,1,-0.000513121
13.8,-2.69347,5.54671,1,-0.000513121
13.9,-2.54593,5.54663,1,-0.000513121
14,-2.39838,5.54655,1,-0.000513121
14.1,-2.25084,5.54648,1,-0.000513121
14.2,-2.1033,5.5464,1,-0.000513121
14.3,-1.95576,5.54633,1,-0.000513121
14.4,-1.80822,5.54625,1,-0.000513121
14.5,-1.66068,5.54617,1,-0.000513121
14.6,-1.51314,5.5461,1,-0.000513121
14.7,-1.3656,5.54602,1,-0.000513121
14.8,-1.21805,5.54595,1,-0.000513121
14.9,-1.07051,5.54587,1,-0.000513121
15,-0.922972,5.5458,1,-0.000513121
15.1,-0.775431,5.54572,1,-0.000513121
15.2,-0.62789,5.54564,1,-0.000513121
15.3,-0.480349,5.54557,1,-0.000513121
15.4,-0.332808,5.54549,1,-0.000513121
15.5,-0.185267,5.54542,1,-0.000513121
15.6,-0.0377254,5.54534,1,-0.000513121
15.7,0.109816,5.54526,1,-0.000513121
15.8,0.257357,5.54519,1,-0.000513121
15.9,0.404898,5.54511,1,-0.000513121
16,0.552439,5.54504,1,-0.000513121
16.1,0.69998,5.54496,1,-0.000513121
16.2,0.847522,5.54489,1,-0.000513121
16.3,0.995063,5.54481,1,-0.000513121
16.4,1.1426,5.54473,1,-0.000513121
16.5,1.29015,5.54466,1,-0.000513121
16.6,1.43769,5.54458,1,-0.000513121
16.7,1.58523,5.54451,1,-0.000513121
16.8,1.73277,5.54443,1,-0.000513121
16.9,1.88031,5.54435,1,-0.000513121
17,2.02785,5.54428,1,-0.000513121
17.1,2.17539,5.5442,1,-0.000513121
17.2,2.32293,5.54413,1,-0.000513121
17.3,2.47047,5.54405,1,-0.000513121
17.4,2.61802,5.54398,1,-0.000513121
17.5,2.76556,5.5439,1,-0.000513121
17.6,2.9131,5.54382,1,-0.000513121
17.7,3.06064,5.54375,1,-0.000513121
17.8,3.20818,5.54367,1,-0.000513121
17.9,3.35572,5.5436,1,-0.000513121
18,3.50326,5.54352,1,-0.000513121
18.1,3.65081,5.54345,1,-0.000513121
18.2,3.79835,5.54337,1,-0.000513121
18.3,3.94589,5.54329,1,-0.000513121
18.4,4.09343,5.54322,1,-0.000513121
18.5,4.24097,5.54314,1,-0.000513121
18.6,4.38851,5.54307,1,-0.000513121
18.7,4.53605,5.54299,1,-0.000513121
18.8,4.68359,5.54291,1,-0.000513121
18.9,4.83113,5.54284,1,-0.000513121
19,4.97868,5.54276,1,-0.000513121
19.1,-4.87378,5.54269,1,-0.000513121
19.2,-4.72624,5.54261,1,-0.000513018
19.3,-4.5787,5.54254,1,-0.000513018
19.4,-4.43116,5.54246,1,-0.000513018
19.5,-4.28362,5.54238,1,-0.000513018
19.6,-4.13608,5.54231,1,-0.000513018
19.7,-3.98854,5.54223,1,-0.000513018
19.8,-3.841,5.54216,1,-0.000513018
19.9,-3.69345,5.54208,1,-0.000513018
20,-3.54591,5.542,1,-0.000513018
20.1,-3.39837,5.54193,1,-0.000513018
20.2,-3.25083,5.54185,1,-0.000513018
20.3,-3.10329,5.54178,1,-0.000513018
20.4,-2.95575,5.5417,1,-0.000513018
20.5,-2.80821,5.54163,1,-0.000513018
20.6,-2.66067,5.54155,1,-0.000513018
20.7,-2.51312,5.54147,1,-0.000513018
20.8,-2.36558,5.5414,1,-0.000513018
20.9,-2.21804,5.54132,1,-0.000513018
21,-2.0705,5.54125,1,-0.000513018
21.1,-1.92296,5.54117,1,-0.000513018
21.2,-1.77542,5.54109,1,-0.000513018
21.3,-1.62788,5.54102,1,-0.000513018
21.4,-1.48034,5.54094,1,-0.000513018
21.5,-1.33279,5.54087,1,-0.000513018
21.6,-1.18525,5.54079,1,-0.000513018
21.7,-1.03771,5.54072,1,-0.000513018
21.8,-0.890171,5.54064,1,-0.000513018
21.9,-0.74263,5.54056,1,-0.000513018
22,-0.595089,5.54049,1,-0.000513018
22.1,-0.447548,5.54041,1,-0.000513018
22.2,-0.300006,5.54034,1,-0.000513018
22.3,-0.152465,5.54026,1,-0.000513018
22.4,-0.00492403,5.54018,1,-0.000513018
22.5,0.142617,5.54011,1,-0.000513018
22.6,0.290158,5.54003,1,-0.000513018
22.7,0.437699,5.53996,1,-0.000513018
22.8,0.585241,5.53988,1,-0.000513018
22.9,0.732782,5.53981,1,-0.000513018
23,0.880323,5.53973,1,-0.000513018
23.1,1.02786,5.53965,1,-0.000513018
23.2,1.17541,5.53958,1,-0.000513018
23.3,1.32295,5.5395,1,-0.000513018
23.4,1.47049,5.53943,1,-0.000513018
23.5,1.61803,5.53935,1,-0.000513018
23.6,1.76557,5.53928,1,-0.000513018
23.7,1.91311,5.5392,1,-0.000513018
23.8,2.06065,5.53912,1,-0.000513018
23.9,2.20819,5.53905,1,-0.000513018
24,2.35574,5.53897,1,-0.000513018
24.1,2.50328,5.5389,1,-0.000513018
24.2,2.65082,5.53882,1,-0.000513018
24.3,2.79836,5.53874,1,-0.000513018
24.4,2.9459,5.53867,1,-0.000513018
24.5,3.09344,5.53859,1,-0.000513018
24.6,3.24098,5.53852,1,-0.000513018
24.7,3.38852,5.53844,1,-0.000513018
24.8,3.53607,5.53837,1,-0.000513018
24.9,3.68361,5.53829,1,-0.000513018
25,3.83115,5.53821,1,-0.000513018
25.1,3.97869,5.53814,1,-0.000513018
25.2,4.12623,5.53806,1,-0.000513018
25.3,4.27377,5.53799,1,-0.000513018
25.4,4.42131,5.53791,1,-0.000513018
25.5,4.56885,5.53783,1,-0.000513018
25.6,4.71639,5.53776,1,-0.000513018
25.7,4.86394,5.53768,1,-0.000513018
25.8,-4.98852,5.53761,1,-0.000513018
25.9,-4.84098,5.53753,1,-0.000512915
26,-4.69344,5.53746,1,-0.000512915
26.1,-4.5459,5.53738,1,-0.000512915
26.2,-4.39836,5.5373,1,-0.000512915
26.3,-4.25082,5.53723,1,-0.000512915
26.4,-4.10328,5.53715,1,-0.000512915
26.5,-3.95574,5.53708,1,-0.000512915
26.6,-3.80819,5.537,1,-0.000512915
26.7,-3.66065,5.53692,1,-0.000512915
26.8,-3.51311,5.53685,1,-0.000512915
26.9,-3.36557,5.53677,1,-0.000512915
27,-3.21803,5.5367,1,-0.000512915
27.1,-3.07049,5.53662,1,-0.000512915
27.2,-2.92295,5.53655,1,-0.000512915
27.3,-2.77541,5.53647,1,-0.000512915
27.4,-2.62786,5.53639,1,-0.000512915
27.5,-2.48032,5.53632,1,-0.000512915
27.6,-2.33278,5.53624,1,-0.000512915
27.7,-2.18524,5.53617,1,-0.000512915
27.8,-2.0377,5.53609,1,-0.000512915
27.9,-1.89016,5.53602,1,-0.000512915
28,-1.74262,5.53594,1,-0.000512915
28.1,-1.59508,5.53586,1,-0.000512915
28.2,-1.44753,5.53579,1,-0.000512915
28.3,-1.29999,5.53571,1,-0.000512915
28.4,-1.15245,5.53564,1,-0.000512915
28.5,-1.00491,5.53556,1,-0.000512915
28.6,-0.85737,5.53548,1,-0.000512915
28.7,-0.709829,5.53541,1,-0.000512915
28.8,-0.562288,5.53533,1,-0.000512915
28.9,-0.414746,5.53526,1,-0.000512915
29,-0.267205,5.53518,1,-0.000512915
29.1,-0.119664,5.53511,1,-0.000512915
29.2,0.0278771,5.53503,1,-0.000512915
29.3,0.175418,5.53495,1,-0.000512915
29.4,0.322959,5.53488,1,-0.000512915
29.5,0.470501,5.5348,1,-0.000512915
29.6,0.618042,5.53473,1,-0.000512915
29.7,0.765583,5.53465,1,-0.000512915
29.8,0.913124,5.53457,1,-0.000512915
29.9,1.06067,5.5345,1,-0.000512915
30,1.20821,5.53442,1,-0.000512915
30.1,1.35575,5.53435,1,-0.000512915
30.2,1.50329,5.53427,1,-0.000512915
30.3,1.65083,5.5342,1,-0.000512915
30.4,1.79837,5.53412,1,-0.000512915
30.5,1.94591,5.53404,1,-0.000512915
30.6,2.09345,5.53397,1,-0.000512915
30.7,2.24099,5.53389,1,-0.000512915
30.8,2.38854,5.53382,1,-0.000512915
30.9,2.53608,5.53374,1,-0.000512915
31,2.68362,5.53366,1,-0.000512915
31.1,2.83116,5.53359,1,-0.000512915
31.2,2.9787,5.53351,1,-0.000512915
31.3,3.12624,5.53344,1,-0.000512915
31.4,3.27378,5.53336,1,-0.000512915
31.5,3.42133,5.53329,1,-0.000512915
31.6,3.56887,5.53321,1,-0.000512915
31.7,3.71641,5.53313,1,-0.000512915
31.8,3.86395,5.53306,1,-0.000512915
31.9,4.01149,5.53298,1,-0.000512915
32,4.15903,5.53291,1,-0.000512915
32.1,4.30645,5.53282,1,-0.000576645
32.2,4.45369,5.53271,1,-0.000659024
32.3,4.60075,5.53259,1,-0.000717171
32.4,4.74763,5.53246,1,-0.00075268
32.5,4.89434,5.53233,1,-0.000765413
32.6,-4.95912,5.5322,1,-0.000755202
32.7,-4.81274,5.53208,1,-0.000721754
32.8,-4.66652,5.53197,1,-0.000665097
32.9,-4.52046,5.53188,1,-0.000584954
33,-4.37455,5.53181,1,-0.000481154
33.1,-4.22879,5.53177,1,-0.000353577
33.2,-4.08317,5.53177,1,-0.000202054
33.3,-3.93769,5.5318,1,-2.6474e-05
33.4,-3.79235,5.53187,1,0.000173188
33.5,-3.64713,5.532,1,0.000396785
33.6,-3.50205,5.5321,1,0.00031102
33.7,-3.3571,5.53217,1,0.000107028
33.8,-3.21228,5.53217,1,-0.000146678
33.9,-3.06758,5.5321,1,-0.000478096
34,-2.92301,5.53196,1,-0.000856397
34.1,-2.77854,5.5317,0.999999,-0.00131973
34.2,-2.63419,5.53134,0.999998,-0.0018368
34.3,-2.48994,5.53085,0.999997,-0.00244761
34.4,-2.34577,5.5302,0.999995,-0.00311656
34.5,-2.20168,5.5294,0.999993,-0.00388408
34.6,-2.05766,5.52841,0.999989,-0.0047107
34.7,-1.91368,5.52722,0.999984,-0.00563466
34.8,-1.76968,5.52574,0.999976,-0.00696536
34.9,-1.62559,5.52392,0.999964,-0.00852809
35,-1.48147,5.52188,0.999954,-0.00955267
35.1,-1.33733,5.51966,0.999946,-0.0103585
35.2,-1.19318,5.51728,0.999939,-0.0110808
35.3,-1.04902,5.51475,0.999931,-0.0117769
35.4,-0.904819,5.51207,0.999922,-0.012471
35.5,-0.760576,5.50924,0.999913,-0.013172
35.6,-0.616271,5.50625,0.999904,-0.0138813
35.7,-0.471889,5.5031,0.999893,-0.0145962
35.8,-0.327408,5.49979,0.999883,-0.0153113
35.9,-0.18281,5.49633,0.999872,-0.0160188
36,-0.0380731,5.49272,0.99986,-0.0167093
36.1,0.106823,5.48896,0.999849,-0.0173721
36.2,0.251899,5.48506,0.999838,-0.0179947
36.3,0.397176,5.48103,0.999828,-0.0185639
36.4,0.542674,5.47688,0.999818,-0.0190663
36.5,0.688293,5.47269,0.999814,-0.0192993
36.6,0.833912,5.46849,0.999814,-0.0192992
36.7,0.979531,5.46429,0.999814,-0.0192992
36.8,1.12515,5.4601,0.999814,-0.0192992
36.9,1.27077,5.4559,0.999814,-0.0192991
37,1.41639,5.4517,0.999814,-0.0192991
37.1,1.56201,5.4475,0.999814,-0.019299
37.2,1.70763,5.44331,0.999814,-0.019299
37.3,1.85324,5.43911,0.999814,-0.0192989
37.4,1.99886,5.43491,0.999814,-0.0192989
37.5,2.14448,5.43072,0.999814,-0.0192989
37.6,2.2901,5.42652,0.999814,-0.0192988
37.7,2.43572,5.42232,0.999814,-0.0192988
37.8,2.58134,5.41812,0.999814,-0.0192987
37.9,2.72696,5.41393,0.999814,-0.0192987
38,2.87258,5.40973,0.999814,-0.0192987
38.1,3.0182,5.40553,0.999814,-0.0192986
38.2,3.16382,5.40134,0.999814,-0.0192986
38.3,3.30943,5.39714,0.999814,-0.0192985
38.4,3.45505,5.39294,0.999814,-0.0192985
38.5,3.60067,5.38874,0.999814,-0.0192984
38.6,3.74629,5.38455,0.999814,-0.0192984
38.7,3.89191,5.38035,0.999814,-0.0192983
38.8,4.03753,5.37615,0.999814,-0.0192983
38.9,4.18315,5.37196,0.999814,-0.0192982
39,4.32877,5.36776,0.999814,-0.0192982
39.1,4.47439,5.36356,0.999814,-0.0192981
39.2,4.62,5.35936,0.999814,-0.019298
39.3,4.76562,5.35517,0.999814,-0.019298
39.4,4.91124,5.35097,0.999814,-0.0192979
39.5,-4.94314,5.34677,0.999814,-0.0192978
39.6,-4.79752,5.34258,0.999814,-0.0192977
39.7,-4.6519,5.33838,0.999814,-0.0192977
39.8,-4.50628,5.33418,0.999814,-0.0192976
39.9,-4.36066,5.32999,0.999814,-0.0192975
40,-4.21504,5.32579,0.999814,-0.0192975
40.1,-4.06943,5.32159,0.999814,-0.0192975
40.2,-3.92381,5.31739,0.999814,-0.0192974
40.3,-3.77819,5.3132,0.999814,-0.0192974
40.4,-3.63257,5.309,0.999814,-0.0192973
40.5,-3.48695,5.3048,0.999814,-0.0192973
40.6,-3.34133,5.30061,0.999814,-0.0192972
40.7,-3.19571,5.29641,0.999814,-0.0192972
40.8,-3.05009,5.29221,0.999814,-0.0192971
40.9,-2.90447,5.28801,0.999814,-0.019297
41,-2.75885,5.28382,0.999814,-0.0192972
41.1,-2.61324,5.27962,0.999814,-0.0192971
41.2,-2.46762,5.27542,0.999814,-0.019297
41.3,-2.322,5.27123,0.999814,-0.0192967
41.4,-2.17611,5.26723,0.999831,-0.0183814
41.5,-2.03013,5.2633,0.999837,-0.0180421
41.6,-1.8839,5.25959,0.999855,-0.0170087
41.7,-1.73759,5.25597,0.999862,-0.0166141
41.8,-1.59105,5.2526,0.99988,-0.015474
41.9,-1.44443,5.24933,0.999887,-0.0150278
42,-1.29761,5.24632,0.999905,-0.0137908
42.1,-1.15072,5.24342,0.999912,-0.0132967
42.2,-1.00366,5.24082,0.999928,-0.0119791
42.3,-0.856534,5.23833,0.999935,-0.0114404
42.4,-0.709275,5.23614,0.999949,-0.0100589
42.5,-0.561965,5.23409,0.999955,-0.00945539
42.6,-0.414529,5.23249,0.999973,-0.0074019
42.7,-0.267017,5.23143,0.999988,-0.00493823
42.8,-0.119475,5.23092,0.999997,-0.00247737
42.9,0.0280659,5.23085,1,-0.000506829
43,0.175607,5.23077,1,-0.000506829
43.1,0.323148,5.2307,1,-0.000506829
43.2,0.470689,5.23062,1,-0.000506829
43.3,0.618231,5.23055,1,-0.000506829
43.4,0.765772,5.23047,1,-0.000506829
43.5,0.913313,5.2304,1,-0.000506829
43.6,1.06085,5.23032,1,-0.000506829
43.7,1.2084,5.23025,1,-0.000506829
43.8,1.35594,5.23017,1,-0.000506829
43.9,1.50348,5.2301,1,-0.000506829
44,1.65102,5.23002,1,-0.000506829
44.1,1.79856,5.22995,1,-0.000506829
44.2,1.9461,5.22987,1,-0.000506829
44.3,2.09364,5.2298,1,-0.000506829
44.4,2.24118,5.22972,1,-0.000506829
44.5,2.38872,5.22965,1,-0.000506829
44.6,2.53627,5.22957,1,-0.000506829
44.7,2.68381,5.2295,1,-0.000506829
44.8,2.83135,5.22942,1,-0.000506829
44.9,2.97889,5.22935,1,-0.000506829
45,3.12643,5.22927,1,-0.000506829
45.1,3.27397,5.2292,1,-0.000506829
45.2,3.42151,5.22912,1,-0.000506829
45.3,3.56906,5.22905,1,-0.000506829
45.4,3.7166,5.22897,1,-0.000506829
45.5,3.86414,5.2289,1,-0.000506829
45.6,4.01168,5.22883,1,-0.000506829
45.7,4.15922,5.22875,1,-0.000506829
45.8,4.30676,5.22868,1,-0.000506829
45.9,4.4543,5.2286,1,-0.000506829
46,4.60184,5.22853,1,-0.000506829
46.1,4.74938,5.22845,1,-0.000506829
46.2,4.89692,5.22838,1,-0.000506829
46.3,-4.95553,5.2283,1,-0.000506829
46.4,-4.80799,5.22823,1,-0.000506727
46.5,-4.66045,5.22815,1,-0.000506727
46.6,-4.51291,5.22808,1,-0.000506727
46.7,-4.36537,5.228,1,-0.000506727
46.8,-4.21783,5.22793,1,-0.000506727
46.9,-4.07029,5.22785,1,-0.000506727
47,-3.92275,5.22778,1,-0.000506727
47.1,-3.77521,5.2277,1,-0.000506727
47.2,-3.62766,5.22763,1,-0.000506728
47.3,-3.48012,5.22755,1,-0.000506727
47.4,-3.33258,5.22748,1,-0.000506727
47.5,-3.18504,5.2274,1,-0.000506727
47.6,-3.0375,5.22733,1,-0.000506727
47.7,-2.88996,5.22725,1,-0.000506727
47.8,-2.74242,5.22718,1,-0.000506727
47.9,-2.59487,5.2271,1,-0.000506727
48,-2.44733,5.22703,1,-0.000506727
48.1,-2.29979,5.22695,1,-0.000506727
48.2,-2.15225,5.22688,1,-0.000506727
48.3,-2.00471,5.2268,1,-0.000506727
48.4,-1.85717,5.22673,1,-0.000506727
48.5,-1.70963,5.22665,1,-0.000506727
48.6,-1.56209,5.22658,1,-0.000506727
48.7,-1.41455,5.2265,1,-0.000506727
48.8,-1.267,5.22643,1,-0.000506727
48.9,-1.11946,5.22635,1,-0.000506727
49,-0.971922,5.22628,1,-0.000506727
49.1,-0.82438,5.2262,1,-0.000506727
49.2,-0.676839,5.22613,1,-0.000506727
49.3,-0.529298,5.22606,1,-0.000506727
49.4,-0.381757,5.22598,1,-0.000506727
49.5,-0.234216,5.22591,1,-0.000506727
49.6,-0.086808,5.22579,1,-0.00068428
49.7,0.0604065,5.22561,1,-0.000971364
49.8,0.207436,5.22537,0.999999,-0.00128962
49.9,0.354288,5.22504,0.999999,-0.00163943
50,0.50097,5.22464,0.999998,-0.00201468
50.1,0.647493,5.22414,0.999997,-0.00242018
50.2,0.793862,5.22355,0.999996,-0.00284782
50.3,0.94009,5.22286,0.999995,-0.00330405
50.4,1.08618,5.22207,0.999993,-0.00377984
50.5,1.23215,5.22116,0.999991,-0.00428109
50.6,1.37801,5.22015,0.999988,-0.00480011
50.7,1.52376,5.21901,0.999986,-0.00534162
50.8,1.66941,5.21775,0.999983,-0.00589751
50.9,1.81498,5.21637,0.999979,-0.00647256
51,1.96048,5.21486,0.999975,-0.00705816
51.1,2.10592,5.21322,0.999971,-0.00765991
51.2,2.25131,5.21145,0.999966,-0.00826688
51.3,2.39666,5.20954,0.99996,-0.00888502
51.4,2.54199,5.20749,0.999955,-0.00950364
51.5,2.68731,5.20531,0.999949,-0.0101273
51.6,2.83262,5.20299,0.999942,-0.010746
51.7,2.97795,5.20054,0.999935,-0.0113617
51.8,3.1233,5.19796,0.999928,-0.0119659
51.9,3.26869,5.19524,0.999921,-0.0125601
52,3.41413,5.1924,0.999914,-0.0131342
52.1,3.55964,5.18943,0.999906,-0.0136891
52.2,3.70522,5.18635,0.999899,-0.0142162
52.3,3.85089,5.18316,0.999892,-0.014714
52.4,3.99666,5.17987,0.999885,-0.0151757
52.5,4.14255,5.17648,0.999878,-0.0155979
52.6,4.28856,5.173,0.999872,-0.0159752
52.7,4.4347,5.16945,0.999867,-0.0163039
52.8,4.58098,5.16584,0.999863,-0.0165785
52.9,4.72742,5.16218,0.999859,-0.0167958
53,4.87388,5.15851,0.999858,-0.0168266
53.1,-4.97966,5.15484,0.999858,-0.0168266
53.2,-4.83319,5.15117,0.999858,-0.0168267
53.3,-4.68806,5.14665,0.999783,-0.0208376
53.4,-4.54585,5.14207,0.999771,-0.0213757
53.5,-4.40822,5.138,0.999812,-0.0194009
53.6,-4.27114,5.13388,0.999806,-0.0197157
53.7,-4.1344,5.12974,0.999803,-0.0198415
53.8,-3.99795,5.12561,0.999804,-0.0198161
53.9,-3.86177,5.12151,0.999805,-0.0197256
54,-3.72582,5.11743,0.999808,-0.0195988
54.1,-3.59009,5.11339,0.999811,-0.0194557
54.2,-3.45459,5.10939,0.999814,-0.0193054
54.3,-3.31925,5.10539,0.999813,-0.0193186
54.4,-3.18402,5.10135,0.99981,-0.0194708
54.5,-3.04892,5.0973,0.999808,-0.019586
54.6,-2.91401,5.09328,0.999811,-0.0194609
54.7,-2.77928,5.08928,0.999813,-0.0193191
54.8,-2.64474,5.08532,0.999816,-0.0191832
54.9,-2.51036,5.0814,0.999819,-0.0190526
55,-2.37581,5.07726,0.9998,-0.020021
55.1,-2.24141,5.07315,0.999802,-0.0199001
55.2,-2.10716,5.06907,0.999804,-0.019788
55.3,-1.97304,5.06502,0.999806,-0.0196833
55.4,-1.83797,5.06033,0.999744,-0.0226217
55.5,-1.70171,5.05511,0.999687,-0.0250285
55.6,-1.56009,5.04815,0.999474,-0.0324421
55.7,-1.41518,5.04014,0.999324,-0.036773
55.8,-1.27026,5.03216,0.999328,-0.0366469
55.9,-1.12534,5.02421,0.999333,-0.036528
56,-0.980402,5.01627,0.999337,-0.0364108
56.1,-0.835456,5.00837,0.999341,-0.0362906
56.2,-0.690501,5.00049,0.999346,-0.0361668
56.3,-0.545535,4.99264,0.99935,-0.0360373
56.4,-0.400558,4.98482,0.999355,-0.0359023
56.5,-0.255569,4.97703,0.99936,-0.0357608
56.6,-0.110569,4.96927,0.999366,-0.0356133
56.7,0.0344445,4.96154,0.999371,-0.0354591
56.8,0.179471,4.95385,0.999377,-0.0352983
56.9,0.324512,4.9462,0.999383,-0.0351306
57,0.469567,4.93858,0.999389,-0.0349558
57.1,0.614638,4.931,0.999395,-0.0347733
57.2,0.759725,4.92346,0.999402,-0.034583
57.3,0.90483,4.91597,0.999409,-0.034385
57.4,1.04995,4.90852,0.999416,-0.0341775
57.5,1.1951,4.90112,0.999423,-0.0339605
57.6,1.34026,4.89377,0.999431,-0.0337318
57.7,1.48545,4.88647,0.999439,-0.0334896
57.8,1.63066,4.87922,0.999448,-0.0332306
57.9,1.7759,4.87204,0.999457,-0.0329483
58,1.92118,4.86493,0.999467,-0.0326305
58.1,2.06651,4.85789,0.99948,-0.0322478
58.2,2.21193,4.85099,0.999498,-0.0316696
58.3,2.35759,4.84437,0.999541,-0.0302895
58.4,2.50373,4.83838,0.999624,-0.0274138
58.5,2.65032,4.83322,0.999722,-0.0235738
58.6,2.79726,4.82896,0.999811,-0.0194583
58.7,2.94445,4.82554,0.999878,-0.0156487
58.8,3.0918,4.82288,0.999926,-0.0121984
58.9,3.23927,4.82092,0.999959,-0.00902927
59,3.3868,4.81962,0.999982,-0.0060307
59.1,3.53435,4.81897,0.999995,-0.0031044
59.2,3.68189,4.8189,1,-0.000498623
59.3,3.82944,4.81882,1,-0.000498623
59.4,3.97698,4.81875,1,-0.000498623
59.5,4.12452,4.81868,1,-0.000498623
59.6,4.27206,4.8186,1,-0.000498623
59.7,4.4196,4.81853,1,-0.000498623
59.8,4.56714,4.81846,1,-0.000498623
59.9,4.71468,4.81838,1,-0.000498623
60,4.86222,4.81831,1,-0.000498623
60.1,-4.99024,4.81824,1,-0.000498623
60.2,-4.84269,4.81816,1,-0.000498523
60.3,-4.69515,4.81809,1,-0.000498523
60.4,-4.54761,4.81802,1,-0.000498523
60.5,-4.40007,4.81794,1,-0.000498523
60.6,-4.25253,4.81787,1,-0.000498523
60.7,-4.10499,4.81779,1,-0.000498523
60.8,-3.95745,4.81772,1,-0.000498523
60.9,-3.80991,4.81765,1,-0.000498523
61,-3.66237,4.81757,1,-0.000498523
61.1,-3.51482,4.8175,1,-0.000498523
61.2,-3.36728,4.81743,1,-0.000498523
61.3,-3.21974,4.81735,1,-0.000498523
61.4,-3.0722,4.81728,1,-0.000498523
61.5,-2.92466,4.81721,1,-0.000498523
61.6,-2.77712,4.81713,1,-0.000498523
61.7,-2.62958,4.81706,1,-0.000498523
61.8,-2.48204,4.81699,1,-0.000498523
61.9,-2.33449,4.81691,1,-0.000498523
62,-2.18695,4.81684,1,-0.000498523
62.1,-2.03941,4.81677,1,-0.000498523
62.2,-1.89187,4.81669,1,-0.000498523
62.3,-1.74433,4.81662,1,-0.000498523
62.4,-1.59679,4.81655,1,-0.000498523
62.5,-1.44925,4.81647,1,-0.000498523
62.6,-1.30171,4.8164,1,-0.000498523
62.7,-1.15416,4.81633,1,-0.000498523
62.8,-1.00662,4.81625,1,-0.000498523
62.9,-0.859082,4.81618,1,-0.000498523
63,-0.711541,4.81611,1,-0.000498523
63.1,-0.564,4.81603,1,-0.000498523
63.2,-0.416459,4.81596,1,-0.000498523
63.3,-0.268918,4.81589,1,-0.000498523
63.4,-0.121376,4.81581,1,-0.000498523
63.5,0.0261649,4.81574,1,-0.000498523
63.6,0.173706,4.81567,1,-0.000498523
63.7,0.321247,4.81559,1,-0.000498523
63.8,0.468788,4.81552,1,-0.000498523
63.9,0.61633,4.81544,1,-0.000498523
64,0.763871,4.81537,1,-0.000498523
64.1,0.911412,4.8153,1,-0.000498523
64.2,1.05895,4.81522,1,-0.000498523
64.3,1.20649,4.81515,1,-0.000498523
64.4,1.35404,4.81508,1,-0.000498523
64.5,1.50158,4.815,1,-0.000498523
64.6,1.64912,4.81493,1,-0.000498523
64.7,1.79666,4.81486,1,-0.000498523
64.8,1.9442,4.81478,1,-0.000498523
64.9,2.09174,4.81471,1,-0.000498523
65,2.23928,4.81464,1,-0.000498523
65.1,2.38682,4.81456,1,-0.000498523
65.2,2.53437,4.81449,1,-0.000498523
65.3,2.68191,4.81442,1,-0.000498523
65.4,2.82945,4.81434,1,-0.000498523
65.5,2.97699,4.81427,1,-0.000498523
65.6,3.12453,4.8142,1,-0.000498523
65.7,3.27207,4.81412,1,-0.000498523
65.8,3.41961,4.81405,1,-0.000498523
65.9,3.56715,4.81398,1,-0.000498523
66,3.7147,4.8139,1,-0.000498523
66.1,3.86224,4.81383,1,-0.000498523
66.2,4.00978,4.81376,1,-0.000498523
66.3,4.15732,4.81368,1,-0.000498523
66.4,4.30486,4.81361,1,-0.000498523
66.5,4.4524,4.81354,1,-0.000498523
66.6,4.59994,4.81346,1,-0.000498523
66.7,4.74748,4.81339,1,-0.000498523
66.8,4.89502,4.81332,1,-0.000498523
66.9,-4.95743,4.81324,1,-0.000498523
67,-4.80989,4.81317,1,-0.000498424
67.1,-4.66235,4.8131,1,-0.000498424
67.2,-4.51481,4.81302,1,-0.000498424
67.3,-4.36727,4.81295,1,-0.000498424
67.4,-4.21973,4.81287,1,-0.000498424
67.5,-4.07219,4.8128,1,-0.000498424
67.6,-3.92465,4.81273,1,-0.000498424
67.7,-3.77711,4.81265,1,-0.000498424
67.8,-3.62956,4.81258,1,-0.000498424
67.9,-3.48202,4.81251,1,-0.000498424
68,-3.33448,4.81243,1,-0.000498424
68.1,-3.18694,4.81236,1,-0.000498424
68.2,-3.0394,4.81229,1,-0.000498424
68.3,-2.89186,4.81221,1,-0.000498424
68.4,-2.74432,4.81214,1,-0.000498424
68.5,-2.59678,4.81207,1,-0.000498424
68.6,-2.44921,4.812,1,-0.000467212
68.7,-2.30159,4.81195,1,-0.000384543
68.8,-2.1539,4.81193,1,-0.000275144
68.9,-2.00614,4.81193,1,-0.000151497
69,-1.85829,4.81196,1,-2.03742e-05
69.1,-1.71036,4.81203,1,0.000114806
69.2,-1.56235,4.81212,1,0.000252091
69.3,-1.41427,4.81224,1,0.000390795
69.4,-1.26611,4.8124,1,0.000530259
69.5,-1.11789,4.81258,1,0.00067031
69.6,-0.969589,4.8128,1,0.000810508
69.7,-0.821225,4.81305,1,0.000951029
69.8,-0.672798,4.81333,0.999999,0.0010916
69.9,-0.524309,4.81364,0.999999,0.00123214
70,-0.375761,4.81398,0.999999,0.00137283
70.1,-0.227156,4.81435,0.999999,0.00151321
70.2,-0.0784979,4.81476,0.999999,0.00165335
70.3,0.0702119,4.81519,0.999998,0.00179339
70.4,0.218971,4.81566,0.999998,0.00193297
70.5,0.367777,4.81616,0.999998,0.00207206
70.6,0.516627,4.81669,0.999997,0.00221078
70.7,0.665519,4.81725,0.999997,0.00234876
70.8,0.814452,4.81784,0.999997,0.00248606
70.9,0.963421,4.81846,0.999997,0.00262259
71,1.11243,4.81911,0.999996,0.00275813
71.1,1.26147,4.81979,0.999996,0.00289263
71.2,1.41054,4.8205,0.999995,0.00302615
71.3,1.55963,4.82124,0.999995,0.00315806
71.4,1.70876,4.82201,0.999995,0.0032891
71.5,1.85791,4.82281,0.999994,0.00341838
71.6,2.00708,4.82364,0.999994,0.00354614
71.7,2.15628,4.82449,0.999993,0.00367215
71.8,2.30549,4.82538,0.999993,0.00379675
71.9,2.45472,4.82629,0.999992,0.00391907
72,2.60397,4.82722,0.999992,0.00403916
72.1,2.75323,4.82819,0.999991,0.00415738
72.2,2.9025,4.82918,0.999991,0.00427332
72.3,3.05165,4.83041,0.999986,0.00536914
72.4,3.20063,4.83192,0.999978,0.00661264
72.5,3.34945,4.83367,0.99997,0.00771106
72.6,3.49812,4.83565,0.999962,0.00869689
72.7,3.64663,4.83781,0.999954,0.00958798
72.8,3.79499,4.84016,0.999946,0.0103978
72.9,3.94319,4.84267,0.999938,0.0111366
73,4.09125,4.84533,0.99993,0.0118126
73.1,4.23916,4.84812,0.999923,0.0124325
73.2,4.38691,4.85104,0.999915,0.0129971
73.3,4.5345,4.85406,0.999909,0.0135099
73.4,4.68194,4.8572,0.999902,0.0139885
73.5,4.82922,4.86043,0.999896,0.0144494
73.6,4.97636,4.86375,0.999889,0.0148956
73.7,-4.87664,4.86718,0.999882,0.0153284
73.8,-4.72978,4.87069,0.999876,0.0157487
73.9,-4.58305,4.87429,0.999869,0.016157
74,-4.43644,4.87797,0.999863,0.0165538
74.1,-4.28996,4.88174,0.999856,0.0169392
74.2,-4.14359,4.88559,0.99985,0.0173138
74.3,-3.99698,4.88921,0.999868,0.0162322
74.4,-3.84978,4.89239,0.999898,0.014262
74.5,-3.70209,4.89517,0.999924,0.0123664
74.6,-3.55392,4.89777,0.999933,0.0115435
74.7,-3.40495,4.89981,0.999959,0.00901422
74.8,-3.25536,4.90139,0.999976,0.00689404
74.9,-3.10544,4.90303,0.999974,0.00716867
75,-2.95521,4.90494,0.999965,0.00834229
75.1,-2.80482,4.90704,0.999957,0.00922358
75.2,-2.65437,4.9093,0.999951,0.00989466
75.3,-2.50394,4.91166,0.999946,0.0103633
75.4,-2.35357,4.91407,0.999944,0.0106061
75.5,-2.20326,4.9165,0.999943,0.0106841
75.6,-2.053,4.91893,0.999943,0.0106857
75.7,-1.90276,4.92136,0.999943,0.0106709
75.8,-1.75253,4.92379,0.999943,0.0106671
75.9,-1.60229,4.92622,0.999943,0.0106831
76,-1.45203,4.92866,0.999943,0.0107208
76.1,-1.30175,4.93111,0.999942,0.0107764
76.2,-1.15145,4.93358,0.999941,0.0108446
76.3,-1.00111,4.93606,0.99994,0.0109206
76.4,-0.850743,4.93856,0.99994,0.0109994
76.5,-0.70034,4.94108,0.999939,0.0110778
76.6,-0.549898,4.94362,0.999938,0.011154
76.7,-0.399417,4.94618,0.999937,0.0112274
76.8,-0.248898,4.94875,0.999936,0.0112963
76.9,-0.0983468,4.95133,0.999936,0.0113522
77,0.0522331,4.95392,0.999935,0.0113885
77.1,0.202842,4.95652,0.999935,0.0114046
77.2,0.353482,4.95911,0.999935,0.0113995
77.3,0.504159,4.9617,0.999935,0.0113709
77.4,0.654878,4.96428,0.999936,0.0113111
77.5,0.805648,4.96683,0.999937,0.0112088
77.6,0.95648,4.96935,0.999939,0.0110424
77.7,1.10739,4.97181,0.999942,0.010773
77.8,1.25839,4.97416,0.999947,0.0103072
77.9,1.4095,4.9763,0.999956,0.00935837
78,1.56062,4.97782,0.999978,0.00659863
78.1,1.71212,4.97955,0.999972,0.00749069
78.2,1.86353,4.98076,0.999986,0.00521763
78.3,2.01678,4.98279,0.999962,0.00875752
78.4,2.17091,4.98527,0.999942,0.0107372
78.5,2.32555,4.98806,0.999927,0.0120586
78.6,2.48022,4.99088,0.999926,0.012152
78.7,2.63457,4.99348,0.999937,0.0112626
78.8,2.78809,4.99634,0.999923,0.012398
78.9,2.94046,4.99961,0.999898,0.0142865
79,3.09196,5.00269,0.999909,0.0135275
79.1,3.24277,5.00531,0.999934,0.0115133
79.2,3.39301,5.00752,0.999953,0.00968129
79.3,3.54291,5.00948,0.999963,0.00857829
79.4,3.69264,5.01129,0.999968,0.00797227
79.5,3.84226,5.01303,0.999971,0.00760879
79.6,3.99181,5.01471,0.999973,0.00737491
79.7,4.14132,5.01636,0.999974,0.00722187
79.8,4.2908,5.01799,0.999975,0.00711847
79.9,4.44026,5.0196,0.999975,0.00704399
80,4.5897,5.0212,0.999976,0.0069863
