0.1,-10.1869,-2.515,1,0
0.2,-0.100075,-2.40903,0.795481,0.605978
0.3,-0.00708549,-2.35267,0.932308,0.361666
0.4,0.0933799,-2.34107,0.997127,0.0757472
0.5,0.197926,-2.34107,1,-3.48325e-06
0.6,0.302471,-2.34107,1,-3.47993e-06
0.7,0.407017,-2.34107,1,-3.47992e-06
0.8,0.511563,-2.34107,1,-3.47992e-06
0.9,0.616109,-2.34107,1,-3.47992e-06
1,0.720654,-2.34107,1,-3.47992e-06
1.1,0.8252,-2.34107,1,-3.47991e-06
1.2,0.929746,-2.34108,1,-3.47991e-06
1.3,1.03429,-2.34108,1,-3.47991e-06
1.4,1.13884,-2.34108,1,-3.47991e-06
1.5,1.24338,-2.34108,1,-3.47991e-06
1.6,1.34793,-2.34108,1,-3.4799e-06
1.7,1.45248,-2.34108,1,-3.4799e-06
1.8,1.55702,-2.34108,1,-3.4799e-06
1.9,1.66177,-2.34102,1,0.000344713
2,1.76681,-2.34089,1,0.000877139
2.1,1.87214,-2.34066,0.999999,0.00145265
2.2,1.97772,-2.34033,0.999998,0.00207781
2.3,2.08357,-2.33989,0.999996,0.00275994
2.4,2.18966,-2.33934,0.999994,0.00350721
2.5,2.29598,-2.33865,0.999991,0.00432897
2.6,2.40252,-2.33782,0.999986,0.00523543
2.7,2.50926,-2.33683,0.999981,0.00623775
2.8,2.61617,-2.33566,0.999973,0.0073477
2.9,2.72323,-2.33429,0.999963,0.00857675
3,2.83041,-2.3327,0.999951,0.00993511
3.1,2.93767,-2.33088,0.999935,0.0114297
3.2,3.04498,-2.3288,0.999915,0.0130607
3.3,3.15237,-2.32656,0.999902,0.0140295
3.4,3.26004,-2.32438,0.999907,0.0136067
3.5,3.36799,-2.32226,0.999913,0.0132019
3.6,3.47621,-2.32021,0.999918,0.0128092
3.7,3.5847,-2.31821,0.999923,0.0124285
3.8,3.69345,-2.31627,0.999927,0.0120594
3.9,3.80245,-2.31438,0.999932,0.0117015
4,3.91171,-2.31254,0.999936,0.0113542
4.1,4.02121,-2.31076,0.999939,0.0110168
4.2,4.13095,-2.30903,0.999943,0.0106886
4.3,4.24092,-2.30735,0.999946,0.010369
4.4,4.35113,-2.30571,0.999949,0.0100571
4.5,4.46156,-2.30413,0.999952,0.00975213
4.6,4.5722,-2.30259,0.999955,0.00945329
4.7,4.68306,-2.30109,0.999958,0.0091596
4.8,4.79413,-2.29964,0.999961,0.00887005
4.9,4.9054,-2.29824,0.999963,0.00858351
5,-4.98315,-2.29688,0.999966,0.00829867
5.1,-4.8715,-2.29557,0.999968,0.00800537
5.2,-4.75969,-2.2943,0.99997,0.00771202
5.3,-4.6477,-2.29308,0.999972,0.00742776
5.4,-4.53554,-2.2919,0.999974,0.00715256
5.5,-4.42323,-2.29077,0.999976,0.0068864
5.6,-4.31076,-2.28968,0.999978,0.00662926
5.7,-4.19814,-2.28863,0.99998,0.00638114
5.8,-4.08537,-2.28761,0.999981,0.00614208
5.9,-3.97247,-2.28663,0.999982,0.00591208
6,-3.85943,-2.28569,0.999984,0.00569125
6.1,-3.74626,-2.28479,0.999985,0.0054797
6.2,-3.63297,-2.28391,0.999986,0.00527756
6.3,-3.51956,-2.28307,0.999987,0.00508501
6.4,-3.40604,-2.28226,0.999988,0.0049023
6.5,-3.29242,-2.28147,0.999989,0.00472974
6.6,-3.17869,-2.28071,0.99999,0.00456771
6.7,-3.06487,-2.27998,0.99999,0.0044167
6.8,-2.95097,-2.27927,0.999991,0.00427729
6.9,-2.83699,-2.27858,0.999991,0.00415025
7,-2.72293,-2.27791,0.999992,0.00403655
7.1,-2.60882,-2.27725,0.999992,0.00393742
7.2,-2.49466,-2.27661,0.999993,0.00385446
7.3,-2.38045,-2.27598,0.999993,0.00378985
7.4,-2.26622,-2.27535,0.999993,0.00374654
7.5,-2.15198,-2.27473,0.999993,0.00372869
7.6,-2.03774,-2.27411,0.999993,0.00372857
7.7,-1.9235,-2.27349,0.999993,0.00372857
7.8,-1.80925,-2.27287,0.999993,0.00372857
7.9,-1.69501,-2.27225,0.999993,0.00372858
8,-1.58077,-2.27163,0.999993,0.00372857
8.1,-1.46653,-2.27101,0.999993,0.00372857
8.2,-1.35229,-2.27039,0.999993,0.00372857
8.3,-1.23804,-2.26976,0.999993,0.00372856
8.4,-1.1238,-2.26914,0.999993,0.00372856
8.5,-1.00956,-2.26852,0.999993,0.00372856
8.6,-0.895317,-2.2679,0.999993,0.00372856
8.7,-0.781075,-2.26728,0.999993,0.00372856
8.8,-0.666833,-2.26666,0.999993,0.00372856
8.9,-0.552591,-2.26604,0.999993,0.00372856
9,-0.438349,-2.26542,0.999993,0.00372856
9.1,-0.324107,-2.2648,0.999993,0.00372856
9.2,-0.209865,-2.26417,0.999993,0.00372856
9.3,-0.0956224,-2.26355,0.999993,0.00372856
9.4,0.0186198,-2.26293,0.999993,0.00372856
9.5,0.132862,-2.26231,0.999993,0.00372857
9.6,0.247104,-2.26169,0.999993,0.00372856
9.7,0.361347,-2.26107,0.999993,0.00372856
9.8,0.475589,-2.26045,0.999993,0.00372857
9.9,0.589831,-2.25983,0.999993,0.00372858
10,0.704073,-2.25921,0.999993,0.00372859
10.1,0.818316,-2.25859,0.999993,0.0037286
10.2,0.932558,-2.25796,0.999993,0.0037286
10.3,1.0468,-2.25734,0.999993,0.00372859
10.4,1.16104,-2.25672,0.999993,0.0037286
10.5,1.27529,-2.2561,0.999993,0.00372863
10.6,1.38909,-2.25549,0.999993,0.00370258
10.7,1.49951,-2.25492,0.999994,0.00349728
10.8,1.60831,-2.25437,0.999994,0.00339577
10.9,1.71286,-2.25432,1,0.000284159
11,1.81741,-2.25432,1,-5.21576e-06
11.1,1.92195,-2.25433,1,-5.21574e-06
11.2,2.0265,-2.25433,1,-5.21574e-06
11.3,2.13105,-2.25433,1,-5.21575e-06
11.4,2.23559,-2.25433,1,-5.21575e-06
11.5,2.34014,-2.25433,1,-5.21575e-06
11.6,2.44468,-2.25433,1,-5.21575e-06
11.7,2.54923,-2.25433,1,-5.21575e-06
11.8,2.65377,-2.25433,1,-5.21575e-06
11.9,2.75832,-2.25433,1,-5.21575e-06
12,2.86287,-2.25433,1,-5.21576e-06
12.1,2.96741,-2.25433,1,-5.21576e-06
12.2,3.07196,-2.25433,1,-5.21576e-06
12.3,3.1765,-2.25433,1,-5.21576e-06
12.4,3.28105,-2.25433,1,-5.21576e-06
12.5,3.3856,-2.25433,1,-5.21576e-06
12.6,3.49014,-2.25433,1,-5.21576e-06
12.7,3.59469,-2.25433,1,-5.21576e-06
12.8,3.69923,-2.25433,1,-5.21577e-06
12.9,3.80378,-2.25433,1,-5.21577e-06
13,3.90832,-2.25433,1,-5.21577e-06
13.1,4.01287,-2.25433,1,-5.21577e-06
13.2,4.11742,-2.25434,1,-5.21577e-06
13.3,4.22196,-2.25434,1,-5.21577e-06
13.4,4.32651,-2.25434,1,-5.21577e-06
13.5,4.43105,-2.25434,1,-5.21578e-06
13.6,4.5356,-2.25434,1,-5.21578e-06
13.7,4.64014,-2.25434,1,-5.21578e-06
13.8,4.74469,-2.25434,1,-5.21578e-06
13.9,4.84924,-2.25434,1,-5.21578e-06
14,4.95378,-2.25434,1,-5.21578e-06
14.1,-4.94167,-2.25434,1,-5.21578e-06
14.2,-4.83713,-2.25434,1,-5.21474e-06
14.3,-4.73258,-2.25434,1,-5.21474e-06
14.4,-4.62804,-2.25434,1,-5.21474e-06
14.5,-4.52349,-2.25434,1,-5.21475e-06
14.6,-4.41895,-2.25434,1,-5.21475e-06
14.7,-4.3144,-2.25434,1,-5.21475e-06
14.8,-4.20985,-2.25434,1,-5.21475e-06
14.9,-4.10531,-2.25434,1,-5.21475e-06
15,-4.00076,-2.25434,1,-5.21475e-06
15.1,-3.89622,-2.25434,1,-5.21475e-06
15.2,-3.79167,-2.25434,1,-5.21476e-06
15.3,-3.68713,-2.25435,1,-5.21476e-06
15.4,-3.58258,-2.25435,1,-5.21476e-06
15.5,-3.47803,-2.25435,1,-5.21476e-06
15.6,-3.37349,-2.25435,1,-5.21476e-06
15.7,-3.26894,-2.25435,1,-5.21476e-06
15.8,-3.1644,-2.25435,1,-5.21476e-06
15.9,-3.05985,-2.25435,1,-5.21476e-06
16,-2.9553,-2.25435,1,-5.21477e-06
16.1,-2.85076,-2.25435,1,-5.21477e-06
16.2,-2.74621,-2.25435,1,-5.21477e-06
16.3,-2.64167,-2.25435,1,-5.21477e-06
16.4,-2.53712,-2.25435,1,-5.21477e-06
16.5,-2.43258,-2.25435,1,-5.21477e-06
16.6,-2.32803,-2.25435,1,-5.21477e-06
16.7,-2.22348,-2.25435,1,-5.21478e-06
16.8,-2.11894,-2.25435,1,-5.21478e-06
16.9,-2.01439,-2.25435,1,-5.21478e-06
17,-1.90985,-2.25435,1,-5.21478e-06
17.1,-1.8053,-2.25435,1,-5.21478e-06
17.2,-1.70075,-2.25435,1,-5.21478e-06
17.3,-1.59621,-2.25435,1,-5.21478e-06
17.4,-1.49166,-2.25436,1,-5.21479e-06
17.5,-1.38712,-2.25436,1,-5.21479e-06
17.6,-1.28257,-2.25436,1,-5.21479e-06
17.7,-1.17803,-2.25436,1,-5.21479e-06
17.8,-1.07348,-2.25436,1,-5.21479e-06
17.9,-0.968934,-2.25436,1,-5.21479e-06
18,-0.864388,-2.25436,1,-5.21479e-06
18.1,-0.759842,-2.25436,1,-5.21479e-06
18.2,-0.655297,-2.25436,1,-5.2148e-06
18.3,-0.550751,-2.25436,1,-5.2148e-06
18.4,-0.446205,-2.25436,1,-5.2148e-06
18.5,-0.341659,-2.25436,1,-5.2148e-06
18.6,-0.237113,-2.25436,1,-5.2148e-06
18.7,-0.132568,-2.25436,1,-5.2148e-06
18.8,-0.0280219,-2.25436,1,-5.2148e-06
18.9,0.0765238,-2.25436,1,-5.21481e-06
19,0.18107,-2.25436,1,-5.21481e-06
19.1,0.285615,-2.25436,1,-5.21481e-06
19.2,0.390166,-2.25435,1,5.43694e-05
19.3,0.494759,-2.25427,1,0.000564723
19.4,0.599391,-2.2541,0.999999,0.00106009
19.5,0.70406,-2.25386,0.999999,0.00154409
19.6,0.808763,-2.25354,0.999998,0.00201681
19.7,0.913499,-2.25315,0.999997,0.00247838
19.8,1.01827,-2.25269,0.999996,0.00292891
19.9,1.12306,-2.25216,0.999994,0.0033685
20,1.22788,-2.25156,0.999993,0.00379725
20.1,1.33273,-2.2509,0.999991,0.0042153
20.2,1.43752,-2.25018,0.999989,0.00460102
20.3,1.54222,-2.24954,0.999992,0.00408926
20.4,1.64679,-2.24943,1,0.000688082
20.5,1.75133,-2.24943,1,-5.31369e-06
20.6,1.85588,-2.24943,1,-5.31371e-06
20.7,1.96042,-2.24943,1,-5.31371e-06
20.8,2.06497,-2.24943,1,-5.31371e-06
20.9,2.16952,-2.24943,1,-5.31371e-06
21,2.27406,-2.24943,1,-5.31371e-06
21.1,2.37861,-2.24943,1,-5.31371e-06
21.2,2.48315,-2.24943,1,-5.31372e-06
21.3,2.5877,-2.24943,1,-5.31372e-06
21.4,2.69224,-2.24943,1,-5.31372e-06
21.5,2.79679,-2.24943,1,-5.31372e-06
21.6,2.90134,-2.24943,1,-5.31372e-06
21.7,3.00588,-2.24943,1,-5.31372e-06
21.8,3.11043,-2.24943,1,-5.31373e-06
21.9,3.21497,-2.24944,1,-5.31373e-06
22,3.31952,-2.24944,1,-5.31373e-06
22.1,3.42407,-2.24944,1,-5.31373e-06
22.2,3.52861,-2.24944,1,-5.31373e-06
22.3,3.63316,-2.24944,1,-5.31373e-06
22.4,3.7377,-2.24944,1,-5.31374e-06
22.5,3.84225,-2.24944,1,-5.31374e-06
22.6,3.94679,-2.24944,1,-5.31374e-06
22.7,4.05134,-2.24944,1,-5.31374e-06
22.8,4.15589,-2.24944,1,-5.31374e-06
22.9,4.26043,-2.24944,1,-5.31374e-06
23,4.36498,-2.24944,1,-5.31374e-06
23.1,4.46952,-2.24944,1,-5.31375e-06
23.2,4.57407,-2.24944,1,-5.31375e-06
23.3,4.67861,-2.24944,1,-5.31375e-06
23.4,4.78316,-2.24944,1,-5.31375e-06
23.5,4.8877,-2.24944,1,-5.31375e-06
23.6,4.99225,-2.24944,1,-5.31375e-06
23.7,-4.9032,-2.24944,1,-5.31376e-06
23.8,-4.79866,-2.24944,1,-5.31269e-06
23.9,-4.69411,-2.24945,1,-2.16866e-05
24,-4.58946,-2.24955,1,-0.00063803
24.1,-4.48472,-2.24974,0.999999,-0.00125514
24.2,-4.37989,-2.25004,0.999998,-0.00187193
24.3,-4.27498,-2.25043,0.999997,-0.00248712
24.4,-4.17,-2.25092,0.999995,-0.00309931
24.5,-4.06496,-2.2515,0.999993,-0.00370693
24.6,-3.95984,-2.25216,0.999991,-0.00421739
24.7,-3.85461,-2.25286,0.99999,-0.00445584
24.8,-3.74923,-2.25358,0.99999,-0.00455106
24.9,-3.6437,-2.2543,0.99999,-0.00457116
25,-3.53801,-2.25502,0.99999,-0.00455213
25.1,-3.43216,-2.25573,0.99999,-0.00451293
25.2,-3.32615,-2.25644,0.99999,-0.00446365
25.3,-3.21998,-2.25714,0.99999,-0.00440964
25.4,-3.11366,-2.25783,0.999991,-0.00435373
25.5,-3.00719,-2.25851,0.999991,-0.00429739
25.6,-2.90056,-2.25918,0.999991,-0.00424144
25.7,-2.79379,-2.25985,0.999991,-0.00418625
25.8,-2.68688,-2.26051,0.999991,-0.00413213
25.9,-2.57983,-2.26116,0.999992,-0.00407911
26,-2.47264,-2.2618,0.999992,-0.00402726
26.1,-2.36532,-2.26243,0.999992,-0.00397673
26.2,-2.25786,-2.26306,0.999992,-0.0039274
26.3,-2.15028,-2.26368,0.999992,-0.00387933
26.4,-2.04258,-2.26429,0.999993,-0.00383248
26.5,-1.93475,-2.2649,0.999993,-0.0037868
26.6,-1.8268,-2.2655,0.999993,-0.00374268
26.7,-1.71891,-2.26617,0.999991,-0.00420494
26.8,-1.61158,-2.26714,0.999982,-0.0060529
26.9,-1.50544,-2.26855,0.99996,-0.00892372
27,-1.40053,-2.27021,0.999944,-0.0105417
27.1,-1.29571,-2.27185,0.999945,-0.0104827
27.2,-1.19089,-2.2735,0.999945,-0.0104827
27.3,-1.08606,-2.27515,0.999945,-0.0104826
27.4,-0.981242,-2.27679,0.999945,-0.0104826
27.5,-0.87642,-2.27844,0.999945,-0.0104826
27.6,-0.771597,-2.28009,0.999945,-0.0104826
27.7,-0.666775,-2.28173,0.999945,-0.0104826
27.8,-0.561952,-2.28338,0.999945,-0.0104826
27.9,-0.45713,-2.28503,0.999945,-0.0104826
28,-0.352307,-2.28667,0.999945,-0.0104826
28.1,-0.247485,-2.28832,0.999945,-0.0104826
28.2,-0.142662,-2.28997,0.999945,-0.0104826
28.3,-0.03784,-2.29161,0.999945,-0.0104826
28.4,0.0669824,-2.29326,0.999945,-0.0104826
28.5,0.171805,-2.29491,0.999945,-0.0104826
28.6,0.276627,-2.29655,0.999945,-0.0104826
28.7,0.38145,-2.2982,0.999945,-0.0104826
28.8,0.486272,-2.29985,0.999945,-0.0104826
28.9,0.591095,-2.30149,0.999945,-0.0104826
29,0.695917,-2.30314,0.999945,-0.0104826
29.1,0.80074,-2.30478,0.999945,-0.0104826
29.2,0.905562,-2.30643,0.999945,-0.0104826
29.3,1.01038,-2.30808,0.999945,-0.0104826
29.4,1.11521,-2.30972,0.999945,-0.0104826
29.5,1.22003,-2.31137,0.999945,-0.0104826
29.6,1.32485,-2.31302,0.999945,-0.0104825
29.7,1.42967,-2.31466,0.999945,-0.0104825
29.8,1.5345,-2.31631,0.999945,-0.0104825
29.9,1.63932,-2.31796,0.999945,-0.0104825
30,1.74414,-2.3196,0.999945,-0.0104825
30.1,1.84896,-2.32125,0.999945,-0.0104825
30.2,1.95379,-2.3229,0.999945,-0.0104825
30.3,2.05861,-2.32454,0.999945,-0.0104825
30.4,2.16343,-2.32619,0.999945,-0.0104824
30.5,2.26825,-2.32784,0.999945,-0.0104825
30.6,2.37308,-2.32948,0.999945,-0.0104824
30.7,2.4779,-2.33113,0.999945,-0.0104825
30.8,2.58272,-2.33278,0.999945,-0.0104824
30.9,2.68754,-2.33442,0.999945,-0.0104824
31,2.79237,-2.33607,0.999945,-0.0104824
31.1,2.89719,-2.33772,0.999945,-0.0104824
31.2,3.00201,-2.33936,0.999945,-0.0104823
31.3,3.10683,-2.34101,0.999945,-0.0104824
31.4,3.21166,-2.34266,0.999945,-0.0104823
31.5,3.31648,-2.3443,0.999945,-0.0104824
31.6,3.4213,-2.34595,0.999945,-0.0104821
31.7,3.52612,-2.3476,0.999945,-0.0104824
31.8,3.63092,-2.34917,0.99995,-0.0100127
31.9,3.7356,-2.35036,0.999971,-0.00760051
32,3.84025,-2.35147,0.999975,-0.0070486
32.1,3.94484,-2.35218,0.99999,-0.00451359
32.2,4.04941,-2.35278,0.999992,-0.00386981
32.3,4.15395,-2.35297,0.999999,-0.0012191
32.4,4.2585,-2.35305,1,-0.000465496
32.5,4.36304,-2.35305,1,-3.2406e-06
32.6,4.46759,-2.35305,1,-3.24059e-06
32.7,4.57213,-2.35305,1,-3.24059e-06
32.8,4.67668,-2.35305,1,-3.2406e-06
32.9,4.78123,-2.35305,1,-3.2406e-06
33,4.88577,-2.35305,1,-3.2406e-06
33.1,4.99032,-2.35305,1,-3.2406e-06
33.2,-4.90514,-2.35305,1,-3.2406e-06
33.3,-4.80059,-2.35305,1,-3.23996e-06
33.4,-4.69605,-2.35305,1,-3.23996e-06
33.5,-4.5915,-2.35305,1,-3.23996e-06
33.6,-4.48696,-2.35305,1,-3.23996e-06
33.7,-4.38241,-2.35305,1,-3.23997e-06
33.8,-4.27786,-2.35305,1,-3.23997e-06
33.9,-4.17332,-2.35305,1,-3.23997e-06
34,-4.06877,-2.35305,1,-3.23997e-06
34.1,-3.96423,-2.35305,1,-3.23997e-06
34.2,-3.85968,-2.35305,1,-3.23998e-06
34.3,-3.75514,-2.35305,1,-3.23998e-06
34.4,-3.65059,-2.35305,1,-3.23998e-06
34.5,-3.54604,-2.35305,1,-3.23998e-06
34.6,-3.4415,-2.35305,1,-3.23998e-06
34.7,-3.33695,-2.35305,1,-3.23999e-06
34.8,-3.23241,-2.35305,1,-3.23999e-06
34.9,-3.12786,-2.35305,1,-3.23999e-06
35,-3.02331,-2.35305,1,-3.23999e-06
35.1,-2.91877,-2.35305,1,-3.23999e-06
35.2,-2.81422,-2.35305,1,-3.24e-06
35.3,-2.70968,-2.35305,1,-3.24e-06
35.4,-2.60513,-2.35305,1,-3.24e-06
35.5,-2.50059,-2.35305,1,-3.24e-06
35.6,-2.39604,-2.35305,1,-3.24e-06
35.7,-2.29149,-2.35305,1,-3.24001e-06
35.8,-2.18695,-2.35306,1,-3.24001e-06
35.9,-2.0824,-2.35306,1,-3.24001e-06
36,-1.97786,-2.35306,1,-3.24001e-06
36.1,-1.87331,-2.35306,1,-3.24001e-06
36.2,-1.76876,-2.35306,1,-3.24002e-06
36.3,-1.66422,-2.35306,1,-3.24002e-06
36.4,-1.55967,-2.35306,1,-3.24002e-06
36.5,-1.45513,-2.35306,1,-3.24002e-06
36.6,-1.35058,-2.35306,1,-3.24002e-06
36.7,-1.24604,-2.35306,1,-3.24003e-06
36.8,-1.14149,-2.35306,1,-3.24003e-06
36.9,-1.03694,-2.35306,1,-3.24003e-06
37,-0.932398,-2.35306,1,-3.24003e-06
37.1,-0.827853,-2.35306,1,-3.24003e-06
37.2,-0.723307,-2.35306,1,-3.24004e-06
37.3,-0.618761,-2.35306,1,-3.24004e-06
37.4,-0.514215,-2.35306,1,-3.24004e-06
37.5,-0.40967,-2.35306,1,-3.24004e-06
37.6,-0.305124,-2.35306,1,-3.24004e-06
37.7,-0.200578,-2.35306,1,-3.24005e-06
37.8,-0.0960322,-2.35306,1,-3.24005e-06
37.9,0.00851357,-2.35306,1,-3.24005e-06
38,0.113059,-2.35306,1,-3.24005e-06
38.1,0.217605,-2.35306,1,-3.24005e-06
38.2,0.322151,-2.35306,1,-3.24006e-06
38.3,0.426697,-2.35306,1,-3.24006e-06
38.4,0.531242,-2.35306,1,-3.24006e-06
38.5,0.635788,-2.35306,1,-3.24006e-06
38.6,0.740334,-2.35306,1,-3.24006e-06
38.7,0.84488,-2.35306,1,-3.24007e-06
38.8,0.949426,-2.35306,1,-3.24007e-06
38.9,1.05397,-2.35306,1,-3.24007e-06
39,1.15852,-2.35306,1,-3.24007e-06
39.1,1.26306,-2.35306,1,-3.24007e-06
39.2,1.36761,-2.35306,1,-3.24008e-06
39.3,1.47215,-2.35306,1,-3.24008e-06
39.4,1.5767,-2.35306,1,-3.24008e-06
39.5,1.68125,-2.35306,1,-3.24008e-06
39.6,1.78579,-2.35306,1,-3.24008e-06
39.7,1.89034,-2.35306,1,-3.24009e-06
39.8,1.99488,-2.35306,1,-3.24009e-06
39.9,2.09943,-2.35306,1,-3.24009e-06
40,2.20398,-2.35307,1,-3.24009e-06
40.1,2.30852,-2.35307,1,-3.24009e-06
40.2,2.41307,-2.35307,1,-3.2401e-06
40.3,2.51761,-2.35307,1,-3.2401e-06
40.4,2.62216,-2.35307,1,-3.2401e-06
40.5,2.72678,-2.35299,1,0.000471741
40.6,2.8315,-2.3528,0.999999,0.00121423
40.7,2.93632,-2.35249,0.999998,0.00195501
40.8,3.04122,-2.35207,0.999996,0.00269235
40.9,3.1462,-2.35153,0.999994,0.00342378
41,3.25124,-2.35088,0.999991,0.00414678
41.1,3.35634,-2.35011,0.999988,0.00485855
41.2,3.46148,-2.34924,0.999985,0.00555615
41.3,3.56665,-2.34826,0.999981,0.00623644
41.4,3.67185,-2.34717,0.999976,0.00689609
41.5,3.77706,-2.34598,0.999972,0.00753172
41.6,3.88227,-2.3447,0.999967,0.00813977
41.7,3.98748,-2.34333,0.999962,0.00871655
41.8,4.09267,-2.34187,0.999957,0.00925835
41.9,4.19784,-2.34033,0.999952,0.00976133
42,4.30297,-2.33873,0.999948,0.0102218
42.1,4.40807,-2.33705,0.999943,0.0106358
42.2,4.51312,-2.33532,0.99994,0.0109999
42.3,4.61812,-2.33354,0.999936,0.0113103
42.4,4.72305,-2.33172,0.999933,0.0115636
42.5,4.82792,-2.32988,0.999931,0.0117565
42.6,4.93273,-2.32801,0.999929,0.0118859
42.7,-4.96253,-2.32613,0.999929,0.0119434
42.8,-4.85778,-2.32426,0.999929,0.0119434
42.9,-4.75304,-2.32238,0.999929,0.0119434
43,-4.6483,-2.32051,0.999929,0.0119434
43.1,-4.54355,-2.31863,0.999929,0.0119434
43.2,-4.43881,-2.31675,0.999929,0.0119434
43.3,-4.33406,-2.31488,0.999929,0.0119434
43.4,-4.22932,-2.313,0.999929,0.0119433
43.5,-4.12458,-2.31113,0.999929,0.0119433
43.6,-4.01983,-2.30925,0.999929,0.0119433
43.7,-3.91509,-2.30738,0.999929,0.0119433
43.8,-3.81035,-2.3055,0.999929,0.0119433
43.9,-3.7056,-2.30362,0.999929,0.0119433
44,-3.60086,-2.30175,0.999929,0.0119433
44.1,-3.49611,-2.29987,0.999929,0.0119433
44.2,-3.39137,-2.298,0.999929,0.0119433
44.3,-3.28663,-2.29612,0.999929,0.0119432
44.4,-3.18188,-2.29425,0.999929,0.0119432
44.5,-3.07714,-2.29237,0.999929,0.0119432
44.6,-2.97239,-2.2905,0.999929,0.0119432
44.7,-2.86765,-2.28862,0.999929,0.0119432
44.8,-2.76291,-2.28674,0.999929,0.0119432
44.9,-2.65816,-2.28487,0.999929,0.0119432
45,-2.55342,-2.28299,0.999929,0.0119431
45.1,-2.44867,-2.28112,0.999929,0.0119432
45.2,-2.34393,-2.27924,0.999929,0.0119431
45.3,-2.23919,-2.27737,0.999929,0.0119431
45.4,-2.13444,-2.27549,0.999929,0.0119431
45.5,-2.0297,-2.27361,0.999929,0.011943
45.6,-1.92495,-2.27174,0.999929,0.011943
45.7,-1.82021,-2.26986,0.999929,0.011943
45.8,-1.71547,-2.26799,0.999929,0.011943
45.9,-1.61072,-2.26611,0.999929,0.011943
46,-1.50598,-2.26424,0.999929,0.011943
46.1,-1.40123,-2.26236,0.999929,0.011943
46.2,-1.29649,-2.26049,0.999929,0.0119429
46.3,-1.19175,-2.25861,0.999929,0.011943
46.4,-1.087,-2.25673,0.999929,0.0119429
46.5,-0.982258,-2.25486,0.999929,0.0119431
46.6,-0.877514,-2.25298,0.999929,0.0119429
46.7,-0.77291,-2.2519,0.999976,0.00688922
46.8,-0.668364,-2.25167,0.999999,0.00144732
46.9,-0.563818,-2.25167,1,-5.26856e-06
47,-0.459272,-2.25168,1,-5.26852e-06
47.1,-0.354727,-2.25168,1,-5.26852e-06
47.2,-0.250181,-2.25168,1,-5.26852e-06
47.3,-0.145635,-2.25168,1,-5.26852e-06
47.4,-0.0410893,-2.25168,1,-5.26852e-06
47.5,0.0634565,-2.25168,1,-5.26852e-06
47.6,0.168002,-2.25168,1,-5.26852e-06
47.7,0.272548,-2.25168,1,-5.26853e-06
47.8,0.377094,-2.25168,1,-5.26853e-06
47.9,0.48164,-2.25168,1,-5.26853e-06
48,0.586185,-2.25168,1,-5.26853e-06
48.1,0.690731,-2.25168,1,-5.26853e-06
48.2,0.795277,-2.25168,1,-5.26853e-06
48.3,0.899823,-2.25168,1,-5.26854e-06
48.4,1.00437,-2.25168,1,-5.26854e-06
48.5,1.10891,-2.25168,1,-5.26854e-06
48.6,1.21346,-2.25168,1,-5.26854e-06
48.7,1.31801,-2.25168,1,-5.26854e-06
48.8,1.42255,-2.25168,1,-5.26854e-06
48.9,1.5271,-2.25168,1,-5.26854e-06
49,1.63164,-2.25168,1,-5.26855e-06
49.1,1.73619,-2.25169,1,-5.26855e-06
49.2,1.84073,-2.25169,1,-5.26855e-06
49.3,1.94528,-2.25169,1,-5.26855e-06
49.4,2.04983,-2.25169,1,-5.26855e-06
49.5,2.15437,-2.25169,1,-5.26855e-06
49.6,2.25892,-2.25169,1,-5.26855e-06
49.7,2.36346,-2.25169,1,-5.26856e-06
49.8,2.46801,-2.25169,1,-5.26856e-06
49.9,2.57256,-2.25169,1,-5.26856e-06
50,2.6771,-2.25169,1,-5.26856e-06
50.1,2.78165,-2.25169,1,-5.26856e-06
50.2,2.88619,-2.25169,1,-5.26856e-06
50.3,2.99074,-2.25169,1,-5.26856e-06
50.4,3.09528,-2.25169,1,-5.26857e-06
50.5,3.19983,-2.25169,1,-5.26857e-06
50.6,3.30438,-2.25169,1,-5.26857e-06
50.7,3.40892,-2.25169,1,-5.26857e-06
50.8,3.51347,-2.25169,1,-5.26857e-06
50.9,3.61801,-2.25169,1,-5.26857e-06
51,3.72256,-2.25169,1,-5.26858e-06
51.1,3.82711,-2.25169,1,-5.26858e-06
51.2,3.93165,-2.2517,1,-5.26858e-06
51.3,4.0362,-2.2517,1,-5.26858e-06
51.4,4.14074,-2.2517,1,-5.26858e-06
51.5,4.24529,-2.2517,1,-5.26858e-06
51.6,4.34983,-2.2517,1,-5.26858e-06
51.7,4.45438,-2.2517,1,-5.26859e-06
51.8,4.55893,-2.2517,1,-5.26859e-06
51.9,4.66347,-2.2517,1,-5.26859e-06
52,4.76802,-2.2517,1,-5.26859e-06
52.1,4.87256,-2.2517,1,-5.26859e-06
52.2,4.97711,-2.2517,1,-5.26859e-06
52.3,-4.91835,-2.2517,1,-5.26859e-06
52.4,-4.8138,-2.2517,1,-5.26754e-06
52.5,-4.70926,-2.2517,1,-5.26754e-06
52.6,-4.60471,-2.2517,1,-5.26754e-06
52.7,-4.50016,-2.2517,1,-5.26755e-06
52.8,-4.39562,-2.2517,1,-5.26755e-06
52.9,-4.29107,-2.2517,1,-5.26755e-06
53,-4.18653,-2.2517,1,-5.26755e-06
53.1,-4.08198,-2.2517,1,-5.26755e-06
53.2,-3.97744,-2.2517,1,-5.26755e-06
53.3,-3.87289,-2.25171,1,-5.26756e-06
53.4,-3.76834,-2.25171,1,-5.26756e-06
53.5,-3.66376,-2.25171,1,-2.21462e-05
53.6,-3.55912,-2.25172,1,-4.43728e-05
53.7,-3.45444,-2.25173,1,-6.65831e-05
53.8,-3.34971,-2.25174,1,-8.87808e-05
53.9,-3.24493,-2.25176,1,-0.000110975
54,-3.1401,-2.25178,1,-0.000133181
54.1,-3.03523,-2.2518,1,-0.000155396
54.2,-2.93032,-2.25183,1,-0.00017763
54.3,-2.82536,-2.25186,1,-0.000199887
54.4,-2.72035,-2.25189,1,-0.000222182
54.5,-2.61531,-2.25193,1,-0.000244519
54.6,-2.51022,-2.25197,1,-0.000266897
54.7,-2.4051,-2.25202,1,-0.000289333
54.8,-2.29993,-2.25207,1,-0.000311825
54.9,-2.19473,-2.25212,1,-0.000334388
55,-2.08949,-2.25218,1,-0.000357021
55.1,-1.98421,-2.25224,1,-0.000379736
55.2,-1.8789,-2.2523,1,-0.000402538
55.3,-1.77355,-2.25237,1,-0.000425426
55.4,-1.66816,-2.25244,1,-0.000448423
55.5,-1.56275,-2.25251,1,-0.000471513
55.6,-1.45729,-2.25259,1,-0.000494725
55.7,-1.35181,-2.25267,1,-0.000518048
55.8,-1.24629,-2.25276,1,-0.000541503
55.9,-1.14074,-2.25284,1,-0.000565082
56,-1.03517,-2.25294,1,-0.000588797
56.1,-0.929556,-2.25303,1,-0.000612661
56.2,-0.823918,-2.25313,1,-0.000636672
56.3,-0.71825,-2.25324,1,-0.000660838
56.4,-0.612555,-2.25335,1,-0.000685165
56.5,-0.506831,-2.25346,1,-0.00070966
56.6,-0.401081,-2.25357,1,-0.000734329
56.7,-0.295304,-2.25369,1,-0.000759185
56.8,-0.189501,-2.25382,1,-0.000784219
56.9,-0.083672,-2.25395,1,-0.000809444
57,0.0221815,-2.25408,1,-0.000834875
57.1,0.12806,-2.25421,1,-0.000860508
57.2,0.233962,-2.25435,1,-0.000886349
57.3,0.339887,-2.2545,1,-0.000912409
57.4,0.445835,-2.25465,1,-0.000938699
57.5,0.551806,-2.2548,1,-0.000965206
57.6,0.657799,-2.25495,1,-0.00099195
57.7,0.763813,-2.25512,0.999999,-0.00101894
57.8,0.869848,-2.25528,0.999999,-0.00104618
57.9,0.975904,-2.25545,0.999999,-0.00107366
58,1.08198,-2.25562,0.999999,-0.00110142
58.1,1.18808,-2.2558,0.999999,-0.00112943
58.2,1.29419,-2.25599,0.999999,-0.00115772
58.3,1.40033,-2.25617,0.999999,-0.00118629
58.4,1.50648,-2.25637,0.999999,-0.00121514
58.5,1.61265,-2.25656,0.999999,-0.00124429
58.6,1.71884,-2.25676,0.999999,-0.00127372
58.7,1.82504,-2.25697,0.999999,-0.00130347
58.8,1.93127,-2.25718,0.999999,-0.00133351
58.9,2.03751,-2.2574,0.999999,-0.00136388
59,2.14376,-2.25762,0.999999,-0.00139456
59.1,2.25003,-2.25784,0.999999,-0.00142558
59.2,2.35632,-2.25808,0.999999,-0.00145693
59.3,2.46262,-2.25831,0.999999,-0.00148862
59.4,2.56894,-2.25855,0.999999,-0.00152066
59.5,2.67527,-2.2588,0.999999,-0.00155305
59.6,2.78162,-2.25905,0.999999,-0.0015858
59.7,2.88797,-2.25931,0.999999,-0.00161891
59.8,2.99435,-2.25957,0.999999,-0.0016524
59.9,3.10073,-2.25983,0.999999,-0.00168626
60,3.20713,-2.26011,0.999999,-0.00172051
60.1,3.31354,-2.26039,0.999998,-0.00175514
60.2,3.41997,-2.26067,0.999998,-0.00179017
60.3,3.5264,-2.26096,0.999998,-0.00182561
60.4,3.63285,-2.26125,0.999998,-0.00186145
60.5,3.73931,-2.26155,0.999998,-0.00189771
60.6,3.84578,-2.26186,0.999998,-0.00193438
60.7,3.95226,-2.26217,0.999998,-0.00197149
60.8,4.05875,-2.26249,0.999998,-0.00200904
60.9,4.16525,-2.26282,0.999998,-0.00204701
61,4.27176,-2.26315,0.999998,-0.00208544
61.1,4.37828,-2.26349,0.999998,-0.00212432
61.2,4.48482,-2.26383,0.999998,-0.00216365
61.3,4.59136,-2.26417,0.999998,-0.00212479
61.4,4.69791,-2.26448,0.999998,-0.00195271
61.5,4.80448,-2.26476,0.999998,-0.00178929
61.6,4.91106,-2.26502,0.999999,-0.00165516
61.7,-4.98234,-2.26527,0.999999,-0.00155212
61.8,-4.87574,-2.2655,0.999999,-0.0014795
61.9,-4.76913,-2.26573,0.999999,-0.00143663
62,-4.66251,-2.26596,0.999999,-0.00142314
62.1,-4.55587,-2.26618,0.999999,-0.0014253
62.2,-4.44923,-2.26641,0.999999,-0.00143007
62.3,-4.34258,-2.26664,0.999999,-0.00143519
62.4,-4.23593,-2.26687,0.999999,-0.00144028
62.5,-4.12926,-2.2671,0.999999,-0.00144526
62.6,-4.02259,-2.26733,0.999999,-0.00145012
62.7,-3.91591,-2.26756,0.999999,-0.00145487
62.8,-3.80922,-2.26779,0.999999,-0.00145952
62.9,-3.70252,-2.26802,0.999999,-0.00146404
63,-3.59582,-2.26826,0.999999,-0.00146846
63.1,-3.4891,-2.26849,0.999999,-0.00147277
63.2,-3.38239,-2.26872,0.999999,-0.00147699
63.3,-3.27566,-2.26896,0.999999,-0.00148109
63.4,-3.16893,-2.2692,0.999999,-0.00148511
63.5,-3.06219,-2.26943,0.999999,-0.00148902
63.6,-2.95544,-2.26967,0.999999,-0.00149283
63.7,-2.84869,-2.26991,0.999999,-0.00149655
63.8,-2.74193,-2.27015,0.999999,-0.00150017
63.9,-2.63517,-2.27038,0.999999,-0.00150372
64,-2.52839,-2.27062,0.999999,-0.00150717
64.1,-2.42162,-2.27086,0.999999,-0.00151054
64.2,-2.31484,-2.2711,0.999999,-0.00151381
64.3,-2.20805,-2.27135,0.999999,-0.001517
64.4,-2.10125,-2.27159,0.999999,-0.00152011
64.5,-1.99445,-2.27183,0.999999,-0.00152314
64.6,-1.88765,-2.27207,0.999999,-0.00152608
64.7,-1.78084,-2.27231,0.999999,-0.00152897
64.8,-1.67402,-2.27256,0.999999,-0.00153176
64.9,-1.5672,-2.2728,0.999999,-0.00153449
65,-1.46038,-2.27305,0.999999,-0.00153713
65.1,-1.35355,-2.27329,0.999999,-0.00153971
65.2,-1.24671,-2.27354,0.999999,-0.00154222
65.3,-1.13987,-2.27378,0.999999,-0.00154466
65.4,-1.03303,-2.27403,0.999999,-0.00154703
65.5,-0.926179,-2.27427,0.999999,-0.00154934
65.6,-0.819326,-2.27452,0.999999,-0.00155158
65.7,-0.712469,-2.27477,0.999999,-0.00155375
65.8,-0.605607,-2.27501,0.999999,-0.00155587
65.9,-0.498741,-2.27526,0.999999,-0.00155792
66,-0.391871,-2.27551,0.999999,-0.00155992
66.1,-0.284998,-2.27576,0.999999,-0.00156184
66.2,-0.17812,-2.27601,0.999999,-0.00156372
66.3,-0.0712383,-2.27626,0.999999,-0.00156552
66.4,0.035647,-2.2765,0.999999,-0.00156729
66.5,0.142536,-2.27675,0.999999,-0.001569
66.6,0.249429,-2.277,0.999999,-0.00157066
66.7,0.356325,-2.27725,0.999999,-0.00157228
66.8,0.463224,-2.2775,0.999999,-0.00157383
66.9,0.570127,-2.27776,0.999999,-0.00157545
67,0.677007,-2.27812,0.999997,-0.00231724
67.1,0.783879,-2.27854,0.999997,-0.0026344
67.2,0.89075,-2.27899,0.999996,-0.00278554
67.3,0.99762,-2.27944,0.999996,-0.00287209
67.4,1.10449,-2.27991,0.999996,-0.00293372
67.5,1.21136,-2.28038,0.999996,-0.00298594
67.6,1.31824,-2.28087,0.999995,-0.00303483
67.7,1.42511,-2.28136,0.999995,-0.00308277
67.8,1.53198,-2.28186,0.999995,-0.00313071
67.9,1.63886,-2.28236,0.999995,-0.00317899
68,1.74574,-2.28287,0.999995,-0.0032278
68.1,1.85261,-2.2834,0.999995,-0.00327715
68.2,1.95949,-2.28393,0.999994,-0.00332711
68.3,2.06636,-2.28446,0.999994,-0.00337767
68.4,2.17324,-2.28501,0.999994,-0.00342883
68.5,2.28011,-2.28556,0.999994,-0.00348062
68.6,2.38699,-2.28612,0.999994,-0.00353302
68.7,2.49386,-2.28669,0.999994,-0.00358604
68.8,2.60074,-2.28727,0.999993,-0.0036397
68.9,2.70761,-2.28786,0.999993,-0.00369397
69,2.81449,-2.28846,0.999993,-0.0037489
69.1,2.92136,-2.28906,0.999993,-0.00380446
69.2,3.02823,-2.28968,0.999993,-0.00386066
69.3,3.1351,-2.2903,0.999992,-0.00391749
69.4,3.24196,-2.29093,0.999992,-0.00397498
69.5,3.34883,-2.29157,0.999992,-0.00403311
69.6,3.4557,-2.29222,0.999992,-0.00409189
69.7,3.56256,-2.29289,0.999991,-0.00415132
69.8,3.66942,-2.29356,0.999991,-0.00421139
69.9,3.77628,-2.29423,0.999991,-0.00427211
70,3.88313,-2.29492,0.999991,-0.00433349
70.1,3.98999,-2.29562,0.99999,-0.0043955
70.2,4.09684,-2.29633,0.99999,-0.00445818
70.3,4.20369,-2.29705,0.99999,-0.0045215
70.4,4.31053,-2.29778,0.99999,-0.00458549
70.5,4.41737,-2.29852,0.999989,-0.00465011
70.6,4.52421,-2.29927,0.999989,-0.00471536
70.7,4.63105,-2.30003,0.999989,-0.00478125
70.8,4.73788,-2.3008,0.999988,-0.00481075
70.9,4.84472,-2.30156,0.999988,-0.00481069
71,4.95155,-2.30233,0.999988,-0.00481063
71.1,-4.94161,-2.30309,0.999988,-0.00481054
71.2,-4.83478,-2.30386,0.999988,-0.00481053
71.3,-4.72795,-2.30462,0.999988,-0.00481053
71.4,-4.62111,-2.30539,0.999988,-0.00481053
71.5,-4.51428,-2.30615,0.999988,-0.00481053
71.6,-4.40744,-2.30692,0.999988,-0.00481053
71.7,-4.30061,-2.30768,0.999988,-0.00481053
71.8,-4.19377,-2.30845,0.999988,-0.00481054
71.9,-4.08694,-2.30921,0.999988,-0.00481054
72,-3.9801,-2.30998,0.999988,-0.00481055
72.1,-3.87327,-2.31074,0.999988,-0.0048105
72.2,-3.76644,-2.31151,0.999988,-0.00481045
72.3,-3.6596,-2.31227,0.999988,-0.00481041
72.4,-3.55277,-2.31304,0.999988,-0.00481035
72.5,-3.44593,-2.3138,0.999988,-0.00481029
72.6,-3.3391,-2.31457,0.999988,-0.00481025
72.7,-3.23227,-2.31533,0.999988,-0.00481025
72.8,-3.12543,-2.3161,0.999988,-0.00481025
72.9,-3.0186,-2.31686,0.999988,-0.00481022
73,-2.91176,-2.31763,0.999988,-0.00481019
73.1,-2.80493,-2.31839,0.999988,-0.00481013
73.2,-2.69809,-2.31916,0.999988,-0.00481009
73.3,-2.59126,-2.31992,0.999988,-0.00481007
73.4,-2.48443,-2.32069,0.999988,-0.00481006
73.5,-2.37759,-2.32145,0.999988,-0.00481005
73.6,-2.27076,-2.32222,0.999988,-0.00481006
73.7,-2.16392,-2.32298,0.999988,-0.00481007
73.8,-2.05702,-2.32353,0.999994,-0.00345924
73.9,-1.95003,-2.32383,0.999998,-0.00187108
74,-1.84296,-2.32389,1,-0.000364052
74.1,-1.73581,-2.32372,0.999999,0.00106655
74.2,-1.62859,-2.32333,0.999997,0.00242483
74.3,-1.5213,-2.32274,0.999993,0.00372009
74.4,-1.41396,-2.32195,0.999988,0.00497221
74.5,-1.30656,-2.32096,0.999981,0.00617985
74.6,-1.19911,-2.31979,0.999973,0.00734175
74.7,-1.09162,-2.31843,0.999964,0.00845562
74.8,-0.984085,-2.31691,0.999955,0.00952246
74.9,-0.876514,-2.31523,0.999944,0.0105476
75,-0.768907,-2.31339,0.999934,0.0114942
75.1,-0.661265,-2.31141,0.999924,0.0123624
75.2,-0.553589,-2.3093,0.999913,0.0131751
75.3,-0.445879,-2.30707,0.999903,0.0139341
75.4,-0.338137,-2.30473,0.999893,0.0146438
75.5,-0.230362,-2.30228,0.999883,0.0153077
75.6,-0.122556,-2.29973,0.999873,0.0159286
75.7,-0.01472,-2.29709,0.999864,0.0165096
75.8,0.0931439,-2.29435,0.999855,0.0170538
75.9,0.201034,-2.29154,0.999846,0.017563
76,0.308949,-2.28865,0.999837,0.0180384
76.1,0.416887,-2.28569,0.999829,0.0184812
76.2,0.524845,-2.28266,0.999821,0.0188925
76.3,0.632824,-2.27957,0.999814,0.0192731
76.4,0.740821,-2.27642,0.999807,0.0196241
76.5,0.848834,-2.27323,0.999801,0.0199462
76.6,0.956863,-2.26998,0.999795,0.0202403
76.7,1.06491,-2.26669,0.99979,0.0205071
76.8,1.17296,-2.26337,0.999785,0.0207473
76.9,1.28103,-2.26,0.99978,0.0209614
77,1.38903,-2.25682,0.999803,0.0198356
77.1,1.49699,-2.2538,0.999822,0.0188799
77.2,1.60493,-2.25085,0.999831,0.0183886
77.3,1.71285,-2.24794,0.999835,0.0181359
77.4,1.82076,-2.24506,0.999838,0.0180058
77.5,1.92867,-2.24219,0.999839,0.0179388
77.6,2.03657,-2.23932,0.99984,0.0179052
77.7,2.14448,-2.23645,0.99984,0.0178907
77.8,2.25237,-2.23359,0.99984,0.0178828
77.9,2.36027,-2.23072,0.99984,0.0178814
78,2.46816,-2.22786,0.99984,0.0178801
78.1,2.57605,-2.22499,0.99984,0.0178824
78.2,2.68393,-2.22213,0.99984,0.0178828
78.3,2.79182,-2.21926,0.99984,0.0178859
78.4,2.8997,-2.2164,0.99984,0.0178871
78.5,3.00757,-2.21353,0.99984,0.0178902
78.6,3.11544,-2.21066,0.99984,0.0178915
78.7,3.22331,-2.2078,0.99984,0.0178949
78.8,3.33118,-2.20493,0.99984,0.0178962
78.9,3.43904,-2.20206,0.99984,0.0178994
79,3.5469,-2.1992,0.99984,0.0179011
79.1,3.65476,-2.19633,0.99984,0.0179039
79.2,3.76261,-2.19346,0.99984,0.0179059
79.3,3.87046,-2.19059,0.99984,0.0179086
79.4,3.97831,-2.18772,0.99984,0.0179105
79.5,4.08615,-2.18485,0.99984,0.0179135
79.6,4.19399,-2.18198,0.99984,0.0179147
79.7,4.30183,-2.17912,0.999839,0.0179185
79.8,4.40966,-2.17625,0.999839,0.0179194
79.9,4.51749,-2.17338,0.999839,0.0179234
80,4.62517,-2.17049,0.999837,0.0180396
