0.1,-11.7233,-1.56198,0.962745,0.270411
0.2,-1.67194,-1.55839,0.999507,0.0314023
0.3,-1.59229,-1.55788,0.999993,0.0037874
0.4,-1.47347,-1.56521,0.999202,-0.0399471
0.5,-1.35524,-1.56749,0.999924,-0.0123529
0.6,-1.22871,-1.56695,0.999996,0.00297011
0.7,-1.10156,-1.56689,1,0.00049978
0.8,-0.974417,-1.56683,1,0.00049978
0.9,-0.847271,-1.56676,1,0.00049978
1,-0.720125,-1.5667,1,0.00049978
1.1,-0.592978,-1.56664,1,0.00049978
1.2,-0.465832,-1.56657,1,0.00049978
1.3,-0.338686,-1.56651,1,0.00049978
1.4,-0.211539,-1.56644,1,0.00049978
1.5,-0.0843929,-1.56638,1,0.00049978
1.6,0.0427534,-1.56632,1,0.00049978
1.7,0.1699,-1.56625,1,0.00049978
1.8,0.297116,-1.56617,1,0.000585033
1.9,0.424423,-1.56607,1,0.000705872
2,0.551817,-1.56594,1,0.000834646
2.1,0.679295,-1.56579,1,0.000971139
2.2,0.806854,-1.56561,0.999999,0.00111586
2.3,0.934493,-1.5654,0.999999,0.00126953
2.4,1.06221,-1.56515,0.999999,0.00143286
2.5,1.18999,-1.56488,0.999999,0.00160659
2.6,1.31785,-1.56457,0.999998,0.00179151
2.7,1.44577,-1.56422,0.999998,0.00198832
2.8,1.57375,-1.56383,0.999998,0.00219778
2.9,1.70179,-1.5634,0.999997,0.00242055
3,1.82988,-1.56292,0.999996,0.0026572
3.1,1.95802,-1.56239,0.999996,0.00290827
3.2,2.0862,-1.56182,0.999995,0.00317401
3.3,2.21442,-1.56119,0.999994,0.00345458
3.4,2.34268,-1.56051,0.999993,0.00370298
3.5,2.47098,-1.55981,0.999993,0.00379815
3.6,2.59935,-1.5591,0.999993,0.00387125
3.7,2.72776,-1.55838,0.999992,0.00393729
3.8,2.85623,-1.55764,0.999992,0.00399802
3.9,2.98475,-1.55689,0.999992,0.00405374
4,3.11332,-1.55614,0.999992,0.00410462
4.1,3.24195,-1.55537,0.999991,0.00415084
4.2,3.37062,-1.5546,0.999991,0.00419249
4.3,3.49935,-1.55381,0.999991,0.0042298
4.4,3.62813,-1.55303,0.999991,0.00426295
4.5,3.75696,-1.55223,0.999991,0.00429204
4.6,3.88584,-1.55143,0.999991,0.00431738
4.7,4.01477,-1.55063,0.999991,0.00433915
4.8,4.14375,-1.54982,0.999991,0.00435747
4.9,4.27278,-1.54901,0.99999,0.00437267
5,4.40186,-1.5482,0.99999,0.00438498
5.1,4.53098,-1.54738,0.99999,0.00439461
5.2,4.66015,-1.54657,0.99999,0.00440186
5.3,4.78937,-1.54575,0.99999,0.00440701
5.4,4.91863,-1.54493,0.99999,0.0044104
5.5,-4.95207,-1.54411,0.99999,0.00441232
5.6,-4.82272,-1.54329,0.99999,0.0044129
5.7,-4.69333,-1.54247,0.99999,0.00441266
5.8,-4.56389,-1.54165,0.99999,0.00441179
5.9,-4.43441,-1.54083,0.99999,0.00441055
6,-4.3049,-1.54001,0.99999,0.00440924
6.1,-4.17534,-1.53919,0.99999,0.00440817
6.2,-4.04574,-1.53837,0.99999,0.00440761
6.3,-3.91611,-1.53755,0.99999,0.00440787
6.4,-3.78644,-1.53673,0.99999,0.00440923
6.5,-3.65673,-1.53591,0.99999,0.00441204
6.6,-3.52698,-1.53509,0.99999,0.00441662
6.7,-3.3972,-1.53427,0.99999,0.0044233
6.8,-3.26739,-1.53344,0.99999,0.00443241
6.9,-3.13754,-1.53261,0.99999,0.00444434
7,-3.00766,-1.53178,0.99999,0.00445946
7.1,-2.87775,-1.53095,0.99999,0.00447819
7.2,-2.7478,-1.53011,0.99999,0.00450092
7.3,-2.61783,-1.52926,0.99999,0.00452814
7.4,-2.48783,-1.52841,0.99999,0.00456037
7.5,-2.3578,-1.52755,0.999989,0.0045982
7.6,-2.22774,-1.52669,0.999989,0.00464223
7.7,-2.09765,-1.52581,0.999989,0.00469143
7.8,-1.96754,-1.52492,0.999989,0.00474164
7.9,-1.83741,-1.52403,0.999989,0.00479185
8,-1.70725,-1.52312,0.999988,0.00484181
8.1,-1.57706,-1.5222,0.999988,0.00489148
8.2,-1.44685,-1.52128,0.999988,0.00494084
8.3,-1.31662,-1.52034,0.999988,0.00498991
8.4,-1.18637,-1.5194,0.999987,0.00503867
8.5,-1.05609,-1.51844,0.999987,0.00508716
8.6,-0.925798,-1.51748,0.999987,0.00513542
8.7,-0.79548,-1.51651,0.999987,0.00518345
8.8,-0.665141,-1.51552,0.999986,0.0052312
8.9,-0.534782,-1.51453,0.999986,0.00527878
9,-0.404403,-1.51353,0.999986,0.00532613
9.1,-0.274006,-1.51252,0.999986,0.0053733
9.2,-0.143589,-1.5115,0.999985,0.00542027
9.3,-0.013154,-1.51047,0.999985,0.0054671
9.4,0.117299,-1.50943,0.999985,0.00551375
9.5,0.247769,-1.50838,0.999985,0.00556027
9.6,0.378257,-1.50733,0.999984,0.00560665
9.7,0.508761,-1.50626,0.999984,0.0056529
9.8,0.639282,-1.50519,0.999984,0.00569904
9.9,0.769818,-1.50411,0.999983,0.00574509
10,0.90037,-1.50301,0.999983,0.00579106
10.1,1.03094,-1.50191,0.999983,0.00583695
10.2,1.16152,-1.5008,0.999983,0.0058828
10.3,1.29212,-1.49968,0.999982,0.00592855
10.4,1.42273,-1.49855,0.999982,0.00597426
10.5,1.55335,-1.49742,0.999982,0.00601994
10.6,1.68399,-1.49627,0.999982,0.00606559
10.7,1.81464,-1.49511,0.999981,0.00611123
10.8,1.9453,-1.49395,0.999981,0.00615686
10.9,2.07598,-1.49278,0.999981,0.0062025
11,2.20667,-1.49159,0.999981,0.00624814
11.1,2.33734,-1.49033,0.999978,0.00668685
11.2,2.46799,-1.48898,0.999975,0.00712505
11.3,2.59863,-1.48756,0.999972,0.00745966
11.4,2.72927,-1.48609,0.99997,0.00770492
11.5,2.8599,-1.48459,0.999969,0.00789067
11.6,2.99053,-1.48306,0.999968,0.0080402
11.7,3.12116,-1.48151,0.999967,0.00816869
11.8,3.2518,-1.47993,0.999966,0.00828538
11.9,3.38244,-1.47833,0.999965,0.00839586
12,3.51308,-1.47671,0.999964,0.00850462
12.1,3.64372,-1.47506,0.999963,0.008639
12.2,3.77411,-1.47307,0.999945,0.0104712
12.3,3.90405,-1.4707,0.999923,0.0123994
12.4,4.034,-1.46833,0.999923,0.0123994
12.5,4.16394,-1.46596,0.999923,0.0123994
12.6,4.29388,-1.46359,0.999923,0.0123993
12.7,4.42382,-1.46123,0.999923,0.0123993
12.8,4.55376,-1.45886,0.999923,0.0123993
12.9,4.68371,-1.45649,0.999923,0.0123992
13,4.81365,-1.45412,0.999923,0.0123992
13.1,4.94359,-1.45175,0.999923,0.0123991
13.2,-4.92647,-1.44939,0.999923,0.0123991
13.3,-4.79652,-1.44702,0.999923,0.012399
13.4,-4.66658,-1.44465,0.999923,0.012399
13.5,-4.53664,-1.44228,0.999923,0.0123989
13.6,-4.4067,-1.43991,0.999923,0.0123989
13.7,-4.27675,-1.43755,0.999923,0.0123989
13.8,-4.14681,-1.43518,0.999923,0.0123988
13.9,-4.01687,-1.43281,0.999923,0.0123988
14,-3.88693,-1.43044,0.999923,0.0123987
14.1,-3.75698,-1.42807,0.999923,0.0123987
14.2,-3.62704,-1.42571,0.999923,0.0123987
14.3,-3.4971,-1.42334,0.999923,0.0123987
14.4,-3.36716,-1.42097,0.999923,0.0123986
14.5,-3.23721,-1.4186,0.999923,0.0123986
14.6,-3.10727,-1.41623,0.999923,0.0123986
14.7,-2.97733,-1.41387,0.999923,0.0123985
14.8,-2.84739,-1.4115,0.999923,0.0123985
14.9,-2.71744,-1.40913,0.999923,0.0123985
15,-2.58756,-1.40677,0.999923,0.0123869
15.1,-2.45781,-1.40441,0.999924,0.0123349
15.2,-2.32812,-1.40207,0.999924,0.0122989
15.3,-2.19858,-1.39974,0.999926,0.0121921
15.4,-2.0691,-1.39743,0.999926,0.0121264
15.5,-1.93976,-1.39516,0.999928,0.0119607
15.6,-1.81049,-1.3929,0.99993,0.0118604
15.7,-1.68137,-1.39069,0.999932,0.0116314
15.8,-1.55232,-1.38851,0.999934,0.0114916
15.9,-1.42341,-1.38639,0.999937,0.011195
16,-1.29458,-1.3843,0.999939,0.0110109
16.1,-1.16589,-1.38228,0.999943,0.0106431
16.2,-1.03728,-1.38032,0.999946,0.0104102
16.3,-0.908811,-1.37843,0.99995,0.00996787
16.4,-0.780422,-1.37661,0.999953,0.00968243
16.5,-0.652166,-1.37488,0.999958,0.00916263
16.6,-0.523991,-1.37322,0.999961,0.00882189
16.7,-0.395945,-1.37168,0.999966,0.00822295
16.8,-0.267977,-1.37021,0.999969,0.0078238
16.9,-0.14013,-1.36887,0.999974,0.00714636
17,-0.0123582,-1.36762,0.999978,0.00668772
17.1,0.115301,-1.36652,0.999982,0.00593202
17.2,0.242891,-1.36552,0.999985,0.00541319
17.3,0.37038,-1.36467,0.99999,0.00458258
17.4,0.497806,-1.36394,0.999992,0.00400568
17.5,0.625144,-1.36338,0.999995,0.00310255
17.6,0.752427,-1.36294,0.999997,0.00247152
17.7,0.879637,-1.36268,0.999999,0.00150149
17.8,1.0068,-1.36256,1,0.000820675
17.9,1.13395,-1.3625,1,0.000495713
18,1.2611,-1.36243,1,0.000495713
18.1,1.38824,-1.36237,1,0.000495713
18.2,1.51539,-1.36231,1,0.000495713
18.3,1.64253,-1.36224,1,0.000495713
18.4,1.76968,-1.36218,1,0.000495713
18.5,1.89683,-1.36212,1,0.000495713
18.6,2.02397,-1.36205,1,0.000495713
18.7,2.15112,-1.36199,1,0.000495713
18.8,2.27827,-1.36193,1,0.000495713
18.9,2.40541,-1.36186,1,0.000495712
19,2.53256,-1.3618,1,0.000495713
19.1,2.6597,-1.36174,1,0.000495712
19.2,2.78685,-1.36168,1,0.000495713
19.3,2.914,-1.36161,1,0.000495712
19.4,3.04114,-1.36155,1,0.000495713
19.5,3.16829,-1.36149,1,0.000495713
19.6,3.29544,-1.36142,1,0.000495713
19.7,3.42258,-1.36136,1,0.000495713
19.8,3.54973,-1.3613,1,0.000495713
19.9,3.67687,-1.36123,1,0.000495713
20,3.80402,-1.36117,1,0.000495713
20.1,3.93117,-1.36111,1,0.000495713
20.2,4.05831,-1.36105,1,0.000495713
20.3,4.18546,-1.36098,1,0.000495713
20.4,4.31261,-1.36092,1,0.000495712
20.5,4.43975,-1.36086,1,0.000495712
20.6,4.5669,-1.36079,1,0.000495713
20.7,4.69404,-1.36073,1,0.000495712
20.8,4.82119,-1.36067,1,0.000495713
20.9,4.94834,-1.3606,1,0.000495712
21,-4.92452,-1.36054,1,0.000495713
21.1,-4.79737,-1.36048,1,0.000495613
21.2,-4.67022,-1.36041,1,0.000495613
21.3,-4.54308,-1.36035,1,0.000495613
21.4,-4.41593,-1.36029,1,0.000495613
21.5,-4.28879,-1.36023,1,0.000495613
21.6,-4.16164,-1.36016,1,0.000495613
21.7,-4.03449,-1.3601,1,0.000495613
21.8,-3.90735,-1.36004,1,0.000495613
21.9,-3.7802,-1.35997,1,0.000495613
22,-3.65305,-1.35991,1,0.000495613
22.1,-3.52591,-1.35985,1,0.000495613
22.2,-3.39876,-1.35978,1,0.000495613
22.3,-3.27162,-1.35972,1,0.000495613
22.4,-3.14447,-1.35966,1,0.000495613
22.5,-3.01732,-1.35959,1,0.000495613
22.6,-2.89018,-1.35953,1,0.000495613
22.7,-2.76303,-1.35947,1,0.000495613
22.8,-2.63588,-1.35941,1,0.000495613
22.9,-2.50874,-1.35934,1,0.000495613
23,-2.38159,-1.35928,1,0.000495613
23.1,-2.25445,-1.35922,1,0.000495613
23.2,-2.1273,-1.35915,1,0.000495613
23.3,-2.00015,-1.35909,1,0.000495613
23.4,-1.87301,-1.35903,1,0.000495613
23.5,-1.74586,-1.35896,1,0.000495613
23.6,-1.61871,-1.3589,1,0.000495613
23.7,-1.49157,-1.35884,1,0.000495613
23.8,-1.36442,-1.35877,1,0.000495613
23.9,-1.23727,-1.35871,1,0.000495613
24,-1.11013,-1.35865,1,0.000495613
24.1,-0.982982,-1.35859,1,0.000495613
24.2,-0.855836,-1.35852,1,0.000495613
24.3,-0.728689,-1.35846,1,0.000495613
24.4,-0.601543,-1.3584,1,0.000495613
24.5,-0.474397,-1.35833,1,0.000495613
24.6,-0.34725,-1.35827,1,0.000495613
24.7,-0.220104,-1.35821,1,0.000495613
24.8,-0.0929576,-1.35814,1,0.000495613
24.9,0.0341887,-1.35808,1,0.000495613
25,0.161335,-1.35802,1,0.000495613
25.1,0.288481,-1.35795,1,0.000495613
25.2,0.415628,-1.35789,1,0.000495613
25.3,0.542774,-1.35783,1,0.000495613
25.4,0.669921,-1.35777,1,0.000495613
25.5,0.797067,-1.3577,1,0.000495613
25.6,0.924213,-1.35764,1,0.000495613
25.7,1.05136,-1.35758,1,0.000495613
25.8,1.17851,-1.35751,1,0.000495613
25.9,1.30565,-1.35745,1,0.000495613
26,1.4328,-1.35739,1,0.000495613
26.1,1.55994,-1.35732,1,0.000495613
26.2,1.68709,-1.35726,1,0.000495613
26.3,1.81424,-1.3572,1,0.000495613
26.4,1.94138,-1.35714,1,0.000495613
26.5,2.06853,-1.35707,1,0.000495613
26.6,2.19568,-1.35701,1,0.000495613
26.7,2.32282,-1.35695,1,0.000495613
26.8,2.44997,-1.35688,1,0.000495613
26.9,2.57712,-1.35682,1,0.000495613
27,2.70426,-1.35676,1,0.000495613
27.1,2.83141,-1.35669,1,0.000495613
27.2,2.95855,-1.35663,1,0.000495613
27.3,3.0857,-1.35657,1,0.000495613
27.4,3.21285,-1.3565,1,0.000495613
27.5,3.33999,-1.35644,1,0.000495613
27.6,3.46714,-1.35638,1,0.000495613
27.7,3.59429,-1.35632,1,0.000495613
27.8,3.72143,-1.35625,1,0.000495613
27.9,3.84858,-1.35619,1,0.000495613
28,3.97572,-1.35613,1,0.000495613
28.1,4.10287,-1.35606,1,0.000495613
28.2,4.23002,-1.356,1,0.000495613
28.3,4.35716,-1.35594,1,0.000495613
28.4,4.48431,-1.35587,1,0.000495613
28.5,4.61146,-1.35581,1,0.000495613
28.6,4.7386,-1.35575,1,0.000495613
28.7,4.86575,-1.35568,1,0.000495613
28.8,4.99289,-1.35562,1,0.000495613
28.9,-4.87996,-1.35556,1,0.000495613
29,-4.75281,-1.3555,1,0.000495514
29.1,-4.62567,-1.35543,1,0.000495514
29.2,-4.49852,-1.35537,1,0.000495514
29.3,-4.37137,-1.35531,1,0.000495514
29.4,-4.24423,-1.35524,1,0.000495514
29.5,-4.11708,-1.35518,1,0.000495514
29.6,-3.98994,-1.35512,1,0.000495514
29.7,-3.86279,-1.35505,1,0.000495514
29.8,-3.73564,-1.35499,1,0.000495514
29.9,-3.6085,-1.35493,1,0.000495514
30,-3.48135,-1.35486,1,0.000495514
30.1,-3.3542,-1.3548,1,0.000495514
30.2,-3.22706,-1.35474,1,0.000495514
30.3,-3.09991,-1.35468,1,0.000495514
30.4,-2.97277,-1.35461,1,0.000495514
30.5,-2.84562,-1.35455,1,0.000495514
30.6,-2.71847,-1.35449,1,0.000495514
30.7,-2.59133,-1.35442,1,0.000495514
30.8,-2.46418,-1.35436,1,0.000495514
30.9,-2.33703,-1.3543,1,0.000495514
31,-2.20989,-1.35423,1,0.000495514
31.1,-2.08274,-1.35417,1,0.000495514
31.2,-1.9556,-1.35411,1,0.000495514
31.3,-1.82845,-1.35405,1,0.000495514
31.4,-1.7013,-1.35398,1,0.000495514
31.5,-1.57416,-1.35392,1,0.000495514
31.6,-1.44701,-1.35386,1,0.000495514
31.7,-1.31986,-1.35379,1,0.000495514
31.8,-1.19272,-1.35373,1,0.000495514
31.9,-1.06557,-1.35367,1,0.000495514
32,-0.938425,-1.3536,1,0.000495514
32.1,-0.811279,-1.35354,1,0.000495514
32.2,-0.684132,-1.35348,1,0.000495514
32.3,-0.556986,-1.35341,1,0.000495514
32.4,-0.429839,-1.35335,1,0.000495514
32.5,-0.302693,-1.35329,1,0.000495514
32.6,-0.175547,-1.35323,1,0.000495514
32.7,-0.0484004,-1.35316,1,0.000495514
32.8,0.0787459,-1.3531,1,0.000495514
32.9,0.205892,-1.35304,1,0.000495514
33,0.333039,-1.35297,1,0.000495514
33.1,0.460185,-1.35291,1,0.000495514
33.2,0.587331,-1.35285,1,0.000495514
33.3,0.714478,-1.35278,1,0.000495514
33.4,0.841624,-1.35272,1,0.000495514
33.5,0.96877,-1.35266,1,0.000495514
33.6,1.09592,-1.35259,1,0.000495514
33.7,1.22306,-1.35253,1,0.000495514
33.8,1.35021,-1.35247,1,0.000495514
33.9,1.47736,-1.35241,1,0.000495514
34,1.6045,-1.35234,1,0.000495514
34.1,1.73165,-1.35228,1,0.000495514
34.2,1.85879,-1.35222,1,0.000495514
34.3,1.98594,-1.35215,1,0.000495514
34.4,2.11309,-1.35209,1,0.000495514
34.5,2.24023,-1.35203,1,0.000495514
34.6,2.36738,-1.35196,1,0.000495514
34.7,2.49453,-1.3519,1,0.000495514
34.8,2.62167,-1.35184,1,0.000495514
34.9,2.74882,-1.35177,1,0.000495514
35,2.87597,-1.35171,1,0.000495514
35.1,3.00311,-1.35165,1,0.000495514
35.2,3.13026,-1.35159,1,0.000495514
35.3,3.2574,-1.35152,1,0.000495514
35.4,3.38455,-1.35146,1,0.000495514
35.5,3.5117,-1.3514,1,0.000495514
35.6,3.63884,-1.35133,1,0.000495514
35.7,3.76599,-1.35127,1,0.000495514
35.8,3.89314,-1.35121,1,0.000495514
35.9,4.02028,-1.35114,1,0.000495514
36,4.14743,-1.35108,1,0.000495514
36.1,4.27457,-1.35102,1,0.000495514
36.2,4.40172,-1.35096,1,0.000495514
36.3,4.52887,-1.35089,1,0.000495514
36.4,4.65601,-1.35083,1,0.000495514
36.5,4.78316,-1.35077,1,0.000495514
36.6,4.91031,-1.3507,1,0.000495514
36.7,-4.96255,-1.35064,1,0.000495514
36.8,-4.8354,-1.35058,1,0.000495415
36.9,-4.70826,-1.35051,1,0.000495415
37,-4.58111,-1.35045,1,0.000495415
37.1,-4.45396,-1.35039,1,0.000495415
37.2,-4.32682,-1.35033,1,0.000495415
37.3,-4.19967,-1.35026,1,0.000495415
37.4,-4.07253,-1.3502,1,0.000495415
37.5,-3.94538,-1.35014,1,0.000495415
37.6,-3.81823,-1.35007,1,0.000495415
37.7,-3.69109,-1.35001,1,0.000495415
37.8,-3.56394,-1.34995,1,0.000495415
37.9,-3.43679,-1.34988,1,0.000495415
38,-3.30965,-1.34982,1,0.000495415
38.1,-3.1825,-1.34976,1,0.000495415
38.2,-3.05536,-1.3497,1,0.000495415
38.3,-2.92821,-1.34963,1,0.000495415
38.4,-2.80106,-1.34957,1,0.000495415
38.5,-2.67392,-1.34951,1,0.000495415
38.6,-2.54677,-1.34944,1,0.000495415
38.7,-2.41962,-1.34938,1,0.000495415
38.8,-2.29248,-1.34932,1,0.000495415
38.9,-2.16533,-1.34926,1,0.000495415
39,-2.03819,-1.34919,1,0.000495415
39.1,-1.91104,-1.34913,1,0.000495415
39.2,-1.78389,-1.34907,1,0.000495415
39.3,-1.65675,-1.349,1,0.000495415
39.4,-1.5296,-1.34894,1,0.000495415
39.5,-1.40245,-1.34888,1,0.000495415
39.6,-1.27531,-1.34881,1,0.000495415
39.7,-1.14816,-1.34875,1,0.000495415
39.8,-1.02101,-1.34869,1,0.000495415
39.9,-0.893868,-1.34863,1,0.000495415
40,-0.766721,-1.34856,1,0.000495415
40.1,-0.639575,-1.3485,1,0.000495415
40.2,-0.512429,-1.34844,1,0.000495415
40.3,-0.385282,-1.34837,1,0.000495415
40.4,-0.258136,-1.34831,1,0.000495415
40.5,-0.13099,-1.34825,1,0.000495415
40.6,-0.00384334,-1.34819,1,0.000495415
40.7,0.123303,-1.34812,1,0.000495415
40.8,0.250449,-1.34806,1,0.000495415
40.9,0.377596,-1.348,1,0.000495415
41,0.504742,-1.34793,1,0.000495415
41.1,0.631888,-1.34787,1,0.000495415
41.2,0.759035,-1.34781,1,0.000495415
41.3,0.886181,-1.34774,1,0.000495415
41.4,1.01333,-1.34768,1,0.000495415
41.5,1.14047,-1.34762,1,0.000495415
41.6,1.26762,-1.34756,1,0.000495415
41.7,1.39477,-1.34749,1,0.000495415
41.8,1.52191,-1.34743,1,0.000495415
41.9,1.64906,-1.34737,1,0.000495415
42,1.77621,-1.3473,1,0.000495415
42.1,1.90335,-1.34724,1,0.000495415
42.2,2.0305,-1.34718,1,0.000495415
42.3,2.15764,-1.34712,1,0.000495415
42.4,2.28479,-1.34705,1,0.000495415
42.5,2.41194,-1.34699,1,0.000495415
42.6,2.53908,-1.34693,1,0.000495415
42.7,2.66623,-1.34686,1,0.000495415
42.8,2.79338,-1.3468,1,0.000495415
42.9,2.92052,-1.34674,1,0.000495415
43,3.04767,-1.34667,1,0.000495415
43.1,3.17481,-1.34661,1,0.000495415
43.2,3.30196,-1.34655,1,0.000495415
43.3,3.42911,-1.34649,1,0.000495415
43.4,3.55625,-1.34642,1,0.000495415
43.5,3.6834,-1.34636,1,0.000495415
43.6,3.81055,-1.3463,1,0.000495415
43.7,3.93769,-1.34623,1,0.000495415
43.8,4.06484,-1.34617,1,0.000495415
43.9,4.19198,-1.34611,1,0.000495415
44,4.31913,-1.34605,1,0.000495415
44.1,4.44628,-1.34598,1,0.000495415
44.2,4.57342,-1.34592,1,0.000495415
44.3,4.70057,-1.34586,1,0.000495415
44.4,4.82772,-1.34579,1,0.000495415
44.5,4.95486,-1.34573,1,0.000495415
44.6,-4.91799,-1.34567,1,0.000495415
44.7,-4.79085,-1.3456,1,0.000495316
44.8,-4.6637,-1.34554,1,0.000495316
44.9,-4.53655,-1.34548,1,0.000495316
45,-4.40941,-1.34542,1,0.000495316
45.1,-4.28226,-1.34535,1,0.000495316
45.2,-4.15511,-1.34529,1,0.000495316
45.3,-4.02797,-1.34523,1,0.000495316
45.4,-3.90082,-1.34516,1,0.000495316
45.5,-3.77368,-1.3451,1,0.000495316
45.6,-3.64653,-1.34504,1,0.000495316
45.7,-3.51938,-1.34497,1,0.000495316
45.8,-3.39224,-1.34491,1,0.000495316
45.9,-3.26509,-1.34485,1,0.000495316
46,-3.13794,-1.34479,1,0.000495316
46.1,-3.0108,-1.34472,1,0.000495316
46.2,-2.88365,-1.34466,1,0.000495316
46.3,-2.75651,-1.3446,1,0.000495316
46.4,-2.62936,-1.34453,1,0.000495316
46.5,-2.50221,-1.34447,1,0.000495316
46.6,-2.37507,-1.34441,1,0.000495316
46.7,-2.24792,-1.34435,1,0.000495316
46.8,-2.12077,-1.34428,1,0.000495316
46.9,-1.99363,-1.34422,1,0.000495316
47,-1.86648,-1.34416,1,0.000495316
47.1,-1.73934,-1.34409,1,0.000495316
47.2,-1.61219,-1.34403,1,0.000495316
47.3,-1.48504,-1.34397,1,0.000495316
47.4,-1.3579,-1.3439,1,0.000495316
47.5,-1.23075,-1.34384,1,0.000495316
47.6,-1.1036,-1.34378,1,0.000495316
47.7,-0.976457,-1.34372,1,0.000495316
47.8,-0.849311,-1.34365,1,0.000495316
47.9,-0.722164,-1.34359,1,0.000495316
48,-0.595018,-1.34353,1,0.000495316
48.1,-0.467872,-1.34346,1,0.000495316
48.2,-0.340725,-1.3434,1,0.000495316
48.3,-0.213579,-1.34334,1,0.000495316
48.4,-0.0864325,-1.34328,1,0.000495316
48.5,0.0407139,-1.34321,1,0.000495316
48.6,0.16786,-1.34315,1,0.000495316
48.7,0.295007,-1.34309,1,0.000495316
48.8,0.422153,-1.34302,1,0.000495316
48.9,0.549299,-1.34296,1,0.000495316
49,0.676446,-1.3429,1,0.000495316
49.1,0.803592,-1.34283,1,0.000495316
49.2,0.930738,-1.34277,1,0.000495316
49.3,1.05788,-1.34271,1,0.000495316
49.4,1.18503,-1.34265,1,0.000495316
49.5,1.31218,-1.34258,1,0.000495316
49.6,1.43932,-1.34252,1,0.000495316
49.7,1.56647,-1.34246,1,0.000495316
49.8,1.69362,-1.34239,1,0.000495316
49.9,1.82076,-1.34233,1,0.000495316
50,1.94791,-1.34227,1,0.000495316
50.1,2.07506,-1.34221,1,0.000495316
50.2,2.2022,-1.34214,1,0.000495316
50.3,2.32935,-1.34208,1,0.000495316
50.4,2.45649,-1.34202,1,0.000495316
50.5,2.58364,-1.34195,1,0.000495316
50.6,2.71079,-1.34189,1,0.000495316
50.7,2.83793,-1.34183,1,0.000495316
50.8,2.96508,-1.34176,1,0.000495316
50.9,3.09223,-1.3417,1,0.000495316
51,3.21937,-1.34164,1,0.000495316
51.1,3.34652,-1.34158,1,0.000495316
51.2,3.47366,-1.34151,1,0.000495316
51.3,3.60081,-1.34145,1,0.000495316
51.4,3.72796,-1.34139,1,0.000495316
51.5,3.8551,-1.34132,1,0.000495316
51.6,3.98225,-1.34126,1,0.000495316
51.7,4.1094,-1.3412,1,0.000495316
51.8,4.23654,-1.34114,1,0.000495316
51.9,4.36369,-1.34107,1,0.000495316
52,4.49083,-1.34101,1,0.000495316
52.1,4.61798,-1.34095,1,0.000495316
52.2,4.74513,-1.34088,1,0.000495316
52.3,4.87227,-1.34082,1,0.000495316
52.4,4.99942,-1.34076,1,0.000495316
52.5,-4.87343,-1.34069,1,0.000495316
52.6,-4.74629,-1.34063,1,0.000495217
52.7,-4.61914,-1.34057,1,0.000495217
52.8,-4.492,-1.34051,1,0.000495217
52.9,-4.36485,-1.34044,1,0.000495217
53,-4.2377,-1.34038,1,0.000495217
53.1,-4.11056,-1.34032,1,0.000495217
53.2,-3.98341,-1.34025,1,0.000495217
53.3,-3.85626,-1.34019,1,0.000495217
53.4,-3.72912,-1.34013,1,0.000495217
53.5,-3.60197,-1.34007,1,0.000495217
53.6,-3.47483,-1.34,1,0.000495217
53.7,-3.34768,-1.33994,1,0.000495217
53.8,-3.22053,-1.33988,1,0.000495217
53.9,-3.09339,-1.33981,1,0.000495217
54,-2.96624,-1.33975,1,0.000495217
54.1,-2.83909,-1.33969,1,0.000495217
54.2,-2.71195,-1.33962,1,0.000495217
54.3,-2.5848,-1.33956,1,0.000495217
54.4,-2.45766,-1.3395,1,0.000495217
54.5,-2.33051,-1.33944,1,0.000495217
54.6,-2.20336,-1.33937,1,0.000495217
54.7,-2.07622,-1.33931,1,0.000495217
54.8,-1.94907,-1.33925,1,0.000495217
54.9,-1.82192,-1.33918,1,0.000495217
55,-1.69478,-1.33912,1,0.000495217
55.1,-1.56763,-1.33906,1,0.000495217
55.2,-1.44049,-1.339,1,0.000495217
55.3,-1.31334,-1.33893,1,0.000495217
55.4,-1.18619,-1.33887,1,0.000495217
55.5,-1.05905,-1.33881,1,0.000495217
55.6,-0.9319,-1.33874,1,0.000495217
55.7,-0.804754,-1.33868,1,0.000495217
55.8,-0.677607,-1.33862,1,0.000495217
55.9,-0.550461,-1.33855,1,0.000495217
56,-0.423314,-1.33849,1,0.000495217
56.1,-0.296168,-1.33843,1,0.000495217
56.2,-0.169022,-1.33837,1,0.000495217
56.3,-0.0418754,-1.3383,1,0.000495217
56.4,0.085271,-1.33824,1,0.000495217
56.5,0.212417,-1.33818,1,0.000495217
56.6,0.339564,-1.33811,1,0.000495217
56.7,0.46671,-1.33805,1,0.000495217
56.8,0.593856,-1.33799,1,0.000495217
56.9,0.721003,-1.33793,1,0.000495217
57,0.848149,-1.33786,1,0.000495217
57.1,0.975295,-1.3378,1,0.000495217
57.2,1.10244,-1.33774,1,0.000495217
57.3,1.22959,-1.33767,1,0.000495217
57.4,1.35673,-1.33761,1,0.000495217
57.5,1.48388,-1.33755,1,0.000495217
57.6,1.61103,-1.33748,1,0.000495217
57.7,1.73817,-1.33742,1,0.000495217
57.8,1.86532,-1.33736,1,0.000495217
57.9,1.99247,-1.3373,1,0.000495217
58,2.11961,-1.33723,1,0.000495217
58.1,2.24676,-1.33717,1,0.000495217
58.2,2.37391,-1.33711,1,0.000495217
58.3,2.50105,-1.33704,1,0.000495217
58.4,2.6282,-1.33698,1,0.000495217
58.5,2.75534,-1.33692,1,0.000495217
58.6,2.88249,-1.33686,1,0.000495217
58.7,3.00964,-1.33679,1,0.000495217
58.8,3.13678,-1.33673,1,0.000495217
58.9,3.26393,-1.33667,1,0.000495217
59,3.39108,-1.3366,1,0.000495217
59.1,3.51822,-1.33654,1,0.000495217
59.2,3.64537,-1.33648,1,0.000495217
59.3,3.77251,-1.33641,1,0.000495217
59.4,3.89966,-1.33635,1,0.000495217
59.5,4.02681,-1.33629,1,0.000495217
59.6,4.15395,-1.33623,1,0.000495217
59.7,4.2811,-1.33616,1,0.000495217
59.8,4.40825,-1.3361,1,0.000495217
59.9,4.53539,-1.33604,1,0.000495217
60,4.66254,-1.33597,1,0.000495217
60.1,4.78968,-1.33591,1,0.000495217
60.2,4.91683,-1.33585,1,0.000495217
60.3,-4.95602,-1.33579,1,0.000495217
60.4,-4.82888,-1.33572,1,0.000495118
60.5,-4.70173,-1.33566,1,0.000495118
60.6,-4.57458,-1.3356,1,0.000495118
60.7,-4.44744,-1.33553,1,0.000495118
60.8,-4.32029,-1.33547,1,0.000495118
60.9,-4.19315,-1.33541,1,0.000495118
61,-4.066,-1.33534,1,0.000495118
61.1,-3.93885,-1.33528,1,0.000495118
61.2,-3.81171,-1.33522,1,0.000495118
61.3,-3.68456,-1.33516,1,0.000495118
61.4,-3.55742,-1.33509,1,0.000495118
61.5,-3.43027,-1.33503,1,0.000495118
61.6,-3.30312,-1.33497,1,0.000495118
61.7,-3.17598,-1.3349,1,0.000495118
61.8,-3.04883,-1.33484,1,0.000495118
61.9,-2.92168,-1.33478,1,0.000495118
62,-2.79454,-1.33472,1,0.000495118
62.1,-2.66739,-1.33465,1,0.000495118
62.2,-2.54025,-1.33459,1,0.000495118
62.3,-2.4131,-1.33453,1,0.000495118
62.4,-2.28595,-1.33446,1,0.000495118
62.5,-2.15881,-1.3344,1,0.000495118
62.6,-2.03166,-1.33434,1,0.000495118
62.7,-1.90451,-1.33427,1,0.000495118
62.8,-1.77737,-1.33421,1,0.000495118
62.9,-1.65022,-1.33415,1,0.000495118
63,-1.52307,-1.33409,1,0.000495118
63.1,-1.39593,-1.33402,1,0.000495118
63.2,-1.26878,-1.33396,1,0.000495118
63.3,-1.14164,-1.3339,1,0.000495118
63.4,-1.01449,-1.33383,1,0.000495118
63.5,-0.887343,-1.33377,1,0.000495118
63.6,-0.760196,-1.33371,1,0.000495118
63.7,-0.63305,-1.33365,1,0.000495118
63.8,-0.505904,-1.33358,1,0.000495118
63.9,-0.378757,-1.33352,1,0.000495118
64,-0.251611,-1.33346,1,0.000495118
64.1,-0.124465,-1.33339,1,0.000495118
64.2,0.0026817,-1.33333,1,0.000495118
64.3,0.129828,-1.33327,1,0.000495118
64.4,0.256974,-1.3332,1,0.000495118
64.5,0.384121,-1.33314,1,0.000495118
64.6,0.511267,-1.33308,1,0.000495118
64.7,0.638413,-1.33302,1,0.000495118
64.8,0.76556,-1.33295,1,0.000495118
64.9,0.892706,-1.33289,1,0.000495118
65,1.01985,-1.33283,1,0.000495118
65.1,1.147,-1.33276,1,0.000495118
65.2,1.27415,-1.3327,1,0.000495118
65.3,1.40129,-1.33264,1,0.000495118
65.4,1.52844,-1.33258,1,0.000495118
65.5,1.65558,-1.33251,1,0.000495118
65.6,1.78273,-1.33245,1,0.000495118
65.7,1.90988,-1.33239,1,0.000495118
65.8,2.03702,-1.33232,1,0.000495118
65.9,2.16417,-1.33226,1,0.000495118
66,2.29132,-1.3322,1,0.000495118
66.1,2.41846,-1.33213,1,0.000495118
66.2,2.54561,-1.33207,1,0.000495118
66.3,2.67275,-1.33201,1,0.000495118
66.4,2.7999,-1.33195,1,0.000495118
66.5,2.92705,-1.33188,1,0.000495118
66.6,3.05419,-1.33182,1,0.000495118
66.7,3.18134,-1.33176,1,0.000495118
66.8,3.30849,-1.33169,1,0.000495118
66.9,3.43563,-1.33163,1,0.000495118
67,3.56278,-1.33157,1,0.000495118
67.1,3.68992,-1.33151,1,0.000495118
67.2,3.81707,-1.33144,1,0.000495118
67.3,3.94422,-1.33138,1,0.000495118
67.4,4.07136,-1.33132,1,0.000495118
67.5,4.19851,-1.33125,1,0.000495118
67.6,4.32566,-1.33119,1,0.000495118
67.7,4.4528,-1.33113,1,0.000495118
67.8,4.57995,-1.33106,1,0.000495118
67.9,4.70709,-1.331,1,0.000495118
68,4.83424,-1.33094,1,0.000495118
68.1,4.96139,-1.33088,1,0.000495118
68.2,-4.91147,-1.33081,1,0.000495118
68.3,-4.78432,-1.33075,1,0.000495019
68.4,-4.65717,-1.33069,1,0.000495019
68.5,-4.53003,-1.33062,1,0.000495019
68.6,-4.40288,-1.33056,1,0.000495019
68.7,-4.27574,-1.3305,1,0.000495019
68.8,-4.14859,-1.33044,1,0.000495019
68.9,-4.02144,-1.33037,1,0.000495019
69,-3.8943,-1.33031,1,0.000495019
69.1,-3.76715,-1.33025,1,0.000495019
69.2,-3.64,-1.33018,1,0.000495019
69.3,-3.51286,-1.33012,1,0.000495019
69.4,-3.38571,-1.33006,1,0.000495019
69.5,-3.25857,-1.32999,1,0.000495019
69.6,-3.13142,-1.32993,1,0.000495019
69.7,-3.00427,-1.32987,1,0.000495019
69.8,-2.87713,-1.32981,1,0.000495019
69.9,-2.74998,-1.32974,1,0.000495019
70,-2.62283,-1.32968,1,0.000495019
70.1,-2.49569,-1.32962,1,0.000495019
70.2,-2.36854,-1.32955,1,0.000495019
70.3,-2.2414,-1.32949,1,0.000495019
70.4,-2.11425,-1.32943,1,0.000495019
70.5,-1.9871,-1.32937,1,0.000495019
70.6,-1.85996,-1.3293,1,0.000495019
70.7,-1.73281,-1.32924,1,0.000495019
70.8,-1.60566,-1.32918,1,0.000495019
70.9,-1.47852,-1.32911,1,0.000495019
71,-1.35137,-1.32905,1,0.000495019
71.1,-1.22422,-1.32899,1,0.000495019
71.2,-1.09708,-1.32892,1,0.000495019
71.3,-0.969932,-1.32886,1,0.000495019
71.4,-0.842786,-1.3288,1,0.000495019
71.5,-0.715639,-1.32874,1,0.000495019
71.6,-0.588493,-1.32867,1,0.000495019
71.7,-0.461347,-1.32861,1,0.000495019
71.8,-0.3342,-1.32855,1,0.000495019
71.9,-0.207054,-1.32848,1,0.000495019
72,-0.0799074,-1.32842,1,0.000495019
72.1,0.0472389,-1.32836,1,0.000495019
72.2,0.174385,-1.3283,1,0.000495019
72.3,0.301532,-1.32823,1,0.000495019
72.4,0.428678,-1.32817,1,0.000495019
72.5,0.555824,-1.32811,1,0.000495019
72.6,0.682971,-1.32804,1,0.000495019
72.7,0.810117,-1.32798,1,0.000495019
72.8,0.937263,-1.32792,1,0.000495019
72.9,1.06441,-1.32785,1,0.000495019
73,1.19156,-1.32779,1,0.000495019
73.1,1.3187,-1.32773,1,0.000495019
73.2,1.44585,-1.32767,1,0.000495019
73.3,1.573,-1.3276,1,0.000495019
73.4,1.70014,-1.32754,1,0.000495019
73.5,1.82729,-1.32748,1,0.000495019
73.6,1.95443,-1.32741,1,0.000495019
73.7,2.08158,-1.32735,1,0.000495019
73.8,2.20873,-1.32729,1,0.000495019
73.9,2.33587,-1.32723,1,0.000495019
74,2.46302,-1.32716,1,0.000495019
74.1,2.59017,-1.3271,1,0.000495019
74.2,2.71731,-1.32704,1,0.000495019
74.3,2.84446,-1.32697,1,0.000495019
74.4,2.9716,-1.32691,1,0.000495019
74.5,3.09875,-1.32685,1,0.000495019
74.6,3.2259,-1.32678,1,0.000495019
74.7,3.35304,-1.32672,1,0.000495019
74.8,3.48019,-1.32666,1,0.000495019
74.9,3.60734,-1.3266,1,0.000495019
75,3.73448,-1.32653,1,0.000495019
75.1,3.86163,-1.32647,1,0.000495019
75.2,3.98877,-1.32641,1,0.000495019
75.3,4.11592,-1.32634,1,0.000495019
75.4,4.24307,-1.32628,1,0.000495019
75.5,4.37021,-1.32622,1,0.000495019
75.6,4.49736,-1.32616,1,0.000495019
75.7,4.62451,-1.32609,1,0.000495019
75.8,4.75165,-1.32603,1,0.000495019
75.9,4.8788,-1.32597,1,0.000495019
76,-4.99406,-1.3259,1,0.000495019
76.1,-4.86691,-1.32584,1,0.00049492
76.2,-4.73976,-1.32578,1,0.00049492
76.3,-4.61262,-1.32571,1,0.00049492
76.4,-4.48547,-1.32565,1,0.00049492
76.5,-4.35832,-1.32559,1,0.00049492
76.6,-4.23118,-1.32553,1,0.00049492
76.7,-4.10403,-1.32546,1,0.00049492
76.8,-3.97689,-1.3254,1,0.00049492
76.9,-3.84974,-1.32534,1,0.00049492
77,-3.72259,-1.32527,1,0.00049492
77.1,-3.59545,-1.32521,1,0.00049492
77.2,-3.4683,-1.32515,1,0.00049492
77.3,-3.34115,-1.32509,1,0.00049492
77.4,-3.21401,-1.32502,1,0.00049492
77.5,-3.08686,-1.32496,1,0.00049492
77.6,-2.95972,-1.3249,1,0.00049492
77.7,-2.83257,-1.32483,1,0.00049492
77.8,-2.70542,-1.32477,1,0.00049492
77.9,-2.57828,-1.32471,1,0.00049492
78,-2.45113,-1.32464,1,0.00049492
78.1,-2.32398,-1.32458,1,0.00049492
78.2,-2.19684,-1.32452,1,0.00049492
78.3,-2.06969,-1.32446,1,0.00049492
78.4,-1.94255,-1.32439,1,0.00049492
78.5,-1.8154,-1.32433,1,0.00049492
78.6,-1.68825,-1.32427,1,0.00049492
78.7,-1.56111,-1.3242,1,0.00049492
78.8,-1.43396,-1.32414,1,0.00049492
78.9,-1.30681,-1.32408,1,0.00049492
79,-1.17967,-1.32402,1,0.00049492
79.1,-1.05252,-1.32395,1,0.00049492
79.2,-0.925375,-1.32389,1,0.00049492
79.3,-0.798229,-1.32383,1,0.00049492
79.4,-0.671082,-1.32376,1,0.00049492
79.5,-0.543936,-1.3237,1,0.00049492
79.6,-0.416789,-1.32364,1,0.00049492
79.7,-0.289643,-1.32357,1,0.00049492
79.8,-0.162497,-1.32351,1,0.00049492
79.9,-0.0353504,-1.32345,1,0.00049492
80,0.091796,-1.32339,1,0.00049492
