0.1,-13.6785,-9.89675,0.999999,0.00159983
0.2,-3.66003,-9.89439,0.99943,0.0337477
0.3,-3.63849,-9.89393,0.999978,0.00664408
0.4,-3.61073,-9.89107,0.999345,0.0361928
0.5,-3.57421,-9.88725,0.999055,0.0434557
0.6,-3.52789,-9.88856,0.999914,-0.0131009
0.7,-3.47372,-9.88749,0.999947,0.010322
0.8,-3.41131,-9.88453,0.99966,0.0260784
0.9,-3.33901,-9.88046,0.999457,0.0329388
1,-3.25716,-9.87845,0.999884,0.0152351
1.1,-3.16479,-9.87688,0.999939,0.011025
1.2,-3.06439,-9.87637,0.999994,0.00354808
1.3,-2.96042,-9.87632,1,0.000499797
1.4,-2.85644,-9.87626,1,0.000499797
1.5,-2.75247,-9.87621,1,0.000499797
1.6,-2.6485,-9.87616,1,0.000499797
1.7,-2.54452,-9.87611,1,0.000499797
1.8,-2.44055,-9.87606,1,0.000499797
1.9,-2.33658,-9.87601,1,0.000499797
2,-2.23261,-9.87596,1,0.000499797
2.1,-2.12863,-9.8759,1,0.000499797
2.2,-2.02466,-9.87585,1,0.000499797
2.3,-1.92069,-9.8758,1,0.000499797
2.4,-1.81671,-9.87575,1,0.000499797
2.5,-1.71274,-9.8757,1,0.000499797
2.6,-1.60877,-9.87565,1,0.000499797
2.7,-1.50479,-9.8756,1,0.000499797
2.8,-1.40082,-9.87554,1,0.000499797
2.9,-1.29685,-9.87549,1,0.000499797
3,-1.19288,-9.87544,1,0.000499797
3.1,-1.0889,-9.87539,1,0.000499797
3.2,-0.984929,-9.87534,1,0.000499918
3.3,-0.880956,-9.87529,1,0.000499797
3.4,-0.776983,-9.87523,1,0.000500061
3.5,-0.67301,-9.87518,1,0.00049999
3.6,-0.569037,-9.87513,1,0.000499797
3.7,-0.465064,-9.87508,1,0.000499797
3.8,-0.361091,-9.87503,1,0.000499797
3.9,-0.257118,-9.87497,1,0.000499797
4,-0.153145,-9.87492,1,0.000499797
4.1,-0.0491719,-9.87487,1,0.000499797
4.2,0.054801,-9.87482,1,0.000499797
4.3,0.158774,-9.87477,1,0.000499797
4.4,0.262747,-9.87472,1,0.000499797
4.5,0.36672,-9.87467,1,0.000499797
4.6,0.470693,-9.87461,1,0.000499797
4.7,0.574666,-9.87456,1,0.000499797
4.8,0.678639,-9.87451,1,0.000499797
4.9,0.782612,-9.87446,1,0.000499797
5,0.886585,-9.87441,1,0.000499797
5.1,0.990558,-9.87436,1,0.000499797
5.2,1.09453,-9.8743,1,0.000499797
5.3,1.1985,-9.87425,1,0.000499797
5.4,1.30248,-9.8742,1,0.000499797
5.5,1.40645,-9.87415,1,0.000499797
5.6,1.51042,-9.8741,1,0.000499797
5.7,1.6144,-9.87405,1,0.000499797
5.8,1.71837,-9.874,1,0.000499797
5.9,1.82234,-9.87394,1,0.000499797
6,1.92632,-9.87389,1,0.000499797
6.1,2.03029,-9.87384,1,0.000499797
6.2,2.13426,-9.87379,1,0.000499797
6.3,2.23823,-9.87374,1,0.000499797
6.4,2.34221,-9.87369,1,0.000499797
6.5,2.44618,-9.87364,1,0.000499797
6.6,2.55015,-9.87358,1,0.000499797
6.7,2.65413,-9.87353,1,0.000499797
6.8,2.7581,-9.87348,1,0.000499797
6.9,2.86207,-9.87343,1,0.000499797
7,2.96604,-9.87338,1,0.000499797
7.1,3.07002,-9.87333,1,0.000499797
7.2,3.17399,-9.87327,1,0.000499797
7.3,3.27796,-9.87322,1,0.000499797
7.4,3.38194,-9.87317,1,0.000499797
7.5,3.48591,-9.87312,1,0.000499797
7.6,3.58988,-9.87307,1,0.000499797
7.7,3.69385,-9.87302,1,0.000499797
7.8,3.79783,-9.87297,1,0.000499797
7.9,3.9018,-9.87291,1,0.000499797
8,4.00577,-9.87286,1,0.000499797
8.1,4.10975,-9.87281,1,0.000499797
8.2,4.21372,-9.87276,1,0.000499797
8.3,4.31769,-9.87271,1,0.000499797
8.4,4.42167,-9.87266,1,0.000499797
8.5,4.52564,-9.87261,1,0.000499797
8.6,4.62961,-9.87255,1,0.000499797
8.7,4.73358,-9.8725,1,0.000499797
8.8,4.83756,-9.87245,1,0.000499797
8.9,4.94153,-9.8724,1,0.000499797
9,-4.9545,-9.87235,1,0.000499797
9.1,-4.85052,-9.8723,1,0.000499697
9.2,-4.74655,-9.87224,1,0.000499697
9.3,-4.64258,-9.87219,1,0.000499697
9.4,-4.53861,-9.87214,1,0.000499697
9.5,-4.43463,-9.87209,1,0.000499697
9.6,-4.33066,-9.87204,1,0.000499697
9.7,-4.22669,-9.87199,1,0.000499697
9.8,-4.12271,-9.87194,1,0.000499697
9.9,-4.01874,-9.87188,1,0.000499697
10,-3.91477,-9.87183,1,0.000499697
10.1,-3.8108,-9.87178,1,0.000499697
10.2,-3.70682,-9.87173,1,0.000499697
10.3,-3.60285,-9.87168,1,0.000499697
10.4,-3.49888,-9.87163,1,0.000499697
10.5,-3.3949,-9.87158,1,0.000499697
10.6,-3.29093,-9.87152,1,0.000499697
10.7,-3.18696,-9.87147,1,0.000499698
10.8,-3.08298,-9.87142,1,0.000499697
10.9,-2.97901,-9.87137,1,0.000499698
11,-2.87504,-9.87132,1,0.000499698
11.1,-2.77107,-9.87127,1,0.000499698
11.2,-2.66709,-9.87121,1,0.000499698
11.3,-2.56312,-9.87116,1,0.000499698
11.4,-2.45915,-9.87111,1,0.000499698
11.5,-2.35517,-9.87106,1,0.000499698
11.6,-2.2512,-9.87101,1,0.000499698
11.7,-2.14723,-9.87096,1,0.000499698
11.8,-2.04326,-9.87091,1,0.000499698
11.9,-1.93928,-9.87085,1,0.000499698
12,-1.83531,-9.8708,1,0.000499698
12.1,-1.73134,-9.87075,1,0.000499698
12.2,-1.62736,-9.8707,1,0.000499698
12.3,-1.52339,-9.87065,1,0.000499698
12.4,-1.41942,-9.8706,1,0.000499698
12.5,-1.31544,-9.87055,1,0.000499698
12.6,-1.21147,-9.87049,1,0.000499698
12.7,-1.1075,-9.87044,1,0.000499698
12.8,-1.00353,-9.87039,1,0.000499698
12.9,-0.899552,-9.87034,1,0.000499698
13,-0.795579,-9.87029,1,0.000499698
13.1,-0.691606,-9.87024,1,0.000499698
13.2,-0.587633,-9.87018,1,0.000499698
13.3,-0.48366,-9.87013,1,0.000499698
13.4,-0.379687,-9.87008,1,0.000499698
13.5,-0.275714,-9.87003,1,0.000499698
13.6,-0.171741,-9.86998,1,0.000499698
13.7,-0.0674129,-9.86973,0.999998,0.00178401
13.8,0.0372607,-9.86924,0.999995,0.0032904
13.9,0.142236,-9.86849,0.999988,0.00494591
14,0.247461,-9.86745,0.999977,0.00675707
14.1,0.352872,-9.8661,0.999962,0.00871849
14.2,0.458389,-9.86443,0.999942,0.0108031
14.3,0.563922,-9.86241,0.999916,0.0129503
14.4,0.669362,-9.86007,0.999887,0.0150514
14.5,0.774602,-9.85743,0.999857,0.0169333
14.6,0.879719,-9.85459,0.999833,0.0182772
14.7,0.98473,-9.85158,0.999813,0.0193358
14.8,1.08962,-9.84843,0.999796,0.0202086
14.9,1.19438,-9.84518,0.999781,0.0209076
15,1.29899,-9.84185,0.99977,0.0214254
15.1,1.40343,-9.83847,0.999763,0.0217528
15.2,1.50781,-9.83508,0.999762,0.0218403
15.3,1.61219,-9.83169,0.999762,0.0218402
15.4,1.71657,-9.8283,0.999762,0.0218402
15.5,1.82095,-9.82491,0.999762,0.0218401
15.6,1.92533,-9.82152,0.999762,0.0218401
15.7,2.02971,-9.81813,0.999762,0.0218401
15.8,2.13408,-9.81474,0.999762,0.02184
15.9,2.23846,-9.81135,0.999762,0.02184
16,2.34284,-9.80796,0.999762,0.0218399
16.1,2.44722,-9.80457,0.999762,0.0218399
16.2,2.5516,-9.80118,0.999762,0.0218398
16.3,2.65598,-9.79779,0.999762,0.0218397
16.4,2.76036,-9.7944,0.999762,0.0218397
16.5,2.86474,-9.79101,0.999762,0.0218397
16.6,2.96911,-9.78762,0.999762,0.0218396
16.7,3.07349,-9.78423,0.999762,0.0218396
16.8,3.17787,-9.78084,0.999762,0.0218396
16.9,3.28225,-9.77744,0.999762,0.0218395
17,3.38663,-9.77405,0.999762,0.0218394
17.1,3.49101,-9.77066,0.999762,0.0218393
17.2,3.59539,-9.76727,0.999762,0.0218392
17.3,3.69976,-9.76388,0.999762,0.0218392
17.4,3.80414,-9.7605,0.999762,0.0218391
17.5,3.90852,-9.75711,0.999762,0.0218391
17.6,4.0129,-9.75372,0.999762,0.0218391
17.7,4.11728,-9.75033,0.999762,0.0218391
17.8,4.22185,-9.74696,0.999765,0.0216674
17.9,4.3269,-9.74365,0.999775,0.0212182
18,4.43245,-9.7404,0.999784,0.0207799
18.1,4.53847,-9.73721,0.999793,0.0203518
18.2,4.64495,-9.73408,0.999801,0.0199336
18.3,4.7519,-9.731,0.999809,0.0195365
18.4,4.85929,-9.72797,0.999816,0.019177
18.5,4.96713,-9.72499,0.999823,0.0188327
18.6,-4.9246,-9.72204,0.999829,0.018503
18.7,-4.81591,-9.71915,0.999835,0.018187
18.8,-4.70679,-9.71629,0.99984,0.0178839
18.9,-4.59727,-9.71348,0.999846,0.0175385
19,-4.48734,-9.71072,0.999852,0.0172239
19.1,-4.37721,-9.70762,0.999813,0.0193111
19.2,-4.26706,-9.70393,0.999738,0.0229013
19.3,-4.1571,-9.69951,0.999624,0.0274336
19.4,-4.04758,-9.69429,0.999473,0.0324752
19.5,-3.93876,-9.68827,0.999294,0.0375598
19.6,-3.83092,-9.68156,0.999113,0.0421146
19.7,-3.72427,-9.67436,0.998965,0.0454828
19.8,-3.61852,-9.66698,0.9989,0.0468942
19.9,-3.51277,-9.6596,0.9989,0.0468942
20,-3.40702,-9.65222,0.9989,0.0468941
20.1,-3.30127,-9.64484,0.9989,0.046894
20.2,-3.19552,-9.63746,0.9989,0.0468939
20.3,-3.08977,-9.63008,0.9989,0.0468938
20.4,-2.98401,-9.6227,0.9989,0.0468938
20.5,-2.87826,-9.61532,0.9989,0.0468937
20.6,-2.77251,-9.60795,0.9989,0.0468936
20.7,-2.66676,-9.60057,0.9989,0.0468936
20.8,-2.56101,-9.59319,0.9989,0.0468935
20.9,-2.45526,-9.58581,0.9989,0.0468935
21,-2.34951,-9.57843,0.9989,0.0468934
21.1,-2.24376,-9.57105,0.9989,0.0468934
21.2,-2.13801,-9.56367,0.9989,0.0468933
21.3,-2.03225,-9.55629,0.9989,0.0468932
21.4,-1.9265,-9.54891,0.9989,0.0468931
21.5,-1.82075,-9.54153,0.9989,0.0468931
21.6,-1.715,-9.53415,0.9989,0.046893
21.7,-1.60925,-9.52677,0.9989,0.0468929
21.8,-1.5035,-9.51939,0.9989,0.0468928
21.9,-1.39775,-9.51201,0.9989,0.0468927
22,-1.292,-9.50463,0.9989,0.0468925
22.1,-1.18624,-9.49725,0.9989,0.0468925
22.2,-1.08049,-9.48987,0.9989,0.0468923
22.3,-0.974742,-9.48249,0.9989,0.0468923
22.4,-0.868991,-9.47511,0.9989,0.0468922
22.5,-0.76324,-9.46773,0.9989,0.0468921
22.6,-0.657489,-9.46035,0.9989,0.046892
22.7,-0.551738,-9.45298,0.9989,0.0468919
22.8,-0.445987,-9.4456,0.9989,0.0468917
22.9,-0.340235,-9.43822,0.9989,0.0468917
23,-0.234484,-9.43084,0.9989,0.0468914
23.1,-0.128733,-9.42346,0.9989,0.0468913
23.2,-0.0229821,-9.41608,0.9989,0.0468911
23.3,0.0827691,-9.4087,0.9989,0.046891
23.4,0.18852,-9.40132,0.9989,0.0468908
23.5,0.294271,-9.39394,0.9989,0.0468908
23.6,0.400022,-9.38656,0.9989,0.0468905
23.7,0.505773,-9.37918,0.9989,0.0468905
23.8,0.611525,-9.3718,0.9989,0.0468903
23.9,0.717276,-9.36442,0.9989,0.0468904
24,0.823027,-9.35704,0.9989,0.0468902
24.1,0.928778,-9.34966,0.9989,0.0468904
24.2,1.03453,-9.34228,0.9989,0.0468902
24.3,1.14028,-9.33491,0.9989,0.0468898
24.4,1.24603,-9.32753,0.9989,0.0468905
24.5,1.35178,-9.32015,0.9989,0.0468897
24.6,1.45753,-9.31277,0.9989,0.0468973
24.7,1.56223,-9.30746,0.999421,0.0340212
24.8,1.66641,-9.30413,0.99977,0.0214547
24.9,1.77037,-9.30388,0.999998,0.0017934
25,1.87434,-9.30383,1,0.000488389
25.1,1.97832,-9.30378,1,0.000488389
25.2,2.08229,-9.30373,1,0.000488389
25.3,2.18626,-9.30368,1,0.000488389
25.4,2.29024,-9.30363,1,0.000488389
25.5,2.39421,-9.30358,1,0.000488389
25.6,2.49818,-9.30352,1,0.000488389
25.7,2.60216,-9.30347,1,0.00048839
25.8,2.70613,-9.30342,1,0.000488389
25.9,2.8101,-9.30337,1,0.000488389
26,2.91407,-9.30332,1,0.000488389
26.1,3.01805,-9.30327,1,0.000488389
26.2,3.12202,-9.30322,1,0.000488389
26.3,3.22599,-9.30317,1,0.000488389
26.4,3.32997,-9.30312,1,0.00048839
26.5,3.43394,-9.30307,1,0.000488389
26.6,3.53791,-9.30302,1,0.000488389
26.7,3.64188,-9.30297,1,0.00048839
26.8,3.74586,-9.30292,1,0.00048839
26.9,3.84983,-9.30287,1,0.00048839
27,3.9538,-9.30282,1,0.00048839
27.1,4.05778,-9.30277,1,0.00048839
27.2,4.16175,-9.30272,1,0.00048839
27.3,4.26572,-9.30267,1,0.00048839
27.4,4.3697,-9.30262,1,0.00048839
27.5,4.47367,-9.30256,1,0.00048839
27.6,4.57764,-9.30251,1,0.00048839
27.7,4.68161,-9.30246,1,0.00048839
27.8,4.78559,-9.30241,1,0.00048839
27.9,4.88956,-9.30236,1,0.00048839
28,4.99353,-9.30231,1,0.00048839
28.1,-4.90249,-9.30226,1,0.00048839
28.2,-4.79852,-9.30221,1,0.000488292
28.3,-4.69455,-9.30216,1,0.000488292
28.4,-4.59058,-9.30211,1,0.000488292
28.5,-4.4866,-9.30206,1,0.000488292
28.6,-4.38263,-9.30201,1,0.000488292
28.7,-4.27866,-9.30196,1,0.000488292
28.8,-4.17468,-9.30191,1,0.000488292
28.9,-4.07071,-9.30186,1,0.000488292
29,-3.96674,-9.30181,1,0.000488292
29.1,-3.86277,-9.30176,1,0.000488292
29.2,-3.75879,-9.30171,1,0.000488292
29.3,-3.65482,-9.30165,1,0.000488292
29.4,-3.55085,-9.3016,1,0.000488292
29.5,-3.44687,-9.30155,1,0.000488292
29.6,-3.3429,-9.3015,1,0.000488292
29.7,-3.23893,-9.30145,1,0.000488292
29.8,-3.13495,-9.3014,1,0.000488292
29.9,-3.03098,-9.30135,1,0.000488292
30,-2.92701,-9.3013,1,0.000488292
30.1,-2.82304,-9.30125,1,0.000488292
30.2,-2.71906,-9.3012,1,0.000488292
30.3,-2.61509,-9.30115,1,0.000488292
30.4,-2.51112,-9.3011,1,0.000488292
30.5,-2.40714,-9.30105,1,0.000488292
30.6,-2.30317,-9.301,1,0.000488292
30.7,-2.1992,-9.30095,1,0.000488292
30.8,-2.09523,-9.3009,1,0.000488292
30.9,-1.99125,-9.30085,1,0.000488292
31,-1.88728,-9.3008,1,0.000488292
31.1,-1.78331,-9.30075,1,0.000488292
31.2,-1.67933,-9.30069,1,0.000488292
31.3,-1.57536,-9.30064,1,0.000488292
31.4,-1.47139,-9.30059,1,0.000488292
31.5,-1.36741,-9.30054,1,0.000488292
31.6,-1.26344,-9.30049,1,0.000488292
31.7,-1.15947,-9.30044,1,0.000488292
31.8,-1.0555,-9.30039,1,0.000488292
31.9,-0.951523,-9.30034,1,0.000488292
32,-0.847549,-9.30029,1,0.000488292
32.1,-0.743576,-9.30024,1,0.000488292
32.2,-0.639603,-9.30019,1,0.000488292
32.3,-0.53563,-9.30014,1,0.000488292
32.4,-0.431657,-9.30009,1,0.000488292
32.5,-0.327684,-9.30004,1,0.000488292
32.6,-0.223711,-9.29999,1,0.000488292
32.7,-0.119738,-9.29994,1,0.000488292
32.8,-0.0157654,-9.29989,1,0.000488292
32.9,0.0882076,-9.29984,1,0.000488292
33,0.192181,-9.29978,1,0.000488292
33.1,0.296154,-9.29973,1,0.000488292
33.2,0.400127,-9.29968,1,0.000488292
33.3,0.5041,-9.29963,1,0.000488292
33.4,0.608073,-9.29958,1,0.000488292
33.5,0.712046,-9.29953,1,0.000488292
33.6,0.816019,-9.29948,1,0.000488292
33.7,0.919992,-9.29943,1,0.000488292
33.8,1.02396,-9.29938,1,0.000488292
33.9,1.12794,-9.29933,1,0.000488292
34,1.23191,-9.29928,1,0.000488292
34.1,1.33588,-9.29923,1,0.000488292
34.2,1.43986,-9.29918,1,0.000488292
34.3,1.54383,-9.29913,1,0.000488292
34.4,1.6478,-9.29908,1,0.000488292
34.5,1.75178,-9.29903,1,0.000488292
34.6,1.85575,-9.29898,1,0.000488292
34.7,1.95972,-9.29893,1,0.000488292
34.8,2.06369,-9.29887,1,0.000488292
34.9,2.16767,-9.29882,1,0.000488292
35,2.27164,-9.29877,1,0.000488292
35.1,2.37578,-9.29896,0.999999,-0.00103804
35.2,2.48004,-9.2994,0.999997,-0.00262888
35.3,2.58435,-9.30006,0.999992,-0.00410186
35.4,2.68867,-9.30093,0.999985,-0.00538075
35.5,2.79293,-9.30195,0.99998,-0.0063809
35.6,2.89709,-9.30307,0.999975,-0.00702056
35.7,3.00113,-9.30423,0.999974,-0.0072366
35.8,3.10516,-9.30538,0.999974,-0.00723467
35.9,3.20919,-9.30654,0.999974,-0.00723467
36,3.31322,-9.30769,0.999974,-0.00723468
36.1,3.41724,-9.30885,0.999974,-0.00723469
36.2,3.52127,-9.31,0.999974,-0.0072347
36.3,3.6253,-9.31115,0.999974,-0.00723473
36.4,3.72933,-9.31231,0.999974,-0.00723474
36.5,3.83336,-9.31346,0.999974,-0.00723475
36.6,3.93739,-9.31462,0.999974,-0.00723477
36.7,4.04142,-9.31577,0.999974,-0.00723479
36.8,4.14545,-9.31692,0.999974,-0.00723481
36.9,4.24948,-9.31808,0.999974,-0.00723484
37,4.35351,-9.31923,0.999974,-0.00723485
37.1,4.45754,-9.32038,0.999974,-0.00723488
37.2,4.56157,-9.32154,0.999974,-0.00723491
37.3,4.6656,-9.32269,0.999974,-0.00723493
37.4,4.76962,-9.32385,0.999974,-0.00723496
37.5,4.87365,-9.325,0.999974,-0.007235
37.6,4.97768,-9.32615,0.999974,-0.00723504
37.7,-4.91829,-9.32731,0.999974,-0.00723508
37.8,-4.81426,-9.32846,0.999974,-0.00723515
37.9,-4.71023,-9.32962,0.999974,-0.0072352
38,-4.6062,-9.33077,0.999974,-0.00723524
38.1,-4.50217,-9.33192,0.999974,-0.0072353
38.2,-4.39814,-9.33308,0.999974,-0.00723536
38.3,-4.29411,-9.33423,0.999974,-0.00723542
38.4,-4.19008,-9.33539,0.999974,-0.0072355
38.5,-4.08605,-9.33654,0.999974,-0.00723558
38.6,-3.98203,-9.33769,0.999974,-0.00723568
38.7,-3.878,-9.33885,0.999974,-0.00723576
38.8,-3.77397,-9.34,0.999974,-0.00723587
38.9,-3.66994,-9.34116,0.999974,-0.007236
39,-3.56591,-9.34231,0.999974,-0.00723614
39.1,-3.46188,-9.34346,0.999974,-0.0072363
39.2,-3.35785,-9.34462,0.999974,-0.00723627
39.3,-3.25382,-9.34577,0.999974,-0.00723624
39.4,-3.14979,-9.34693,0.999974,-0.00723621
39.5,-3.04576,-9.34808,0.999974,-0.00723643
39.6,-2.94173,-9.34924,0.999974,-0.0072364
39.7,-2.8377,-9.35039,0.999974,-0.00723639
39.8,-2.73368,-9.35155,0.999974,-0.00723636
39.9,-2.62965,-9.3527,0.999974,-0.00723632
40,-2.52562,-9.35386,0.999974,-0.00723628
40.1,-2.42159,-9.35501,0.999974,-0.00723624
40.2,-2.31756,-9.35617,0.999974,-0.00723617
40.3,-2.21353,-9.35732,0.999974,-0.00723608
40.4,-2.1095,-9.35848,0.999974,-0.00723702
40.5,-2.00517,-9.35962,0.999975,-0.00713167
40.6,-1.90014,-9.36073,0.999976,-0.00689374
40.7,-1.79511,-9.36119,0.999996,-0.00280593
40.8,-1.69086,-9.36063,0.999993,0.00376934
40.9,-1.58657,-9.35961,0.999978,0.00666884
41,-1.48229,-9.35822,0.999959,0.00905738
41.1,-1.37811,-9.35655,0.999941,0.0108906
41.2,-1.27409,-9.35469,0.999928,0.0120404
41.3,-1.17012,-9.35275,0.999921,0.0125959
41.4,-1.06615,-9.35077,0.999917,0.0128584
41.5,-0.962175,-9.34878,0.999916,0.0129708
41.6,-0.858202,-9.34677,0.999915,0.0130038
41.7,-0.75423,-9.34477,0.999916,0.0129933
41.8,-0.650258,-9.34278,0.999916,0.0129579
41.9,-0.546286,-9.34079,0.999917,0.0129058
42,-0.442314,-9.33881,0.999917,0.0128411
42.1,-0.338342,-9.33685,0.999918,0.012768
42.2,-0.234369,-9.33489,0.99992,0.0126876
42.3,-0.130397,-9.33295,0.999921,0.0126003
42.4,-0.0264252,-9.33103,0.999922,0.0125046
42.5,0.0775468,-9.32912,0.999923,0.0124015
42.6,0.181519,-9.32723,0.999924,0.0122927
42.7,0.285491,-9.32535,0.999926,0.012175
42.8,0.389463,-9.3235,0.999927,0.0120503
42.9,0.493435,-9.32167,0.999929,0.0119188
43,0.597407,-9.31985,0.999931,0.0117799
43.1,0.701379,-9.31806,0.999932,0.0116318
43.2,0.80535,-9.3163,0.999934,0.0114776
43.3,0.909322,-9.31456,0.999936,0.0113151
43.4,1.01329,-9.31285,0.999938,0.0111446
43.5,1.11727,-9.31116,0.99994,0.0109655
43.6,1.22124,-9.30951,0.999942,0.0107806
43.7,1.32521,-9.30788,0.999944,0.0105852
43.8,1.42918,-9.30629,0.999946,0.0103837
43.9,1.53315,-9.30473,0.999948,0.0101721
44,1.63712,-9.3032,0.99995,0.00995226
44.1,1.74109,-9.30171,0.999953,0.00972414
44.2,1.84507,-9.30025,0.999955,0.00948731
44.3,1.94904,-9.29884,0.999957,0.00924285
44.4,2.05301,-9.29746,0.99996,0.00898902
44.5,2.15698,-9.29612,0.999962,0.00872661
44.6,2.26095,-9.29483,0.999964,0.00845512
44.7,2.36492,-9.29358,0.999967,0.00817468
44.8,2.46889,-9.29238,0.999969,0.00788279
44.9,2.57286,-9.29122,0.999971,0.00758177
45,2.67683,-9.29011,0.999974,0.00726937
45.1,2.7808,-9.2891,0.999978,0.00664075
45.2,2.88478,-9.28819,0.999982,0.00599806
45.3,2.98875,-9.28737,0.999985,0.00546196
45.4,3.09272,-9.28659,0.999987,0.00513547
45.5,3.19669,-9.28582,0.999987,0.0051013
45.6,3.30066,-9.28507,0.999987,0.00499232
45.7,3.40463,-9.28437,0.999989,0.0046431
45.8,3.5086,-9.28373,0.999991,0.00423501
45.9,3.61257,-9.28318,0.999993,0.00370388
46,3.71654,-9.28275,0.999996,0.00294242
46.1,3.82051,-9.28266,1,0.000721744
46.2,3.92448,-9.28261,1,0.000487985
46.3,4.02846,-9.28256,1,0.000487985
46.4,4.13243,-9.28251,1,0.000487985
46.5,4.2364,-9.28246,1,0.000487985
46.6,4.34038,-9.28241,1,0.000487985
46.7,4.44435,-9.28236,1,0.000487985
46.8,4.54832,-9.28231,1,0.000487985
46.9,4.65229,-9.28226,1,0.000487985
47,4.75627,-9.2822,1,0.000487985
47.1,4.86024,-9.28215,1,0.000487985
47.2,4.96421,-9.2821,1,0.000487985
47.3,-4.93181,-9.28205,1,0.000487985
47.4,-4.82784,-9.282,1,0.000487887
47.5,-4.72387,-9.28195,1,0.000487887
47.6,-4.61989,-9.2819,1,0.000487887
47.7,-4.51592,-9.28185,1,0.000487887
47.8,-4.41195,-9.2818,1,0.000487887
47.9,-4.30798,-9.28175,1,0.000487887
48,-4.204,-9.2817,1,0.000487887
48.1,-4.10003,-9.28165,1,0.000487887
48.2,-3.99606,-9.2816,1,0.000487887
48.3,-3.89208,-9.28155,1,0.000487887
48.4,-3.78811,-9.2815,1,0.000487887
48.5,-3.68414,-9.28145,1,0.000487887
48.6,-3.58017,-9.2814,1,0.000487887
48.7,-3.47619,-9.28135,1,0.000487887
48.8,-3.37222,-9.28129,1,0.000487887
48.9,-3.26825,-9.28124,1,0.000487887
49,-3.16427,-9.28119,1,0.000487887
49.1,-3.0603,-9.28114,1,0.000487887
49.2,-2.95633,-9.28109,1,0.000487887
49.3,-2.85236,-9.28104,1,0.000487887
49.4,-2.74838,-9.28099,1,0.000487887
49.5,-2.64441,-9.28094,1,0.000487887
49.6,-2.54044,-9.28089,1,0.000487887
49.7,-2.43646,-9.28084,1,0.000487887
49.8,-2.33249,-9.28079,1,0.000487887
49.9,-2.22852,-9.28074,1,0.000487887
50,-2.12455,-9.28069,1,0.000487887
50.1,-2.02057,-9.28064,1,0.000487887
50.2,-1.9166,-9.28059,1,0.000487887
50.3,-1.81263,-9.28054,1,0.000487887
50.4,-1.70865,-9.28049,1,0.000487887
50.5,-1.60468,-9.28044,1,0.000487887
50.6,-1.50071,-9.28039,1,0.000487887
50.7,-1.39673,-9.28033,1,0.000487887
50.8,-1.29276,-9.28028,1,0.000487887
50.9,-1.18879,-9.28023,1,0.000487887
51,-1.08481,-9.28018,1,0.000487887
51.1,-0.980842,-9.28013,1,0.000487887
51.2,-0.876869,-9.28008,1,0.000487887
51.3,-0.772896,-9.28003,1,0.000487887
51.4,-0.668923,-9.27998,1,0.000487887
51.5,-0.56495,-9.27993,1,0.000487887
51.6,-0.460977,-9.27988,1,0.000487887
51.7,-0.357004,-9.27983,1,0.000487887
51.8,-0.253031,-9.27978,1,0.000487887
51.9,-0.149058,-9.27973,1,0.000487887
52,-0.0450849,-9.27968,1,0.000487887
52.1,0.0588882,-9.27963,1,0.000487887
52.2,0.162861,-9.27958,1,0.000487887
52.3,0.266834,-9.27953,1,0.000487887
52.4,0.370807,-9.27948,1,0.000487887
52.5,0.47478,-9.27942,1,0.000487887
52.6,0.578753,-9.27937,1,0.000487887
52.7,0.682726,-9.27932,1,0.000487887
52.8,0.786699,-9.27927,1,0.000487887
52.9,0.890672,-9.27922,1,0.000487887
53,0.994645,-9.27917,1,0.000487887
53.1,1.09862,-9.27912,1,0.000487887
53.2,1.20259,-9.27907,1,0.000487887
53.3,1.30656,-9.27902,1,0.000487887
53.4,1.41054,-9.27897,1,0.000487887
53.5,1.51451,-9.27892,1,0.000487887
53.6,1.61852,-9.27891,1,0.000225075
53.7,1.72272,-9.27912,0.999999,-0.00119743
53.8,1.82705,-9.27956,0.999997,-0.0026239
53.9,1.93145,-9.28021,0.999992,-0.00399362
54,2.03587,-9.28105,0.999986,-0.00524861
54.1,2.14027,-9.28207,0.99998,-0.00633574
54.2,2.24461,-9.28322,0.999974,-0.00720812
54.3,2.34887,-9.28447,0.999969,-0.0078267
54.4,2.45302,-9.28577,0.999967,-0.00816215
54.5,2.55711,-9.28708,0.999966,-0.00822202
54.6,2.66119,-9.28839,0.999966,-0.00822202
54.7,2.76528,-9.2897,0.999966,-0.008222
54.8,2.86937,-9.291,0.999966,-0.00822202
54.9,2.97345,-9.29231,0.999966,-0.00822201
55,3.07773,-9.29361,0.999967,-0.00811361
55.1,3.18253,-9.29485,0.99997,-0.00780184
55.2,3.28751,-9.29629,0.999959,-0.00900222
55.3,3.39249,-9.29799,0.999943,-0.0106538
55.4,3.49739,-9.29993,0.999926,-0.0121976
55.5,3.60216,-9.30207,0.999909,-0.0134955
55.6,3.70674,-9.30436,0.999895,-0.0144682
55.7,3.8111,-9.30674,0.999887,-0.0150573
55.8,3.91528,-9.30914,0.999884,-0.015233
55.9,4.01946,-9.31155,0.999884,-0.0152331
56,4.12364,-9.31395,0.999884,-0.015233
56.1,4.22786,-9.31635,0.999884,-0.0152091
56.2,4.33228,-9.31874,0.999886,-0.0150806
56.3,4.43693,-9.3211,0.999889,-0.0149085
56.4,4.54181,-9.32344,0.999891,-0.01476
56.5,4.64694,-9.32576,0.999893,-0.0146107
56.6,4.75231,-9.32806,0.999895,-0.0144633
56.7,4.85791,-9.33035,0.999897,-0.0143191
56.8,4.96374,-9.33261,0.9999,-0.0141785
56.9,-4.9302,-9.33485,0.999901,-0.0140418
57,-4.82393,-9.33708,0.999903,-0.013909
57.1,-4.71744,-9.33929,0.999905,-0.01378
57.2,-4.61075,-9.34148,0.999907,-0.0136547
57.3,-4.50385,-9.34366,0.999908,-0.0135331
57.4,-4.39787,-9.34591,0.999901,-0.0140837
57.5,-4.29369,-9.34831,0.999884,-0.0152028
57.6,-4.18952,-9.35071,0.999884,-0.0152028
57.7,-4.08534,-9.35311,0.999884,-0.0152029
57.8,-3.98117,-9.35551,0.999884,-0.0152029
57.9,-3.87699,-9.35791,0.999884,-0.0152031
58,-3.77282,-9.3603,0.999884,-0.0152031
58.1,-3.66864,-9.3627,0.999884,-0.0152032
58.2,-3.56447,-9.3651,0.999884,-0.0152034
58.3,-3.46029,-9.3675,0.999884,-0.0152035
58.4,-3.35612,-9.3699,0.999884,-0.0152037
58.5,-3.25194,-9.3723,0.999884,-0.0152036
58.6,-3.14777,-9.3747,0.999884,-0.0152034
58.7,-3.04359,-9.3771,0.999884,-0.0152035
58.8,-2.93942,-9.3795,0.999884,-0.0152033
58.9,-2.83524,-9.3819,0.999884,-0.0152037
59,-2.7311,-9.38429,0.999886,-0.0151274
59.1,-2.62695,-9.38668,0.999886,-0.0151273
59.2,-2.5228,-9.38907,0.999886,-0.0151272
59.3,-2.41866,-9.39146,0.999886,-0.0151272
59.4,-2.31451,-9.39384,0.999886,-0.0151271
59.5,-2.21036,-9.39623,0.999886,-0.015127
59.6,-2.10622,-9.39862,0.999886,-0.015127
59.7,-2.00207,-9.40101,0.999886,-0.0151268
59.8,-1.89792,-9.40339,0.999886,-0.0151265
59.9,-1.79378,-9.40578,0.999886,-0.0151266
60,-1.68954,-9.40816,0.999886,-0.0150764
60.1,-1.5848,-9.41051,0.99989,-0.0148034
60.2,-1.47971,-9.41272,0.999903,-0.013909
60.3,-1.37434,-9.41473,0.999921,-0.0125924
60.4,-1.26874,-9.41651,0.999938,-0.0111531
60.5,-1.16296,-9.41808,0.999952,-0.00975676
60.6,-1.05704,-9.41944,0.999964,-0.00848589
60.7,-0.951023,-9.42063,0.999973,-0.00736812
60.8,-0.845012,-9.42166,0.99998,-0.00631566
60.9,-0.739898,-9.42224,0.999994,-0.00354384
61,-0.635139,-9.42226,1,1.76857e-05
61.1,-0.53052,-9.42223,1,0.000345913
61.2,-0.4259,-9.4222,1,0.000379065
61.3,-0.321208,-9.42217,1,0.000366495
61.4,-0.216446,-9.42214,1,0.000350478
61.5,-0.111614,-9.42211,1,0.000333768
61.6,-0.0067143,-9.42209,1,0.000316544
61.7,0.0982519,-9.42207,1,0.000298804
61.8,0.203283,-9.42205,1,0.00028055
61.9,0.308379,-9.42203,1,0.000261793
62,0.413537,-9.42202,1,0.000242526
62.1,0.518756,-9.42201,1,0.000222756
62.2,0.624035,-9.422,1,0.000202484
62.3,0.729374,-9.422,1,0.000181714
62.4,0.834769,-9.422,1,0.000160446
62.5,0.940222,-9.42201,1,0.000138694
62.6,1.04573,-9.42201,1,0.000116417
62.7,1.15129,-9.42202,1,9.36491e-05
62.8,1.25691,-9.42204,1,7.03957e-05
62.9,1.36258,-9.42206,1,4.66397e-05
63,1.46829,-9.42208,1,2.23852e-05
63.1,1.57406,-9.4221,1,-2.36435e-06
63.2,1.67988,-9.42213,1,-2.76133e-05
63.3,1.78575,-9.42217,1,-5.33521e-05
63.4,1.89166,-9.42221,1,-7.95942e-05
63.5,1.99762,-9.42225,1,-0.000106301
63.6,2.10362,-9.42229,1,-0.000133514
63.7,2.20967,-9.42235,1,-0.0001612
63.8,2.31576,-9.4224,1,-0.000189406
63.9,2.42189,-9.42246,1,-0.000218038
64,2.52807,-9.42253,1,-0.00024729
64.1,2.63429,-9.4226,1,-0.000276975
64.2,2.74054,-9.42267,1,-0.000307189
64.3,2.84684,-9.42275,1,-0.00033794
64.4,2.95317,-9.42283,1,-0.00036727
64.5,3.05954,-9.42289,1,-0.000205942
64.6,3.16595,-9.42294,1,-0.000163745
64.7,3.2724,-9.42299,1,-0.000161995
64.8,3.37888,-9.42305,1,-0.00017442
64.9,3.48539,-9.4231,1,-0.000192089
65,3.59194,-9.42316,1,-0.000211921
65.1,3.69853,-9.42322,1,-0.000232817
65.2,3.80514,-9.42329,1,-0.000254398
65.3,3.91179,-9.42336,1,-0.000266598
65.4,4.01847,-9.42343,1,-0.000270217
65.5,4.12518,-9.4235,1,-0.000273526
65.6,4.23192,-9.42356,1,-0.000277081
65.7,4.33869,-9.42363,1,-0.000280243
65.8,4.44549,-9.42371,1,-0.000283902
65.9,4.55232,-9.42378,1,-0.000287014
66,4.65918,-9.42385,1,-0.000284987
66.1,4.76606,-9.42394,1,-0.000423827
66.2,4.87297,-9.42404,1,-0.000476257
66.3,4.9799,-9.42415,1,-0.000515135
66.4,-4.91314,-9.42426,1,-0.00054874
66.5,-4.80615,-9.42438,1,-0.000580632
66.6,-4.69914,-9.4245,1,-0.000612135
66.7,-4.59211,-9.42463,1,-0.000643968
66.8,-4.48505,-9.42476,1,-0.000676438
66.9,-4.37797,-9.4249,1,-0.000709744
67,-4.27087,-9.42505,1,-0.000743916
67.1,-4.16375,-9.4252,1,-0.000779032
67.2,-4.0566,-9.42535,1,-0.000815153
67.3,-3.94944,-9.42551,1,-0.00085229
67.4,-3.84225,-9.42568,1,-0.000890489
67.5,-3.73504,-9.42585,1,-0.000929798
67.6,-3.62782,-9.42603,1,-0.00097024
67.7,-3.52057,-9.42622,0.999999,-0.00101189
67.8,-3.4133,-9.42641,0.999999,-0.00105479
67.9,-3.30602,-9.42661,0.999999,-0.00109895
68,-3.19872,-9.42682,0.999999,-0.00114441
68.1,-3.0914,-9.42704,0.999999,-0.00119125
68.2,-2.98406,-9.42726,0.999999,-0.0012395
68.3,-2.87671,-9.42749,0.999999,-0.00128921
68.4,-2.76934,-9.42773,0.999999,-0.00134041
68.5,-2.66196,-9.42798,0.999999,-0.00139317
68.6,-2.55455,-9.42824,0.999999,-0.00144757
68.7,-2.44714,-9.4285,0.999999,-0.00150365
68.8,-2.33971,-9.42877,0.999999,-0.00156144
68.9,-2.23226,-9.42906,0.999999,-0.00162101
69,-2.1248,-9.42935,0.999999,-0.00168244
69.1,-2.01733,-9.42966,0.999999,-0.00174576
69.2,-1.90984,-9.42997,0.999998,-0.00181107
69.3,-1.80234,-9.4303,0.999998,-0.00187842
69.4,-1.69483,-9.43063,0.999998,-0.00194784
69.5,-1.5873,-9.43098,0.999998,-0.00201942
69.6,-1.47977,-9.43134,0.999998,-0.00209326
69.7,-1.37222,-9.43171,0.999998,-0.00216941
69.8,-1.26466,-9.4321,0.999997,-0.00224794
69.9,-1.15709,-9.43249,0.999997,-0.00232895
70,-1.04951,-9.4329,0.999997,-0.00241248
70.1,-0.941917,-9.43333,0.999997,-0.00249864
70.2,-0.834316,-9.43377,0.999997,-0.00258751
70.3,-0.726707,-9.43422,0.999996,-0.00267917
70.4,-0.619088,-9.43469,0.999996,-0.00277369
70.5,-0.511461,-9.43517,0.999996,-0.00287122
70.6,-0.403826,-9.43567,0.999996,-0.00297178
70.7,-0.296183,-9.43619,0.999995,-0.00307551
70.8,-0.188532,-9.43672,0.999995,-0.00318253
70.9,-0.0808749,-9.43727,0.999995,-0.00329283
71,0.026789,-9.43784,0.999994,-0.00340661
71.1,0.134459,-9.43843,0.999994,-0.00352396
71.2,0.242135,-9.43904,0.999993,-0.00364498
71.3,0.349815,-9.43967,0.999993,-0.00376977
71.4,0.457501,-9.44031,0.999992,-0.00389843
71.5,0.565191,-9.44098,0.999992,-0.00403101
71.6,0.672884,-9.44167,0.999991,-0.0041677
71.7,0.780581,-9.44239,0.999991,-0.00430857
71.8,0.88828,-9.44312,0.99999,-0.00445372
71.9,0.995982,-9.44389,0.999989,-0.00460336
72,1.10369,-9.44467,0.999989,-0.00475751
72.1,1.21139,-9.44548,0.999988,-0.00491623
72.2,1.31909,-9.44632,0.999987,-0.00507972
72.3,1.4268,-9.44718,0.999986,-0.00524804
72.4,1.5345,-9.44807,0.999985,-0.00542131
72.5,1.64221,-9.44899,0.999984,-0.00559965
72.6,1.74991,-9.44994,0.999983,-0.00578314
72.7,1.8576,-9.45092,0.999982,-0.00597189
72.8,1.9653,-9.45193,0.999981,-0.00616594
72.9,2.07299,-9.45297,0.99998,-0.00636546
73,2.18067,-9.45405,0.999978,-0.00657049
73.1,2.28835,-9.45516,0.999977,-0.00678109
73.2,2.39602,-9.4563,0.999976,-0.00699733
73.3,2.50368,-9.45748,0.999974,-0.00721929
73.4,2.61133,-9.45869,0.999972,-0.00744695
73.5,2.71898,-9.45994,0.999971,-0.00768041
73.6,2.82661,-9.46123,0.999969,-0.00791966
73.7,2.93423,-9.46256,0.999967,-0.00816473
73.8,3.04183,-9.46393,0.999965,-0.00841557
73.9,3.14942,-9.46534,0.999962,-0.00867224
74,3.257,-9.46679,0.99996,-0.00893462
74.1,3.36455,-9.46828,0.999958,-0.00920264
74.2,3.47209,-9.46982,0.999955,-0.00947623
74.3,3.57961,-9.4714,0.999952,-0.00975518
74.4,3.68713,-9.47299,0.999952,-0.0097911
74.5,3.79464,-9.47458,0.999952,-0.00979106
74.6,3.90216,-9.47616,0.999952,-0.00979101
74.7,4.00967,-9.47775,0.999952,-0.00979098
74.8,4.11719,-9.47934,0.999952,-0.00979092
74.9,4.2247,-9.48092,0.999952,-0.00979086
75,4.33222,-9.48251,0.999952,-0.00979078
75.1,4.43973,-9.4841,0.999952,-0.00979072
75.2,4.54725,-9.48568,0.999952,-0.0097907
75.3,4.65476,-9.48727,0.999952,-0.00979071
75.4,4.76228,-9.48886,0.999952,-0.00979065
75.5,4.86979,-9.49044,0.999952,-0.00979065
75.6,4.97683,-9.49049,1,-0.000114375
75.7,-4.91614,-9.49053,1,-0.000114391
75.8,-4.80911,-9.49058,1,-0.000114515
75.9,-4.70208,-9.49062,1,-0.000114507
76,-4.59504,-9.49066,1,-0.00011453
76.1,-4.48801,-9.49071,1,-0.000114521
76.2,-4.38098,-9.49075,1,-0.000114565
76.3,-4.27394,-9.4908,1,-0.000114616
76.4,-4.16691,-9.49084,1,-0.000114673
76.5,-4.05979,-9.49089,1,-0.00017306
76.6,-3.95251,-9.49096,1,-0.000281543
76.7,-3.84505,-9.49106,1,-0.000432046
76.8,-3.73739,-9.49118,1,-0.000626873
76.9,-3.6295,-9.49135,1,-0.000875172
77,-3.52139,-9.49157,0.999999,-0.00119625
77.1,-3.41304,-9.49185,0.999999,-0.00163784
77.2,-3.30444,-9.49227,0.999997,-0.00241778
77.3,-3.19789,-9.49507,0.999847,-0.017495
77.4,-3.08889,-9.49883,0.999731,-0.0232073
77.5,-2.97926,-9.50357,0.999574,-0.0291707
77.6,-2.87012,-9.50889,0.999461,-0.032835
77.7,-2.76143,-9.51442,0.999415,-0.0341971
77.8,-2.65294,-9.51997,0.999407,-0.034424
77.9,-2.5446,-9.52547,0.999418,-0.0341045
78,-2.43642,-9.53081,0.999448,-0.0332086
78.1,-2.32841,-9.5359,0.9995,-0.0316061
78.2,-2.22034,-9.54077,0.999542,-0.030259
78.3,-2.11221,-9.54554,0.999562,-0.0296057
78.4,-2.00409,-9.55025,0.999572,-0.0292629
78.5,-1.89597,-9.55493,0.999577,-0.0290681
78.6,-1.78783,-9.55959,0.999581,-0.028941
78.7,-1.67969,-9.56424,0.999584,-0.0288396
78.8,-1.57153,-9.56887,0.999587,-0.0287441
78.9,-1.46337,-9.57348,0.99959,-0.0286403
79,-1.3552,-9.57808,0.999593,-0.0285252
79.1,-1.24702,-9.58265,0.999597,-0.0283934
79.2,-1.13883,-9.5872,0.999601,-0.0282432
79.3,-1.03063,-9.59173,0.999606,-0.0280725
79.4,-0.922396,-9.59622,0.999611,-0.0278745
79.5,-0.814028,-9.60068,0.999619,-0.0276173
79.6,-0.705586,-9.60508,0.999628,-0.0272909
79.7,-0.597126,-9.60943,0.999637,-0.0269371
79.8,-0.48865,-9.61373,0.999647,-0.0265856
79.9,-0.38015,-9.61796,0.999656,-0.0262339
80,-0.271634,-9.62214,0.999665,-0.0258709
