0.1,-12.3663,-1.71049,0.976096,0.217341
0.2,-2.34358,-1.70027,0.994114,0.108335
0.3,-2.3276,-1.6925,0.996044,0.0888621
0.4,-2.31412,-1.68397,0.994952,0.100351
0.5,-2.28863,-1.67847,0.998378,0.0569327
0.6,-2.24191,-1.67863,0.999999,-0.00140737
0.7,-2.16986,-1.68294,0.999546,-0.0301226
0.8,-2.07417,-1.67884,0.999697,0.0246305
0.9,-1.96609,-1.66904,0.998508,0.0546073
1,-1.84853,-1.657,0.997971,0.0636686
1.1,-1.72003,-1.64641,0.998594,0.0530059
1.2,-1.5882,-1.64207,0.999771,0.0214016
1.3,-1.45384,-1.64086,0.999983,0.00589203
1.4,-1.3179,-1.641,1,-0.000676016
1.5,-1.18116,-1.64168,0.999995,-0.00330189
1.6,-1.0441,-1.64261,0.99999,-0.00445455
1.7,-0.906968,-1.64367,0.999987,-0.00511059
1.8,-0.769883,-1.64484,0.999984,-0.00561987
1.9,-0.632872,-1.6461,0.999982,-0.00605727
2,-0.495933,-1.64745,0.999979,-0.00646812
2.1,-0.359061,-1.64888,0.999976,-0.00688222
2.2,-0.222254,-1.6504,0.999973,-0.00731289
2.3,-0.0855053,-1.65201,0.99997,-0.00776684
2.4,0.0511889,-1.65373,0.999966,-0.00824817
2.5,0.187835,-1.65555,0.999962,-0.00875982
2.6,0.324439,-1.65748,0.999957,-0.00930429
2.7,0.461008,-1.65953,0.999951,-0.00988386
2.8,0.59755,-1.66171,0.999945,-0.0105007
2.9,0.734073,-1.66403,0.999938,-0.0111569
3,0.870587,-1.66649,0.99993,-0.0118542
3.1,1.0071,-1.6691,0.999921,-0.0125944
3.2,1.14363,-1.67188,0.999911,-0.0133787
3.3,1.28014,-1.67474,0.999905,-0.0137769
3.4,1.41648,-1.67742,0.999917,-0.0129011
3.5,1.55266,-1.67991,0.999928,-0.0120432
3.6,1.68868,-1.68223,0.999937,-0.011208
3.7,1.82456,-1.68438,0.999946,-0.0103965
3.8,1.9603,-1.68637,0.999954,-0.00960847
3.9,2.09589,-1.6882,0.999961,-0.00884397
4,2.23136,-1.68987,0.999967,-0.00810282
4.1,2.3667,-1.6914,0.999973,-0.00738494
4.2,2.50191,-1.69278,0.999978,-0.00669015
4.3,2.63701,-1.69402,0.999982,-0.00601829
4.4,2.77199,-1.69512,0.999986,-0.00536921
4.5,2.90687,-1.6961,0.999989,-0.00474268
4.6,3.04163,-1.69695,0.999991,-0.00413863
4.7,3.1763,-1.69768,0.999994,-0.00355678
4.8,3.31087,-1.6983,0.999995,-0.00299701
4.9,3.44535,-1.69881,0.999997,-0.00245918
5,3.57973,-1.69921,0.999998,-0.00194317
5.1,3.71403,-1.6995,0.999999,-0.0014488
5.2,3.84825,-1.6997,0.999999,-0.000976117
5.3,3.98238,-1.69981,1,-0.000525185
5.4,4.11644,-1.69983,1,-9.57801e-05
5.5,4.25043,-1.69977,1,0.000312277
5.6,4.38434,-1.69962,1,0.000699264
5.7,4.51818,-1.6994,0.999999,0.0010654
5.8,4.65196,-1.69912,0.999999,0.0014109
5.9,4.78568,-1.69876,0.999999,0.00173607
6,4.91933,-1.69834,0.999998,0.00204109
6.1,-4.94707,-1.69787,0.999997,0.00232618
6.2,-4.81353,-1.69734,0.999997,0.00259153
6.3,-4.68004,-1.69676,0.999996,0.00283736
6.4,-4.5466,-1.69613,0.999995,0.00306383
6.5,-4.41322,-1.69546,0.999995,0.0032711
6.6,-4.27988,-1.69475,0.999994,0.00345928
6.7,-4.14658,-1.69401,0.999993,0.00362846
6.8,-4.01333,-1.69324,0.999993,0.0037787
6.9,-3.88013,-1.69244,0.999992,0.00391001
7,-3.74696,-1.69162,0.999992,0.00402234
7.1,-3.61383,-1.69078,0.999992,0.00411559
7.2,-3.48073,-1.68992,0.999991,0.00418956
7.3,-3.34767,-1.68906,0.999991,0.00424392
7.4,-3.21465,-1.68818,0.999991,0.00427822
7.5,-3.08165,-1.68731,0.999991,0.00429181
7.6,-2.94869,-1.68643,0.999991,0.00429055
7.7,-2.81575,-1.68556,0.999991,0.00428922
7.8,-2.68284,-1.68468,0.999991,0.00428792
7.9,-2.54996,-1.68381,0.999991,0.00428664
8,-2.41711,-1.68293,0.999991,0.00428539
8.1,-2.28428,-1.68206,0.999991,0.00428416
8.2,-2.15148,-1.68119,0.999991,0.00428296
8.3,-2.0187,-1.68031,0.999991,0.00428178
8.4,-1.88595,-1.67944,0.999991,0.00428063
8.5,-1.75323,-1.67857,0.999991,0.00427949
8.6,-1.62053,-1.6777,0.999991,0.00427838
8.7,-1.48785,-1.67683,0.999991,0.00427729
8.8,-1.3552,-1.67595,0.999991,0.00427622
8.9,-1.22257,-1.67508,0.999991,0.00427517
9,-1.08996,-1.67421,0.999991,0.00427414
9.1,-0.957369,-1.67334,0.999991,0.00427314
9.2,-0.824804,-1.67247,0.999991,0.00427215
9.3,-0.692259,-1.6716,0.999991,0.00427118
9.4,-0.559735,-1.67073,0.999991,0.00427023
9.5,-0.427231,-1.66986,0.999991,0.0042693
9.6,-0.294746,-1.669,0.999991,0.00426839
9.7,-0.162281,-1.66813,0.999991,0.0042675
9.8,-0.0298353,-1.66726,0.999991,0.00426661
9.9,0.102592,-1.66639,0.999991,0.00426575
10,0.235001,-1.66552,0.999991,0.0042649
10.1,0.367393,-1.66465,0.999991,0.00426407
10.2,0.499767,-1.66379,0.999991,0.00426326
10.3,0.632124,-1.66292,0.999991,0.00426247
10.4,0.764464,-1.66205,0.999991,0.00426169
10.5,0.896788,-1.66119,0.999991,0.00426091
10.6,1.0291,-1.66032,0.999991,0.00426016
10.7,1.16139,-1.65945,0.999991,0.00425942
10.8,1.29366,-1.65859,0.999991,0.00425872
10.9,1.42592,-1.65772,0.999991,0.00425801
11,1.55825,-1.6571,0.999995,0.00305873
11.1,1.69061,-1.65664,0.999997,0.00226983
11.2,1.823,-1.65627,0.999998,0.0018266
11.3,1.95539,-1.65595,0.999999,0.00157361
11.4,2.08778,-1.65566,0.999999,0.00142621
11.5,2.22017,-1.65538,0.999999,0.00133794
11.6,2.35255,-1.65512,0.999999,0.00128297
11.7,2.48492,-1.65487,0.999999,0.00124661
11.8,2.61728,-1.65462,0.999999,0.00121989
11.9,2.74963,-1.65438,0.999999,0.00119469
12,2.88198,-1.65415,0.999999,0.00109463
12.1,3.01484,-1.65508,0.99999,-0.00454085
12.2,3.14873,-1.65769,0.999919,-0.012716
12.3,3.28446,-1.66234,0.999747,-0.0224892
12.4,3.4205,-1.66736,0.999706,-0.0242558
12.5,3.55654,-1.67239,0.999706,-0.0242557
12.6,3.69257,-1.67741,0.999706,-0.0242556
12.7,3.82861,-1.68244,0.999706,-0.0242556
12.8,3.96464,-1.68746,0.999706,-0.0242555
12.9,4.10068,-1.69249,0.999706,-0.0242554
13,4.23671,-1.69751,0.999706,-0.0242553
13.1,4.37275,-1.70254,0.999706,-0.0242553
13.2,4.50879,-1.70756,0.999706,-0.0242552
13.3,4.64482,-1.71259,0.999706,-0.0242551
13.4,4.78086,-1.71761,0.999706,-0.0242551
13.5,4.91689,-1.72263,0.999706,-0.024255
13.6,-4.94707,-1.72766,0.999706,-0.0242549
13.7,-4.81103,-1.73268,0.999706,-0.0242548
13.8,-4.675,-1.73771,0.999706,-0.0242548
13.9,-4.53896,-1.74273,0.999706,-0.0242547
14,-4.40293,-1.74776,0.999706,-0.0242546
14.1,-4.26689,-1.75278,0.999706,-0.0242545
14.2,-4.13085,-1.75781,0.999706,-0.0242544
14.3,-3.99482,-1.76283,0.999706,-0.0242544
14.4,-3.85878,-1.76786,0.999706,-0.0242543
14.5,-3.72275,-1.77288,0.999706,-0.0242542
14.6,-3.58671,-1.77791,0.999706,-0.024254
14.7,-3.45067,-1.78293,0.999706,-0.0242541
14.8,-3.31464,-1.78796,0.999706,-0.0242539
14.9,-3.1786,-1.79298,0.999706,-0.0242539
15,-3.04248,-1.79803,0.999703,-0.0243806
15.1,-2.90616,-1.80315,0.999696,-0.024653
15.2,-2.76975,-1.80829,0.999693,-0.0247632
15.3,-2.63313,-1.81348,0.999688,-0.0249783
15.4,-2.49641,-1.81869,0.999686,-0.0250673
15.5,-2.35948,-1.82393,0.999682,-0.0252206
15.6,-2.22244,-1.8292,0.99968,-0.0252821
15.7,-2.08518,-1.83448,0.999678,-0.0253693
15.8,-1.9478,-1.83978,0.999677,-0.0253976
15.9,-1.81021,-1.84508,0.999677,-0.0254143
16,-1.67249,-1.85039,0.999677,-0.0254038
16.1,-1.53455,-1.85569,0.999679,-0.0253461
16.2,-1.39647,-1.86098,0.99968,-0.0252913
16.3,-1.25818,-1.86625,0.999684,-0.0251554
16.4,-1.11974,-1.8715,0.999686,-0.0250517
16.5,-0.981087,-1.87671,0.999692,-0.0248344
16.6,-0.842293,-1.88189,0.999695,-0.0246777
16.7,-0.703274,-1.88701,0.999703,-0.0243767
16.8,-0.564116,-1.89209,0.999708,-0.0241631
16.9,-0.424737,-1.8971,0.999717,-0.0237776
17,-0.285218,-1.90205,0.999724,-0.0235049
17.1,-0.145484,-1.90691,0.999735,-0.0230343
17.2,-0.00561164,-1.9117,0.999742,-0.0227006
17.3,0.134469,-1.91638,0.999755,-0.0221466
17.4,0.274685,-1.92097,0.999763,-0.021752
17.5,0.415099,-1.92544,0.999777,-0.021116
17.6,0.555643,-1.92981,0.999786,-0.0206626
17.7,0.696374,-1.93404,0.999801,-0.0199482
17.8,0.837228,-1.93816,0.999811,-0.0194383
17.9,0.978255,-1.94212,0.999826,-0.0186514
18,1.11949,-1.9458,0.999849,-0.0173605
18.1,1.26093,-1.94913,0.999878,-0.0156447
18.2,1.40253,-1.95207,0.999905,-0.0138046
18.3,1.54428,-1.95462,0.999928,-0.0119802
18.4,1.68614,-1.95679,0.999948,-0.0102121
18.5,1.82809,-1.9586,0.999964,-0.00849287
18.6,1.97011,-1.96005,0.999977,-0.00679738
18.7,2.11218,-1.96114,0.999987,-0.00510051
18.8,2.2543,-1.96186,0.999994,-0.00338632
18.9,2.39643,-1.96221,0.999999,-0.00165081
19,2.53856,-1.96221,1,4.60502e-06
19.1,2.68069,-1.96221,1,4.60518e-06
19.2,2.82282,-1.96221,1,4.60518e-06
19.3,2.96495,-1.96221,1,4.60518e-06
19.4,3.10709,-1.96221,1,4.60518e-06
19.5,3.24922,-1.96221,1,4.60518e-06
19.6,3.39135,-1.96221,1,4.60518e-06
19.7,3.53348,-1.96221,1,4.60518e-06
19.8,3.67561,-1.96221,1,4.60518e-06
19.9,3.81774,-1.9622,1,4.60519e-06
20,3.95988,-1.9622,1,4.60519e-06
20.1,4.10201,-1.9622,1,4.60519e-06
20.2,4.24414,-1.9622,1,4.60519e-06
20.3,4.38627,-1.9622,1,4.60519e-06
20.4,4.5284,-1.9622,1,4.60519e-06
20.5,4.67054,-1.9622,1,4.60519e-06
20.6,4.81267,-1.9622,1,4.60519e-06
20.7,4.9548,-1.9622,1,4.6052e-06
20.8,-4.90307,-1.9622,1,4.6052e-06
20.9,-4.76094,-1.9622,1,4.60428e-06
21,-4.61881,-1.9622,1,4.60428e-06
21.1,-4.47667,-1.9622,1,4.60428e-06
21.2,-4.33454,-1.9622,1,4.60428e-06
21.3,-4.19241,-1.9622,1,4.60428e-06
21.4,-4.05028,-1.9622,1,4.60428e-06
21.5,-3.90815,-1.96219,1,4.60428e-06
21.6,-3.76602,-1.96219,1,4.60428e-06
21.7,-3.62388,-1.96219,1,4.60429e-06
21.8,-3.48175,-1.96219,1,4.60429e-06
21.9,-3.33962,-1.96219,1,4.60429e-06
22,-3.19749,-1.96219,1,4.60429e-06
22.1,-3.05536,-1.96219,1,4.60429e-06
22.2,-2.91322,-1.96219,1,4.60429e-06
22.3,-2.77109,-1.96219,1,4.60429e-06
22.4,-2.62896,-1.96219,1,4.60429e-06
22.5,-2.48683,-1.96219,1,4.6043e-06
22.6,-2.3447,-1.96219,1,4.6043e-06
22.7,-2.20257,-1.96219,1,4.6043e-06
22.8,-2.06043,-1.96219,1,4.6043e-06
22.9,-1.9183,-1.96219,1,4.6043e-06
23,-1.77617,-1.96219,1,4.6043e-06
23.1,-1.63404,-1.96219,1,4.6043e-06
23.2,-1.49191,-1.96218,1,4.6043e-06
23.3,-1.34977,-1.96218,1,4.6043e-06
23.4,-1.20764,-1.96218,1,4.6043e-06
23.5,-1.06551,-1.96218,1,4.60431e-06
23.6,-0.923378,-1.96218,1,4.60431e-06
23.7,-0.781246,-1.96218,1,4.60431e-06
23.8,-0.639114,-1.96218,1,4.60431e-06
23.9,-0.496982,-1.96218,1,4.60431e-06
24,-0.35485,-1.96218,1,4.60431e-06
24.1,-0.212718,-1.96218,1,4.60431e-06
24.2,-0.0705864,-1.96218,1,4.60431e-06
24.3,0.0715455,-1.96218,1,4.60432e-06
24.4,0.213677,-1.96218,1,4.60432e-06
24.5,0.355809,-1.96218,1,4.60432e-06
24.6,0.497941,-1.96218,1,4.60432e-06
24.7,0.640073,-1.96218,1,4.60432e-06
24.8,0.782205,-1.96218,1,4.60432e-06
24.9,0.924337,-1.96217,1,4.60432e-06
25,1.06647,-1.96217,1,4.60432e-06
25.1,1.2086,-1.96217,1,4.60432e-06
25.2,1.35073,-1.96217,1,4.60433e-06
25.3,1.49286,-1.96217,1,4.60433e-06
25.4,1.635,-1.96217,1,4.60433e-06
25.5,1.77713,-1.96217,1,4.60433e-06
25.6,1.91926,-1.96217,1,4.60433e-06
25.7,2.06139,-1.96217,1,4.60433e-06
25.8,2.20352,-1.96217,1,4.60433e-06
25.9,2.34566,-1.96217,1,4.60433e-06
26,2.48779,-1.96217,1,4.60434e-06
26.1,2.62992,-1.96217,1,4.60434e-06
26.2,2.77205,-1.96217,1,4.60434e-06
26.3,2.91418,-1.96217,1,4.60434e-06
26.4,3.05631,-1.96217,1,4.60434e-06
26.5,3.19845,-1.96217,1,4.60434e-06
26.6,3.34058,-1.96216,1,4.60434e-06
26.7,3.48271,-1.96216,1,4.60434e-06
26.8,3.62484,-1.96216,1,4.60435e-06
26.9,3.76697,-1.96216,1,4.60435e-06
27,3.90911,-1.96216,1,4.60435e-06
27.1,4.05124,-1.96216,1,4.60435e-06
27.2,4.19337,-1.96216,1,4.60435e-06
27.3,4.3355,-1.96216,1,4.60435e-06
27.4,4.47763,-1.96216,1,4.60435e-06
27.5,4.61976,-1.96216,1,4.60435e-06
27.6,4.7619,-1.96216,1,4.60435e-06
27.7,4.90403,-1.96216,1,4.60436e-06
27.8,-4.95393,-1.96205,1,0.000522042
27.9,-4.81202,-1.96177,0.999999,0.00128792
28,-4.67023,-1.96135,0.999998,0.00199699
28.1,-4.52857,-1.96077,0.999996,0.00270329
28.2,-4.38702,-1.96005,0.999994,0.00340462
28.3,-4.2456,-1.95918,0.999992,0.00409257
28.4,-4.10428,-1.95817,0.999989,0.00476179
28.5,-3.96308,-1.95702,0.999985,0.00541452
28.6,-3.82199,-1.95574,0.999982,0.00605247
28.7,-3.68101,-1.95432,0.999978,0.00667671
28.8,-3.54014,-1.95278,0.999973,0.00728807
28.9,-3.39938,-1.95111,0.999969,0.00788704
29,-3.25873,-1.94931,0.999964,0.00847398
29.1,-3.11818,-1.9474,0.999959,0.00904933
29.2,-2.97773,-1.94536,0.999954,0.00961326
29.3,-2.83739,-1.94322,0.999948,0.010166
29.4,-2.69714,-1.94095,0.999943,0.010708
29.5,-2.557,-1.93858,0.999937,0.0112398
29.6,-2.41691,-1.93607,0.999929,0.0119022
29.7,-2.27684,-1.93339,0.99992,0.0126797
29.8,-2.13674,-1.93054,0.999909,0.0135097
29.9,-1.99659,-1.92751,0.999897,0.014349
30,-1.85636,-1.9243,0.999885,0.0151725
30.1,-1.71601,-1.92092,0.999873,0.0159644
30.2,-1.5755,-1.91739,0.99986,0.0167117
30.3,-1.4348,-1.9137,0.999849,0.0173968
30.4,-1.29384,-1.90989,0.999838,0.0179868
30.5,-1.15251,-1.90598,0.999831,0.0184002
30.6,-1.0108,-1.90209,0.999833,0.0182757
30.7,-0.869086,-1.8982,0.999833,0.0182757
30.8,-0.727372,-1.89435,0.999836,0.0181294
30.9,-0.58564,-1.89065,0.999849,0.0173609
31,-0.443897,-1.88704,0.999856,0.016947
31.1,-0.30215,-1.88348,0.99986,0.0167339
31.2,-0.160399,-1.87994,0.999862,0.0166239
31.3,-0.0186477,-1.87642,0.999863,0.0165672
31.4,0.123104,-1.87289,0.999863,0.0165671
31.5,0.264856,-1.86937,0.999863,0.0165671
31.6,0.406608,-1.86584,0.999863,0.0165671
31.7,0.548359,-1.86231,0.999863,0.0165671
31.8,0.690111,-1.85879,0.999863,0.016567
31.9,0.831863,-1.85526,0.999863,0.016567
32,0.973614,-1.85174,0.999863,0.016567
32.1,1.11537,-1.84821,0.999863,0.016567
32.2,1.25712,-1.84468,0.999863,0.0165669
32.3,1.39887,-1.84116,0.999863,0.0165669
32.4,1.54062,-1.83763,0.999863,0.0165669
32.5,1.68237,-1.83411,0.999863,0.0165668
32.6,1.82412,-1.83058,0.999863,0.0165668
32.7,1.96588,-1.82705,0.999863,0.0165668
32.8,2.10763,-1.82353,0.999863,0.0165667
32.9,2.24938,-1.82,0.999863,0.0165667
33,2.39113,-1.81647,0.999863,0.0165667
33.1,2.53288,-1.81295,0.999863,0.0165666
33.2,2.67464,-1.80942,0.999863,0.0165666
33.3,2.81639,-1.8059,0.999863,0.0165666
33.4,2.95814,-1.80237,0.999863,0.0165666
33.5,3.09989,-1.79884,0.999863,0.0165665
33.6,3.24164,-1.79532,0.999863,0.0165665
33.7,3.38339,-1.79179,0.999863,0.0165665
33.8,3.52515,-1.78827,0.999863,0.0165665
33.9,3.6669,-1.78474,0.999863,0.0165664
34,3.80865,-1.78121,0.999863,0.0165664
34.1,3.9504,-1.77769,0.999863,0.0165664
34.2,4.09215,-1.77416,0.999863,0.0165663
34.3,4.2339,-1.77064,0.999863,0.0165663
34.4,4.37566,-1.76711,0.999863,0.0165663
34.5,4.51741,-1.76358,0.999863,0.0165663
34.6,4.65916,-1.76006,0.999863,0.0165661
34.7,4.80091,-1.75653,0.999863,0.0165662
34.8,4.9429,-1.75375,0.999915,0.0130391
34.9,-4.915,-1.75149,0.999944,0.0106263
35,-4.7728,-1.75013,0.99998,0.00637753
35.1,-4.63067,-1.74948,0.999995,0.00304195
35.2,-4.48853,-1.7492,0.999999,0.00133632
35.3,-4.3464,-1.7491,1,0.00046437
35.4,-4.20427,-1.74909,1,1.8398e-05
35.5,-4.06214,-1.74909,1,3.40652e-07
35.6,-3.92001,-1.74909,1,3.40653e-07
35.7,-3.77788,-1.74909,1,3.40654e-07
35.8,-3.63574,-1.74909,1,3.40655e-07
35.9,-3.49361,-1.74909,1,3.40656e-07
36,-3.35148,-1.74909,1,3.40657e-07
36.1,-3.20935,-1.74909,1,3.40658e-07
36.2,-3.06722,-1.74909,1,3.40659e-07
36.3,-2.92508,-1.74909,1,3.4066e-07
36.4,-2.78295,-1.74909,1,3.40661e-07
36.5,-2.64082,-1.74909,1,3.40662e-07
36.6,-2.49869,-1.74909,1,3.40663e-07
36.7,-2.35656,-1.74909,1,3.40664e-07
36.8,-2.21443,-1.74909,1,3.40665e-07
36.9,-2.07229,-1.74909,1,3.40666e-07
37,-1.93016,-1.74909,1,3.40667e-07
37.1,-1.78803,-1.74909,1,3.40668e-07
37.2,-1.6459,-1.74909,1,3.40669e-07
37.3,-1.50377,-1.74909,1,3.4067e-07
37.4,-1.36163,-1.74909,1,3.40671e-07
37.5,-1.2195,-1.74909,1,3.40672e-07
37.6,-1.07737,-1.74909,1,3.40673e-07
37.7,-0.935238,-1.74909,1,3.40674e-07
37.8,-0.793106,-1.74909,1,3.40675e-07
37.9,-0.650975,-1.74909,1,3.40676e-07
38,-0.508843,-1.74909,1,3.40677e-07
38.1,-0.366711,-1.74909,1,3.40678e-07
38.2,-0.224579,-1.74909,1,3.40679e-07
38.3,-0.0824468,-1.74909,1,3.4068e-07
38.4,0.0596851,-1.74909,1,3.4068e-07
38.5,0.201817,-1.74909,1,3.40681e-07
38.6,0.343949,-1.74909,1,3.40682e-07
38.7,0.486081,-1.74909,1,3.40683e-07
38.8,0.628213,-1.74909,1,3.40684e-07
38.9,0.770292,-1.74909,1,3.3845e-05
39,0.912187,-1.74905,1,0.000158624
39.1,1.0539,-1.74899,1,0.000304685
39.2,1.19545,-1.74889,1,0.000470624
39.3,1.33682,-1.74875,1,0.000655836
39.4,1.47803,-1.74856,1,0.000860101
39.5,1.61909,-1.74833,0.999999,0.00108282
39.6,1.75999,-1.74805,0.999999,0.00132377
39.7,1.90074,-1.74772,0.999999,0.00158214
39.8,2.04135,-1.74733,0.999998,0.00185805
39.9,2.18182,-1.74687,0.999998,0.00215023
40,2.32216,-1.74635,0.999997,0.00245906
40.1,2.46237,-1.74576,0.999996,0.00278283
40.2,2.60246,-1.7451,0.999995,0.00312245
40.3,2.74243,-1.74437,0.999994,0.00347623
40.4,2.88229,-1.74356,0.999993,0.00384393
40.5,3.02205,-1.74267,0.999991,0.00422524
40.6,3.16171,-1.7417,0.999989,0.00461911
40.7,3.30128,-1.74064,0.999987,0.00502508
40.8,3.44076,-1.73949,0.999985,0.00544244
40.9,3.58015,-1.73826,0.999983,0.00587063
41,3.71947,-1.73693,0.99998,0.00630877
41.1,3.85872,-1.73551,0.999977,0.00675604
41.2,3.99791,-1.73399,0.999974,0.00721197
41.3,4.13704,-1.73238,0.999971,0.0076756
41.4,4.27611,-1.73067,0.999967,0.00814556
41.5,4.41514,-1.72885,0.999963,0.00862176
41.6,4.55406,-1.72707,0.999964,0.00851178
41.7,4.69283,-1.72534,0.999966,0.00820996
41.8,4.83147,-1.72369,0.999969,0.00791072
41.9,4.96998,-1.72209,0.999971,0.00761623
42,-4.89164,-1.72055,0.999973,0.00733705
42.1,-4.75338,-1.71907,0.999975,0.0070687
42.2,-4.61525,-1.71765,0.999977,0.00681034
42.3,-4.47723,-1.71628,0.999978,0.0065617
42.4,-4.33934,-1.71495,0.99998,0.0063225
42.5,-4.20156,-1.71368,0.999981,0.00609267
42.6,-4.06389,-1.71246,0.999983,0.00587194
42.7,-3.92632,-1.71128,0.999984,0.00566017
42.8,-3.78887,-1.71014,0.999985,0.00545722
42.9,-3.65152,-1.70904,0.999986,0.00526288
43,-3.51427,-1.70798,0.999987,0.00507709
43.1,-3.37711,-1.70696,0.999988,0.00489966
43.2,-3.24006,-1.70598,0.999989,0.00473048
43.3,-3.10309,-1.70503,0.99999,0.00456942
43.4,-2.96621,-1.70411,0.99999,0.00441638
43.5,-2.82942,-1.70322,0.999991,0.00427128
43.6,-2.69272,-1.70236,0.999991,0.00413395
43.7,-2.5561,-1.70153,0.999992,0.00400438
43.8,-2.41955,-1.70072,0.999992,0.0038825
43.9,-2.28308,-1.69994,0.999993,0.00376823
44,-2.14668,-1.69918,0.999993,0.00366156
44.1,-2.01035,-1.69844,0.999994,0.00356246
44.2,-1.87409,-1.69772,0.999994,0.00347096
44.3,-1.73789,-1.69702,0.999994,0.00338711
44.4,-1.60174,-1.69634,0.999994,0.00331095
44.5,-1.46565,-1.69566,0.999995,0.00324261
44.6,-1.32961,-1.695,0.999995,0.00318228
44.7,-1.19362,-1.69436,0.999995,0.00313015
44.8,-1.05766,-1.69372,0.999995,0.0030866
44.9,-0.921741,-1.69309,0.999995,0.003052
45,-0.785847,-1.69246,0.999995,0.00302697
45.1,-0.649972,-1.69184,0.999996,0.00301232
45.2,-0.514108,-1.69121,0.999996,0.00300915
45.3,-0.378246,-1.69059,0.999995,0.00301164
45.4,-0.242384,-1.68997,0.999995,0.00301101
45.5,-0.106521,-1.68934,0.999995,0.003011
45.6,0.0293417,-1.68872,0.999995,0.003011
45.7,0.165204,-1.6881,0.999995,0.00301099
45.8,0.301067,-1.68747,0.999995,0.00301099
45.9,0.43693,-1.68685,0.999995,0.00301099
46,0.572792,-1.68623,0.999995,0.00301099
46.1,0.708655,-1.68561,0.999995,0.00301099
46.2,0.844518,-1.68498,0.999995,0.00301099
46.3,0.98038,-1.68436,0.999995,0.00301099
46.4,1.11624,-1.68374,0.999995,0.00301099
46.5,1.25211,-1.68311,0.999995,0.00301099
46.6,1.38797,-1.68249,0.999995,0.00301099
46.7,1.52383,-1.68187,0.999995,0.00301099
46.8,1.65969,-1.68124,0.999995,0.00301098
46.9,1.79556,-1.68062,0.999995,0.00301098
47,1.93142,-1.68,0.999995,0.00301098
47.1,2.06728,-1.67937,0.999995,0.00301098
47.2,2.20314,-1.67875,0.999995,0.00301098
47.3,2.33901,-1.67813,0.999995,0.00301097
47.4,2.47487,-1.6775,0.999995,0.00301097
47.5,2.61073,-1.67688,0.999996,0.00301097
47.6,2.74659,-1.67626,0.999996,0.00301097
47.7,2.88246,-1.67564,0.999996,0.00301097
47.8,3.01832,-1.67501,0.999996,0.00301096
47.9,3.15418,-1.67439,0.999995,0.00301096
48,3.29005,-1.67377,0.999995,0.00301096
48.1,3.42591,-1.67314,0.999995,0.00301096
48.2,3.56177,-1.67252,0.999995,0.00301095
48.3,3.69763,-1.6719,0.999995,0.00301095
48.4,3.8335,-1.67127,0.999995,0.00301094
48.5,3.96936,-1.67065,0.999995,0.00301094
48.6,4.10522,-1.67003,0.999995,0.00301094
48.7,4.24108,-1.6694,0.999995,0.00301093
48.8,4.37695,-1.66878,0.999995,0.00301093
48.9,4.51281,-1.66816,0.999995,0.00301094
49,4.64867,-1.66753,0.999996,0.00301097
49.1,4.78453,-1.66691,0.999996,0.00301097
49.2,4.9204,-1.66629,0.999995,0.00301098
49.3,-4.94374,-1.66567,0.999995,0.00301101
49.4,-4.80788,-1.66504,0.999995,0.00301102
49.5,-4.67202,-1.66442,0.999995,0.00301103
49.6,-4.53615,-1.6638,0.999995,0.00301101
49.7,-4.40029,-1.66317,0.999995,0.00301104
49.8,-4.26443,-1.66255,0.999995,0.00301097
49.9,-4.12857,-1.66193,0.999995,0.00301106
50,-3.9927,-1.6613,0.999995,0.00301098
50.1,-3.85684,-1.66068,0.999995,0.00301119
50.2,-3.72093,-1.66003,0.999995,0.00314971
50.3,-3.58436,-1.65913,0.999991,0.00432066
50.4,-3.44745,-1.65821,0.99999,0.00441316
50.5,-3.30967,-1.657,0.999983,0.00581867
50.6,-3.17135,-1.65572,0.999981,0.00608238
50.7,-3.03175,-1.65406,0.999969,0.00791623
50.8,-2.89112,-1.65224,0.999963,0.00857459
50.9,-2.74968,-1.65034,0.99996,0.00894936
51,-2.60809,-1.64869,0.99997,0.00774211
51.1,-2.46639,-1.64724,0.999977,0.00682014
51.2,-2.32456,-1.64607,0.999985,0.0055122
51.3,-2.18265,-1.64511,0.99999,0.00451282
51.4,-2.04065,-1.64444,0.999995,0.00312046
51.5,-1.8986,-1.644,0.999998,0.00205852
51.6,-1.75648,-1.64387,1,0.000601044
51.7,-1.61435,-1.64387,1,-1.76458e-06
51.8,-1.47222,-1.64387,1,-1.76456e-06
51.9,-1.33009,-1.64387,1,-1.76456e-06
52,-1.18796,-1.64388,1,-1.76456e-06
52.1,-1.04582,-1.64388,1,-1.76456e-06
52.2,-0.903692,-1.64388,1,-1.76456e-06
52.3,-0.76156,-1.64388,1,-1.76456e-06
52.4,-0.619428,-1.64388,1,-1.76456e-06
52.5,-0.477296,-1.64388,1,-1.76456e-06
52.6,-0.335164,-1.64388,1,-1.76457e-06
52.7,-0.193033,-1.64388,1,-1.76457e-06
52.8,-0.0509006,-1.64388,1,-1.76457e-06
52.9,0.0912313,-1.64388,1,-1.76457e-06
53,0.233363,-1.64388,1,-1.76457e-06
53.1,0.375495,-1.64388,1,-1.76457e-06
53.2,0.517627,-1.64388,1,-1.76457e-06
53.3,0.659759,-1.64388,1,-1.76457e-06
53.4,0.801891,-1.64388,1,-1.76457e-06
53.5,0.944023,-1.64388,1,-1.76457e-06
53.6,1.08615,-1.64388,1,-1.76457e-06
53.7,1.22829,-1.64388,1,-1.76457e-06
53.8,1.37042,-1.64388,1,-1.76457e-06
53.9,1.51255,-1.64388,1,-1.76457e-06
54,1.65468,-1.64388,1,-1.76457e-06
54.1,1.79681,-1.64388,1,-1.76457e-06
54.2,1.93895,-1.64388,1,-1.76457e-06
54.3,2.08108,-1.64388,1,-1.76457e-06
54.4,2.22321,-1.64388,1,-1.76457e-06
54.5,2.36534,-1.64388,1,-1.76457e-06
54.6,2.50747,-1.64388,1,-1.76457e-06
54.7,2.64961,-1.64388,1,-1.76457e-06
54.8,2.79174,-1.64388,1,-1.76457e-06
54.9,2.93387,-1.64388,1,-1.76457e-06
55,3.076,-1.64388,1,-1.76457e-06
55.1,3.21813,-1.64388,1,-1.76457e-06
55.2,3.36026,-1.64388,1,-1.76457e-06
55.3,3.5024,-1.64388,1,-1.76457e-06
55.4,3.64453,-1.64388,1,-1.76457e-06
55.5,3.78666,-1.64388,1,-1.76457e-06
55.6,3.92879,-1.64388,1,-1.76457e-06
55.7,4.07092,-1.64388,1,-1.76457e-06
55.8,4.21306,-1.64388,1,-1.76457e-06
55.9,4.35519,-1.64388,1,-1.76457e-06
56,4.49732,-1.64388,1,-1.76457e-06
56.1,4.63945,-1.64388,1,-1.76457e-06
56.2,4.78158,-1.64389,1,-1.76457e-06
56.3,4.92371,-1.64389,1,-1.76457e-06
56.4,-4.93415,-1.64389,1,-1.76457e-06
56.5,-4.79202,-1.64389,1,-1.76422e-06
56.6,-4.64989,-1.64389,1,-1.76422e-06
56.7,-4.50776,-1.64389,1,-1.76422e-06
56.8,-4.36563,-1.64389,1,-1.76422e-06
56.9,-4.22349,-1.64389,1,-1.76422e-06
57,-4.08136,-1.64389,1,-1.76422e-06
57.1,-3.93923,-1.64389,1,-1.76422e-06
57.2,-3.7971,-1.64389,1,-1.76422e-06
57.3,-3.65497,-1.64389,1,-1.76422e-06
57.4,-3.51284,-1.64389,1,-1.76422e-06
57.5,-3.3707,-1.64389,1,-1.76422e-06
57.6,-3.22857,-1.64389,1,-1.76422e-06
57.7,-3.08644,-1.64389,1,-1.76422e-06
57.8,-2.94431,-1.64389,1,-1.76423e-06
57.9,-2.80218,-1.64389,1,-1.76423e-06
58,-2.66004,-1.64389,1,-1.76423e-06
58.1,-2.51791,-1.64389,1,-1.76423e-06
58.2,-2.37578,-1.64389,1,-1.76423e-06
58.3,-2.23365,-1.64389,1,-1.76423e-06
58.4,-2.09152,-1.64389,1,-1.76423e-06
58.5,-1.94939,-1.64389,1,-1.76423e-06
58.6,-1.80725,-1.64389,1,-1.76423e-06
58.7,-1.66512,-1.64389,1,-1.76423e-06
58.8,-1.52299,-1.64389,1,-1.76423e-06
58.9,-1.38086,-1.64389,1,-1.76423e-06
59,-1.23873,-1.64389,1,-1.76423e-06
59.1,-1.09659,-1.64389,1,-1.76423e-06
59.2,-0.954462,-1.64389,1,-1.76423e-06
59.3,-0.81233,-1.64389,1,-1.76423e-06
59.4,-0.670198,-1.64389,1,-1.76423e-06
59.5,-0.528066,-1.64389,1,-1.76423e-06
59.6,-0.385934,-1.64389,1,-1.76423e-06
59.7,-0.243802,-1.64389,1,-1.76423e-06
59.8,-0.101671,-1.64389,1,-1.76423e-06
59.9,0.0404614,-1.64389,1,-1.76423e-06
60,0.182593,-1.64389,1,-1.76423e-06
60.1,0.324725,-1.64389,1,-1.76423e-06
60.2,0.466857,-1.64389,1,-1.76423e-06
60.3,0.608989,-1.64389,1,-1.76423e-06
60.4,0.751121,-1.6439,1,-1.76423e-06
60.5,0.893253,-1.6439,1,-1.76423e-06
60.6,1.03538,-1.6439,1,-1.76423e-06
60.7,1.17752,-1.6439,1,-1.76423e-06
60.8,1.31965,-1.6439,1,-1.76423e-06
60.9,1.46178,-1.6439,1,-1.76423e-06
61,1.60391,-1.6439,1,-1.76423e-06
61.1,1.74604,-1.6439,1,-1.76423e-06
61.2,1.88815,-1.64385,1,0.000207833
61.3,2.03021,-1.64367,1,0.000837442
61.4,2.17224,-1.64338,0.999999,0.00139489
61.5,2.31426,-1.64298,0.999998,0.00186692
61.6,2.45629,-1.6425,0.999997,0.00224246
61.7,2.59834,-1.64196,0.999997,0.00251341
61.8,2.74043,-1.64139,0.999996,0.00267467
61.9,2.88254,-1.64081,0.999996,0.00272428
62,3.02466,-1.64023,0.999996,0.00272427
62.1,3.16678,-1.63965,0.999996,0.00272427
62.2,3.3089,-1.63907,0.999996,0.00272426
62.3,3.45101,-1.63849,0.999996,0.00272425
62.4,3.59313,-1.63791,0.999996,0.00272425
62.5,3.73525,-1.63733,0.999996,0.00272425
62.6,3.87737,-1.63675,0.999996,0.00272425
62.7,4.01948,-1.63617,0.999996,0.00272425
62.8,4.1616,-1.63559,0.999996,0.00272424
62.9,4.30372,-1.635,0.999996,0.00272424
63,4.44584,-1.63442,0.999996,0.00272423
63.1,4.58795,-1.63384,0.999996,0.00272423
63.2,4.73007,-1.63326,0.999996,0.00272423
63.3,4.87219,-1.63268,0.999996,0.00272423
63.4,-4.98569,-1.6321,0.999996,0.00272422
63.5,-4.84358,-1.63152,0.999996,0.00272422
63.6,-4.70146,-1.63094,0.999996,0.00272422
63.7,-4.55934,-1.63036,0.999996,0.00272422
63.8,-4.41722,-1.62978,0.999996,0.00272421
63.9,-4.27511,-1.6292,0.999996,0.0027242
64,-4.13299,-1.62861,0.999996,0.0027242
64.1,-3.99087,-1.62803,0.999996,0.0027242
64.2,-3.84875,-1.62745,0.999996,0.0027242
64.3,-3.70664,-1.62687,0.999996,0.0027242
64.4,-3.56452,-1.62629,0.999996,0.0027242
64.5,-3.4224,-1.62571,0.999996,0.00272419
64.6,-3.28028,-1.62513,0.999996,0.00272418
64.7,-3.13817,-1.62455,0.999996,0.00272418
64.8,-2.99605,-1.62397,0.999996,0.00272416
64.9,-2.85393,-1.62339,0.999996,0.00272416
65,-2.71181,-1.62281,0.999996,0.00272415
65.1,-2.5697,-1.62222,0.999996,0.00272415
65.2,-2.42758,-1.62164,0.999996,0.00272414
65.3,-2.28546,-1.62106,0.999996,0.00272414
65.4,-2.14334,-1.62048,0.999996,0.00272413
65.5,-2.00123,-1.6199,0.999996,0.00272414
65.6,-1.85911,-1.61932,0.999996,0.00272411
65.7,-1.71699,-1.61874,0.999996,0.00272412
65.8,-1.57487,-1.61816,0.999996,0.00272409
65.9,-1.43276,-1.61758,0.999996,0.00272408
66,-1.29064,-1.617,0.999996,0.0027241
66.1,-1.14852,-1.61642,0.999996,0.0027241
66.2,-1.0064,-1.61583,0.999996,0.00272411
66.3,-0.864287,-1.61525,0.999996,0.00272408
66.4,-0.72217,-1.61467,0.999996,0.0027241
66.5,-0.580052,-1.61409,0.999996,0.00272403
66.6,-0.437935,-1.61351,0.999996,0.00272397
66.7,-0.295817,-1.61293,0.999996,0.00272399
66.8,-0.1537,-1.61235,0.999996,0.00272351
66.9,-0.011568,-1.61235,1,-2.39532e-06
67,0.130564,-1.61235,1,-2.3954e-06
67.1,0.272696,-1.61235,1,-2.3954e-06
67.2,0.414828,-1.61235,1,-2.3954e-06
67.3,0.55696,-1.61235,1,-2.3954e-06
67.4,0.699092,-1.61235,1,-2.3954e-06
67.5,0.841224,-1.61235,1,-2.3954e-06
67.6,0.983355,-1.61235,1,-2.3954e-06
67.7,1.12549,-1.61235,1,-2.3954e-06
67.8,1.26762,-1.61235,1,-2.3954e-06
67.9,1.40975,-1.61235,1,-2.39539e-06
68,1.55188,-1.61235,1,-2.39539e-06
68.1,1.69402,-1.61235,1,-2.39539e-06
68.2,1.83615,-1.61235,1,-2.39539e-06
68.3,1.97828,-1.61235,1,-2.39539e-06
68.4,2.12041,-1.61235,1,-2.39539e-06
68.5,2.26254,-1.61236,1,-2.39539e-06
68.6,2.40467,-1.61236,1,-2.39539e-06
68.7,2.54681,-1.61236,1,-2.39539e-06
68.8,2.68894,-1.61236,1,-2.39539e-06
68.9,2.83107,-1.61236,1,-2.39539e-06
69,2.9732,-1.61236,1,-2.39539e-06
69.1,3.11533,-1.61236,1,-2.39539e-06
69.2,3.25747,-1.61236,1,-2.39539e-06
69.3,3.3996,-1.61236,1,-2.39539e-06
69.4,3.54173,-1.61236,1,-2.39539e-06
69.5,3.68386,-1.61236,1,-2.39539e-06
69.6,3.82599,-1.61236,1,-2.39539e-06
69.7,3.96812,-1.61236,1,-2.39539e-06
69.8,4.11026,-1.61236,1,-2.39539e-06
69.9,4.25239,-1.61236,1,-2.39539e-06
70,4.39452,-1.61236,1,-2.39539e-06
70.1,4.53665,-1.61236,1,-2.39539e-06
70.2,4.67878,-1.61236,1,-2.39539e-06
70.3,4.82092,-1.61236,1,-2.39539e-06
70.4,4.96305,-1.61236,1,-2.39539e-06
70.5,-4.89482,-1.61236,1,-2.39539e-06
70.6,-4.75269,-1.61236,1,-2.39491e-06
70.7,-4.61056,-1.61236,1,-2.39491e-06
70.8,-4.46843,-1.61236,1,-2.39491e-06
70.9,-4.32629,-1.61236,1,-2.3949e-06
71,-4.18416,-1.61236,1,-2.3949e-06
71.1,-4.04203,-1.61236,1,-2.3949e-06
71.2,-3.8999,-1.61236,1,-2.3949e-06
71.3,-3.75777,-1.61237,1,-2.3949e-06
71.4,-3.61563,-1.61237,1,-2.3949e-06
71.5,-3.4735,-1.61237,1,-2.3949e-06
71.6,-3.33137,-1.61237,1,-2.3949e-06
71.7,-3.18924,-1.61237,1,-2.3949e-06
71.8,-3.04711,-1.61237,1,-2.3949e-06
71.9,-2.90498,-1.61237,1,-2.3949e-06
72,-2.76284,-1.61237,1,-2.3949e-06
72.1,-2.62071,-1.61237,1,-2.3949e-06
72.2,-2.47858,-1.61237,1,-2.3949e-06
72.3,-2.33645,-1.61237,1,-2.3949e-06
72.4,-2.19432,-1.61237,1,-2.3949e-06
72.5,-2.05219,-1.61237,1,-2.3949e-06
72.6,-1.91005,-1.61237,1,-2.3949e-06
72.7,-1.76792,-1.61237,1,-2.3949e-06
72.8,-1.62579,-1.61237,1,-2.3949e-06
72.9,-1.48366,-1.61237,1,-2.3949e-06
73,-1.34153,-1.61237,1,-2.3949e-06
73.1,-1.19939,-1.61237,1,-2.3949e-06
73.2,-1.05726,-1.61237,1,-2.3949e-06
73.3,-0.91513,-1.61237,1,-2.3949e-06
73.4,-0.772998,-1.61237,1,-2.3949e-06
73.5,-0.630866,-1.61237,1,-2.3949e-06
73.6,-0.488734,-1.61237,1,-2.3949e-06
73.7,-0.346602,-1.61237,1,-2.3949e-06
73.8,-0.20447,-1.61237,1,-2.3949e-06
73.9,-0.0623381,-1.61237,1,-2.39489e-06
74,0.0797938,-1.61237,1,-2.39489e-06
74.1,0.221926,-1.61238,1,-2.39489e-06
74.2,0.364058,-1.61238,1,-2.39489e-06
74.3,0.50619,-1.61238,1,-2.39489e-06
74.4,0.648322,-1.61238,1,-2.39489e-06
74.5,0.790453,-1.61238,1,-2.39489e-06
74.6,0.932585,-1.61238,1,-2.39489e-06
74.7,1.07472,-1.61238,1,-2.39489e-06
74.8,1.21685,-1.61238,1,-2.39489e-06
74.9,1.35898,-1.61238,1,-2.39489e-06
75,1.50111,-1.61238,1,-2.39489e-06
75.1,1.64324,-1.61238,1,-2.39489e-06
75.2,1.78538,-1.61238,1,-2.39489e-06
75.3,1.92751,-1.61238,1,-2.39489e-06
75.4,2.06964,-1.61238,1,-2.39489e-06
75.5,2.21177,-1.61238,1,-2.39489e-06
75.6,2.3539,-1.61238,1,-2.39489e-06
75.7,2.49604,-1.61238,1,-2.39489e-06
75.8,2.63817,-1.61238,1,-2.39489e-06
75.9,2.7803,-1.61238,1,-2.39489e-06
76,2.92243,-1.61238,1,-2.39489e-06
76.1,3.06456,-1.61238,1,-2.39489e-06
76.2,3.2067,-1.61238,1,-2.39489e-06
76.3,3.34883,-1.61238,1,-2.39489e-06
76.4,3.49096,-1.61238,1,-2.39489e-06
76.5,3.63309,-1.61238,1,-2.39489e-06
76.6,3.77522,-1.61238,1,-2.39489e-06
76.7,3.91735,-1.61238,1,-2.39488e-06
76.8,4.05949,-1.61238,1,-2.39488e-06
76.9,4.20162,-1.61239,1,-2.39488e-06
77,4.34375,-1.61239,1,-2.39488e-06
77.1,4.48588,-1.61239,1,-2.39488e-06
77.2,4.62801,-1.61239,1,-2.39488e-06
77.3,4.77014,-1.61239,1,-2.39488e-06
77.4,4.91228,-1.61239,1,-2.39488e-06
77.5,-4.94559,-1.61239,1,-2.39488e-06
77.6,-4.80346,-1.61239,1,-2.3944e-06
77.7,-4.66133,-1.61239,1,-2.3944e-06
77.8,-4.5192,-1.61239,1,-2.3944e-06
77.9,-4.37706,-1.61239,1,-2.3944e-06
78,-4.23493,-1.61239,1,-2.3944e-06
78.1,-4.0928,-1.61239,1,-2.3944e-06
78.2,-3.95067,-1.61239,1,-2.3944e-06
78.3,-3.80854,-1.61239,1,-2.3944e-06
78.4,-3.66641,-1.61239,1,-2.3944e-06
78.5,-3.52427,-1.61239,1,-2.3944e-06
78.6,-3.38214,-1.61239,1,-2.3944e-06
78.7,-3.24001,-1.61239,1,-2.3944e-06
78.8,-3.09788,-1.61239,1,-2.3944e-06
78.9,-2.95575,-1.61239,1,-2.3944e-06
79,-2.81361,-1.61239,1,-2.3944e-06
79.1,-2.67148,-1.61239,1,-2.3944e-06
79.2,-2.52935,-1.61239,1,-2.3944e-06
79.3,-2.38722,-1.61239,1,-2.3944e-06
79.4,-2.24509,-1.61239,1,-2.3944e-06
79.5,-2.10296,-1.61239,1,-2.3944e-06
79.6,-1.96082,-1.61239,1,-2.3944e-06
79.7,-1.81869,-1.6124,1,-2.3944e-06
79.8,-1.67656,-1.6124,1,-2.3944e-06
79.9,-1.53443,-1.6124,1,-2.39439e-06
80,-1.3923,-1.6124,1,-2.39439e-06
