0.1,-12.0102,2.96677,0.99894,0.0460343
0.2,-2.01699,2.97843,0.973686,0.227892
0.3,-2.03287,2.99458,0.929729,0.368245
0.4,-2.04328,3.00047,0.991983,0.126368
0.5,-2.05255,3.01189,0.972174,0.23426
0.6,-2.05902,3.02342,0.97457,0.224084
0.7,-2.05582,3.04001,0.963684,0.267046
0.8,-2.04883,3.0524,0.981562,0.191142
0.9,-2.02362,3.07497,0.964028,0.265799
1,-1.97353,3.09335,0.985497,0.169694
1.1,-1.89813,3.10995,0.992191,0.124726
1.2,-1.80368,3.12005,0.997774,0.0666847
1.3,-1.69498,3.12201,0.99993,0.0118675
1.4,-1.58169,3.12201,1,-3.16978e-06
1.5,-1.4684,3.12201,1,-3.1697e-06
1.6,-1.35511,3.12201,1,-3.1697e-06
1.7,-1.24181,3.12201,1,-3.1697e-06
1.8,-1.12852,3.12201,1,-3.16969e-06
1.9,-1.01523,3.12201,1,-3.16969e-06
2,-0.901933,3.12201,1,-3.16969e-06
2.1,-0.788639,3.12201,1,-3.16969e-06
2.2,-0.675346,3.122,1,-3.16969e-06
2.3,-0.562053,3.122,1,-3.16968e-06
2.4,-0.44876,3.122,1,-3.16968e-06
2.5,-0.335467,3.122,1,-3.16968e-06
2.6,-0.222174,3.122,1,-3.16968e-06
2.7,-0.108881,3.122,1,-3.16967e-06
2.8,0.00441249,3.122,1,-3.16967e-06
2.9,0.117706,3.122,1,-3.16967e-06
3,0.230999,3.122,1,-3.16967e-06
3.1,0.344292,3.122,1,-3.16966e-06
3.2,0.457585,3.122,1,-3.16966e-06
3.3,0.570878,3.122,1,-3.16966e-06
3.4,0.684171,3.122,1,-3.16966e-06
3.5,0.797464,3.122,1,-3.16966e-06
3.6,0.910757,3.122,1,-3.16965e-06
3.7,1.02405,3.122,1,-3.16965e-06
3.8,1.13734,3.122,1,-3.16965e-06
3.9,1.25064,3.122,1,-3.16965e-06
4,1.36393,3.122,1,-3.16964e-06
4.1,1.47722,3.122,1,-3.16964e-06
4.2,1.59052,3.122,1,-3.16964e-06
4.3,1.70381,3.12199,1,-3.16964e-06
4.4,1.8171,3.12199,1,-3.16963e-06
4.5,1.9304,3.12199,1,-3.16963e-06
4.6,2.04369,3.12199,1,-3.16963e-06
4.7,2.15698,3.12199,1,-3.16963e-06
4.8,2.27028,3.12199,1,-3.16962e-06
4.9,2.38357,3.12199,1,-3.16962e-06
5,2.49686,3.12199,1,-3.16962e-06
5.1,2.61015,3.12199,1,-3.16962e-06
5.2,2.72345,3.12199,1,-3.16961e-06
5.3,2.83674,3.12199,1,-3.16961e-06
5.4,2.95003,3.12199,1,-3.16961e-06
5.5,3.06333,3.12199,1,-3.16961e-06
5.6,3.17662,3.12199,1,-3.16961e-06
5.7,3.28991,3.12199,1,-3.1696e-06
5.8,3.40321,3.12199,1,-3.1696e-06
5.9,3.5165,3.12199,1,-3.1696e-06
6,3.62979,3.12199,1,-3.1696e-06
6.1,3.74309,3.12199,1,-3.16959e-06
6.2,3.85638,3.12199,1,-3.16959e-06
6.3,3.96967,3.12199,1,-3.16959e-06
6.4,4.08297,3.12198,1,-3.16959e-06
6.5,4.19626,3.12198,1,-3.16958e-06
6.6,4.30955,3.12198,1,-3.16958e-06
6.7,4.42285,3.12198,1,-3.16958e-06
6.8,4.53614,3.12198,1,-3.16958e-06
6.9,4.64943,3.12198,1,-3.16957e-06
7,4.76272,3.12198,1,-3.16957e-06
7.1,4.87602,3.12198,1,-3.16957e-06
7.2,4.98931,3.12198,1,-3.16957e-06
7.3,-4.8974,3.12198,1,-3.16957e-06
7.4,-4.7841,3.12198,1,-3.16893e-06
7.5,-4.67081,3.12198,1,-3.16893e-06
7.6,-4.55752,3.12198,1,-3.16892e-06
7.7,-4.44422,3.12198,1,-3.16892e-06
7.8,-4.33093,3.12198,1,-3.16892e-06
7.9,-4.21764,3.12198,1,-3.16892e-06
8,-4.10434,3.12198,1,-3.16891e-06
8.1,-3.99105,3.12198,1,-3.16891e-06
8.2,-3.87776,3.12198,1,-3.16891e-06
8.3,-3.76446,3.12198,1,-3.16891e-06
8.4,-3.65117,3.12198,1,-3.16891e-06
8.5,-3.53788,3.12197,1,-3.1689e-06
8.6,-3.42458,3.12197,1,-3.1689e-06
8.7,-3.31129,3.12197,1,-3.1689e-06
8.8,-3.198,3.12197,1,-3.1689e-06
8.9,-3.0847,3.12197,1,-3.16889e-06
9,-2.97141,3.12197,1,-3.16889e-06
9.1,-2.85812,3.12197,1,-3.16889e-06
9.2,-2.74483,3.12197,1,-3.16889e-06
9.3,-2.63153,3.12197,1,-3.16888e-06
9.4,-2.51824,3.12197,1,-3.16888e-06
9.5,-2.40495,3.12197,1,-3.16888e-06
9.6,-2.29165,3.12197,1,-3.16888e-06
9.7,-2.17836,3.12197,1,-3.16887e-06
9.8,-2.06507,3.12197,1,-3.16887e-06
9.9,-1.95177,3.12197,1,-3.16887e-06
10,-1.83848,3.12197,1,-3.16887e-06
10.1,-1.72519,3.12197,1,-3.16887e-06
10.2,-1.61189,3.12197,1,-3.16886e-06
10.3,-1.4986,3.12197,1,-3.16886e-06
10.4,-1.38531,3.12197,1,-3.16886e-06
10.5,-1.27201,3.12197,1,-3.16886e-06
10.6,-1.15872,3.12196,1,-3.16885e-06
10.7,-1.04543,3.12196,1,-3.16885e-06
10.8,-0.932135,3.12196,1,-3.16885e-06
10.9,-0.818842,3.12196,1,-3.16885e-06
11,-0.705548,3.12196,1,-3.16884e-06
11.1,-0.592255,3.12196,1,-3.16884e-06
11.2,-0.478962,3.12196,1,-3.16884e-06
11.3,-0.365669,3.12196,1,-3.16884e-06
11.4,-0.252376,3.12196,1,-3.16883e-06
11.5,-0.139083,3.12196,1,-3.16883e-06
11.6,-0.0257897,3.12196,1,-3.16883e-06
11.7,0.0875035,3.12196,1,-3.16883e-06
11.8,0.200797,3.12196,1,-3.16883e-06
11.9,0.31409,3.12196,1,-3.16882e-06
12,0.427383,3.12196,1,-3.16882e-06
12.1,0.540676,3.12196,1,-3.16882e-06
12.2,0.653969,3.12196,1,-3.16882e-06
12.3,0.767262,3.12196,1,-3.16881e-06
12.4,0.880555,3.12196,1,-3.16881e-06
12.5,0.993848,3.12196,1,-3.16881e-06
12.6,1.10714,3.12196,1,-3.16881e-06
12.7,1.22043,3.12195,1,-3.1688e-06
12.8,1.33373,3.12195,1,-3.1688e-06
12.9,1.44702,3.12195,1,-3.1688e-06
13,1.56031,3.12195,1,-3.1688e-06
13.1,1.67361,3.12195,1,-3.16879e-06
13.2,1.7869,3.12195,1,-3.16879e-06
13.3,1.90019,3.12195,1,-3.16879e-06
13.4,2.01349,3.12195,1,-3.16879e-06
13.5,2.12678,3.12195,1,-3.16879e-06
13.6,2.24007,3.12195,1,-3.16878e-06
13.7,2.35337,3.12195,1,-3.16878e-06
13.8,2.46666,3.12195,1,-3.16878e-06
13.9,2.57995,3.12195,1,-3.16878e-06
14,2.69325,3.12195,1,-3.16877e-06
14.1,2.80654,3.12195,1,-3.16877e-06
14.2,2.91983,3.12195,1,-3.16877e-06
14.3,3.03313,3.12195,1,-3.16877e-06
14.4,3.14642,3.12195,1,-3.16876e-06
14.5,3.25971,3.12195,1,-3.16876e-06
14.6,3.373,3.12195,1,-3.16876e-06
14.7,3.4863,3.12195,1,-3.16876e-06
14.8,3.59959,3.12194,1,-3.16875e-06
14.9,3.71288,3.12194,1,-3.16875e-06
15,3.82618,3.12194,1,-3.16875e-06
15.1,3.93947,3.12194,1,-3.16875e-06
15.2,4.05276,3.12194,1,-3.16875e-06
15.3,4.16606,3.12194,1,-3.16874e-06
15.4,4.27935,3.12194,1,-3.16874e-06
15.5,4.39264,3.12194,1,-3.16874e-06
15.6,4.50594,3.12194,1,-3.16874e-06
15.7,4.61923,3.12194,1,-3.16873e-06
15.8,4.73252,3.12194,1,-3.16873e-06
15.9,4.84582,3.12194,1,-3.16873e-06
16,4.95911,3.12194,1,-3.16873e-06
16.1,-4.9276,3.12194,1,-3.16872e-06
16.2,-4.8143,3.12194,1,-3.16809e-06
16.3,-4.70101,3.12194,1,-3.16809e-06
16.4,-4.58772,3.12194,1,-3.16808e-06
16.5,-4.47442,3.12194,1,-3.16808e-06
16.6,-4.36113,3.12194,1,-3.16808e-06
16.7,-4.24784,3.12194,1,-3.16808e-06
16.8,-4.13455,3.12194,1,-3.16807e-06
16.9,-4.02125,3.12193,1,-3.16807e-06
17,-3.90796,3.12193,1,-3.16807e-06
17.1,-3.79467,3.12193,1,-3.16807e-06
17.2,-3.68137,3.12193,1,-3.16806e-06
17.3,-3.56808,3.12193,1,-3.16806e-06
17.4,-3.45479,3.12193,1,-3.16806e-06
17.5,-3.34149,3.12193,1,-3.16806e-06
17.6,-3.2282,3.12193,1,-3.16805e-06
17.7,-3.11491,3.12193,1,-3.16805e-06
17.8,-3.00161,3.12193,1,-3.16805e-06
17.9,-2.88832,3.12193,1,-3.16805e-06
18,-2.77503,3.12193,1,-3.16805e-06
18.1,-2.66173,3.12193,1,-3.16804e-06
18.2,-2.54844,3.12193,1,-3.16804e-06
18.3,-2.43515,3.12193,1,-3.16804e-06
18.4,-2.32185,3.12193,1,-3.16804e-06
18.5,-2.20856,3.12193,1,-3.16803e-06
18.6,-2.09527,3.12193,1,-3.16803e-06
18.7,-1.98198,3.12193,1,-3.16803e-06
18.8,-1.86868,3.12193,1,-3.16803e-06
18.9,-1.75539,3.12193,1,-3.16802e-06
19,-1.6421,3.12192,1,-3.16802e-06
19.1,-1.5288,3.12192,1,-3.16802e-06
19.2,-1.41551,3.12192,1,-3.16802e-06
19.3,-1.30222,3.12192,1,-3.16801e-06
19.4,-1.18892,3.12192,1,-3.16801e-06
19.5,-1.07563,3.12192,1,-3.16801e-06
19.6,-0.962337,3.12192,1,-3.16801e-06
19.7,-0.849043,3.12192,1,-3.168e-06
19.8,-0.73575,3.12192,1,-3.168e-06
19.9,-0.622457,3.12192,1,-3.168e-06
20,-0.509164,3.12192,1,-3.168e-06
20.1,-0.395871,3.12192,1,-3.168e-06
20.2,-0.282578,3.12192,1,-3.16799e-06
20.3,-0.169285,3.12192,1,-3.16799e-06
20.4,-0.0559916,3.12192,1,-3.16799e-06
20.5,0.0573015,3.12192,1,-3.16799e-06
20.6,0.170595,3.12192,1,-3.16798e-06
20.7,0.283888,3.12192,1,-3.16798e-06
20.8,0.397181,3.12192,1,-3.16798e-06
20.9,0.510474,3.12192,1,-3.16798e-06
21,0.623767,3.12192,1,-3.16797e-06
21.1,0.73706,3.12191,1,-3.16797e-06
21.2,0.850353,3.12191,1,-3.16797e-06
21.3,0.963647,3.12191,1,-3.16797e-06
21.4,1.07694,3.12191,1,-3.16796e-06
21.5,1.19023,3.12191,1,-3.16796e-06
21.6,1.30353,3.12191,1,-3.16796e-06
21.7,1.41682,3.12191,1,-3.16796e-06
21.8,1.53011,3.12191,1,-3.16796e-06
21.9,1.64341,3.12191,1,-3.16795e-06
22,1.7567,3.12191,1,-3.16795e-06
22.1,1.86999,3.12191,1,-3.16795e-06
22.2,1.98329,3.12191,1,-3.16795e-06
22.3,2.09658,3.12191,1,-3.16794e-06
22.4,2.20987,3.12191,1,-3.16794e-06
22.5,2.32316,3.12191,1,-3.16794e-06
22.6,2.43646,3.12191,1,-3.16794e-06
22.7,2.54975,3.12191,1,-3.16793e-06
22.8,2.66304,3.12191,1,-3.16793e-06
22.9,2.77634,3.12191,1,-3.16793e-06
23,2.88963,3.12191,1,-3.16793e-06
23.1,3.00292,3.12191,1,-3.16792e-06
23.2,3.11622,3.1219,1,-3.16792e-06
23.3,3.22951,3.1219,1,-3.16792e-06
23.4,3.3428,3.1219,1,-3.16792e-06
23.5,3.4561,3.1219,1,-3.16792e-06
23.6,3.56939,3.1219,1,-3.16791e-06
23.7,3.68268,3.1219,1,-3.16791e-06
23.8,3.79598,3.1219,1,-3.16791e-06
23.9,3.90927,3.1219,1,-3.16791e-06
24,4.02256,3.1219,1,-3.1679e-06
24.1,4.13586,3.1219,1,-3.1679e-06
24.2,4.24915,3.1219,1,-3.1679e-06
24.3,4.36244,3.1219,1,-3.1679e-06
24.4,4.47573,3.1219,1,-3.16789e-06
24.5,4.58903,3.1219,1,-3.16789e-06
24.6,4.70232,3.1219,1,-3.16789e-06
24.7,4.81561,3.1219,1,-3.16789e-06
24.8,4.92891,3.1219,1,-3.16788e-06
24.9,-4.9578,3.1219,1,-3.16788e-06
25,-4.84451,3.1219,1,-3.16725e-06
25.1,-4.73121,3.1219,1,-3.16724e-06
25.2,-4.61792,3.1219,1,-3.16724e-06
25.3,-4.50463,3.12189,1,-3.16724e-06
25.4,-4.39133,3.12189,1,-3.16724e-06
25.5,-4.27804,3.12189,1,-3.16723e-06
25.6,-4.16475,3.12189,1,-3.16723e-06
25.7,-4.05145,3.12189,1,-3.16723e-06
25.8,-3.93816,3.12189,1,-3.16723e-06
25.9,-3.82487,3.12189,1,-3.16723e-06
26,-3.71157,3.12189,1,-3.16722e-06
26.1,-3.59828,3.12189,1,-3.16722e-06
26.2,-3.48499,3.12189,1,-3.16722e-06
26.3,-3.3717,3.12189,1,-3.16722e-06
26.4,-3.2584,3.12189,1,-3.16721e-06
26.5,-3.14511,3.12189,1,-3.16721e-06
26.6,-3.03182,3.12189,1,-3.16721e-06
26.7,-2.91852,3.12189,1,-3.16721e-06
26.8,-2.80523,3.12189,1,-3.1672e-06
26.9,-2.69194,3.12189,1,-3.1672e-06
27,-2.57864,3.12189,1,-3.1672e-06
27.1,-2.46535,3.12189,1,-3.1672e-06
27.2,-2.35206,3.12189,1,-3.16719e-06
27.3,-2.23876,3.12189,1,-3.16719e-06
27.4,-2.12547,3.12188,1,-3.16719e-06
27.5,-2.01218,3.12188,1,-3.16719e-06
27.6,-1.89888,3.12188,1,-3.16719e-06
27.7,-1.78559,3.12188,1,-3.16718e-06
27.8,-1.6723,3.12188,1,-3.16718e-06
27.9,-1.559,3.12188,1,-3.16718e-06
28,-1.44571,3.12188,1,-3.16718e-06
28.1,-1.33242,3.12188,1,-3.16717e-06
28.2,-1.21912,3.12188,1,-3.16717e-06
28.3,-1.10583,3.12188,1,-3.16717e-06
28.4,-0.992539,3.12188,1,-3.16717e-06
28.5,-0.879245,3.12188,1,-3.16716e-06
28.6,-0.765952,3.12188,1,-3.16716e-06
28.7,-0.652659,3.12188,1,-3.16716e-06
28.8,-0.539366,3.12188,1,-3.16716e-06
28.9,-0.426073,3.12188,1,-3.16715e-06
29,-0.31278,3.12188,1,-3.16715e-06
29.1,-0.199487,3.12188,1,-3.16715e-06
29.2,-0.0861935,3.12188,1,-3.16715e-06
29.3,0.0270996,3.12188,1,-3.16714e-06
29.4,0.140393,3.12188,1,-3.16714e-06
29.5,0.253686,3.12187,1,-3.16714e-06
29.6,0.366979,3.12187,1,-3.16714e-06
29.7,0.480272,3.12187,1,-3.16714e-06
29.8,0.593565,3.12187,1,-3.16713e-06
29.9,0.706858,3.12187,1,-3.16713e-06
30,0.820152,3.12187,1,-3.16713e-06
30.1,0.933445,3.12187,1,-3.16713e-06
30.2,1.04674,3.12187,1,-3.16712e-06
30.3,1.16003,3.12187,1,-3.16712e-06
30.4,1.27332,3.12187,1,-3.16712e-06
30.5,1.38662,3.12187,1,-3.16712e-06
30.6,1.49991,3.12187,1,-3.16711e-06
30.7,1.6132,3.12187,1,-3.16711e-06
30.8,1.7265,3.12187,1,-3.16711e-06
30.9,1.83979,3.12187,1,-3.16711e-06
31,1.95308,3.12187,1,-3.1671e-06
31.1,2.06638,3.12187,1,-3.1671e-06
31.2,2.17967,3.12187,1,-3.1671e-06
31.3,2.29296,3.12187,1,-3.1671e-06
31.4,2.40626,3.12187,1,-3.16709e-06
31.5,2.51955,3.12187,1,-3.16709e-06
31.6,2.63284,3.12186,1,-3.16709e-06
31.7,2.74614,3.12186,1,-3.16709e-06
31.8,2.85943,3.12186,1,-3.16709e-06
31.9,2.97272,3.12186,1,-3.16708e-06
32,3.08601,3.12186,1,-3.16708e-06
32.1,3.19932,3.12186,1,3.29494e-07
32.2,3.31268,3.12187,1,3.12333e-05
32.3,3.42611,3.12188,1,7.24732e-05
32.4,3.53961,3.1219,1,0.000118682
32.5,3.65317,3.12193,1,0.0001684
32.6,3.7668,3.12197,1,0.000220413
32.7,3.88049,3.12201,1,0.000273511
32.8,3.99424,3.12207,1,0.000328751
32.9,4.10805,3.12214,1,0.000386469
33,4.22192,3.12221,1,0.00044658
33.1,4.33585,3.1223,1,0.000509069
33.2,4.44983,3.1224,1,0.000573881
33.3,4.56387,3.12251,1,0.000640977
33.4,4.67796,3.12263,1,0.000710321
33.5,4.7921,3.12276,1,0.000781866
33.6,4.90629,3.12291,1,0.000855566
33.7,-4.97947,3.12307,1,0.000931385
33.8,-4.86518,3.12324,0.999999,0.00100928
33.9,-4.75084,3.12343,0.999999,0.00108921
34,-4.63646,3.12363,0.999999,0.00117115
34.1,-4.52203,3.12384,0.999999,0.00125505
34.2,-4.40757,3.12407,0.999999,0.00134086
34.3,-4.29305,3.12432,0.999999,0.00142853
34.4,-4.1785,3.12458,0.999999,0.00151805
34.5,-4.06391,3.12485,0.999999,0.00160937
34.6,-3.94928,3.12514,0.999999,0.00170244
34.7,-3.83461,3.12545,0.999998,0.00179723
34.8,-3.71991,3.12578,0.999998,0.00189368
34.9,-3.60517,3.12612,0.999998,0.00199177
35,-3.49039,3.12648,0.999998,0.00209145
35.1,-3.37559,3.12685,0.999998,0.00219268
35.2,-3.26075,3.12725,0.999997,0.00229542
35.3,-3.14588,3.12766,0.999997,0.00239962
35.4,-3.03098,3.12809,0.999997,0.00250525
35.5,-2.91604,3.12851,0.999997,0.00243568
35.6,-2.80107,3.12891,0.999997,0.00233957
35.7,-2.68606,3.1293,0.999997,0.00229425
35.8,-2.57102,3.1297,0.999997,0.00230232
35.9,-2.45595,3.1301,0.999997,0.00232448
36,-2.34085,3.1305,0.999997,0.00234611
36.1,-2.22572,3.13091,0.999997,0.0023672
36.2,-2.11056,3.13132,0.999997,0.00238778
36.3,-1.99538,3.13173,0.999997,0.00240785
36.4,-1.88017,3.13215,0.999997,0.00242741
36.5,-1.76494,3.13257,0.999997,0.00244647
36.6,-1.64968,3.133,0.999997,0.00246505
36.7,-1.53439,3.13342,0.999997,0.00248318
36.8,-1.41908,3.13385,0.999997,0.00250083
36.9,-1.30375,3.13429,0.999997,0.00251803
37,-1.18839,3.13472,0.999997,0.00253479
37.1,-1.07302,3.13516,0.999997,0.00255113
37.2,-0.957616,3.1356,0.999997,0.00256701
37.3,-0.842196,3.13605,0.999997,0.0025825
37.4,-0.72676,3.13649,0.999997,0.00259433
37.5,-0.611313,3.13694,0.999997,0.00260211
37.6,-0.495845,3.13739,0.999997,0.00261786
37.7,-0.380356,3.13785,0.999997,0.00263357
37.8,-0.264846,3.1383,0.999996,0.00264895
37.9,-0.149315,3.13876,0.999996,0.00266397
38,-0.033764,3.13922,0.999996,0.00267869
38.1,0.0818063,3.13969,0.999996,0.00269308
38.2,0.197396,3.14015,0.999996,0.00270716
38.3,0.313004,3.14062,0.999996,0.00272089
38.4,0.428631,3.14109,0.999996,0.00273434
38.5,0.544275,3.14157,0.999996,0.00274749
38.6,0.659936,3.14204,0.999996,0.00276005
38.7,0.775614,3.14252,0.999996,0.00277182
38.8,0.891308,3.143,0.999996,0.00278373
38.9,1.00702,3.14348,0.999996,0.00279557
39,1.12275,3.14394,0.999996,0.00263071
39.1,1.2385,3.14435,0.999997,0.00242199
39.2,1.35428,3.14474,0.999997,0.00222182
39.3,1.47007,3.14509,0.999998,0.00203801
39.4,1.58589,3.14541,0.999998,0.00187015
39.5,1.70172,3.14571,0.999999,0.00171678
39.6,1.81757,3.14598,0.999999,0.00157659
39.7,1.93343,3.14623,0.999999,0.00144856
39.8,2.04932,3.14646,0.999999,0.00133197
39.9,2.16521,3.14667,0.999999,0.00122621
40,2.28112,3.14687,0.999999,0.00113087
40.1,2.39705,3.14705,0.999999,0.00104566
40.2,2.51299,3.14722,1,0.000970368
40.3,2.62894,3.14737,1,0.000904866
40.4,2.74491,3.14752,1,0.000849064
40.5,2.86089,3.14766,1,0.000802767
40.6,2.97688,3.14779,1,0.000759576
40.7,3.09288,3.14791,1,0.000716426
40.8,3.20889,3.14803,1,0.000672675
40.9,3.32492,3.14814,1,0.000628169
41,3.44095,3.14824,1,0.000582876
41.1,3.557,3.14833,1,0.000536812
41.2,3.67306,3.14842,1,0.000489972
41.3,3.78912,3.14849,1,0.000442371
41.4,3.9052,3.14856,1,0.000394006
41.5,4.02129,3.14862,1,0.000344885
41.6,4.13738,3.14867,1,0.000295028
41.7,4.25349,3.14872,1,0.000244445
41.8,4.3696,3.14875,1,0.000193122
41.9,4.48572,3.14877,1,0.000141084
42,4.60185,3.14879,1,8.83298e-05
42.1,4.71799,3.1488,1,3.48647e-05
42.2,4.83414,3.14879,1,-1.93028e-05
42.3,4.95029,3.14878,1,-7.41629e-05
42.4,-4.93355,3.14876,1,-0.000129708
42.5,-4.81738,3.14873,1,-0.000185939
42.6,-4.7012,3.14868,1,-0.000242832
42.7,-4.58502,3.14863,1,-0.000300409
42.8,-4.46883,3.14857,1,-0.000358636
42.9,-4.35263,3.1485,1,-0.000417523
43,-4.23643,3.14842,1,-0.000477065
43.1,-4.12022,3.14832,1,-0.000537245
43.2,-4.00401,3.14821,1,-0.00063644
43.3,-3.8878,3.14808,1,-0.000794077
43.4,-3.77158,3.1479,0.999999,-0.00100227
43.5,-3.65535,3.14769,0.999999,-0.00124357
43.6,-3.53913,3.14743,0.999999,-0.00150585
43.7,-3.42291,3.14712,0.999998,-0.00178259
43.8,-3.30669,3.14676,0.999998,-0.00207126
43.9,-3.19048,3.14635,0.999997,-0.00237256
44,-3.07427,3.14589,0.999996,-0.00269143
44.1,-2.95808,3.14536,0.999995,-0.00304456
44.2,-2.8419,3.14476,0.999994,-0.00347611
44.3,-2.7257,3.14424,0.999995,-0.00300471
44.4,-2.6095,3.1438,0.999997,-0.00254051
44.5,-2.49328,3.14343,0.999998,-0.00218811
44.6,-2.37706,3.14311,0.999998,-0.00181897
44.7,-2.26083,3.14286,0.999999,-0.00146958
44.8,-2.14459,3.14267,0.999999,-0.00108202
44.9,-2.02835,3.14255,1,-0.000708161
45,-1.91211,3.1425,1,-0.000295525
45.1,-1.79586,3.14252,1,0.000103431
45.2,-1.67962,3.14263,1,0.000678545
45.3,-1.56337,3.1428,0.999999,0.000984439
45.4,-1.44713,3.143,0.999999,0.00115535
45.5,-1.33088,3.14322,0.999999,0.00125869
45.6,-1.21463,3.14345,0.999999,0.00132838
45.7,-1.09837,3.14369,0.999999,0.00138148
45.8,-0.982117,3.14394,0.999999,0.00142663
45.9,-0.865857,3.14419,0.999999,0.00146817
46,-0.749595,3.14445,0.999999,0.00150832
46.1,-0.633331,3.14472,0.999999,0.0015482
46.2,-0.517063,3.145,0.999999,0.00158841
46.3,-0.400794,3.14528,0.999999,0.00162923
46.4,-0.284522,3.14557,0.999999,0.00167084
46.5,-0.168248,3.14586,0.999998,0.00171332
46.6,-0.0519713,3.14617,0.999998,0.00175674
46.7,0.0643071,3.14648,0.999998,0.00180113
46.8,0.180587,3.1468,0.999998,0.00184652
46.9,0.296869,3.14713,0.999998,0.00189295
47,0.413153,3.14746,0.999998,0.00194043
47.1,0.529438,3.14781,0.999998,0.00198898
47.2,0.645725,3.14816,0.999998,0.00203865
47.3,0.762013,3.14852,0.999998,0.00208945
47.4,0.878302,3.14889,0.999998,0.00214139
47.5,0.994592,3.14927,0.999998,0.00219451
47.6,1.11088,3.14966,0.999997,0.00224882
47.7,1.22718,3.15006,0.999997,0.00230435
47.8,1.34347,3.15047,0.999997,0.00236111
47.9,1.45976,3.15089,0.999997,0.00241916
48,1.57606,3.15131,0.999997,0.00247849
48.1,1.69235,3.15175,0.999997,0.00253915
48.2,1.80864,3.1522,0.999997,0.00260114
48.3,1.92494,3.15266,0.999996,0.0026645
48.4,2.04123,3.15314,0.999996,0.00272926
48.5,2.15752,3.15362,0.999996,0.00279544
48.6,2.27382,3.15412,0.999996,0.00286307
48.7,2.39011,3.15462,0.999996,0.00293216
48.8,2.5064,3.15514,0.999995,0.00300273
48.9,2.62269,3.15567,0.999995,0.00307484
49,2.73898,3.15622,0.999995,0.00314849
49.1,2.85527,3.15678,0.999995,0.0032237
49.2,2.97156,3.15735,0.999995,0.00330052
49.3,3.08784,3.15793,0.999994,0.00337894
49.4,3.20412,3.15853,0.999994,0.00345902
49.5,3.3204,3.15914,0.999994,0.00354077
49.6,3.43668,3.15977,0.999994,0.00362422
49.7,3.55296,3.16041,0.999993,0.00370939
49.8,3.66923,3.16107,0.999993,0.0037963
49.9,3.7855,3.16174,0.999992,0.00388494
50,3.90177,3.16243,0.999992,0.00397539
50.1,4.01803,3.16313,0.999992,0.00406764
50.2,4.13429,3.16385,0.999991,0.00416172
50.3,4.25054,3.16459,0.999991,0.00425763
50.4,4.3668,3.16533,0.999991,0.00431135
50.5,4.48305,3.16608,0.999991,0.00431134
50.6,4.5993,3.16683,0.999991,0.00431132
50.7,4.71556,3.16757,0.999991,0.0043113
50.8,4.83181,3.16832,0.999991,0.00431134
50.9,4.94806,3.16906,0.999991,0.00431133
51,-4.93569,3.16981,0.999991,0.00431131
51.1,-4.81943,3.17055,0.999991,0.00431129
51.2,-4.70318,3.1713,0.999991,0.00431128
51.3,-4.58693,3.17205,0.999991,0.00431126
51.4,-4.47067,3.17279,0.999991,0.00431124
51.5,-4.35442,3.17354,0.999991,0.00431121
51.6,-4.23817,3.17428,0.999991,0.00431117
51.7,-4.12191,3.17503,0.999991,0.00431114
51.8,-4.00566,3.17577,0.999991,0.00431112
51.9,-3.88941,3.17652,0.999991,0.00431107
52,-3.77316,3.17727,0.999991,0.00431103
52.1,-3.6569,3.17801,0.999991,0.004311
52.2,-3.54065,3.17876,0.999991,0.00431097
52.3,-3.4244,3.1795,0.999991,0.00431092
52.4,-3.30814,3.18025,0.999991,0.00431087
52.5,-3.19189,3.18099,0.999991,0.00431082
52.6,-3.07564,3.18174,0.999991,0.00431078
52.7,-2.95939,3.18248,0.999991,0.00431082
52.8,-2.84313,3.18323,0.999991,0.00431086
52.9,-2.72688,3.18397,0.999991,0.00431081
53,-2.61063,3.18472,0.999991,0.00431076
53.1,-2.49437,3.18547,0.999991,0.0043108
53.2,-2.37812,3.18621,0.999991,0.00431085
53.3,-2.26187,3.18696,0.999991,0.0043108
53.4,-2.14562,3.1877,0.999991,0.00431075
53.5,-2.02936,3.18845,0.999991,0.00431067
53.6,-1.91311,3.18919,0.999991,0.00431075
53.7,-1.79686,3.18994,0.999991,0.00431083
53.8,-1.6806,3.19068,0.999991,0.00431077
53.9,-1.56435,3.19143,0.999991,0.00431069
54,-1.4481,3.19218,0.999991,0.00431061
54.1,-1.33185,3.19292,0.999991,0.0043107
54.2,-1.21559,3.19367,0.999991,0.00431069
54.3,-1.09934,3.19441,0.999991,0.00431074
54.4,-0.983087,3.19516,0.999991,0.00431076
54.5,-0.866834,3.1959,0.999991,0.00431073
54.6,-0.750581,3.19665,0.999991,0.00431067
54.7,-0.634328,3.19739,0.999991,0.00431065
54.8,-0.518075,3.19814,0.999991,0.0043106
54.9,-0.401822,3.19889,0.999991,0.0043105
55,-0.28557,3.19963,0.999991,0.00431036
55.1,-0.169317,3.20038,0.999991,0.00431075
55.2,-0.0530637,3.20112,0.999991,0.00431004
55.3,0.0631845,3.20188,0.99999,0.00435768
55.4,0.179429,3.20264,0.99999,0.00439853
55.5,0.295668,3.20341,0.99999,0.00444942
55.6,0.411903,3.20418,0.99999,0.00448938
55.7,0.528133,3.20497,0.99999,0.00453998
55.8,0.644358,3.20576,0.999989,0.00458052
55.9,0.760578,3.20656,0.999989,0.0046334
56,0.876794,3.20737,0.999989,0.00467494
56.1,0.993003,3.20819,0.999989,0.00472768
56.2,1.10921,3.20901,0.999989,0.00476768
56.3,1.22541,3.20985,0.999988,0.0048256
56.4,1.3416,3.21069,0.999988,0.00486318
56.5,1.45779,3.21154,0.999988,0.00492029
56.6,1.57397,3.2124,0.999988,0.00496177
56.7,1.69015,3.21326,0.999987,0.00501718
56.8,1.80632,3.21414,0.999987,0.00506097
56.9,1.92249,3.21502,0.999987,0.00511492
57,2.03864,3.21591,0.999987,0.00516242
57.1,2.1548,3.21682,0.999986,0.00521416
57.2,2.27094,3.21773,0.999986,0.00526332
57.3,2.38708,3.21864,0.999986,0.00531555
57.4,2.50321,3.21957,0.999986,0.00536729
57.5,2.61934,3.22051,0.999985,0.00541488
57.6,2.73546,3.22145,0.999985,0.00547082
57.7,2.85157,3.22241,0.999985,0.00551978
57.8,2.96768,3.22337,0.999985,0.00557284
57.9,3.08377,3.22434,0.999984,0.00562484
58,3.19986,3.22532,0.999984,0.00567641
58.1,3.31595,3.22631,0.999984,0.00572948
58.2,3.43202,3.22731,0.999983,0.00578449
58.3,3.54809,3.22832,0.999983,0.00583531
58.4,3.66414,3.22934,0.999983,0.00589091
58.5,3.78019,3.23037,0.999982,0.00594157
58.6,3.89623,3.2314,0.999982,0.00599613
58.7,4.01227,3.23245,0.999982,0.00604996
58.8,4.12829,3.2335,0.999981,0.00610579
58.9,4.24431,3.23456,0.999981,0.00615807
59,4.36031,3.23564,0.999981,0.00620982
59.1,4.47631,3.23672,0.99998,0.00626743
59.2,4.5923,3.23781,0.99998,0.00632186
59.3,4.70828,3.23891,0.99998,0.00637355
59.4,4.82424,3.24002,0.999979,0.00643416
59.5,4.9402,3.24114,0.999979,0.00648185
59.6,-4.94385,3.24227,0.999979,0.00654503
59.7,-4.82791,3.24341,0.999978,0.00658806
59.8,-4.71199,3.24456,0.999978,0.00665508
59.9,-4.59607,3.24571,0.999978,0.00669947
60,-4.48017,3.24688,0.999977,0.00676169
60.1,-4.36427,3.24806,0.999977,0.00681029
60.2,-4.24839,3.24924,0.999976,0.00687277
60.3,-4.13252,3.25044,0.999976,0.00691792
60.4,-4.01666,3.25164,0.999976,0.00698247
60.5,-3.90081,3.25285,0.999975,0.00702619
60.6,-3.78498,3.25408,0.999975,0.00709132
60.7,-3.66915,3.25531,0.999975,0.00713541
60.8,-3.55334,3.25655,0.999974,0.00719841
60.9,-3.43755,3.2578,0.999974,0.00724563
61,-3.32176,3.25906,0.999973,0.00730351
61.1,-3.20599,3.26033,0.999973,0.00735276
61.2,-3.09023,3.26161,0.999973,0.00741018
61.3,-2.97449,3.26289,0.999972,0.00745805
61.4,-2.85876,3.26419,0.999972,0.00751455
61.5,-2.74304,3.26549,0.999971,0.00756308
61.6,-2.62734,3.2668,0.999971,0.00761872
61.7,-2.51166,3.26813,0.999971,0.00766513
61.8,-2.39599,3.26946,0.99997,0.00772184
61.9,-2.28033,3.2708,0.99997,0.00776703
62,-2.16469,3.27214,0.999969,0.00782128
62.1,-2.04906,3.2735,0.999969,0.00786515
62.2,-1.93345,3.27486,0.999969,0.00792012
62.3,-1.81786,3.27624,0.999968,0.00796269
62.4,-1.70228,3.27762,0.999968,0.0080152
62.5,-1.58672,3.279,0.999968,0.00805761
62.6,-1.47118,3.2804,0.999967,0.0081087
62.7,-1.35565,3.2818,0.999967,0.00814861
62.8,-1.24014,3.28322,0.999966,0.00819879
62.9,-1.12465,3.28463,0.999966,0.0082381
63,-1.00918,3.28606,0.999966,0.00828495
63.1,-0.893721,3.28749,0.999965,0.00832357
63.2,-0.778285,3.28893,0.999965,0.00836795
63.3,-0.662865,3.29038,0.999965,0.00840545
63.4,-0.547467,3.29183,0.999964,0.00844754
63.5,-0.432086,3.29329,0.999964,0.00848316
63.6,-0.316725,3.29476,0.999964,0.00852241
63.7,-0.201383,3.29623,0.999963,0.0085562
63.8,-0.0860623,3.29771,0.999963,0.00859296
63.9,0.0292395,3.29919,0.999963,0.00862462
64,0.14452,3.30068,0.999963,0.00865868
64.1,0.25978,3.30218,0.999962,0.00868806
64.2,0.375019,3.30368,0.999962,0.00871883
64.3,0.490237,3.30518,0.999962,0.00874612
64.4,0.605433,3.30669,0.999961,0.00877356
64.5,0.720608,3.3082,0.999961,0.00879789
64.6,0.835761,3.30972,0.999961,0.00882181
64.7,0.950891,3.31124,0.999961,0.00884365
64.8,1.066,3.31276,0.999961,0.00886399
64.9,1.18109,3.31429,0.999961,0.00888235
65,1.29615,3.31581,0.99996,0.0088992
65.1,1.41119,3.31734,0.99996,0.00891406
65.2,1.5262,3.31888,0.99996,0.00892716
65.3,1.6412,3.32041,0.99996,0.00893816
65.4,1.75616,3.32195,0.99996,0.00894736
65.5,1.87111,3.32348,0.99996,0.00895425
65.6,1.98603,3.32502,0.99996,0.00895924
65.7,2.10093,3.32656,0.99996,0.00896198
65.8,2.2158,3.3281,0.99996,0.00896255
65.9,2.33064,3.32964,0.99996,0.00896085
66,2.44547,3.33117,0.99996,0.0089568
66.1,2.56026,3.33271,0.99996,0.0089503
66.2,2.67503,3.33424,0.99996,0.00894176
66.3,2.78978,3.33577,0.99996,0.00893006
66.4,2.9045,3.3373,0.99996,0.00891669
66.5,3.01919,3.33882,0.99996,0.00889961
66.6,3.13386,3.34035,0.999961,0.00888116
66.7,3.2485,3.34186,0.999961,0.00885873
66.8,3.36312,3.34338,0.999961,0.00883497
66.9,3.47771,3.34489,0.999961,0.00880682
67,3.59227,3.34639,0.999961,0.00877735
67.1,3.7068,3.34789,0.999962,0.00874377
67.2,3.82131,3.34938,0.999962,0.0087081
67.3,3.9358,3.35086,0.999962,0.00866921
67.4,4.05025,3.35234,0.999963,0.00862653
67.5,4.16468,3.35381,0.999963,0.00858199
67.6,4.27908,3.35527,0.999964,0.00853348
67.7,4.39346,3.35672,0.999964,0.00848269
67.8,4.50781,3.35816,0.999964,0.00842704
67.9,4.62213,3.35959,0.999965,0.00837058
68,4.73642,3.36101,0.999965,0.00830725
68.1,4.85069,3.36242,0.999966,0.0082463
68.2,4.96493,3.36382,0.999967,0.00817383
68.3,-4.92086,3.36521,0.999967,0.00810769
68.4,-4.80667,3.36658,0.999968,0.00802792
68.5,-4.69251,3.36794,0.999968,0.00795459
68.6,-4.57838,3.36928,0.999969,0.00786851
68.7,-4.46427,3.37061,0.99997,0.00778928
68.8,-4.35019,3.37193,0.99997,0.00769446
68.9,-4.23613,3.37322,0.999971,0.00760883
69,-4.1221,3.37451,0.999972,0.00750611
69.1,-4.0081,3.37577,0.999972,0.00741578
69.2,-3.89412,3.37702,0.999973,0.00730316
69.3,-3.78017,3.37825,0.999974,0.00720664
69.4,-3.66625,3.37946,0.999975,0.00708819
69.5,-3.55234,3.38065,0.999976,0.00698385
69.6,-3.43847,3.38182,0.999977,0.0068569
69.7,-3.32461,3.38297,0.999977,0.00674845
69.8,-3.21079,3.3841,0.999978,0.00661115
69.9,-3.09698,3.38521,0.999979,0.00649791
70,-2.9832,3.38629,0.99998,0.00635214
70.1,-2.86944,3.38735,0.999981,0.00623294
70.2,-2.75571,3.38839,0.999982,0.00608037
70.3,-2.642,3.3894,0.999982,0.00595459
70.4,-2.52831,3.39039,0.999983,0.0057942
70.5,-2.41464,3.39136,0.999984,0.00566248
70.6,-2.30099,3.39229,0.999985,0.00549555
70.7,-2.18736,3.3932,0.999986,0.00535734
70.8,-2.07375,3.39409,0.999987,0.00518358
70.9,-1.96017,3.39495,0.999987,0.00503814
71,-1.8466,3.39577,0.999988,0.00486027
71.1,-1.73305,3.39658,0.999989,0.00470656
71.2,-1.61952,3.39735,0.99999,0.00452383
71.3,-1.50601,3.39809,0.99999,0.0043642
71.4,-1.39251,3.3988,0.999991,0.00417527
71.5,-1.27903,3.39948,0.999992,0.00401098
71.6,-1.16557,3.40013,0.999993,0.00381584
71.7,-1.05212,3.40075,0.999993,0.0036474
71.8,-0.938682,3.40134,0.999994,0.00344713
71.9,-0.825262,3.4019,0.999995,0.00327341
72,-0.711855,3.40242,0.999995,0.00306706
72.1,-0.59846,3.40291,0.999996,0.00289004
72.2,-0.485079,3.40337,0.999996,0.00267996
72.3,-0.371707,3.40379,0.999997,0.00249929
72.4,-0.258347,3.40418,0.999997,0.0022829
72.5,-0.144996,3.40454,0.999998,0.00210064
72.6,-0.0316549,3.40486,0.999998,0.00187948
72.7,0.0816786,3.40515,0.999999,0.00169561
72.8,0.195004,3.4054,0.999999,0.0014693
72.9,0.308322,3.40562,0.999999,0.00128367
73,0.421635,3.4058,0.999999,0.00105591
73.1,0.534942,3.40594,1,0.000866556
73.2,0.648244,3.40605,1,0.00063756
73.3,0.761543,3.40613,1,0.000445754
73.4,0.874838,3.40617,1,0.000216304
73.5,0.988132,3.40617,1,2.37087e-05
73.6,1.10142,3.40617,1,-8.85573e-06
73.7,1.21472,3.40617,1,-8.85573e-06
73.8,1.32801,3.40617,1,-8.85573e-06
73.9,1.4413,3.40617,1,-8.85573e-06
74,1.5546,3.40617,1,-8.85574e-06
74.1,1.66789,3.40617,1,-8.85574e-06
74.2,1.78118,3.40616,1,-8.85574e-06
74.3,1.89448,3.40616,1,-8.85574e-06
74.4,2.00777,3.40616,1,-8.85574e-06
74.5,2.12106,3.40616,1,-8.85574e-06
74.6,2.23436,3.40616,1,-8.85574e-06
74.7,2.34765,3.40616,1,-8.85574e-06
74.8,2.46094,3.40616,1,-8.85574e-06
74.9,2.57424,3.40616,1,-8.85574e-06
75,2.68753,3.40616,1,-8.85575e-06
75.1,2.80082,3.40616,1,-8.85575e-06
75.2,2.91412,3.40616,1,-8.85575e-06
75.3,3.02741,3.40615,1,-8.85575e-06
75.4,3.1407,3.40615,1,-8.85575e-06
75.5,3.254,3.40615,1,-8.85575e-06
75.6,3.36729,3.40615,1,-8.85575e-06
75.7,3.48058,3.40615,1,-8.85575e-06
75.8,3.59387,3.40615,1,-8.85575e-06
75.9,3.70717,3.40615,1,-8.85575e-06
76,3.82046,3.40615,1,-8.85576e-06
76.1,3.93375,3.40615,1,-8.85576e-06
76.2,4.04705,3.40615,1,-8.85576e-06
76.3,4.16034,3.40614,1,-8.85576e-06
76.4,4.27363,3.40614,1,-8.85576e-06
76.5,4.38693,3.40614,1,-8.85576e-06
76.6,4.50022,3.40614,1,-8.85576e-06
76.7,4.61351,3.40614,1,-8.85576e-06
76.8,4.72681,3.40614,1,-8.85576e-06
76.9,4.8401,3.40614,1,-8.85576e-06
77,4.95339,3.40614,1,-8.85577e-06
77.1,-4.93331,3.40614,1,-8.85577e-06
77.2,-4.82002,3.40614,1,-8.854e-06
77.3,-4.70673,3.40614,1,-8.854e-06
77.4,-4.59343,3.40613,1,-8.854e-06
77.5,-4.48014,3.40613,1,-8.854e-06
77.6,-4.36685,3.40613,1,-8.854e-06
77.7,-4.25356,3.40613,1,-8.854e-06
77.8,-4.14026,3.40613,1,-8.854e-06
77.9,-4.02697,3.40613,1,-8.854e-06
78,-3.91368,3.40613,1,-8.854e-06
78.1,-3.80038,3.40613,1,-8.854e-06
78.2,-3.68709,3.40613,1,-8.85401e-06
78.3,-3.5738,3.40613,1,-8.85401e-06
78.4,-3.4605,3.40612,1,-8.85401e-06
78.5,-3.34721,3.40612,1,-8.85401e-06
78.6,-3.23392,3.40612,1,-8.85401e-06
78.7,-3.12062,3.40612,1,-8.85401e-06
78.8,-3.00733,3.40612,1,-8.85401e-06
78.9,-2.89404,3.40612,1,-8.85401e-06
79,-2.78074,3.40612,1,-8.85401e-06
79.1,-2.66745,3.40612,1,-8.85401e-06
79.2,-2.55416,3.40612,1,-8.85402e-06
79.3,-2.44086,3.40612,1,-8.85402e-06
79.4,-2.32757,3.40612,1,-8.85402e-06
79.5,-2.21428,3.40611,1,-8.85402e-06
79.6,-2.10099,3.40611,1,-8.85402e-06
79.7,-1.98769,3.40611,1,-8.85402e-06
79.8,-1.8744,3.40611,1,-8.85402e-06
79.9,-1.76111,3.40611,1,-8.85402e-06
80,-1.64773,3.40606,1,-0.000321475
