0.1,-13.7733,6.91981,0.992155,0.125017
0.2,-3.76942,6.91922,0.999943,-0.0106536
0.3,-3.76661,6.91717,0.999347,-0.0361273
0.4,-3.75955,6.91694,0.999991,-0.0041374
0.5,-3.74155,6.91735,0.999986,0.00522818
0.6,-3.71949,6.926,0.993717,0.111923
0.7,-3.69039,6.93333,0.9962,0.0870937
0.8,-3.64516,6.93809,0.998876,0.0473963
0.9,-3.57912,6.94358,0.998972,0.0453321
1,-3.49221,6.9465,0.999791,0.0204646
1.1,-3.38959,6.94757,0.999978,0.00659709
1.2,-3.28066,6.94751,1,-0.000500908
1.3,-3.17174,6.94746,1,-0.000500908
1.4,-3.06282,6.9474,1,-0.000500908
1.5,-2.9539,6.94735,1,-0.000500908
1.6,-2.84498,6.9473,1,-0.000500908
1.7,-2.73605,6.94724,1,-0.000500908
1.8,-2.62713,6.94719,1,-0.000500908
1.9,-2.51821,6.94713,1,-0.000500908
2,-2.40929,6.94708,1,-0.000500908
2.1,-2.30037,6.94702,1,-0.000500908
2.2,-2.19144,6.94697,1,-0.000500908
2.3,-2.08252,6.94692,1,-0.000500908
2.4,-1.9736,6.94686,1,-0.000500908
2.5,-1.86468,6.94681,1,-0.000500908
2.6,-1.75576,6.94675,1,-0.000500908
2.7,-1.64683,6.9467,1,-0.000500908
2.8,-1.53791,6.94664,1,-0.000500908
2.9,-1.42899,6.94659,1,-0.000500908
3,-1.32007,6.94653,1,-0.000500908
3.1,-1.21115,6.94648,1,-0.000500908
3.2,-1.10222,6.94643,1,-0.000500908
3.3,-0.993302,6.94637,1,-0.000500908
3.4,-0.88438,6.94632,1,-0.000500908
3.5,-0.775458,6.94626,1,-0.000500908
3.6,-0.666536,6.94621,1,-0.000500908
3.7,-0.557614,6.94615,1,-0.00050094
3.8,-0.448692,6.9461,1,-0.000500969
3.9,-0.33977,6.94605,1,-0.000501075
4,-0.230848,6.94599,1,-0.000501361
4.1,-0.121926,6.94594,1,-0.000501122
4.2,-0.0130041,6.94588,1,-0.000503276
4.3,0.0959179,6.94583,1,-0.000500908
4.4,0.20484,6.94577,1,-0.000500908
4.5,0.313762,6.94572,1,-0.000500908
4.6,0.422684,6.94566,1,-0.000500908
4.7,0.531606,6.94561,1,-0.000500908
4.8,0.640528,6.94556,1,-0.000500908
4.9,0.74945,6.9455,1,-0.000500908
5,0.858371,6.94545,1,-0.000500908
5.1,0.967293,6.94539,1,-0.000500908
5.2,1.07622,6.94534,1,-0.000500908
5.3,1.18514,6.94528,1,-0.000500908
5.4,1.29406,6.94523,1,-0.000500908
5.5,1.40298,6.94517,1,-0.000500908
5.6,1.5119,6.94512,1,-0.000500908
5.7,1.62083,6.94507,1,-0.000500908
5.8,1.72975,6.94501,1,-0.000500908
5.9,1.83867,6.94496,1,-0.000500908
6,1.94759,6.9449,1,-0.000500908
6.1,2.05651,6.94485,1,-0.000500908
6.2,2.16544,6.94479,1,-0.000500908
6.3,2.27436,6.94474,1,-0.000500908
6.4,2.38328,6.94469,1,-0.000500908
6.5,2.4922,6.94463,1,-0.000500908
6.6,2.60112,6.94458,1,-0.000500908
6.7,2.71005,6.94452,1,-0.000500908
6.8,2.81897,6.94447,1,-0.000500908
6.9,2.92789,6.94441,1,-0.000500908
7,3.03681,6.94436,1,-0.000500908
7.1,3.14573,6.9443,1,-0.000500908
7.2,3.25466,6.94425,1,-0.000500908
7.3,3.36358,6.9442,1,-0.000500908
7.4,3.4725,6.94414,1,-0.000500908
7.5,3.58142,6.94409,1,-0.000500908
7.6,3.69034,6.94403,1,-0.000500908
7.7,3.79927,6.94398,1,-0.000500908
7.8,3.90819,6.94392,1,-0.000500908
7.9,4.01711,6.94387,1,-0.000500908
8,4.12603,6.94382,1,-0.000500908
8.1,4.23495,6.94376,1,-0.000500908
8.2,4.34388,6.94371,1,-0.000500908
8.3,4.4528,6.94365,1,-0.000500908
8.4,4.56172,6.9436,1,-0.000500908
8.5,4.67064,6.94354,1,-0.000500908
8.6,4.77956,6.94349,1,-0.000500908
8.7,4.88849,6.94344,1,-0.000500908
8.8,4.99741,6.94338,1,-0.000500908
8.9,-4.89367,6.94333,1,-0.000500908
9,-4.78475,6.94327,1,-0.000500808
9.1,-4.67583,6.94322,1,-0.000500808
9.2,-4.5669,6.94316,1,-0.000500808
9.3,-4.45798,6.94311,1,-0.000500808
9.4,-4.34906,6.94305,1,-0.000500808
9.5,-4.24014,6.943,1,-0.000500808
9.6,-4.13122,6.94295,1,-0.000500808
9.7,-4.02229,6.94289,1,-0.000500808
9.8,-3.91337,6.94284,1,-0.000500808
9.9,-3.80445,6.94278,1,-0.000500808
10,-3.69553,6.94273,1,-0.000500808
10.1,-3.58661,6.94267,1,-0.000500808
10.2,-3.47768,6.94262,1,-0.000500808
10.3,-3.36876,6.94257,1,-0.000500808
10.4,-3.25984,6.94251,1,-0.000500808
10.5,-3.15092,6.94246,1,-0.000500808
10.6,-3.042,6.9424,1,-0.000500808
10.7,-2.93307,6.94235,1,-0.000500808
10.8,-2.82415,6.94229,1,-0.000500808
10.9,-2.71523,6.94224,1,-0.000500808
11,-2.60631,6.94218,1,-0.000500808
11.1,-2.49739,6.94213,1,-0.000500808
11.2,-2.38846,6.94208,1,-0.000500808
11.3,-2.27954,6.94202,1,-0.000500808
11.4,-2.17062,6.94197,1,-0.000500808
11.5,-2.0617,6.94191,1,-0.000500808
11.6,-1.95278,6.94186,1,-0.000500808
11.7,-1.84385,6.9418,1,-0.000500808
11.8,-1.73493,6.94175,1,-0.000500808
11.9,-1.62601,6.9417,1,-0.000500808
12,-1.51709,6.94164,1,-0.000500808
12.1,-1.40817,6.94159,1,-0.000500808
12.2,-1.29924,6.94153,1,-0.000500808
12.3,-1.19032,6.94148,1,-0.000500808
12.4,-1.0814,6.94142,1,-0.000500808
12.5,-0.972478,6.94137,1,-0.000500808
12.6,-0.863557,6.94132,1,-0.000500808
12.7,-0.754635,6.94126,1,-0.000500808
12.8,-0.645713,6.94121,1,-0.000500808
12.9,-0.536791,6.94115,1,-0.000500808
13,-0.427869,6.9411,1,-0.000500808
13.1,-0.318947,6.94104,1,-0.000500808
13.2,-0.210025,6.94099,1,-0.000500808
13.3,-0.101103,6.94093,1,-0.000500808
13.4,0.00781909,6.94088,1,-0.000500808
13.5,0.116741,6.94083,1,-0.000500808
13.6,0.225663,6.94077,1,-0.000500808
13.7,0.334585,6.94072,1,-0.000500808
13.8,0.443507,6.94066,1,-0.000500808
13.9,0.552429,6.94061,1,-0.000500808
14,0.661351,6.94055,1,-0.000500808
14.1,0.770273,6.9405,1,-0.000500808
14.2,0.879195,6.94045,1,-0.000500808
14.3,0.988117,6.94039,1,-0.000500808
14.4,1.09704,6.94034,1,-0.000500808
14.5,1.20596,6.94028,1,-0.000500808
14.6,1.31488,6.94023,1,-0.000500808
14.7,1.4238,6.94017,1,-0.000500808
14.8,1.53273,6.94012,1,-0.000500808
14.9,1.64165,6.94006,1,-0.000500808
15,1.75057,6.94001,1,-0.000500808
15.1,1.85949,6.93996,1,-0.000500808
15.2,1.96841,6.9399,1,-0.000500808
15.3,2.07734,6.93985,1,-0.000500808
15.4,2.18626,6.93979,1,-0.000500808
15.5,2.29518,6.93974,1,-0.000500808
15.6,2.4041,6.93968,1,-0.000500808
15.7,2.51302,6.93963,1,-0.000500808
15.8,2.62195,6.93958,1,-0.000500808
15.9,2.73087,6.93952,1,-0.000500808
16,2.83979,6.93947,1,-0.000500808
16.1,2.94871,6.93941,1,-0.000500808
16.2,3.05763,6.93936,1,-0.000500808
16.3,3.16656,6.9393,1,-0.000500808
16.4,3.27548,6.93925,1,-0.000500808
16.5,3.3844,6.9392,1,-0.000500808
16.6,3.49332,6.93914,1,-0.000500808
16.7,3.60224,6.93909,1,-0.000500808
16.8,3.71117,6.93903,1,-0.000500808
16.9,3.82009,6.93898,1,-0.000500808
17,3.92901,6.93892,1,-0.000500808
17.1,4.03793,6.93887,1,-0.000500808
17.2,4.14685,6.93881,1,-0.000500808
17.3,4.25578,6.93876,1,-0.000500808
17.4,4.3647,6.93871,1,-0.000500808
17.5,4.47362,6.93865,1,-0.000500808
17.6,4.58254,6.9386,1,-0.000500808
17.7,4.69146,6.93854,1,-0.000500808
17.8,4.80039,6.93849,1,-0.000500808
17.9,4.90931,6.93843,1,-0.000500808
18,-4.98177,6.93838,1,-0.000500808
18.1,-4.87285,6.93833,1,-0.000500708
18.2,-4.76393,6.93827,1,-0.000500708
18.3,-4.655,6.93822,1,-0.000500708
18.4,-4.54608,6.93816,1,-0.000500708
18.5,-4.43716,6.93811,1,-0.000500708
18.6,-4.32824,6.93805,1,-0.000500708
18.7,-4.21932,6.938,1,-0.000500708
18.8,-4.11039,6.93794,1,-0.000500708
18.9,-4.00147,6.93789,1,-0.000500708
19,-3.89255,6.93784,1,-0.000500708
19.1,-3.78363,6.93778,1,-0.000500708
19.2,-3.67471,6.93773,1,-0.000500708
19.3,-3.56578,6.93767,1,-0.000500708
19.4,-3.45686,6.93762,1,-0.000500708
19.5,-3.34794,6.93756,1,-0.000500708
19.6,-3.23902,6.93751,1,-0.000500708
19.7,-3.1301,6.93746,1,-0.000500708
19.8,-3.02117,6.9374,1,-0.000500708
19.9,-2.91225,6.93735,1,-0.000500708
20,-2.80333,6.93729,1,-0.000500708
20.1,-2.69441,6.93724,1,-0.000500708
20.2,-2.58549,6.93718,1,-0.000500708
20.3,-2.47656,6.93713,1,-0.000500708
20.4,-2.36764,6.93708,1,-0.000500708
20.5,-2.25872,6.93702,1,-0.000500708
20.6,-2.1498,6.93697,1,-0.000500708
20.7,-2.04088,6.93691,1,-0.000500708
20.8,-1.93195,6.93686,1,-0.000500708
20.9,-1.82303,6.9368,1,-0.000500708
21,-1.71411,6.93675,1,-0.000500708
21.1,-1.60519,6.93669,1,-0.000500708
21.2,-1.49627,6.93664,1,-0.000500708
21.3,-1.38734,6.93659,1,-0.000500708
21.4,-1.27842,6.93653,1,-0.000500708
21.5,-1.1695,6.93648,1,-0.000500708
21.6,-1.06058,6.93642,1,-0.000500708
21.7,-0.951655,6.93637,1,-0.000500708
21.8,-0.842734,6.93631,1,-0.000500708
21.9,-0.733812,6.93626,1,-0.000500708
22,-0.624711,6.93623,1,-0.000348356
22.1,-0.515374,6.93624,1,-0.000108592
22.2,-0.405791,6.9363,1,0.000181985
22.3,-0.295966,6.93641,1,0.000520464
22.4,-0.185904,6.93659,1,0.000905518
22.5,-0.0756116,6.93683,0.999999,0.00133691
22.6,0.0349022,6.93716,0.999998,0.00181514
22.7,0.145628,6.93757,0.999997,0.00234097
22.8,0.256556,6.93808,0.999996,0.00291526
22.9,0.367675,6.9387,0.999994,0.00353897
23,0.478975,6.93942,0.999991,0.00421289
23.1,0.590443,6.94027,0.999988,0.00493791
23.2,0.702067,6.94125,0.999984,0.00571462
23.3,0.813833,6.94236,0.999979,0.00654381
23.4,0.925728,6.94362,0.999972,0.00742631
23.5,1.03774,6.94504,0.999965,0.00836403
23.6,1.14987,6.94657,0.99996,0.0089978
23.7,1.26215,6.94817,0.999955,0.00943067
23.8,1.37407,6.94835,1,0.000892883
23.9,1.48635,6.94864,0.999999,0.00162891
24,1.5989,6.94889,0.999999,0.00131277
24.1,1.71164,6.94887,1,-0.000275684
24.2,1.82456,6.94858,0.999998,-0.00191082
24.3,1.93767,6.94804,0.999994,-0.00337602
24.4,2.05104,6.94819,1,0.000735088
24.5,2.16447,6.94805,0.999999,-0.00103504
24.6,2.27798,6.94786,0.999999,-0.00129221
24.7,2.39147,6.94707,0.999988,-0.00485175
24.8,2.50494,6.94581,0.99997,-0.00768221
24.9,2.61833,6.94408,0.999945,-0.0104595
25,2.73166,6.94196,0.999919,-0.0127529
25.1,2.8449,6.93951,0.99989,-0.0148042
25.2,2.95804,6.93673,0.99986,-0.0167503
25.3,3.07105,6.93363,0.999826,-0.0186643
25.4,3.18386,6.93021,0.999788,-0.0205758
25.5,3.29644,6.92648,0.999747,-0.0224808
25.6,3.40872,6.92245,0.999704,-0.0243455
25.7,3.52064,6.91813,0.999659,-0.0261083
25.8,3.63213,6.91356,0.999617,-0.0276828
25.9,3.74322,6.90883,0.999587,-0.0287241
26,3.85432,6.9041,0.999587,-0.028724
26.1,3.96542,6.89937,0.999587,-0.028724
26.2,4.07652,6.89464,0.999587,-0.0287239
26.3,4.18762,6.88991,0.999587,-0.0287239
26.4,4.29872,6.88518,0.999587,-0.0287238
26.5,4.40982,6.88045,0.999587,-0.0287238
26.6,4.52092,6.87572,0.999587,-0.0287237
26.7,4.63202,6.87099,0.999587,-0.0287237
26.8,4.74312,6.86626,0.999587,-0.0287236
26.9,4.85422,6.86153,0.999587,-0.0287236
27,4.96532,6.8568,0.999587,-0.0287236
27.1,-4.92359,6.85207,0.999587,-0.0287235
27.2,-4.81249,6.84734,0.999587,-0.0287234
27.3,-4.70139,6.84261,0.999587,-0.0287233
27.4,-4.59029,6.83788,0.999587,-0.0287233
27.5,-4.47919,6.83315,0.999587,-0.0287232
27.6,-4.36809,6.82842,0.999587,-0.0287232
27.7,-4.25699,6.82369,0.999587,-0.0287231
27.8,-4.14589,6.81896,0.999587,-0.028723
27.9,-4.03479,6.81423,0.999587,-0.0287229
28,-3.92369,6.8095,0.999587,-0.0287228
28.1,-3.81259,6.80477,0.999587,-0.0287228
28.2,-3.70149,6.80004,0.999587,-0.0287228
28.3,-3.5904,6.79531,0.999587,-0.0287227
28.4,-3.4793,6.79058,0.999587,-0.0287227
28.5,-3.3682,6.78585,0.999587,-0.0287227
28.6,-3.2571,6.78112,0.999587,-0.0287227
28.7,-3.146,6.77639,0.999587,-0.0287226
28.8,-3.0349,6.77166,0.999587,-0.0287226
28.9,-2.92372,6.76696,0.999594,-0.0284829
29,-2.81223,6.76242,0.99962,-0.0275535
29.1,-2.70044,6.75801,0.999644,-0.0266624
29.2,-2.58835,6.75374,0.999667,-0.0257931
29.3,-2.47597,6.7496,0.999689,-0.0249459
29.4,-2.36332,6.7456,0.999709,-0.0241197
29.5,-2.25038,6.74172,0.999728,-0.0233141
29.6,-2.13718,6.73797,0.999746,-0.0225284
29.7,-2.02372,6.73434,0.999763,-0.0217619
29.8,-1.90999,6.73083,0.999779,-0.0210145
29.9,-1.79602,6.72744,0.999794,-0.0202854
30,-1.68179,6.72417,0.999808,-0.0195742
30.1,-1.56733,6.72101,0.999822,-0.0188802
30.2,-1.45263,6.71795,0.999834,-0.0182031
30.3,-1.33769,6.71501,0.999846,-0.0175423
30.4,-1.22253,6.71217,0.999857,-0.0168977
30.5,-1.10715,6.70943,0.999868,-0.0162678
30.6,-0.991585,6.70671,0.99987,-0.0161439
30.7,-0.875904,6.70385,0.999856,-0.0169862
30.8,-0.760181,6.70071,0.999827,-0.0186071
30.9,-0.644515,6.69715,0.999778,-0.0210691
31,-0.529059,6.69303,0.999701,-0.0244382
31.1,-0.414046,6.68819,0.999588,-0.0287023
31.2,-0.299818,6.68254,0.999435,-0.0336037
31.3,-0.186827,6.67614,0.999264,-0.0383688
31.4,-0.074944,6.66937,0.999167,-0.0408098
31.5,0.0369393,6.6626,0.999167,-0.0408098
31.6,0.148823,6.65584,0.999167,-0.0408097
31.7,0.260706,6.64907,0.999167,-0.0408096
31.8,0.372589,6.6423,0.999167,-0.0408096
31.9,0.484473,6.63554,0.999167,-0.0408095
32,0.596356,6.62877,0.999167,-0.0408094
32.1,0.708239,6.622,0.999167,-0.0408094
32.2,0.820122,6.61523,0.999167,-0.0408093
32.3,0.932006,6.60847,0.999167,-0.0408092
32.4,1.04389,6.6017,0.999167,-0.0408091
32.5,1.15577,6.59493,0.999167,-0.040809
32.6,1.26766,6.58816,0.999167,-0.0408089
32.7,1.37954,6.5814,0.999167,-0.0408089
32.8,1.49142,6.57463,0.999167,-0.0408088
32.9,1.60331,6.56786,0.999167,-0.0408088
33,1.71519,6.5611,0.999167,-0.0408087
33.1,1.82707,6.55433,0.999167,-0.0408086
33.2,1.93896,6.54756,0.999167,-0.0408085
33.3,2.05084,6.54079,0.999167,-0.0408085
33.4,2.16272,6.53403,0.999167,-0.0408084
33.5,2.27461,6.52726,0.999167,-0.0408083
33.6,2.38649,6.52049,0.999167,-0.0408083
33.7,2.49837,6.51372,0.999167,-0.0408082
33.8,2.61026,6.50696,0.999167,-0.0408081
33.9,2.72214,6.50019,0.999168,-0.0407883
34,2.83398,6.49351,0.999186,-0.0403332
34.1,2.94576,6.48697,0.999221,-0.0394646
34.2,3.05744,6.48063,0.999267,-0.0382939
34.3,3.16901,6.47452,0.999317,-0.0369476
34.4,3.28047,6.46864,0.999368,-0.0355543
34.5,3.39183,6.46299,0.999413,-0.0342506
34.6,3.50311,6.45751,0.999449,-0.0331889
34.7,3.61433,6.45214,0.99947,-0.0325381
34.8,3.72555,6.44678,0.999473,-0.0324731
34.9,3.83676,6.44143,0.999474,-0.0324375
35,3.94798,6.43609,0.999474,-0.0324179
35.1,4.05919,6.43074,0.999475,-0.0324069
35.2,4.17046,6.42542,0.99948,-0.032237
35.3,4.28186,6.42017,0.999493,-0.0318514
35.4,4.3934,6.41496,0.999505,-0.0314767
35.5,4.50507,6.40982,0.999516,-0.0311117
35.6,4.61686,6.40473,0.999527,-0.0307444
35.7,4.72876,6.3997,0.999538,-0.0303786
35.8,4.84075,6.39473,0.999549,-0.0300139
35.9,4.95292,6.3898,0.999557,-0.0297628
36,-4.93656,6.38535,0.999632,-0.0271264
36.1,-4.8265,6.38171,0.999753,-0.0222342
36.2,-4.71684,6.37894,0.999855,-0.0170542
36.3,-4.60751,6.3771,0.999935,-0.0114156
36.4,-4.49844,6.37625,0.999986,-0.00535439
36.5,-4.38951,6.3762,1,-0.000489465
36.6,-4.28059,6.37614,1,-0.000489466
36.7,-4.17167,6.37609,1,-0.000489466
36.8,-4.06275,6.37604,1,-0.000489466
36.9,-3.95383,6.37598,1,-0.000489466
37,-3.8449,6.37593,1,-0.000489466
37.1,-3.73598,6.37588,1,-0.000489466
37.2,-3.62706,6.37582,1,-0.000489466
37.3,-3.51814,6.37577,1,-0.000489466
37.4,-3.40922,6.37572,1,-0.000489466
37.5,-3.30029,6.37566,1,-0.000489466
37.6,-3.19137,6.37561,1,-0.000489466
37.7,-3.08245,6.37556,1,-0.000489466
37.8,-2.97353,6.3755,1,-0.000489466
37.9,-2.86461,6.37545,1,-0.000489466
38,-2.75568,6.37539,1,-0.000489466
38.1,-2.64676,6.37534,1,-0.000489466
38.2,-2.53784,6.37529,1,-0.000489466
38.3,-2.42892,6.37523,1,-0.000489466
38.4,-2.32,6.37518,1,-0.000489466
38.5,-2.21107,6.37513,1,-0.000489466
38.6,-2.10215,6.37507,1,-0.000489466
38.7,-1.99323,6.37502,1,-0.000489466
38.8,-1.88431,6.37497,1,-0.000489466
38.9,-1.77539,6.37491,1,-0.000489466
39,-1.66646,6.37486,1,-0.000489466
39.1,-1.55754,6.37481,1,-0.000489466
39.2,-1.44862,6.37475,1,-0.000489466
39.3,-1.3397,6.3747,1,-0.000489466
39.4,-1.23078,6.37465,1,-0.000489466
39.5,-1.12185,6.37459,1,-0.000489466
39.6,-1.01293,6.37454,1,-0.000489466
39.7,-0.90401,6.37449,1,-0.000489466
39.8,-0.795088,6.37443,1,-0.000489466
39.9,-0.686166,6.37438,1,-0.000489466
40,-0.577245,6.37433,1,-0.000489466
40.1,-0.468323,6.37427,1,-0.000489466
40.2,-0.359401,6.37422,1,-0.000489466
40.3,-0.250479,6.37417,1,-0.000489466
40.4,-0.141557,6.37411,1,-0.000489466
40.5,-0.0326348,6.37406,1,-0.000489466
40.6,0.0762872,6.37401,1,-0.000489466
40.7,0.185209,6.37395,1,-0.000489466
40.8,0.294131,6.3739,1,-0.000489466
40.9,0.403053,6.37385,1,-0.000489466
41,0.511975,6.37379,1,-0.000489466
41.1,0.620897,6.37374,1,-0.000489466
41.2,0.729819,6.37369,1,-0.000489466
41.3,0.838741,6.37363,1,-0.000489466
41.4,0.947663,6.37358,1,-0.000489466
41.5,1.05658,6.37353,1,-0.000489466
41.6,1.16551,6.37347,1,-0.000489466
41.7,1.27443,6.37342,1,-0.000489466
41.8,1.38335,6.37337,1,-0.000489466
41.9,1.49227,6.37331,1,-0.000489466
42,1.60119,6.37326,1,-0.000489466
42.1,1.71012,6.37321,1,-0.000489466
42.2,1.81904,6.37315,1,-0.000489466
42.3,1.92796,6.3731,1,-0.000489466
42.4,2.03688,6.37304,1,-0.000489466
42.5,2.1458,6.37299,1,-0.000489466
42.6,2.25473,6.37294,1,-0.000489466
42.7,2.36365,6.37288,1,-0.000489466
42.8,2.47257,6.37283,1,-0.000489466
42.9,2.58149,6.37278,1,-0.000489466
43,2.69041,6.37272,1,-0.000489466
43.1,2.79934,6.37267,1,-0.000489466
43.2,2.90826,6.37262,1,-0.000489466
43.3,3.01718,6.37256,1,-0.000489466
43.4,3.1261,6.37251,1,-0.000489466
43.5,3.23502,6.37246,1,-0.000489466
43.6,3.34395,6.3724,1,-0.000489466
43.7,3.45287,6.37235,1,-0.000489466
43.8,3.56179,6.3723,1,-0.000489466
43.9,3.67071,6.37224,1,-0.000489466
44,3.77963,6.37219,1,-0.000489466
44.1,3.88856,6.37214,1,-0.000489466
44.2,3.99748,6.37208,1,-0.000489466
44.3,4.1064,6.37203,1,-0.000489466
44.4,4.21532,6.37198,1,-0.000489466
44.5,4.32424,6.37192,1,-0.000489466
44.6,4.43317,6.37187,1,-0.000489466
44.7,4.54209,6.37182,1,-0.000489466
44.8,4.65101,6.37176,1,-0.000489466
44.9,4.75993,6.37171,1,-0.000489466
45,4.86885,6.37166,1,-0.000489466
45.1,4.97778,6.3716,1,-0.000489466
45.2,-4.9133,6.37155,1,-0.000489466
45.3,-4.80438,6.3715,1,-0.000489368
45.4,-4.69546,6.37144,1,-0.000489368
45.5,-4.58654,6.37139,1,-0.000489368
45.6,-4.47761,6.37134,1,-0.000489368
45.7,-4.36869,6.37128,1,-0.000489368
45.8,-4.25977,6.37123,1,-0.000489368
45.9,-4.15085,6.37118,1,-0.000489368
46,-4.04193,6.37112,1,-0.000489368
46.1,-3.933,6.37107,1,-0.000489368
46.2,-3.82408,6.37102,1,-0.000489368
46.3,-3.71516,6.37096,1,-0.000489368
46.4,-3.60624,6.37091,1,-0.000489368
46.5,-3.49732,6.37086,1,-0.000489368
46.6,-3.38839,6.3708,1,-0.000489368
46.7,-3.27947,6.37075,1,-0.000489368
46.8,-3.17055,6.3707,1,-0.000489368
46.9,-3.06163,6.37064,1,-0.000489368
47,-2.95271,6.37059,1,-0.000489368
47.1,-2.84378,6.37053,1,-0.000489368
47.2,-2.73486,6.37048,1,-0.000489368
47.3,-2.62594,6.37043,1,-0.000489368
47.4,-2.51702,6.37037,1,-0.000489368
47.5,-2.4081,6.37032,1,-0.000489368
47.6,-2.29917,6.37027,1,-0.000489368
47.7,-2.19025,6.37021,1,-0.000489368
47.8,-2.08133,6.37016,1,-0.000489368
47.9,-1.97241,6.37011,1,-0.000489368
48,-1.86349,6.37005,1,-0.000489368
48.1,-1.75456,6.37,1,-0.000489368
48.2,-1.64564,6.36995,1,-0.000489368
48.3,-1.53672,6.36989,1,-0.000489368
48.4,-1.4278,6.36984,1,-0.000489368
48.5,-1.31888,6.36979,1,-0.000489368
48.6,-1.20995,6.36973,1,-0.000489368
48.7,-1.10103,6.36968,1,-0.000489368
48.8,-0.992109,6.36963,1,-0.000489368
48.9,-0.883187,6.36957,1,-0.000489368
49,-0.774265,6.36952,1,-0.000489368
49.1,-0.665344,6.36947,1,-0.000489368
49.2,-0.556422,6.36941,1,-0.000489368
49.3,-0.4475,6.36936,1,-0.000489368
49.4,-0.338578,6.36931,1,-0.000489368
49.5,-0.229656,6.36925,1,-0.000489368
49.6,-0.120734,6.3692,1,-0.000489368
49.7,-0.0118118,6.36915,1,-0.000489368
49.8,0.0971102,6.36909,1,-0.000489368
49.9,0.206032,6.36904,1,-0.000489368
50,0.314954,6.36899,1,-0.000489368
50.1,0.423876,6.36893,1,-0.000489368
50.2,0.532798,6.36888,1,-0.000489368
50.3,0.64172,6.36883,1,-0.000489368
50.4,0.750642,6.36877,1,-0.000489368
50.5,0.859564,6.36872,1,-0.000489368
50.6,0.968486,6.36867,1,-0.000489368
50.7,1.07741,6.36861,1,-0.000489368
50.8,1.18633,6.36856,1,-0.000489368
50.9,1.29525,6.36851,1,-0.000489368
51,1.40417,6.36845,1,-0.000489368
51.1,1.5131,6.3684,1,-0.000489368
51.2,1.62202,6.36835,1,-0.000489368
51.3,1.73094,6.36829,1,-0.000489353
51.4,1.83986,6.36824,1,-0.000489327
51.5,1.94878,6.36819,1,-0.000489351
51.6,2.05771,6.36813,1,-0.000489274
51.7,2.16663,6.36808,1,-0.000489253
51.8,2.27555,6.36802,1,-0.000489202
51.9,2.38447,6.36797,1,-0.000489171
52,2.49339,6.36792,1,-0.000489031
52.1,2.60232,6.36786,1,-0.000488796
52.2,2.71124,6.36781,1,-0.000488553
52.3,2.82016,6.36776,1,-0.00048841
52.4,2.92908,6.3677,1,-0.000488819
52.5,3.038,6.36765,1,-0.000487663
52.6,3.14693,6.3676,1,-0.000489368
52.7,3.25585,6.36755,1,-0.000489368
52.8,3.36477,6.36749,1,-0.000489368
52.9,3.47369,6.36744,1,-0.000489368
53,3.58261,6.36738,1,-0.000489368
53.1,3.69154,6.36733,1,-0.000489368
53.2,3.80046,6.36728,1,-0.000489368
53.3,3.90938,6.36722,1,-0.000489368
53.4,4.0183,6.36717,1,-0.000489368
53.5,4.12722,6.36712,1,-0.000489368
53.6,4.23615,6.36706,1,-0.000489368
53.7,4.34507,6.36701,1,-0.000489368
53.8,4.45399,6.36696,1,-0.000489368
53.9,4.56291,6.3669,1,-0.000489368
54,4.67183,6.36685,1,-0.000489368
54.1,4.78076,6.3668,1,-0.000489368
54.2,4.88968,6.36674,1,-0.000489368
54.3,4.9986,6.36669,1,-0.000489368
54.4,-4.89248,6.36664,1,-0.000489368
54.5,-4.78356,6.36658,1,-0.00048927
54.6,-4.67463,6.36653,1,-0.00048927
54.7,-4.56571,6.36648,1,-0.00048927
54.8,-4.45679,6.36642,1,-0.00048927
54.9,-4.34787,6.36637,1,-0.00048927
55,-4.23895,6.36632,1,-0.00048927
55.1,-4.13002,6.36626,1,-0.00048927
55.2,-4.0211,6.36621,1,-0.00048927
55.3,-3.91218,6.36616,1,-0.00048927
55.4,-3.80326,6.3661,1,-0.00048927
55.5,-3.69434,6.36605,1,-0.00048927
55.6,-3.58541,6.366,1,-0.00048927
55.7,-3.47649,6.36594,1,-0.00048927
55.8,-3.36757,6.36589,1,-0.00048927
55.9,-3.25865,6.36584,1,-0.00048927
56,-3.14973,6.36578,1,-0.00048927
56.1,-3.0408,6.36573,1,-0.00048927
56.2,-2.93188,6.36568,1,-0.00048927
56.3,-2.82296,6.36562,1,-0.00048927
56.4,-2.71404,6.36557,1,-0.00048927
56.5,-2.60512,6.36552,1,-0.00048927
56.6,-2.49619,6.36546,1,-0.00048927
56.7,-2.38727,6.36541,1,-0.00048927
56.8,-2.27835,6.36536,1,-0.00048927
56.9,-2.16943,6.3653,1,-0.00048927
57,-2.06051,6.36525,1,-0.00048927
57.1,-1.95158,6.3652,1,-0.00048927
57.2,-1.84266,6.36514,1,-0.00048927
57.3,-1.73374,6.36509,1,-0.00048927
57.4,-1.62482,6.36504,1,-0.00048927
57.5,-1.5159,6.36498,1,-0.00048927
57.6,-1.40697,6.36493,1,-0.00048927
57.7,-1.29805,6.36487,1,-0.00048927
57.8,-1.18913,6.36482,1,-0.00048927
57.9,-1.08021,6.36477,1,-0.00048927
58,-0.971286,6.36471,1,-0.00048927
58.1,-0.862364,6.36466,1,-0.00048927
58.2,-0.753442,6.36461,1,-0.00048927
58.3,-0.644521,6.36455,1,-0.00048927
58.4,-0.535599,6.3645,1,-0.00048927
58.5,-0.426677,6.36445,1,-0.00048927
58.6,-0.317755,6.36439,1,-0.00048927
58.7,-0.208833,6.36434,1,-0.00048927
58.8,-0.0999108,6.36429,1,-0.00048927
58.9,0.00901119,6.36423,1,-0.00048927
59,0.117933,6.36418,1,-0.00048927
59.1,0.226855,6.36413,1,-0.00048927
59.2,0.335777,6.36407,1,-0.00048927
59.3,0.444699,6.36402,1,-0.00048927
59.4,0.553621,6.36397,1,-0.00048927
59.5,0.662543,6.36391,1,-0.00048927
59.6,0.771465,6.36386,1,-0.00048927
59.7,0.880387,6.36381,1,-0.00048927
59.8,0.989309,6.36375,1,-0.00048927
59.9,1.09823,6.3637,1,-0.00048927
60,1.20715,6.36365,1,-0.00048927
60.1,1.31607,6.36359,1,-0.00048927
60.2,1.425,6.36354,1,-0.00048927
60.3,1.53392,6.36349,1,-0.00048927
60.4,1.64284,6.36343,1,-0.00048927
60.5,1.75176,6.36338,1,-0.00048927
60.6,1.86068,6.36333,1,-0.00048927
60.7,1.96961,6.36327,1,-0.00048927
60.8,2.07853,6.36322,1,-0.00048927
60.9,2.18745,6.36317,1,-0.00048927
61,2.29637,6.36311,1,-0.00048927
61.1,2.40529,6.36306,1,-0.00048927
61.2,2.51422,6.36301,1,-0.00048927
61.3,2.62314,6.36295,1,-0.00048927
61.4,2.73206,6.3629,1,-0.00048927
61.5,2.84098,6.36285,1,-0.000489269
61.6,2.9499,6.36279,1,-0.000489269
61.7,3.05883,6.36274,1,-0.000489269
61.8,3.16775,6.36269,1,-0.000489269
61.9,3.27667,6.36263,1,-0.000489269
62,3.38559,6.36258,1,-0.00048927
62.1,3.49451,6.36252,1,-0.000489269
62.2,3.60344,6.36247,1,-0.000489269
62.3,3.71236,6.36242,1,-0.000489269
62.4,3.82128,6.36236,1,-0.000489269
62.5,3.9302,6.36231,1,-0.00048927
62.6,4.03912,6.36226,1,-0.000489269
62.7,4.14805,6.3622,1,-0.000489269
62.8,4.25697,6.36215,1,-0.00048927
62.9,4.36589,6.3621,1,-0.000489269
63,4.47481,6.36204,1,-0.000489269
63.1,4.58373,6.36199,1,-0.000489269
63.2,4.69266,6.36194,1,-0.000489269
63.3,4.80158,6.36188,1,-0.00048927
63.4,4.9105,6.36183,1,-0.000489269
63.5,-4.98058,6.36178,1,-0.000489269
63.6,-4.87166,6.36172,1,-0.000489172
63.7,-4.76273,6.36167,1,-0.000489172
63.8,-4.65381,6.36162,1,-0.000489172
63.9,-4.54489,6.36156,1,-0.000489172
64,-4.43597,6.36151,1,-0.000489172
64.1,-4.32705,6.36146,1,-0.000489172
64.2,-4.21812,6.3614,1,-0.000489172
64.3,-4.1092,6.36135,1,-0.000489172
64.4,-4.00028,6.3613,1,-0.000489172
64.5,-3.89136,6.36124,1,-0.000489172
64.6,-3.78244,6.36119,1,-0.000489172
64.7,-3.67351,6.36114,1,-0.000489172
64.8,-3.56459,6.36108,1,-0.000489172
64.9,-3.45567,6.36103,1,-0.000489172
65,-3.34675,6.36098,1,-0.000489172
65.1,-3.23783,6.36092,1,-0.000489172
65.2,-3.1289,6.36087,1,-0.000489172
65.3,-3.01998,6.36082,1,-0.000489172
65.4,-2.91106,6.36076,1,-0.000489172
65.5,-2.80214,6.36071,1,-0.000489172
65.6,-2.69322,6.36066,1,-0.000489172
65.7,-2.58429,6.3606,1,-0.000489172
65.8,-2.47537,6.36055,1,-0.000489172
65.9,-2.36645,6.3605,1,-0.000489172
66,-2.25753,6.36044,1,-0.000489172
66.1,-2.14861,6.36039,1,-0.000489172
66.2,-2.03968,6.36034,1,-0.000489172
66.3,-1.93076,6.36028,1,-0.000489172
66.4,-1.82184,6.36023,1,-0.000489172
66.5,-1.71292,6.36018,1,-0.000489172
66.6,-1.604,6.36012,1,-0.000489171
66.7,-1.49507,6.36007,1,-0.000489171
66.8,-1.38615,6.36001,1,-0.000489171
66.9,-1.27723,6.35996,1,-0.000489172
67,-1.16831,6.35991,1,-0.000489171
67.1,-1.05939,6.35985,1,-0.000489171
67.2,-0.950463,6.3598,1,-0.000489172
67.3,-0.841541,6.35975,1,-0.000489172
67.4,-0.732619,6.35969,1,-0.000489172
67.5,-0.623698,6.35964,1,-0.000489171
67.6,-0.514776,6.35959,1,-0.000489171
67.7,-0.405854,6.35953,1,-0.000489171
67.8,-0.296932,6.35948,1,-0.000489171
67.9,-0.18801,6.35943,1,-0.000489171
68,-0.0790878,6.35937,1,-0.000489171
68.1,0.0298342,6.35932,1,-0.000489172
68.2,0.138756,6.35927,1,-0.000489171
68.3,0.247678,6.35921,1,-0.000489171
68.4,0.3566,6.35916,1,-0.000489171
68.5,0.465522,6.35911,1,-0.000489171
68.6,0.574444,6.35905,1,-0.000489171
68.7,0.683366,6.359,1,-0.000489171
68.8,0.792288,6.35895,1,-0.000489171
68.9,0.90121,6.35889,1,-0.000489171
69,1.01013,6.35884,1,-0.000489171
69.1,1.11905,6.35878,1,-0.000503853
69.2,1.22798,6.35868,1,-0.000774131
69.3,1.33691,6.35856,1,-0.00095251
69.4,1.44583,6.35841,0.999999,-0.00103677
69.5,1.55476,6.35827,0.999999,-0.00104402
69.6,1.66368,6.35812,0.999999,-0.001044
69.7,1.7726,6.35798,0.999999,-0.00104398
69.8,1.88153,6.35784,0.999999,-0.00104397
69.9,1.99045,6.35769,0.999999,-0.00104395
70,2.09937,6.35755,0.999999,-0.00104393
70.1,2.20829,6.3574,0.999999,-0.00104392
70.2,2.31722,6.35726,0.999999,-0.0010439
70.3,2.42614,6.35712,0.999999,-0.00104388
70.4,2.53506,6.35697,0.999999,-0.00104386
70.5,2.64398,6.35683,0.999999,-0.00104383
70.6,2.75291,6.35668,0.999999,-0.00104381
70.7,2.86183,6.35654,0.999999,-0.00104379
70.8,2.97075,6.3564,0.999999,-0.00104377
70.9,3.07968,6.35625,0.999999,-0.00104374
71,3.1886,6.35611,0.999999,-0.00104371
71.1,3.29752,6.35596,0.999999,-0.00104368
71.2,3.40644,6.35582,0.999999,-0.00104365
71.3,3.51537,6.35568,0.999999,-0.00104361
71.4,3.62429,6.35553,0.999999,-0.00104358
71.5,3.73321,6.35539,0.999999,-0.00104354
71.6,3.84213,6.35524,0.999999,-0.0010435
71.7,3.95106,6.3551,0.999999,-0.00104345
71.8,4.05998,6.35496,0.999999,-0.00104346
71.9,4.1689,6.35481,0.999999,-0.00104347
72,4.27782,6.35467,0.999999,-0.00104342
72.1,4.38675,6.35452,0.999999,-0.00104343
72.2,4.49567,6.35438,0.999999,-0.00104344
72.3,4.60459,6.35425,0.999999,-0.000979049
72.4,4.71351,6.35419,1,-0.000489115
72.5,4.82244,6.35414,1,-0.000489115
72.6,4.93136,6.35409,1,-0.000489115
72.7,-4.95972,6.35403,1,-0.000489115
72.8,-4.8508,6.35398,1,-0.000489017
72.9,-4.74188,6.35393,1,-0.000489017
73,-4.63295,6.35387,1,-0.000489017
73.1,-4.52403,6.35382,1,-0.000489017
73.2,-4.41511,6.35377,1,-0.000489017
73.3,-4.30619,6.35371,1,-0.000489017
73.4,-4.19727,6.35366,1,-0.000489017
73.5,-4.08834,6.35361,1,-0.000489017
73.6,-3.97942,6.35355,1,-0.000489017
73.7,-3.8705,6.3535,1,-0.000489017
73.8,-3.76158,6.35345,1,-0.000489017
73.9,-3.65266,6.35339,1,-0.000489017
74,-3.54373,6.35334,1,-0.000489017
74.1,-3.43481,6.35329,1,-0.000489017
74.2,-3.32589,6.35323,1,-0.000489017
74.3,-3.21697,6.35318,1,-0.000489017
74.4,-3.10805,6.35313,1,-0.000489017
74.5,-2.99912,6.35307,1,-0.000489017
74.6,-2.8902,6.35302,1,-0.000489017
74.7,-2.78128,6.35297,1,-0.000489017
74.8,-2.67236,6.35291,1,-0.000489017
74.9,-2.56344,6.35286,1,-0.000489017
75,-2.45451,6.35281,1,-0.000489017
75.1,-2.34559,6.35275,1,-0.000489017
75.2,-2.23667,6.3527,1,-0.000489017
75.3,-2.12775,6.35264,1,-0.000489017
75.4,-2.01883,6.35259,1,-0.000489017
75.5,-1.9099,6.35254,1,-0.000489017
75.6,-1.80098,6.35248,1,-0.000489017
75.7,-1.69206,6.35243,1,-0.000489017
75.8,-1.58314,6.35238,1,-0.000489017
75.9,-1.47422,6.35232,1,-0.000489017
76,-1.36529,6.35227,1,-0.000489017
76.1,-1.25637,6.35222,1,-0.000489017
76.2,-1.14745,6.35216,1,-0.000489017
76.3,-1.03853,6.35211,1,-0.000489017
76.4,-0.929606,6.35206,1,-0.000489017
76.5,-0.820684,6.352,1,-0.000489017
76.6,-0.711762,6.35195,1,-0.000489017
76.7,-0.60284,6.3519,1,-0.000489017
76.8,-0.493918,6.35184,1,-0.000489017
76.9,-0.384996,6.35179,1,-0.000489017
77,-0.276074,6.35174,1,-0.000489017
77.1,-0.167152,6.35168,1,-0.000489017
77.2,-0.0582304,6.35163,1,-0.000489017
77.3,0.0506915,6.35158,1,-0.000489017
77.4,0.159613,6.35152,1,-0.000489017
77.5,0.268535,6.35147,1,-0.000489017
77.6,0.377457,6.35142,1,-0.000489017
77.7,0.486379,6.35136,1,-0.000489017
77.8,0.595301,6.35131,1,-0.000489017
77.9,0.704223,6.35126,1,-0.000489017
78,0.813145,6.3512,1,-0.000489017
78.1,0.922067,6.35115,1,-0.000489017
78.2,1.03099,6.3511,1,-0.000489017
78.3,1.13991,6.35104,1,-0.000489017
78.4,1.24883,6.35099,1,-0.000489017
78.5,1.35775,6.35094,1,-0.000489017
78.6,1.46668,6.35088,1,-0.000489017
78.7,1.5756,6.35083,1,-0.000489017
78.8,1.68452,6.35078,1,-0.000489017
78.9,1.79344,6.35072,1,-0.000489017
79,1.90236,6.35067,1,-0.000489017
79.1,2.01129,6.35062,1,-0.000489017
79.2,2.12021,6.35056,1,-0.000489017
79.3,2.22913,6.35051,1,-0.000489017
79.4,2.33805,6.35046,1,-0.000489017
79.5,2.44697,6.3504,1,-0.000489017
79.6,2.5559,6.35035,1,-0.000489017
79.7,2.66482,6.3503,1,-0.000489017
79.8,2.77374,6.35024,1,-0.000489017
79.9,2.88266,6.35019,1,-0.000489017
80,2.99159,6.35013,1,-0.000489017
