0.1,-11.7347,-9.08606,0.992134,0.125181
0.2,-1.85381,-9.1025,-0.942874,-0.333149
0.3,-2.00237,-9.11664,-0.983118,-0.182972
0.4,-2.12428,-9.12963,-0.967025,-0.254683
0.5,-2.21057,-9.13886,-0.829377,-0.558689
0.6,-2.26403,-9.14461,0.957681,-0.287832
0.7,-2.28971,-9.15059,0.991955,-0.12659
0.8,-2.28635,-9.15427,0.998828,-0.048402
0.9,-2.25975,-9.15534,0.999942,-0.0107645
1,-2.21667,-9.15456,0.999977,0.00679388
1.1,-2.15479,-9.15322,0.999951,0.00989929
1.2,-2.07256,-9.15117,0.999912,0.013263
1.3,-1.97721,-9.14981,0.999967,0.00810019
1.4,-1.87376,-9.14911,0.999992,0.00399553
1.5,-1.76403,-9.14451,0.999682,0.025212
1.6,-1.64892,-9.13822,0.999438,0.0335219
1.7,-1.5313,-9.13304,0.99963,0.0271923
1.8,-1.41256,-9.12894,0.999771,0.0214187
1.9,-1.29337,-9.12565,0.999852,0.0171857
2,-1.17406,-9.12293,0.9999,0.0141561
2.1,-1.05482,-9.12063,0.999928,0.0119801
2.2,-0.935728,-9.11847,0.999936,0.0112811
2.3,-0.816805,-9.11624,0.999932,0.01164
2.4,-0.698053,-9.11394,0.999927,0.0120523
2.5,-0.579468,-9.11155,0.999922,0.0124547
2.6,-0.461045,-9.1091,0.999918,0.0128474
2.7,-0.34278,-9.10658,0.999913,0.0132307
2.8,-0.22467,-9.10398,0.999907,0.0136048
2.9,-0.106709,-9.10132,0.999902,0.0139697
3,0.0111052,-9.09859,0.999897,0.0143258
3.1,0.128777,-9.0958,0.999892,0.0146729
3.2,0.246311,-9.09295,0.999887,0.0150113
3.3,0.363709,-9.09003,0.999882,0.0153412
3.4,0.480976,-9.08706,0.999877,0.0156628
3.5,0.598116,-9.08403,0.999872,0.0159769
3.6,0.71513,-9.08094,0.999867,0.0162835
3.7,0.832023,-9.0778,0.999862,0.0165826
3.8,0.948797,-9.0746,0.999858,0.0168745
3.9,1.06546,-9.07135,0.999853,0.0171594
4,1.182,-9.06805,0.999848,0.0174374
4.1,1.29844,-9.06471,0.999843,0.0177086
4.2,1.41477,-9.06131,0.999838,0.0179732
4.3,1.53099,-9.05787,0.999834,0.0182313
4.4,1.64711,-9.05438,0.999829,0.0184831
4.5,1.76314,-9.05085,0.999825,0.0187287
4.6,1.87907,-9.04727,0.99982,0.0189682
4.7,1.9949,-9.04365,0.999816,0.0192018
4.8,2.11064,-9.03999,0.999811,0.0194297
4.9,2.22629,-9.03629,0.999807,0.0196518
5,2.34186,-9.03255,0.999803,0.0198691
5.1,2.45721,-9.02872,0.999792,0.0203999
5.2,2.5721,-9.02467,0.999767,0.021577
5.3,2.68669,-9.02049,0.999751,0.0223178
5.4,2.80133,-9.01634,0.999754,0.022172
5.5,2.91625,-9.01049,0.999513,0.031202
5.6,3.03248,-9.00127,0.998811,0.0487474
5.7,3.15041,-8.99068,0.998459,0.0554953
5.8,3.26926,-8.97942,0.998273,0.058753
5.9,3.38843,-8.96785,0.998185,0.0602274
6,3.5077,-8.95619,0.99816,0.0606318
6.1,3.62694,-8.94456,0.998166,0.0605288
6.2,3.74612,-8.93298,0.998182,0.0602689
6.3,3.86526,-8.92145,0.998195,0.0600544
6.4,3.98436,-8.90995,0.998205,0.0598823
6.5,4.10343,-8.89848,0.998213,0.05975
6.6,4.22248,-8.88703,0.998219,0.0596551
6.7,4.34151,-8.87559,0.998223,0.0595958
6.8,4.46054,-8.86415,0.998224,0.05957
6.9,4.57957,-8.85272,0.998224,0.0595685
7,4.6986,-8.84128,0.998224,0.0595684
7.1,4.81763,-8.82985,0.998224,0.0595683
7.2,4.93666,-8.81841,0.998224,0.0595682
7.3,-4.94431,-8.80698,0.998224,0.0595682
7.4,-4.82528,-8.79555,0.998224,0.0595681
7.5,-4.70625,-8.78411,0.998224,0.059568
7.6,-4.58722,-8.77268,0.998224,0.0595679
7.7,-4.46819,-8.76124,0.998224,0.0595678
7.8,-4.34916,-8.74981,0.998224,0.0595676
7.9,-4.23013,-8.73837,0.998224,0.0595675
8,-4.1111,-8.72694,0.998224,0.0595674
8.1,-3.99207,-8.7155,0.998224,0.0595673
8.2,-3.87304,-8.70407,0.998224,0.0595671
8.3,-3.75401,-8.69263,0.998224,0.059567
8.4,-3.63498,-8.6812,0.998224,0.0595669
8.5,-3.51595,-8.66977,0.998224,0.0595668
8.6,-3.39692,-8.65833,0.998224,0.0595666
8.7,-3.27789,-8.6469,0.998224,0.0595665
8.8,-3.15886,-8.63546,0.998224,0.0595664
8.9,-3.03984,-8.62403,0.998224,0.0595662
9,-2.92081,-8.61259,0.998224,0.0595661
9.1,-2.80178,-8.60116,0.998224,0.0595659
9.2,-2.68275,-8.58972,0.998224,0.0595657
9.3,-2.56372,-8.57829,0.998224,0.0595655
9.4,-2.44469,-8.56685,0.998224,0.0595653
9.5,-2.32566,-8.55542,0.998224,0.0595649
9.6,-2.20663,-8.54399,0.998224,0.0595651
9.7,-2.0876,-8.53255,0.998224,0.0595673
9.8,-1.96807,-8.52139,0.998317,0.0579902
9.9,-1.84844,-8.5103,0.998338,0.0576295
10,-1.72828,-8.49949,0.998431,0.0559891
10.1,-1.60799,-8.48875,0.998455,0.0555676
10.2,-1.48715,-8.47832,0.998549,0.053845
10.3,-1.36616,-8.46798,0.998575,0.0533652
10.4,-1.24456,-8.45795,0.99867,0.0515668
10.5,-1.12277,-8.44801,0.998696,0.0510574
10.6,-1.00017,-8.43852,0.998819,0.0485892
10.7,-0.876509,-8.4296,0.99897,0.0453729
10.8,-0.751701,-8.42132,0.999122,0.0419029
10.9,-0.625823,-8.41364,0.999251,0.0386988
11,-0.499518,-8.40619,0.999299,0.0374284
11.1,-0.373106,-8.3988,0.999311,0.0371155
11.2,-0.246747,-8.39138,0.999305,0.0372717
11.3,-0.120489,-8.3839,0.999294,0.0375721
11.4,0.00567378,-8.37637,0.999283,0.0378575
11.5,0.131746,-8.36879,0.999273,0.0381258
11.6,0.257735,-8.36116,0.999263,0.0383768
11.7,0.383645,-8.35349,0.999254,0.0386104
11.8,0.509483,-8.34578,0.999246,0.0388263
11.9,0.635254,-8.33803,0.999238,0.0390245
12,0.760965,-8.33025,0.999231,0.0392046
12.1,0.886623,-8.32244,0.999225,0.0393665
12.2,1.01223,-8.3146,0.999219,0.0395101
12.3,1.1378,-8.30674,0.999214,0.0396349
12.4,1.26333,-8.29886,0.99921,0.0397398
12.5,1.38884,-8.29097,0.999207,0.0398254
12.6,1.51457,-8.2829,0.999175,0.0406228
12.7,1.64043,-8.27476,0.999159,0.0409952
12.8,1.76665,-8.26644,0.999126,0.0418051
12.9,1.89331,-8.2579,0.999082,0.0428343
13,2.02042,-8.24913,0.999038,0.0438547
13.1,2.14793,-8.24016,0.998996,0.0447897
13.2,2.27581,-8.231,0.998958,0.0456293
13.3,2.40403,-8.22168,0.998923,0.0463902
13.4,2.53256,-8.21219,0.99889,0.0470957
13.5,2.66138,-8.20256,0.998858,0.0477678
13.6,2.7905,-8.19278,0.998827,0.0484228
13.7,2.9199,-8.18286,0.998795,0.0490699
13.8,3.04959,-8.17279,0.998764,0.0497108
13.9,3.17957,-8.16258,0.998732,0.0503444
14,3.30983,-8.15222,0.9987,0.0509682
14.1,3.44036,-8.14173,0.998669,0.0515807
14.2,3.57116,-8.1311,0.998638,0.0521821
14.3,3.70223,-8.12034,0.998607,0.0527726
14.4,3.83357,-8.10944,0.998576,0.0533538
14.5,3.96517,-8.09841,0.998545,0.0539269
14.6,4.09702,-8.08726,0.998514,0.0544936
14.7,4.22914,-8.07597,0.998483,0.0550555
14.8,4.36151,-8.06455,0.998452,0.0556133
14.9,4.49413,-8.05301,0.998421,0.0561679
15,4.62701,-8.04133,0.99839,0.0567198
15.1,4.76014,-8.02953,0.998359,0.0572695
15.2,4.89353,-8.0176,0.998327,0.0578182
15.3,-4.97282,-8.00554,0.998295,0.0583664
15.4,-4.83892,-7.99336,0.998263,0.0589153
15.5,-4.70476,-7.98104,0.99823,0.0594653
15.6,-4.57035,-7.96859,0.998197,0.0600173
15.7,-4.43567,-7.95601,0.998164,0.0605719
15.8,-4.30073,-7.9433,0.99813,0.0611302
15.9,-4.16552,-7.93046,0.998095,0.061693
16,-4.03005,-7.91748,0.99806,0.0622612
16.1,-3.8943,-7.90436,0.998024,0.0628361
16.2,-3.75827,-7.8911,0.997987,0.0634184
16.3,-3.62196,-7.8777,0.997949,0.0640091
16.4,-3.48537,-7.86416,0.997911,0.0646094
16.5,-3.34848,-7.85046,0.997871,0.0652207
16.6,-3.21112,-7.83818,0.998293,0.0584072
16.7,-3.07341,-7.82674,0.998524,0.0543061
16.8,-2.93534,-7.81696,0.998924,0.0463693
16.9,-2.79698,-7.80915,0.999316,0.0369902
17,-2.65839,-7.80332,0.999619,0.0275869
17.1,-2.51966,-7.79937,0.999825,0.0186835
17.2,-2.38084,-7.79718,0.999947,0.0103434
17.3,-2.24195,-7.79667,0.999997,0.00242589
17.4,-2.10303,-7.79676,1,-0.000462547
17.5,-1.96408,-7.79715,0.999998,-0.00183913
17.6,-1.82511,-7.79767,0.999997,-0.00246274
17.7,-1.68614,-7.79819,0.999997,-0.00247473
17.8,-1.54716,-7.79872,0.999997,-0.00248113
17.9,-1.40818,-7.79924,0.999997,-0.00248452
18,-1.2692,-7.79976,0.999997,-0.00248623
18.1,-1.13022,-7.80029,0.999997,-0.00248715
18.2,-0.991243,-7.80081,0.999997,-0.00248763
18.3,-0.852262,-7.80134,0.999997,-0.00248794
18.4,-0.713282,-7.80186,0.999997,-0.00248804
18.5,-0.574302,-7.80239,0.999997,-0.00248807
18.6,-0.435321,-7.80291,0.999997,-0.00248813
18.7,-0.296341,-7.80343,0.999997,-0.00248801
18.8,-0.157361,-7.80396,0.999997,-0.00248804
18.9,-0.0183802,-7.80448,0.999997,-0.00248813
19,0.1206,-7.80501,0.999997,-0.00248819
19.1,0.259581,-7.80553,0.999997,-0.0024881
19.2,0.398561,-7.80606,0.999997,-0.00248819
19.3,0.537541,-7.80658,0.999997,-0.00248811
19.4,0.676522,-7.80711,0.999997,-0.00248817
19.5,0.815502,-7.80763,0.999997,-0.00248825
19.6,0.954483,-7.80816,0.999997,-0.00248836
19.7,1.09346,-7.80868,0.999997,-0.00248849
19.8,1.23244,-7.8092,0.999997,-0.00248831
19.9,1.37142,-7.80973,0.999997,-0.00248851
20,1.5104,-7.81025,0.999997,-0.00248866
20.1,1.64938,-7.81078,0.999997,-0.0024884
20.2,1.78837,-7.8113,0.999997,-0.00248848
20.3,1.92735,-7.81183,0.999997,-0.00248876
20.4,2.06633,-7.81235,0.999997,-0.00248914
20.5,2.20531,-7.81288,0.999997,-0.00248857
20.6,2.34429,-7.8134,0.999997,-0.00248892
20.7,2.48327,-7.81393,0.999997,-0.00248922
20.8,2.62225,-7.81445,0.999997,-0.00249038
20.9,2.76123,-7.81498,0.999997,-0.00249204
21,2.90021,-7.8155,0.999997,-0.0024909
21.1,3.03919,-7.81603,0.999997,-0.00249855
21.2,3.17817,-7.81656,0.999997,-0.00252359
21.3,3.31715,-7.8171,0.999997,-0.00255272
21.4,3.45614,-7.81764,0.999997,-0.00259147
21.5,3.59512,-7.8182,0.999997,-0.00262594
21.6,3.73411,-7.81876,0.999996,-0.00266179
21.7,3.8731,-7.81933,0.999996,-0.00269519
21.8,4.01209,-7.8199,0.999996,-0.0027252
21.9,4.15108,-7.82048,0.999996,-0.00275839
22,4.29007,-7.82107,0.999996,-0.00278213
22.1,4.42906,-7.82166,0.999996,-0.00281378
22.2,4.56806,-7.82226,0.999996,-0.00284402
22.3,4.70705,-7.82287,0.999996,-0.00288627
22.4,4.84605,-7.82349,0.999996,-0.00292025
22.5,4.98505,-7.82411,0.999996,-0.00295647
22.6,-4.87595,-7.82474,0.999996,-0.00298374
22.7,-4.73695,-7.82538,0.999995,-0.00302273
22.8,-4.59794,-7.82603,0.999995,-0.00305539
22.9,-4.45894,-7.82668,0.999995,-0.00309224
23,-4.31993,-7.82734,0.999995,-0.00312365
23.1,-4.18092,-7.828,0.999995,-0.00315926
23.2,-4.04191,-7.82868,0.999995,-0.00319047
23.3,-3.9029,-7.82936,0.999995,-0.00322749
23.4,-3.76389,-7.83005,0.999995,-0.00326678
23.5,-3.62487,-7.83074,0.999995,-0.00330686
23.6,-3.48585,-7.83145,0.999994,-0.00334297
23.7,-3.34683,-7.83216,0.999994,-0.00337755
23.8,-3.20781,-7.83288,0.999994,-0.00341684
23.9,-3.06879,-7.83361,0.999994,-0.0034521
24,-2.92976,-7.83435,0.999994,-0.00349573
24.1,-2.79073,-7.8351,0.999994,-0.00353424
24.2,-2.6517,-7.83585,0.999994,-0.00357256
24.3,-2.51267,-7.83661,0.999994,-0.00361125
24.4,-2.37364,-7.83738,0.999993,-0.00365029
24.5,-2.2346,-7.83816,0.999993,-0.0036909
24.6,-2.09556,-7.83895,0.999993,-0.00373474
24.7,-1.95652,-7.83975,0.999993,-0.00377498
24.8,-1.81747,-7.84055,0.999993,-0.00381672
24.9,-1.67843,-7.84137,0.999993,-0.00386048
25,-1.53938,-7.84219,0.999992,-0.00390245
25.1,-1.40033,-7.84303,0.999992,-0.00394536
25.2,-1.26127,-7.84387,0.999992,-0.00398814
25.3,-1.12222,-7.84472,0.999992,-0.00403131
25.4,-0.983156,-7.84558,0.999992,-0.00407647
25.5,-0.844093,-7.84645,0.999992,-0.00412148
25.6,-0.705028,-7.84733,0.999991,-0.00416588
25.7,-0.56596,-7.84822,0.999991,-0.0042107
25.8,-0.426888,-7.84912,0.999991,-0.00425364
25.9,-0.287805,-7.85005,0.99999,-0.00442393
26,-0.148713,-7.85101,0.99999,-0.00451248
26.1,-0.00960287,-7.852,0.999989,-0.00471479
26.2,0.129519,-7.85302,0.999988,-0.00483174
26.3,0.268667,-7.85409,0.999987,-0.00505762
26.4,0.40783,-7.85519,0.999986,-0.00519729
26.5,0.547024,-7.85634,0.999985,-0.00543949
26.6,0.686239,-7.85752,0.999984,-0.00559516
26.7,0.825489,-7.85876,0.999983,-0.00584974
26.8,0.964764,-7.86003,0.999982,-0.00601776
26.9,1.10408,-7.86136,0.99998,-0.00627985
27,1.24342,-7.86273,0.999979,-0.00645742
27.1,1.38281,-7.86415,0.999977,-0.00672425
27.2,1.52224,-7.86562,0.999976,-0.00690819
27.3,1.66171,-7.86714,0.999974,-0.0071765
27.4,1.80122,-7.8687,0.999973,-0.00736331
27.5,1.94078,-7.87031,0.999971,-0.00763253
27.6,2.08038,-7.87197,0.999969,-0.00782041
27.7,2.22004,-7.87369,0.999967,-0.00808502
27.8,2.35975,-7.87544,0.999966,-0.00827557
27.9,2.49951,-7.87725,0.999964,-0.00853317
28,2.63932,-7.8791,0.999962,-0.00872082
28.1,2.7792,-7.88101,0.99996,-0.008972
28.2,2.91913,-7.88295,0.999958,-0.00915693
28.3,3.05913,-7.88495,0.999956,-0.00939986
28.4,3.19918,-7.88698,0.999954,-0.00957822
28.5,3.3393,-7.88907,0.999952,-0.00981142
28.6,3.47948,-7.89119,0.99995,-0.00998278
28.7,3.61973,-7.89336,0.999948,-0.0102066
28.8,3.76004,-7.89557,0.999946,-0.0103673
28.9,3.90043,-7.89782,0.999944,-0.0105791
29,4.04088,-7.9001,0.999942,-0.0107312
29.1,4.18141,-7.90243,0.99994,-0.0109285
29.2,4.32201,-7.90479,0.999939,-0.0110716
29.3,4.46269,-7.90718,0.999937,-0.0112507
29.4,4.60343,-7.90961,0.999935,-0.011384
29.5,4.74426,-7.91207,0.999933,-0.0115476
29.6,4.88516,-7.91456,0.999932,-0.0116692
29.7,-4.97399,-7.91686,0.999942,-0.0107649
29.8,-4.83337,-7.91871,0.999962,-0.00867052
29.9,-4.69295,-7.92015,0.999977,-0.0067836
30,-4.55271,-7.92126,0.999986,-0.00521809
30.1,-4.41264,-7.92205,0.999993,-0.00372175
30.2,-4.27272,-7.92257,0.999997,-0.00244572
30.3,-4.13295,-7.92284,0.999999,-0.00128941
30.4,-3.99331,-7.92302,1,-0.000882157
30.5,-3.8538,-7.92319,1,-0.000812858
30.6,-3.71442,-7.92338,1,-0.000905888
30.7,-3.57516,-7.92361,0.999999,-0.0010839
30.8,-3.43602,-7.92389,0.999999,-0.00131273
30.9,-3.297,-7.92422,0.999999,-0.00157738
31,-3.15809,-7.92461,0.999998,-0.00187157
31.1,-3.01929,-7.92508,0.999998,-0.00219305
31.2,-2.88059,-7.92561,0.999997,-0.00254148
31.3,-2.742,-7.92623,0.999996,-0.00291742
31.4,-2.60351,-7.92693,0.999995,-0.00332203
31.5,-2.46511,-7.92772,0.999993,-0.00375677
31.6,-2.3268,-7.92861,0.999991,-0.00422328
31.7,-2.18858,-7.9296,0.999989,-0.00472332
31.8,-2.05044,-7.93071,0.999986,-0.00525882
31.9,-1.91238,-7.93193,0.999983,-0.00583176
32,-1.77439,-7.93329,0.999979,-0.00644424
32.1,-1.63647,-7.93478,0.999975,-0.0070984
32.2,-1.4986,-7.93642,0.99997,-0.00779645
32.3,-1.36079,-7.93821,0.999964,-0.00854057
32.4,-1.22301,-7.94018,0.999956,-0.00933297
32.5,-1.08527,-7.94232,0.999948,-0.0101758
32.6,-0.947559,-7.94464,0.999939,-0.011071
32.7,-0.809857,-7.94717,0.999928,-0.0120204
32.8,-0.672156,-7.94991,0.999915,-0.0130256
32.9,-0.534442,-7.95287,0.999901,-0.0140876
33,-0.396699,-7.95606,0.999884,-0.0152071
33.1,-0.258911,-7.95951,0.999866,-0.0163838
33.2,-0.121059,-7.96321,0.999845,-0.0176169
33.3,0.0168792,-7.96719,0.999821,-0.0189042
33.4,0.154926,-7.97146,0.999795,-0.0202423
33.5,0.293107,-7.97601,0.999766,-0.021626
33.6,0.431452,-7.98087,0.999734,-0.0230482
33.7,0.569991,-7.98605,0.9997,-0.0244997
33.8,0.708758,-7.99154,0.999663,-0.0259685
33.9,0.847791,-7.99734,0.999623,-0.0274398
34,0.987127,-8.00347,0.999582,-0.0288958
34.1,1.12681,-8.0099,0.99954,-0.030315
34.2,1.26688,-8.01664,0.999498,-0.0316731
34.3,1.40739,-8.02366,0.999457,-0.032942
34.4,1.54797,-8.03073,0.999451,-0.0331433
34.5,1.68855,-8.0378,0.999451,-0.0331432
34.6,1.82913,-8.04486,0.999451,-0.0331431
34.7,1.96971,-8.05193,0.999451,-0.033143
34.8,2.11029,-8.059,0.999451,-0.033143
34.9,2.25087,-8.06606,0.999451,-0.0331429
35,2.39145,-8.07313,0.999451,-0.0331428
35.1,2.53203,-8.0802,0.999451,-0.0331427
35.2,2.67261,-8.08726,0.999451,-0.0331427
35.3,2.81319,-8.09433,0.999451,-0.0331426
35.4,2.95377,-8.1014,0.999451,-0.0331425
35.5,3.09435,-8.10846,0.999451,-0.0331425
35.6,3.23493,-8.11553,0.999451,-0.0331424
35.7,3.37551,-8.1226,0.999451,-0.0331423
35.8,3.51609,-8.12966,0.999451,-0.0331422
35.9,3.65667,-8.13673,0.999451,-0.0331422
36,3.79725,-8.1438,0.999451,-0.0331421
36.1,3.93783,-8.15086,0.999451,-0.033142
36.2,4.07841,-8.15793,0.999451,-0.033142
36.3,4.21899,-8.165,0.999451,-0.0331419
36.4,4.35957,-8.17206,0.999451,-0.0331418
36.5,4.50015,-8.17913,0.999451,-0.0331417
36.6,4.64073,-8.1862,0.999451,-0.0331416
36.7,4.78131,-8.19326,0.999451,-0.0331416
36.8,4.92189,-8.20033,0.999451,-0.0331415
36.9,-4.93753,-8.2074,0.999451,-0.0331414
37,-4.79695,-8.21446,0.999451,-0.0331413
37.1,-4.65637,-8.22153,0.999451,-0.0331413
37.2,-4.51579,-8.2286,0.999451,-0.0331412
37.3,-4.37521,-8.23566,0.999451,-0.0331411
37.4,-4.23463,-8.24273,0.999451,-0.0331411
37.5,-4.09405,-8.2498,0.999451,-0.033141
37.6,-3.95347,-8.25686,0.999451,-0.0331409
37.7,-3.81289,-8.26393,0.999451,-0.0331408
37.8,-3.67231,-8.271,0.999451,-0.0331407
37.9,-3.53173,-8.27806,0.999451,-0.0331407
38,-3.39115,-8.28513,0.999451,-0.0331406
38.1,-3.25057,-8.2922,0.999451,-0.0331405
38.2,-3.10999,-8.29926,0.999451,-0.0331405
38.3,-2.96941,-8.30633,0.999451,-0.0331404
38.4,-2.82883,-8.3134,0.999451,-0.0331403
38.5,-2.68825,-8.32046,0.999451,-0.0331402
38.6,-2.54767,-8.32753,0.999451,-0.0331402
38.7,-2.40709,-8.3346,0.999451,-0.0331401
38.8,-2.26651,-8.34166,0.999451,-0.0331401
38.9,-2.12598,-8.34866,0.999461,-0.0328259
39,-1.98663,-8.35454,0.999616,-0.0277214
39.1,-1.84756,-8.36024,0.999637,-0.0269238
39.2,-1.70928,-8.36513,0.999731,-0.0232101
39.3,-1.5715,-8.36954,0.999781,-0.0209351
39.4,-1.43452,-8.37485,0.999678,-0.0253722
39.5,-1.29764,-8.38053,0.999633,-0.0271031
39.6,-1.16058,-8.38636,0.999614,-0.0277874
39.7,-1.02331,-8.39265,0.99955,-0.0299862
39.8,-0.885588,-8.39963,0.99945,-0.0331604
39.9,-0.747065,-8.40741,0.99932,-0.0368587
40,-0.607315,-8.41602,0.999179,-0.0405073
40.1,-0.465867,-8.42527,0.999066,-0.0432044
40.2,-0.323878,-8.43466,0.999044,-0.0437156
40.3,-0.181888,-8.44405,0.999044,-0.0437155
40.4,-0.039898,-8.45344,0.999044,-0.0437154
40.5,0.102092,-8.46283,0.999044,-0.0437153
40.6,0.244082,-8.47221,0.999044,-0.0437152
40.7,0.386071,-8.4816,0.999044,-0.0437152
40.8,0.528061,-8.49099,0.999044,-0.0437151
40.9,0.670051,-8.50038,0.999044,-0.043715
41,0.81204,-8.50977,0.999044,-0.0437149
41.1,0.95403,-8.51915,0.999044,-0.0437148
41.2,1.09602,-8.52854,0.999044,-0.0437148
41.3,1.23801,-8.53793,0.999044,-0.0437147
41.4,1.38,-8.54732,0.999044,-0.0437146
41.5,1.52199,-8.55671,0.999044,-0.0437145
41.6,1.66398,-8.56609,0.999044,-0.0437144
41.7,1.80597,-8.57548,0.999044,-0.0437143
41.8,1.94796,-8.58487,0.999044,-0.0437142
41.9,2.08995,-8.59426,0.999044,-0.0437141
42,2.23194,-8.60365,0.999044,-0.0437141
42.1,2.37393,-8.61303,0.999044,-0.043714
42.2,2.51592,-8.62242,0.999044,-0.0437139
42.3,2.65791,-8.63181,0.999044,-0.0437138
42.4,2.7999,-8.6412,0.999044,-0.0437137
42.5,2.94189,-8.65059,0.999044,-0.0437136
42.6,3.08388,-8.65997,0.999044,-0.0437135
42.7,3.22587,-8.66936,0.999044,-0.0437134
42.8,3.36786,-8.67875,0.999044,-0.0437133
42.9,3.50984,-8.68814,0.999044,-0.0437132
43,3.65183,-8.69753,0.999044,-0.0437131
43.1,3.79382,-8.70691,0.999044,-0.043713
43.2,3.93585,-8.71621,0.999063,-0.0432874
43.3,4.07793,-8.72535,0.999095,-0.0425362
43.4,4.22008,-8.73432,0.999129,-0.0417217
43.5,4.36229,-8.74311,0.999162,-0.0409317
43.6,4.50457,-8.75176,0.999192,-0.0401927
43.7,4.6469,-8.76026,0.999219,-0.0395208
43.8,4.78927,-8.76863,0.999242,-0.0389286
43.9,4.93169,-8.7769,0.999261,-0.0384276
44,-4.92585,-8.78508,0.999277,-0.0380303
44.1,-4.78338,-8.79321,0.999286,-0.0377848
44.2,-4.6409,-8.80133,0.999287,-0.0377415
44.3,-4.49844,-8.80948,0.999283,-0.0378578
44.4,-4.35599,-8.81767,0.999275,-0.0380686
44.5,-4.21357,-8.82592,0.999265,-0.0383346
44.6,-4.07118,-8.83423,0.999254,-0.0386295
44.7,-3.92884,-8.84261,0.99924,-0.038975
44.8,-3.7866,-8.85112,0.999217,-0.0395718
44.9,-3.64378,-8.85913,0.999309,-0.037161
45,-3.5,-8.86584,0.999519,-0.031025
45.1,-3.35554,-8.87095,0.999723,-0.023523
45.2,-3.21074,-8.87472,0.999849,-0.0173767
45.3,-3.06586,-8.87777,0.999902,-0.0139882
45.4,-2.92095,-8.88042,0.999926,-0.0121899
45.5,-2.77601,-8.88286,0.999937,-0.0112497
45.6,-2.63107,-8.8852,0.999942,-0.0107561
45.7,-2.48612,-8.88749,0.999945,-0.0104945
45.8,-2.34117,-8.88974,0.999946,-0.0103541
45.9,-2.19622,-8.89197,0.999947,-0.0102772
46,-2.05126,-8.8942,0.999947,-0.0102447
46.1,-1.90631,-8.89643,0.999947,-0.0102446
46.2,-1.76135,-8.89866,0.999947,-0.0102446
46.3,-1.6164,-8.90089,0.999947,-0.0102445
46.4,-1.47145,-8.90312,0.999947,-0.0102444
46.5,-1.32649,-8.90535,0.999947,-0.0102442
46.6,-1.18154,-8.90757,0.999947,-0.0102442
46.7,-1.03658,-8.9098,0.999947,-0.010244
46.8,-0.89163,-8.91203,0.999947,-0.0102442
46.9,-0.746676,-8.91426,0.999947,-0.0102444
47,-0.601722,-8.91649,0.999947,-0.0102442
47.1,-0.456768,-8.91872,0.999947,-0.0102441
47.2,-0.311814,-8.92094,0.999947,-0.0102443
47.3,-0.16686,-8.92317,0.999947,-0.0102436
47.4,-0.021906,-8.9254,0.999947,-0.0102445
47.5,0.123048,-8.92763,0.999947,-0.0102436
47.6,0.268001,-8.92986,0.999947,-0.0102613
47.7,0.413158,-8.93012,0.999999,-0.00117379
47.8,0.55831,-8.93012,1,-3.31512e-06
47.9,0.703461,-8.93012,1,-3.31515e-06
48,0.848612,-8.93012,1,-3.31514e-06
48.1,0.993763,-8.93012,1,-3.31513e-06
48.2,1.13891,-8.93012,1,-3.31512e-06
48.3,1.28407,-8.93012,1,-3.31512e-06
48.4,1.42922,-8.93012,1,-3.31511e-06
48.5,1.57437,-8.93012,1,-3.3151e-06
48.6,1.71952,-8.93012,1,-3.31509e-06
48.7,1.86467,-8.93013,1,-3.31508e-06
48.8,2.00982,-8.93013,1,-3.31507e-06
48.9,2.15497,-8.93013,1,-3.31506e-06
49,2.30012,-8.93013,1,-3.31505e-06
49.1,2.44535,-8.93012,1,5.09818e-05
49.2,2.59066,-8.9301,1,9.39829e-05
49.3,2.73607,-8.93007,1,0.000124599
49.4,2.88157,-8.93003,1,0.000152565
49.5,3.02717,-8.92999,1,0.000182274
49.6,3.17286,-8.92995,1,0.000219672
49.7,3.31862,-8.92976,1,0.000842683
49.8,3.46444,-8.92927,0.999997,0.00225404
49.9,3.61031,-8.92852,0.999994,0.00343729
50,3.75622,-8.92755,0.99999,0.00443495
50.1,3.90218,-8.9264,0.999986,0.00526663
50.2,4.04819,-8.9251,0.999982,0.00594631
50.3,4.19425,-8.92368,0.999979,0.00648381
50.4,4.34036,-8.92217,0.999976,0.00688576
50.5,4.48653,-8.92061,0.999974,0.00715622
50.6,4.63276,-8.91901,0.999973,0.00729439
50.7,4.77905,-8.91741,0.999973,0.00732585
50.8,4.92541,-8.9158,0.999973,0.00734853
50.9,-4.92815,-8.91418,0.999973,0.0073708
51,-4.78165,-8.91256,0.999973,0.00739253
51.1,-4.63509,-8.91094,0.999973,0.00741375
51.2,-4.48846,-8.90931,0.999972,0.00743448
51.3,-4.34177,-8.90767,0.999972,0.00745475
51.4,-4.19502,-8.90604,0.999972,0.00747454
51.5,-4.04821,-8.90439,0.999972,0.00749387
51.6,-3.90134,-8.90274,0.999972,0.00751269
51.7,-3.7544,-8.90115,0.999974,0.00723419
51.8,-3.60738,-8.8997,0.999978,0.00664197
51.9,-3.46028,-8.89839,0.999982,0.00592208
52,-3.31311,-8.89725,0.999986,0.00520305
52.1,-3.16586,-8.89625,0.99999,0.00456487
52.2,-3.01855,-8.89535,0.999992,0.00405875
52.3,-2.87118,-8.89454,0.999993,0.00371769
52.4,-2.72376,-8.89376,0.999994,0.00354344
52.5,-2.57628,-8.893,0.999994,0.00345384
52.6,-2.42875,-8.89225,0.999994,0.00339495
52.7,-2.28118,-8.89151,0.999994,0.00335258
52.8,-2.13355,-8.89078,0.999994,0.00331898
52.9,-1.98588,-8.89005,0.999995,0.00329007
53,-1.83816,-8.88933,0.999995,0.00326392
53.1,-1.69039,-8.88862,0.999995,0.00323934
53.2,-1.54258,-8.88791,0.999995,0.00321571
53.3,-1.39472,-8.88721,0.999995,0.00319287
53.4,-1.24683,-8.88651,0.999995,0.00317058
53.5,-1.09889,-8.88581,0.999995,0.00314878
53.6,-0.950917,-8.88501,0.999993,0.00364917
53.7,-0.802943,-8.88382,0.999986,0.00538576
53.8,-0.654975,-8.88232,0.999977,0.00679626
53.9,-0.507013,-8.88057,0.999968,0.00795541
54,-0.359053,-8.87861,0.99996,0.00889274
54.1,-0.211093,-8.87648,0.999954,0.00962788
54.2,-0.0631249,-8.87424,0.999948,0.0101733
54.3,0.0848569,-8.87191,0.999944,0.010536
54.4,0.232861,-8.86955,0.999943,0.0107186
54.5,0.380896,-8.86718,0.999942,0.0107444
54.6,0.528962,-8.8648,0.999942,0.0107545
54.7,0.677057,-8.86243,0.999942,0.0107644
54.8,0.825181,-8.86005,0.999942,0.010774
54.9,0.973334,-8.85767,0.999942,0.0107834
55,1.12152,-8.85529,0.999942,0.0107926
55.1,1.26972,-8.8529,0.999942,0.0108016
55.2,1.41796,-8.85051,0.999942,0.01081
55.3,1.56624,-8.84823,0.999946,0.0103525
55.4,1.71459,-8.84612,0.999955,0.00952913
55.5,1.86299,-8.84423,0.999963,0.00857253
55.6,2.01146,-8.84254,0.999971,0.00764813
55.7,2.15996,-8.84102,0.999976,0.00686747
55.8,2.30851,-8.83962,0.99998,0.00630635
55.9,2.45709,-8.83829,0.999982,0.00599954
56,2.60569,-8.837,0.999983,0.00584567
56.1,2.75432,-8.83572,0.999983,0.0057704
56.2,2.90298,-8.83446,0.999983,0.00573563
56.3,3.05165,-8.83319,0.999984,0.00572247
56.4,3.20036,-8.83192,0.999984,0.00573026
56.5,3.34908,-8.83065,0.999983,0.0057379
56.6,3.49782,-8.82938,0.999983,0.00574538
56.7,3.64659,-8.8281,0.999983,0.0057527
56.8,3.79538,-8.82683,0.999983,0.00575983
56.9,3.94418,-8.82555,0.999983,0.00576688
57,4.09301,-8.82427,0.999983,0.00577373
57.1,4.24186,-8.82299,0.999983,0.00578042
57.2,4.39072,-8.82171,0.999983,0.00578689
57.3,4.5396,-8.82043,0.999983,0.00579328
57.4,4.68851,-8.81914,0.999983,0.00579955
57.5,4.83742,-8.81786,0.999983,0.0058057
57.6,4.98636,-8.81657,0.999983,0.00581174
57.7,-4.86468,-8.81528,0.999983,0.00581771
57.8,-4.71571,-8.81399,0.999983,0.0058235
57.9,-4.56673,-8.8127,0.999983,0.00582925
58,-4.41772,-8.8114,0.999983,0.00583479
58.1,-4.26871,-8.81011,0.999983,0.00584028
58.2,-4.11967,-8.80881,0.999983,0.00584575
58.3,-3.97062,-8.80752,0.999983,0.00585099
58.4,-3.82156,-8.80622,0.999983,0.00585621
58.5,-3.67249,-8.80492,0.999983,0.00585775
58.6,-3.52341,-8.80362,0.999983,0.00586164
58.7,-3.37432,-8.80232,0.999983,0.00586635
58.8,-3.22521,-8.80102,0.999983,0.0058709
58.9,-3.07611,-8.79954,0.999978,0.00665022
59,-2.92701,-8.7979,0.999973,0.00739845
59.1,-2.77792,-8.79614,0.999968,0.00795657
59.2,-2.62883,-8.79429,0.999965,0.0083338
59.3,-2.47974,-8.7924,0.999964,0.00853449
59.4,-2.33064,-8.7905,0.999963,0.008571
59.5,-2.18152,-8.7886,0.999963,0.00857328
59.6,-2.03239,-8.78669,0.999963,0.00857553
59.7,-1.88325,-8.78479,0.999963,0.00857772
59.8,-1.7341,-8.78289,0.999963,0.00857984
59.9,-1.58494,-8.78099,0.999963,0.00858194
60,-1.43577,-8.77908,0.999963,0.00858398
60.1,-1.28659,-8.77718,0.999963,0.00858601
60.2,-1.1374,-8.77531,0.999964,0.00844024
60.3,-0.988174,-8.77355,0.999969,0.00790688
60.4,-0.838926,-8.77195,0.999974,0.00722872
60.5,-0.689655,-8.77049,0.999978,0.00656488
60.6,-0.540366,-8.76916,0.999982,0.00601278
60.7,-0.391062,-8.76791,0.999984,0.00563258
60.8,-0.241747,-8.7667,0.999985,0.00543114
60.9,-0.092422,-8.76552,0.999986,0.00532837
61,0.0569126,-8.76435,0.999986,0.00527632
61.1,0.206256,-8.76318,0.999986,0.00525034
61.2,0.355608,-8.76202,0.999986,0.00523778
61.3,0.504968,-8.76086,0.999986,0.00523211
61.4,0.654337,-8.7597,0.999986,0.00522995
61.5,0.803713,-8.75853,0.999986,0.00522957
61.6,0.953097,-8.75737,0.999986,0.00523007
61.7,1.10249,-8.75621,0.999986,0.00523104
61.8,1.25189,-8.75505,0.999986,0.00523223
61.9,1.40129,-8.75389,0.999986,0.00523357
62,1.55071,-8.75272,0.999986,0.0052349
62.1,1.70013,-8.75156,0.999986,0.00523626
62.2,1.84956,-8.7504,0.999986,0.00523764
62.3,1.99899,-8.74924,0.999986,0.00523895
62.4,2.14843,-8.74807,0.999986,0.00524027
62.5,2.29788,-8.74691,0.999986,0.00524161
62.6,2.44733,-8.74574,0.999986,0.00524285
62.7,2.59679,-8.74458,0.999986,0.00524408
62.8,2.74625,-8.74341,0.999986,0.00524535
62.9,2.89573,-8.74225,0.999986,0.00524648
63,3.0452,-8.74108,0.999986,0.0052476
63.1,3.19469,-8.73992,0.999986,0.00524877
63.2,3.34417,-8.73875,0.999986,0.00524978
63.3,3.49367,-8.73758,0.999986,0.00525077
63.4,3.64317,-8.73642,0.999986,0.00525178
63.5,3.79267,-8.73525,0.999986,0.00525258
63.6,3.94218,-8.73408,0.999986,0.0052533
63.7,4.09169,-8.73291,0.999986,0.00525396
63.8,4.24121,-8.73175,0.999986,0.00525462
63.9,4.39074,-8.73058,0.999986,0.00525582
64,4.54027,-8.72941,0.999986,0.00525631
64.1,4.6898,-8.72824,0.999986,0.00525633
64.2,4.83934,-8.72707,0.999986,0.00525693
64.3,4.98888,-8.7259,0.999986,0.00525954
64.4,-4.86155,-8.72581,1,0.000416695
64.5,-4.71203,-8.72612,0.999999,-0.00140111
64.6,-4.56253,-8.7266,0.999998,-0.00213462
64.7,-4.41304,-8.72715,0.999997,-0.0024742
64.8,-4.26355,-8.72774,0.999996,-0.00267193
64.9,-4.11407,-8.72836,0.999996,-0.00281927
65,-3.96458,-8.72902,0.999996,-0.00294936
65.1,-3.81511,-8.7297,0.999995,-0.00307404
65.2,-3.66563,-8.73041,0.999995,-0.00319744
65.3,-3.51616,-8.73115,0.999995,-0.0033215
65.4,-3.36669,-8.73191,0.999994,-0.00344669
65.5,-3.21723,-8.7327,0.999994,-0.00357293
65.6,-3.06777,-8.73353,0.999993,-0.00370035
65.7,-2.91831,-8.73438,0.999993,-0.00382897
65.8,-2.76885,-8.73513,0.999994,-0.00340257
65.9,-2.61937,-8.73581,0.999995,-0.00307866
66,-2.46988,-8.73644,0.999996,-0.00284247
66.1,-2.32038,-8.73704,0.999996,-0.00268202
66.2,-2.17089,-8.73761,0.999997,-0.00258772
66.3,-2.02139,-8.73818,0.999997,-0.00255199
66.4,-1.87189,-8.73875,0.999997,-0.00256902
66.5,-1.72239,-8.73933,0.999997,-0.00263443
66.6,-1.57289,-8.73994,0.999996,-0.0027451
66.7,-1.42341,-8.74072,0.999994,-0.00349753
66.8,-1.274,-8.74185,0.999987,-0.0050698
66.9,-1.12464,-8.74325,0.99998,-0.00632415
67,-0.97534,-8.74489,0.999973,-0.00741991
67.1,-0.826077,-8.74675,0.999965,-0.00835306
67.2,-0.67685,-8.74877,0.999958,-0.00913764
67.3,-0.527651,-8.75094,0.999952,-0.00978567
67.4,-0.378476,-8.75323,0.999947,-0.0103065
67.5,-0.229319,-8.7556,0.999943,-0.0107074
67.6,-0.0801742,-8.75804,0.99994,-0.0109939
67.7,0.0689624,-8.76052,0.999938,-0.01117
67.8,0.218096,-8.76301,0.999937,-0.0112388
67.9,0.367229,-8.7655,0.999937,-0.01124
68,0.516363,-8.76799,0.999937,-0.01124
68.1,0.665496,-8.77048,0.999937,-0.0112399
68.2,0.81463,-8.77297,0.999937,-0.0112399
68.3,0.963763,-8.77547,0.999937,-0.0112399
68.4,1.11293,-8.77781,0.999944,-0.0105585
68.5,1.26206,-8.7803,0.999937,-0.0112254
68.6,1.41114,-8.78303,0.999924,-0.0123505
68.7,1.56019,-8.78598,0.999911,-0.0133016
68.8,1.70919,-8.78911,0.999901,-0.0141037
68.9,1.85817,-8.79238,0.999891,-0.0147687
69,2.00712,-8.79577,0.999883,-0.0153059
69.1,2.15605,-8.79925,0.999876,-0.0157228
69.2,2.30497,-8.8028,0.999872,-0.0160249
69.3,2.45388,-8.80639,0.999869,-0.0162146
69.4,2.60279,-8.81,0.999867,-0.0162963
69.5,2.7517,-8.81361,0.999867,-0.0162996
69.6,2.9006,-8.81722,0.999867,-0.0162996
69.7,3.04951,-8.82083,0.999867,-0.0162995
69.8,3.19842,-8.82444,0.999867,-0.0162995
69.9,3.34732,-8.82805,0.999867,-0.0162995
70,3.49627,-8.83147,0.999881,-0.0154086
70.1,3.64527,-8.83461,0.999899,-0.0141969
70.2,3.79433,-8.83748,0.999916,-0.0129403
70.3,3.94344,-8.84009,0.999931,-0.0117541
70.4,4.09272,-8.84185,0.999968,-0.00793859
70.5,4.23778,-8.84267,0.999993,-0.00378859
70.6,4.38941,-8.84456,0.999965,-0.00842815
70.7,4.53962,-8.84652,0.999961,-0.00880182
70.8,4.69014,-8.8486,0.999957,-0.00931842
70.9,4.84058,-8.85063,0.999958,-0.00911231
71,4.99105,-8.85258,0.999962,-0.00872624
71.1,-4.85848,-8.85441,0.999966,-0.00819606
71.2,-4.70798,-8.8561,0.999971,-0.0075957
71.3,-4.55747,-8.85765,0.999976,-0.00694599
71.4,-4.40694,-8.85905,0.99998,-0.00626102
71.5,-4.25639,-8.86028,0.999985,-0.00554652
71.6,-4.10583,-8.86141,0.999987,-0.00507876
71.7,-3.95526,-8.86255,0.999987,-0.00509555
71.8,-3.8047,-8.86369,0.999987,-0.00511274
71.9,-3.65415,-8.86484,0.999987,-0.00513664
72,-3.50361,-8.86599,0.999987,-0.00516585
72.1,-3.35307,-8.86715,0.999986,-0.00520113
72.2,-3.20254,-8.86832,0.999986,-0.00524214
72.3,-3.05202,-8.8695,0.999986,-0.00528936
72.4,-2.90151,-8.87069,0.999986,-0.00534306
72.5,-2.75102,-8.87189,0.999985,-0.0054029
72.6,-2.60053,-8.87311,0.999985,-0.0054697
72.7,-2.45006,-8.87435,0.999985,-0.00554322
72.8,-2.29961,-8.8756,0.999984,-0.00562365
72.9,-2.14917,-8.87688,0.999984,-0.00571135
73,-1.99875,-8.87817,0.999983,-0.00580795
73.1,-1.84834,-8.87949,0.999983,-0.00591206
73.2,-1.69795,-8.88083,0.999982,-0.00601588
73.3,-1.54757,-8.8822,0.999981,-0.00612171
73.4,-1.3972,-8.88358,0.999981,-0.00622852
73.5,-1.24685,-8.885,0.99998,-0.00633711
73.6,-1.09651,-8.88643,0.999979,-0.00644665
73.7,-0.946182,-8.8879,0.999978,-0.0065578
73.8,-0.795873,-8.88938,0.999978,-0.00667023
73.9,-0.64558,-8.89089,0.999977,-0.00678372
74,-0.495304,-8.89243,0.999976,-0.00689859
74.1,-0.345046,-8.89399,0.999975,-0.00701487
74.2,-0.194805,-8.89558,0.999975,-0.00713229
74.3,-0.0445829,-8.8972,0.999974,-0.00725083
74.4,0.10562,-8.89884,0.999973,-0.00737066
74.5,0.255803,-8.90051,0.999972,-0.00749143
74.6,0.405966,-8.90221,0.999971,-0.00761362
74.7,0.556107,-8.90393,0.99997,-0.00773653
74.8,0.706226,-8.90568,0.999969,-0.00786077
74.9,0.856323,-8.90746,0.999968,-0.00798596
75,1.0064,-8.90926,0.999967,-0.00811188
75.1,1.15645,-8.9111,0.999966,-0.0082385
75.2,1.30647,-8.91296,0.999965,-0.00836617
75.3,1.45647,-8.91485,0.999964,-0.0084945
75.4,1.60644,-8.91677,0.999963,-0.00862359
75.5,1.75638,-8.91872,0.999962,-0.008753
75.6,1.9063,-8.92069,0.999961,-0.00888316
75.7,2.05618,-8.9227,0.999959,-0.0090137
75.8,2.20604,-8.92473,0.999958,-0.0091446
75.9,2.35586,-8.92679,0.999957,-0.00927537
76,2.50566,-8.92888,0.999956,-0.00940605
76.1,2.65541,-8.931,0.999955,-0.00953735
76.2,2.80514,-8.93315,0.999953,-0.0096685
76.3,2.95483,-8.93533,0.999952,-0.00979882
76.4,3.10448,-8.93754,0.999951,-0.00992917
76.5,3.2541,-8.93977,0.999949,-0.010059
76.6,3.40367,-8.94204,0.999948,-0.0101884
76.7,3.55321,-8.94433,0.999947,-0.0103164
76.8,3.7027,-8.94665,0.999945,-0.0104435
76.9,3.85216,-8.94899,0.999944,-0.0105698
77,4.00157,-8.95137,0.999943,-0.0106942
77.1,4.15093,-8.95377,0.999941,-0.0108174
77.2,4.30025,-8.9562,0.99994,-0.0109388
77.3,4.44953,-8.95865,0.999939,-0.0110577
77.4,4.59875,-8.96113,0.999938,-0.0111754
77.5,4.74793,-8.96363,0.999936,-0.01129
77.6,4.89705,-8.96616,0.999935,-0.0114027
77.7,-4.95388,-8.96871,0.999934,-0.0115117
77.8,-4.80486,-8.97128,0.999933,-0.0116177
77.9,-4.65589,-8.97388,0.999931,-0.0117205
78,-4.50698,-8.9765,0.99993,-0.0118194
78.1,-4.35813,-8.97914,0.999929,-0.011914
78.2,-4.20934,-8.98179,0.999928,-0.0120056
78.3,-4.06061,-8.98447,0.999927,-0.0120916
78.4,-3.91194,-8.98716,0.999926,-0.0121728
78.5,-3.76333,-8.98987,0.999925,-0.012249
78.6,-3.61478,-8.9926,0.999924,-0.0123193
78.7,-3.4663,-8.99533,0.999923,-0.0123855
78.8,-3.31789,-8.99808,0.999923,-0.0124425
78.9,-3.16955,-9.00084,0.999922,-0.0124957
79,-3.02127,-9.00361,0.999921,-0.0125408
79.1,-2.87306,-9.00639,0.999921,-0.0125792
79.2,-2.72493,-9.00917,0.999921,-0.0126094
79.3,-2.57686,-9.01196,0.99992,-0.0126322
79.4,-2.42887,-9.01475,0.99992,-0.0126462
79.5,-2.28095,-9.01754,0.99992,-0.0126508
79.6,-2.13311,-9.02033,0.99992,-0.0126476
79.7,-1.98535,-9.02311,0.99992,-0.0126354
79.8,-1.83766,-9.02589,0.99992,-0.0126133
79.9,-1.69005,-9.02866,0.999921,-0.0125801
80,-1.54252,-9.03142,0.999921,-0.0125361
