0.1,-13.2107,1.07774,0.999904,0.0138322
0.2,-3.18898,1.08216,0.998506,0.0546514
0.3,-3.14022,1.07605,0.998366,-0.0571451
0.4,-3.09001,1.06961,0.99823,-0.0594662
0.5,-3.04209,1.05762,0.99368,-0.112255
0.6,-2.96629,1.05316,0.999442,-0.0334117
0.7,-2.87143,1.05519,0.999915,0.0130379
0.8,-2.75783,1.05555,0.999998,0.00192613
0.9,-2.64092,1.05549,1,-0.000499778
1,-2.52402,1.05543,1,-0.000499778
1.1,-2.40712,1.05537,1,-0.000499778
1.2,-2.29021,1.05532,1,-0.000499777
1.3,-2.17331,1.05526,1,-0.000499777
1.4,-2.0564,1.0552,1,-0.000499778
1.5,-1.9395,1.05514,1,-0.000499778
1.6,-1.8226,1.05508,1,-0.000499777
1.7,-1.70569,1.05502,1,-0.000499777
1.8,-1.58879,1.05497,1,-0.000499778
1.9,-1.47189,1.05491,1,-0.000499777
2,-1.35498,1.05485,1,-0.000499777
2.1,-1.23808,1.05479,1,-0.000499778
2.2,-1.12117,1.05473,1,-0.000499778
2.3,-1.00427,1.05467,1,-0.000499777
2.4,-0.887366,1.05462,1,-0.000499778
2.5,-0.770462,1.05456,1,-0.000499778
2.6,-0.653558,1.0545,1,-0.000499778
2.7,-0.536654,1.05444,1,-0.000499777
2.8,-0.41975,1.05438,1,-0.000499778
2.9,-0.302846,1.05432,1,-0.000499778
3,-0.185942,1.05427,1,-0.000499777
3.1,-0.0690383,1.05421,1,-0.000499778
3.2,0.0478656,1.05415,1,-0.000499778
3.3,0.16477,1.05409,1,-0.000499777
3.4,0.281673,1.05403,1,-0.000499778
3.5,0.398577,1.05397,1,-0.000499778
3.6,0.515481,1.05391,1,-0.000499777
3.7,0.632385,1.05386,1,-0.000499778
3.8,0.749289,1.0538,1,-0.000499778
3.9,0.866193,1.05374,1,-0.000499778
4,0.983097,1.05368,1,-0.000499778
4.1,1.1,1.05362,1,-0.000499778
4.2,1.2169,1.05356,1,-0.000499778
4.3,1.33381,1.05351,1,-0.000499778
4.4,1.45071,1.05345,1,-0.000499777
4.5,1.56762,1.05339,1,-0.000499778
4.6,1.68452,1.05333,1,-0.000499777
4.7,1.80142,1.05327,1,-0.000499778
4.8,1.91833,1.05321,1,-0.000499778
4.9,2.03523,1.05316,1,-0.000499778
5,2.15214,1.0531,1,-0.000499778
5.1,2.26904,1.05304,1,-0.000499778
5.2,2.38594,1.05298,1,-0.000499777
5.3,2.50285,1.05292,1,-0.000499778
5.4,2.61975,1.05286,1,-0.000499778
5.5,2.73665,1.0528,1,-0.000499778
5.6,2.85356,1.05275,1,-0.000499777
5.7,2.97046,1.05269,1,-0.000499778
5.8,3.08737,1.05263,1,-0.000499777
5.9,3.20427,1.05257,1,-0.000499778
6,3.32117,1.05251,1,-0.000499777
6.1,3.43808,1.05245,1,-0.000499778
6.2,3.55498,1.0524,1,-0.000499777
6.3,3.67189,1.05234,1,-0.000499778
6.4,3.78879,1.05228,1,-0.000499778
6.5,3.90569,1.05222,1,-0.000499778
6.6,4.0226,1.05216,1,-0.000499777
6.7,4.1395,1.0521,1,-0.000499778
6.8,4.2564,1.05205,1,-0.000499778
6.9,4.37331,1.05199,1,-0.000499778
7,4.49021,1.05193,1,-0.000499777
7.1,4.60712,1.05187,1,-0.000499778
7.2,4.72402,1.05181,1,-0.000499778
7.3,4.84092,1.05175,1,-0.000499777
7.4,4.95783,1.05169,1,-0.000499778
7.5,-4.92527,1.05164,1,-0.000499778
7.6,-4.80837,1.05158,1,-0.000499677
7.7,-4.69146,1.05152,1,-0.000499677
7.8,-4.57456,1.05146,1,-0.000499677
7.9,-4.45765,1.0514,1,-0.000499677
8,-4.34075,1.05134,1,-0.000499677
8.1,-4.22385,1.05129,1,-0.000499677
8.2,-4.10694,1.05123,1,-0.000499677
8.3,-3.99004,1.05117,1,-0.000499677
8.4,-3.87314,1.05111,1,-0.000499677
8.5,-3.75623,1.05105,1,-0.000499677
8.6,-3.63933,1.05099,1,-0.000499677
8.7,-3.52242,1.05094,1,-0.000499677
8.8,-3.40552,1.05088,1,-0.000499677
8.9,-3.28862,1.05082,1,-0.000499677
9,-3.17171,1.05076,1,-0.000499677
9.1,-3.05481,1.0507,1,-0.000499677
9.2,-2.93791,1.05064,1,-0.000499677
9.3,-2.821,1.05059,1,-0.000499677
9.4,-2.7041,1.05053,1,-0.000499677
9.5,-2.58719,1.05047,1,-0.000499678
9.6,-2.47029,1.05041,1,-0.000499677
9.7,-2.35339,1.05035,1,-0.000499677
9.8,-2.23648,1.05029,1,-0.000499678
9.9,-2.11958,1.05023,1,-0.000499677
10,-2.00268,1.05018,1,-0.000499677
10.1,-1.88577,1.05012,1,-0.000499677
10.2,-1.76887,1.05006,1,-0.000499677
10.3,-1.65196,1.05,1,-0.000499677
10.4,-1.53506,1.04994,1,-0.000499677
10.5,-1.41816,1.04988,1,-0.000499677
10.6,-1.30125,1.04983,1,-0.000499677
10.7,-1.18435,1.04977,1,-0.000499677
10.8,-1.06744,1.04971,1,-0.000499677
10.9,-0.95054,1.04965,1,-0.000499677
11,-0.833636,1.04959,1,-0.000499677
11.1,-0.716732,1.04953,1,-0.000499677
11.2,-0.599828,1.04948,1,-0.000499677
11.3,-0.482924,1.04942,1,-0.000499677
11.4,-0.36602,1.04936,1,-0.000499677
11.5,-0.249117,1.0493,1,-0.000499677
11.6,-0.132213,1.04924,1,-0.000499677
11.7,-0.0153087,1.04918,1,-0.000499677
11.8,0.101595,1.04912,1,-0.000499677
11.9,0.218499,1.04907,1,-0.000499677
12,0.335403,1.04901,1,-0.000499677
12.1,0.452307,1.04895,1,-0.000499677
12.2,0.569211,1.04889,1,-0.000499677
12.3,0.686115,1.04883,1,-0.000499677
12.4,0.803019,1.04877,1,-0.000499677
12.5,0.919922,1.04872,1,-0.000499677
12.6,1.03683,1.04866,1,-0.000499677
12.7,1.15373,1.0486,1,-0.000499677
12.8,1.27063,1.04854,1,-0.000499677
12.9,1.38754,1.04848,1,-0.000499677
13,1.50444,1.04842,1,-0.000499677
13.1,1.62135,1.04837,1,-0.000499677
13.2,1.73825,1.04831,1,-0.000499677
13.3,1.85515,1.04825,1,-0.000499677
13.4,1.97206,1.04819,1,-0.000499677
13.5,2.08896,1.04813,1,-0.000499677
13.6,2.20587,1.04807,1,-0.000499677
13.7,2.32277,1.04801,1,-0.000499677
13.8,2.43967,1.04796,1,-0.000499678
13.9,2.55658,1.0479,1,-0.000499677
14,2.67348,1.04784,1,-0.000499677
14.1,2.79038,1.04778,1,-0.000499677
14.2,2.90729,1.04772,1,-0.000499677
14.3,3.02419,1.04766,1,-0.000499677
14.4,3.1411,1.04761,1,-0.000499677
14.5,3.258,1.04755,1,-0.000499677
14.6,3.3749,1.04749,1,-0.000499677
14.7,3.49181,1.04743,1,-0.000499677
14.8,3.60871,1.04737,1,-0.000499677
14.9,3.72561,1.04731,1,-0.000499677
15,3.84252,1.04726,1,-0.000499677
15.1,3.95942,1.0472,1,-0.000499678
15.2,4.07633,1.04714,1,-0.000499677
15.3,4.19323,1.04708,1,-0.000499677
15.4,4.31013,1.04702,1,-0.000499677
15.5,4.42715,1.04693,1,-0.000699293
15.6,4.54448,1.04672,0.999999,-0.00136007
15.7,4.66219,1.04632,0.999997,-0.00242815
15.8,4.78026,1.04565,0.999992,-0.00394518
15.9,4.89861,1.04467,0.999984,-0.00572283
16,-4.98292,1.0434,0.999973,-0.00734243
16.1,-4.86445,1.04194,0.999965,-0.0084246
16.2,-4.74593,1.04033,0.999957,-0.00924622
16.3,-4.62738,1.03859,0.99995,-0.0100271
16.4,-4.50881,1.0367,0.999942,-0.0108043
16.5,-4.39024,1.03468,0.999933,-0.0115812
16.6,-4.27167,1.03252,0.999924,-0.0123537
16.7,-4.15314,1.03023,0.999914,-0.0131155
16.8,-4.03465,1.02781,0.999904,-0.0138589
16.9,-3.91622,1.02526,0.999894,-0.0145746
17,-3.79787,1.02259,0.999884,-0.0152527
17.1,-3.67963,1.01981,0.999874,-0.0158822
17.2,-3.5615,1.01694,0.999865,-0.0164514
17.3,-3.44349,1.01398,0.999856,-0.0169488
17.4,-3.32563,1.01094,0.999849,-0.0173626
17.5,-3.20793,1.00786,0.999844,-0.0176823
17.6,-3.09037,1.00474,0.99984,-0.0178819
17.7,-2.97281,1.00162,0.99984,-0.0178819
17.8,-2.85525,0.9985,0.99984,-0.0178819
17.9,-2.73769,0.995382,0.99984,-0.0178818
18,-2.62014,0.992263,0.99984,-0.0178818
18.1,-2.50258,0.989144,0.99984,-0.0178818
18.2,-2.38502,0.986025,0.99984,-0.0178818
18.3,-2.26746,0.982907,0.99984,-0.0178818
18.4,-2.1499,0.979788,0.99984,-0.0178817
18.5,-2.03234,0.976669,0.99984,-0.0178817
18.6,-1.91478,0.97355,0.99984,-0.0178817
18.7,-1.79722,0.970432,0.99984,-0.0178816
18.8,-1.67967,0.967313,0.99984,-0.0178816
18.9,-1.56211,0.964194,0.99984,-0.0178816
19,-1.44455,0.961075,0.99984,-0.0178816
19.1,-1.32699,0.957957,0.99984,-0.0178816
19.2,-1.20943,0.954838,0.99984,-0.0178815
19.3,-1.09187,0.951719,0.99984,-0.0178815
19.4,-0.974314,0.9486,0.99984,-0.0178815
19.5,-0.856755,0.945482,0.99984,-0.0178815
19.6,-0.739196,0.942363,0.99984,-0.0178814
19.7,-0.621638,0.939244,0.99984,-0.0178814
19.8,-0.504079,0.936125,0.99984,-0.0178814
19.9,-0.38652,0.933007,0.99984,-0.0178814
20,-0.268961,0.929888,0.99984,-0.0178813
20.1,-0.151402,0.926769,0.99984,-0.0178813
20.2,-0.0338437,0.92365,0.99984,-0.0178813
20.3,0.0837151,0.920532,0.99984,-0.0178813
20.4,0.201274,0.917413,0.99984,-0.0178813
20.5,0.318833,0.914294,0.99984,-0.0178812
20.6,0.436391,0.911175,0.99984,-0.0178812
20.7,0.55395,0.908057,0.99984,-0.0178812
20.8,0.671509,0.904938,0.99984,-0.0178812
20.9,0.789068,0.901819,0.99984,-0.0178811
21,0.906627,0.8987,0.99984,-0.017881
21.1,1.02419,0.895582,0.99984,-0.0178811
21.2,1.14174,0.892463,0.99984,-0.0178811
21.3,1.2593,0.889344,0.99984,-0.0178819
21.4,1.37686,0.886225,0.99984,-0.0178811
21.5,1.49442,0.883107,0.99984,-0.0178811
21.6,1.61198,0.879987,0.99984,-0.0178834
21.7,1.72954,0.876869,0.99984,-0.0178811
21.8,1.84709,0.873749,0.99984,-0.0178883
21.9,1.96464,0.870628,0.99984,-0.0178929
22,2.08219,0.867507,0.99984,-0.0178929
22.1,2.19974,0.864387,0.99984,-0.0178929
22.2,2.31729,0.861266,0.99984,-0.0178928
22.3,2.43484,0.858145,0.99984,-0.0178928
22.4,2.55239,0.855025,0.99984,-0.0178928
22.5,2.66994,0.851904,0.99984,-0.0178928
22.6,2.78749,0.848783,0.99984,-0.0178928
22.7,2.90504,0.845663,0.99984,-0.0178927
22.8,3.02259,0.842542,0.99984,-0.0178927
22.9,3.14014,0.839421,0.99984,-0.0178927
23,3.25768,0.836301,0.99984,-0.0178927
23.1,3.37523,0.83318,0.99984,-0.0178927
23.2,3.49278,0.830059,0.99984,-0.0178926
23.3,3.61033,0.826939,0.99984,-0.0178926
23.4,3.72788,0.823818,0.99984,-0.0178926
23.5,3.84543,0.820697,0.99984,-0.0178926
23.6,3.96298,0.817577,0.99984,-0.0178926
23.7,4.08053,0.814456,0.99984,-0.0178926
23.8,4.19808,0.811336,0.99984,-0.0178925
23.9,4.31563,0.808215,0.99984,-0.0178925
24,4.43318,0.805094,0.99984,-0.0178925
24.1,4.55073,0.801974,0.99984,-0.0178925
24.2,4.66828,0.798853,0.99984,-0.0178925
24.3,4.78583,0.795732,0.99984,-0.0178924
24.4,4.90338,0.792612,0.99984,-0.0178924
24.5,-4.97907,0.789491,0.99984,-0.0178924
24.6,-4.86152,0.78637,0.99984,-0.0178923
24.7,-4.74397,0.78325,0.99984,-0.0178922
24.8,-4.62642,0.780129,0.99984,-0.0178922
24.9,-4.50888,0.777045,0.999844,-0.0176837
25,-4.39144,0.774292,0.999875,-0.0158173
25.1,-4.27451,0.772576,0.999951,-0.00994471
25.2,-4.15759,0.771399,0.999976,-0.00687828
25.3,-4.04067,0.770498,0.999986,-0.00530112
25.4,-3.92375,0.76974,0.99999,-0.00448933
25.5,-3.80684,0.769054,0.999992,-0.00407116
25.6,-3.68992,0.768407,0.999993,-0.00385555
25.7,-3.57301,0.767779,0.999993,-0.00374428
25.8,-3.4561,0.767162,0.999993,-0.00368678
25.9,-3.33919,0.766549,0.999993,-0.00365704
26,-3.22227,0.76594,0.999993,-0.00364163
26.1,-3.10536,0.765331,0.999993,-0.00363364
26.2,-2.98845,0.764724,0.999993,-0.00362948
26.3,-2.87153,0.764116,0.999993,-0.00362731
26.4,-2.75462,0.763509,0.999994,-0.00362617
26.5,-2.63771,0.762902,0.999994,-0.00362557
26.6,-2.5208,0.762296,0.999994,-0.00362524
26.7,-2.40388,0.761689,0.999993,-0.00362506
26.8,-2.28697,0.761082,0.999994,-0.00362495
26.9,-2.17006,0.760475,0.999994,-0.00362489
27,-2.05314,0.759868,0.999994,-0.00362484
27.1,-1.93623,0.759261,0.999994,-0.00362481
27.2,-1.81932,0.758655,0.999994,-0.00362479
27.3,-1.70241,0.758048,0.999993,-0.00362477
27.4,-1.58549,0.757441,0.999994,-0.00362474
27.5,-1.46858,0.756834,0.999994,-0.00362473
27.6,-1.35167,0.756228,0.999994,-0.0036247
27.7,-1.23475,0.755621,0.999993,-0.00362469
27.8,-1.11784,0.755014,0.999994,-0.00362466
27.9,-1.00093,0.754407,0.999994,-0.00362463
28,-0.884016,0.753801,0.999994,-0.00362459
28.1,-0.767103,0.753194,0.999994,-0.00362455
28.2,-0.65019,0.752587,0.999994,-0.00362449
28.3,-0.533277,0.75198,0.999994,-0.00362441
28.4,-0.416364,0.751374,0.999994,-0.00362433
28.5,-0.299451,0.750767,0.999994,-0.00362424
28.6,-0.182539,0.75016,0.999994,-0.00362411
28.7,-0.0656258,0.749553,0.999993,-0.00362378
28.8,0.051287,0.748948,0.999994,-0.00361931
28.9,0.168191,0.74889,1,-0.000493671
29,0.285095,0.748832,1,-0.000493671
29.1,0.401999,0.748775,1,-0.000493671
29.2,0.518903,0.748717,1,-0.000493671
29.3,0.635807,0.748659,1,-0.000493671
29.4,0.75271,0.748601,1,-0.000493671
29.5,0.869614,0.748544,1,-0.000493671
29.6,0.986518,0.748486,1,-0.000493671
29.7,1.10342,0.748428,1,-0.000493671
29.8,1.22033,0.748371,1,-0.000493671
29.9,1.33723,0.748313,1,-0.000493671
30,1.45413,0.748255,1,-0.000493671
30.1,1.57104,0.748198,1,-0.000493671
30.2,1.68794,0.74814,1,-0.000493671
30.3,1.80485,0.748082,1,-0.000493671
30.4,1.92175,0.748024,1,-0.000493671
30.5,2.03865,0.747967,1,-0.000493671
30.6,2.15556,0.747909,1,-0.000493671
30.7,2.27246,0.747851,1,-0.000493671
30.8,2.38936,0.747794,1,-0.000493671
30.9,2.50627,0.747736,1,-0.000493671
31,2.62317,0.747678,1,-0.000493671
31.1,2.74008,0.747621,1,-0.000493671
31.2,2.85698,0.747563,1,-0.000493671
31.3,2.97388,0.747505,1,-0.000493671
31.4,3.09079,0.747447,1,-0.000493671
31.5,3.20769,0.74739,1,-0.000493671
31.6,3.32459,0.747332,1,-0.000493671
31.7,3.4415,0.747274,1,-0.000493671
31.8,3.5584,0.747217,1,-0.000493671
31.9,3.67531,0.747159,1,-0.000493671
32,3.79221,0.747101,1,-0.000493671
32.1,3.90911,0.747044,1,-0.000493671
32.2,4.02602,0.746986,1,-0.000493671
32.3,4.14292,0.746928,1,-0.000493671
32.4,4.25983,0.746871,1,-0.000493671
32.5,4.37673,0.746813,1,-0.000493671
32.6,4.49363,0.746755,1,-0.000493671
32.7,4.61054,0.746697,1,-0.000493671
32.8,4.72744,0.74664,1,-0.000493671
32.9,4.84434,0.746582,1,-0.000493671
33,4.96125,0.746524,1,-0.000493671
33.1,-4.92185,0.746467,1,-0.000493671
33.2,-4.80494,0.746409,1,-0.000493572
33.3,-4.68804,0.746351,1,-0.000493572
33.4,-4.57114,0.746294,1,-0.000493572
33.5,-4.45423,0.746236,1,-0.000493572
33.6,-4.33733,0.746178,1,-0.000493572
33.7,-4.22043,0.74612,1,-0.000493572
33.8,-4.10352,0.746063,1,-0.000493572
33.9,-3.98662,0.746005,1,-0.000493572
34,-3.86971,0.745947,1,-0.000493572
34.1,-3.75281,0.74589,1,-0.000493572
34.2,-3.63591,0.745832,1,-0.000493572
34.3,-3.519,0.745774,1,-0.000493572
34.4,-3.4021,0.745717,1,-0.000493572
34.5,-3.2852,0.745659,1,-0.000493572
34.6,-3.16829,0.745601,1,-0.000493572
34.7,-3.05139,0.745543,1,-0.000493572
34.8,-2.9344,0.745451,1,-0.000693867
34.9,-2.81717,0.745253,0.999999,-0.00128941
35,-2.69971,0.744944,0.999998,-0.00192066
35.1,-2.58204,0.744516,0.999997,-0.00259143
35.2,-2.46416,0.743962,0.999995,-0.00330543
35.3,-2.3461,0.743274,0.999992,-0.00406636
35.4,-2.22786,0.742441,0.999988,-0.00487774
35.5,-2.10947,0.741454,0.999983,-0.00574262
35.6,-1.99094,0.740303,0.999978,-0.00666314
35.7,-1.8723,0.738979,0.999971,-0.00764026
35.8,-1.75358,0.737471,0.999962,-0.0086726
35.9,-1.63479,0.735771,0.999952,-0.00975595
36,-1.51598,0.733871,0.999941,-0.0108818
36.1,-1.39719,0.731766,0.999928,-0.0120363
36.2,-1.27844,0.729456,0.999913,-0.0131984
36.3,-1.15979,0.726945,0.999897,-0.014339
36.4,-1.04127,0.724245,0.999881,-0.0154201
36.5,-0.922942,0.721375,0.999866,-0.016395
36.6,-0.80482,0.718367,0.999852,-0.0171931
36.7,-0.686883,0.715263,0.999842,-0.017758
36.8,-0.569108,0.712095,0.999835,-0.0181401
36.9,-0.451476,0.708889,0.999831,-0.0183698
37,-0.333845,0.705682,0.999831,-0.0183697
37.1,-0.216214,0.702476,0.999831,-0.0183697
37.2,-0.0985826,0.69927,0.999831,-0.0183697
37.3,0.0190487,0.696063,0.999831,-0.0183697
37.4,0.13668,0.692857,0.999831,-0.0183697
37.5,0.254311,0.689651,0.999831,-0.0183696
37.6,0.371943,0.686444,0.999831,-0.0183696
37.7,0.489574,0.683238,0.999831,-0.0183696
37.8,0.607205,0.680032,0.999831,-0.0183696
37.9,0.724836,0.676825,0.999831,-0.0183696
38,0.842468,0.673619,0.999831,-0.0183695
38.1,0.960099,0.670413,0.999831,-0.0183695
38.2,1.07773,0.667206,0.999831,-0.0183695
38.3,1.19536,0.664,0.999831,-0.0183695
38.4,1.31299,0.660794,0.999831,-0.0183695
38.5,1.43062,0.657587,0.999831,-0.0183694
38.6,1.54826,0.654381,0.999831,-0.0183694
38.7,1.66589,0.651175,0.999831,-0.0183694
38.8,1.78352,0.647968,0.999831,-0.0183694
38.9,1.90115,0.644762,0.999831,-0.0183693
39,2.01878,0.641556,0.999831,-0.0183693
39.1,2.13641,0.638349,0.999831,-0.0183693
39.2,2.25404,0.635143,0.999831,-0.0183693
39.3,2.37167,0.631937,0.999831,-0.0183693
39.4,2.48931,0.628731,0.999831,-0.0183692
39.5,2.60694,0.625524,0.999831,-0.0183692
39.6,2.72457,0.622318,0.999831,-0.0183692
39.7,2.8422,0.619112,0.999831,-0.0183692
39.8,2.95983,0.615905,0.999831,-0.0183692
39.9,3.07746,0.612699,0.999831,-0.0183692
40,3.19509,0.609492,0.999831,-0.0183691
40.1,3.31272,0.606286,0.999831,-0.0183691
40.2,3.43036,0.60308,0.999831,-0.0183691
40.3,3.54799,0.599873,0.999831,-0.018369
40.4,3.66562,0.596667,0.999831,-0.018369
40.5,3.78325,0.593461,0.999831,-0.018369
40.6,3.90088,0.590254,0.999831,-0.018369
40.7,4.01851,0.587048,0.999831,-0.018369
40.8,4.13614,0.583842,0.999831,-0.018369
40.9,4.25378,0.580635,0.999831,-0.0183689
41,4.37141,0.577429,0.999831,-0.0183689
41.1,4.48904,0.574223,0.999831,-0.0183689
41.2,4.60667,0.571016,0.999831,-0.0183689
41.3,4.7243,0.56781,0.999831,-0.0183688
41.4,4.84193,0.564604,0.999831,-0.0183688
41.5,4.95956,0.561397,0.999831,-0.0183688
41.6,-4.9228,0.558191,0.999831,-0.0183688
41.7,-4.80517,0.554985,0.999831,-0.0183688
41.8,-4.68754,0.551778,0.999831,-0.0183687
41.9,-4.56991,0.548572,0.999831,-0.0183687
42,-4.45228,0.545366,0.999831,-0.0183687
42.1,-4.33465,0.542159,0.999831,-0.0183686
42.2,-4.21707,0.539066,0.999843,-0.0177356
42.3,-4.09984,0.536774,0.999913,-0.0132069
42.4,-3.98265,0.534628,0.999923,-0.0123785
42.5,-3.86567,0.533345,0.999972,-0.00747828
42.6,-3.74872,0.532253,0.99998,-0.00638509
42.7,-3.63182,0.532087,0.999999,-0.00111129
42.8,-3.51491,0.53203,1,-0.000489295
42.9,-3.39801,0.531972,1,-0.000489295
43,-3.2811,0.531915,1,-0.000489295
43.1,-3.1642,0.531858,1,-0.000489295
43.2,-3.0473,0.531801,1,-0.000489295
43.3,-2.93039,0.531744,1,-0.000489295
43.4,-2.81349,0.531686,1,-0.000489295
43.5,-2.69659,0.531629,1,-0.000489295
43.6,-2.57968,0.531572,1,-0.000489295
43.7,-2.46278,0.531515,1,-0.000489295
43.8,-2.34587,0.531457,1,-0.000489295
43.9,-2.22897,0.5314,1,-0.000489295
44,-2.11207,0.531343,1,-0.000489295
44.1,-1.99516,0.531286,1,-0.000489295
44.2,-1.87826,0.531229,1,-0.000489295
44.3,-1.76135,0.531171,1,-0.000489295
44.4,-1.64445,0.531114,1,-0.000489295
44.5,-1.52755,0.531057,1,-0.000489295
44.6,-1.41064,0.531,1,-0.000489295
44.7,-1.29374,0.530942,1,-0.000489295
44.8,-1.17684,0.530885,1,-0.000489295
44.9,-1.05993,0.530828,1,-0.000489295
45,-0.943027,0.530771,1,-0.000489295
45.1,-0.826123,0.530714,1,-0.000489295
45.2,-0.709219,0.530656,1,-0.000489295
45.3,-0.592316,0.530599,1,-0.000489295
45.4,-0.475412,0.530542,1,-0.000489295
45.5,-0.358508,0.530485,1,-0.000489295
45.6,-0.241604,0.530427,1,-0.000489295
45.7,-0.1247,0.53037,1,-0.000489295
45.8,-0.00779606,0.530313,1,-0.000489295
45.9,0.109108,0.530256,1,-0.000489295
46,0.226012,0.530199,1,-0.000489295
46.1,0.342916,0.530141,1,-0.000489295
46.2,0.45982,0.530084,1,-0.000489295
46.3,0.576723,0.530027,1,-0.000489295
46.4,0.693627,0.52997,1,-0.000489295
46.5,0.810531,0.529912,1,-0.000489295
46.6,0.927435,0.529855,1,-0.000489295
46.7,1.04434,0.529798,1,-0.000489295
46.8,1.16124,0.529741,1,-0.000489295
46.9,1.27815,0.529684,1,-0.000489295
47,1.39505,0.529626,1,-0.000489295
47.1,1.51195,0.529569,1,-0.000489295
47.2,1.62886,0.529512,1,-0.000489295
47.3,1.74576,0.529455,1,-0.000489295
47.4,1.86267,0.529397,1,-0.000489295
47.5,1.97957,0.52934,1,-0.000489295
47.6,2.09647,0.529283,1,-0.000489295
47.7,2.21338,0.529226,1,-0.000489295
47.8,2.33028,0.529169,1,-0.000489295
47.9,2.44719,0.529111,1,-0.000489295
48,2.56409,0.529054,1,-0.000489295
48.1,2.68099,0.528997,1,-0.000489295
48.2,2.7979,0.52894,1,-0.000489295
48.3,2.9148,0.528883,1,-0.000489295
48.4,3.0317,0.528825,1,-0.000489295
48.5,3.14861,0.528768,1,-0.000489295
48.6,3.26551,0.528711,1,-0.000489295
48.7,3.38242,0.528654,1,-0.000489295
48.8,3.49932,0.528596,1,-0.000489295
48.9,3.61622,0.528539,1,-0.000489295
49,3.73313,0.528482,1,-0.000489295
49.1,3.85003,0.528425,1,-0.000489295
49.2,3.96693,0.528368,1,-0.000489295
49.3,4.08384,0.52831,1,-0.000489295
49.4,4.20074,0.528253,1,-0.000489295
49.5,4.31765,0.528196,1,-0.000489295
49.6,4.43455,0.528139,1,-0.000489295
49.7,4.55145,0.528081,1,-0.000489295
49.8,4.66836,0.528024,1,-0.000489295
49.9,4.78526,0.527967,1,-0.000489295
50,4.90216,0.52791,1,-0.000489295
50.1,-4.98093,0.527853,1,-0.000489295
50.2,-4.86403,0.527795,1,-0.000489197
50.3,-4.74712,0.527738,1,-0.000489197
50.4,-4.63022,0.527681,1,-0.000489197
50.5,-4.51332,0.527624,1,-0.000489197
50.6,-4.39641,0.527567,1,-0.000489197
50.7,-4.27951,0.52751,1,-0.000489197
50.8,-4.1626,0.527452,1,-0.000489197
50.9,-4.0457,0.527395,1,-0.000489197
51,-3.9288,0.527338,1,-0.000489197
51.1,-3.81189,0.527281,1,-0.000489197
51.2,-3.69499,0.527224,1,-0.000489197
51.3,-3.57809,0.527167,1,-0.000489197
51.4,-3.46118,0.527109,1,-0.000489197
51.5,-3.34428,0.527052,1,-0.000489197
51.6,-3.22737,0.526995,1,-0.000489197
51.7,-3.11047,0.526938,1,-0.000489197
51.8,-2.99357,0.526881,1,-0.000489197
51.9,-2.87666,0.526824,1,-0.000489197
52,-2.75976,0.526766,1,-0.000489197
52.1,-2.64286,0.526709,1,-0.000489197
52.2,-2.52595,0.526652,1,-0.000489197
52.3,-2.40905,0.526595,1,-0.000489197
52.4,-2.29214,0.526538,1,-0.000489197
52.5,-2.17524,0.526481,1,-0.000489197
52.6,-2.05834,0.526424,1,-0.000489197
52.7,-1.94143,0.526366,1,-0.000489197
52.8,-1.82453,0.526309,1,-0.000489198
52.9,-1.70763,0.526252,1,-0.000489198
53,-1.59072,0.526195,1,-0.000489198
53.1,-1.47382,0.526138,1,-0.000489197
53.2,-1.35691,0.526081,1,-0.000489198
53.3,-1.24001,0.526023,1,-0.000489198
53.4,-1.12311,0.525966,1,-0.000489198
53.5,-1.0062,0.525909,1,-0.000489197
53.6,-0.889298,0.525852,1,-0.000489197
53.7,-0.772394,0.525795,1,-0.000489197
53.8,-0.65549,0.525738,1,-0.000489197
53.9,-0.538586,0.52568,1,-0.000489197
54,-0.421682,0.525623,1,-0.000489197
54.1,-0.304778,0.525566,1,-0.000489197
54.2,-0.187874,0.525509,1,-0.000489197
54.3,-0.0709704,0.525452,1,-0.000489197
54.4,0.0459335,0.525395,1,-0.000489198
54.5,0.162837,0.525337,1,-0.000489197
54.6,0.279741,0.52528,1,-0.000489198
54.7,0.396645,0.525223,1,-0.000489198
54.8,0.513549,0.525166,1,-0.000489198
54.9,0.630453,0.525109,1,-0.000489197
55,0.747357,0.525052,1,-0.000489197
55.1,0.864261,0.524994,1,-0.000489197
55.2,0.981165,0.524937,1,-0.000489197
55.3,1.09807,0.52488,1,-0.000489197
55.4,1.21497,0.524823,1,-0.000489197
55.5,1.33188,0.524766,1,-0.000489197
55.6,1.44878,0.524709,1,-0.000489197
55.7,1.56568,0.524652,1,-0.000489197
55.8,1.68259,0.524594,1,-0.000489198
55.9,1.79949,0.524537,1,-0.000489198
56,1.9164,0.52448,1,-0.000489198
56.1,2.0333,0.524423,1,-0.000489198
56.2,2.1502,0.524366,1,-0.000489198
56.3,2.26711,0.524309,1,-0.000489198
56.4,2.38401,0.524251,1,-0.000489198
56.5,2.50092,0.524194,1,-0.000489198
56.6,2.61782,0.524137,1,-0.000489198
56.7,2.73472,0.52408,1,-0.000489198
56.8,2.85163,0.524023,1,-0.000489198
56.9,2.96853,0.523966,1,-0.000489198
57,3.08543,0.523908,1,-0.000489197
57.1,3.20234,0.523851,1,-0.000489198
57.2,3.31924,0.523794,1,-0.000489198
57.3,3.43615,0.523737,1,-0.000489198
57.4,3.55305,0.52368,1,-0.000489197
57.5,3.66995,0.523623,1,-0.000489198
57.6,3.78686,0.523565,1,-0.000489198
57.7,3.90376,0.523508,1,-0.000489197
57.8,4.02066,0.523451,1,-0.000489197
57.9,4.13757,0.523394,1,-0.000489197
58,4.25447,0.523337,1,-0.000489198
58.1,4.37138,0.52328,1,-0.000489198
58.2,4.48828,0.523223,1,-0.000489198
58.3,4.60518,0.523165,1,-0.000489198
58.4,4.72209,0.523108,1,-0.000489198
58.5,4.83899,0.523051,1,-0.000489198
58.6,4.95589,0.522994,1,-0.000489198
58.7,-4.9272,0.522937,1,-0.000489198
58.8,-4.8103,0.52288,1,-0.0004891
58.9,-4.69339,0.522822,1,-0.0004891
59,-4.57649,0.522765,1,-0.0004891
59.1,-4.45959,0.522708,1,-0.0004891
59.2,-4.34268,0.522651,1,-0.0004891
59.3,-4.22578,0.522594,1,-0.0004891
59.4,-4.10888,0.522537,1,-0.0004891
59.5,-3.99197,0.522479,1,-0.0004891
59.6,-3.87507,0.522422,1,-0.0004891
59.7,-3.75816,0.522365,1,-0.0004891
59.8,-3.64126,0.522308,1,-0.0004891
59.9,-3.52436,0.522251,1,-0.0004891
60,-3.40745,0.522194,1,-0.0004891
60.1,-3.29055,0.522136,1,-0.0004891
60.2,-3.17365,0.522079,1,-0.0004891
60.3,-3.05674,0.522022,1,-0.0004891
60.4,-2.93984,0.521965,1,-0.0004891
60.5,-2.82293,0.521908,1,-0.0004891
60.6,-2.70603,0.521851,1,-0.0004891
60.7,-2.58913,0.521793,1,-0.0004891
60.8,-2.47222,0.521736,1,-0.0004891
60.9,-2.35532,0.521679,1,-0.0004891
61,-2.23841,0.521622,1,-0.0004891
61.1,-2.12151,0.521565,1,-0.0004891
61.2,-2.00461,0.521508,1,-0.0004891
61.3,-1.8877,0.521451,1,-0.0004891
61.4,-1.7708,0.521393,1,-0.0004891
61.5,-1.6539,0.521336,1,-0.0004891
61.6,-1.53699,0.521279,1,-0.0004891
61.7,-1.42009,0.521222,1,-0.0004891
61.8,-1.30318,0.521165,1,-0.0004891
61.9,-1.18628,0.521108,1,-0.0004891
62,-1.06938,0.52105,1,-0.0004891
62.1,-0.952472,0.520993,1,-0.0004891
62.2,-0.835568,0.520936,1,-0.0004891
62.3,-0.718664,0.520879,1,-0.0004891
62.4,-0.60176,0.520822,1,-0.0004891
62.5,-0.484856,0.520765,1,-0.0004891
62.6,-0.367953,0.520707,1,-0.0004891
62.7,-0.251049,0.52065,1,-0.0004891
62.8,-0.134071,0.520516,1,-0.000929789
62.9,-0.0169998,0.520274,0.999999,-0.00153923
63,0.100154,0.519926,0.999998,-0.00214655
63.1,0.21738,0.519471,0.999996,-0.00274965
63.2,0.334666,0.518912,0.999994,-0.00334574
63.3,0.452002,0.518249,0.999992,-0.00393162
63.4,0.569376,0.517486,0.99999,-0.00450353
63.5,0.686777,0.516625,0.999987,-0.00505744
63.6,0.804192,0.515671,0.999984,-0.0055886
63.7,0.921611,0.514628,0.999981,-0.0060921
63.8,1.03902,0.513503,0.999978,-0.00656247
63.9,1.15642,0.512301,0.999976,-0.00699416
64,1.27378,0.511032,0.999973,-0.00738145
64.1,1.39111,0.509704,0.99997,-0.00771879
64.2,1.50839,0.508326,0.999968,-0.00800075
64.3,1.62562,0.50691,0.999966,-0.00822251
64.4,1.7428,0.505467,0.999965,-0.00837992
64.5,1.85991,0.504009,0.999964,-0.0084697
64.6,1.977,0.502548,0.999964,-0.00848229
64.7,2.09409,0.501088,0.999964,-0.00848229
64.8,2.21118,0.499627,0.999964,-0.00848228
64.9,2.32828,0.498167,0.999964,-0.00848228
65,2.44537,0.496706,0.999964,-0.00848227
65.1,2.56246,0.495246,0.999964,-0.00848226
65.2,2.67956,0.493785,0.999964,-0.00848224
65.3,2.79665,0.492325,0.999964,-0.00848225
65.4,2.91374,0.490864,0.999964,-0.00848223
65.5,3.03083,0.489404,0.999964,-0.00848222
65.6,3.14793,0.487943,0.999964,-0.00848221
65.7,3.26502,0.486483,0.999964,-0.00848221
65.8,3.38211,0.485022,0.999964,-0.00848219
65.9,3.49921,0.483562,0.999964,-0.00848218
66,3.6163,0.482101,0.999964,-0.00848217
66.1,3.73339,0.480641,0.999964,-0.00848217
66.2,3.85048,0.47918,0.999964,-0.00848215
66.3,3.96758,0.47772,0.999964,-0.00848213
66.4,4.08467,0.476259,0.999964,-0.00848213
66.5,4.20176,0.474799,0.999964,-0.00848212
66.6,4.31886,0.473338,0.999964,-0.00848211
66.7,4.43595,0.471878,0.999964,-0.00848209
66.8,4.55304,0.470417,0.999964,-0.00848209
66.9,4.67014,0.468957,0.999964,-0.00848208
67,4.78723,0.467496,0.999964,-0.00848207
67.1,4.90432,0.466036,0.999964,-0.00848206
67.2,-4.97859,0.464575,0.999964,-0.00848207
67.3,-4.86149,0.463115,0.999964,-0.00848202
67.4,-4.7444,0.461654,0.999964,-0.008482
67.5,-4.62731,0.460194,0.999964,-0.00848201
67.6,-4.51021,0.458733,0.999964,-0.00848199
67.7,-4.39312,0.457272,0.999964,-0.00848198
67.8,-4.27603,0.455812,0.999964,-0.008482
67.9,-4.15893,0.454351,0.999964,-0.00848197
68,-4.04184,0.452891,0.999964,-0.00848196
68.1,-3.92475,0.45143,0.999964,-0.00848195
68.2,-3.80765,0.44997,0.999964,-0.00848197
68.3,-3.69056,0.448509,0.999964,-0.00848194
68.4,-3.57347,0.447049,0.999964,-0.00848192
68.5,-3.45638,0.445588,0.999964,-0.00848191
68.6,-3.33928,0.444128,0.999964,-0.00848192
68.7,-3.22219,0.442667,0.999964,-0.00848189
68.8,-3.1051,0.441207,0.999964,-0.00848187
68.9,-2.988,0.439746,0.999964,-0.0084819
69,-2.87091,0.438286,0.999964,-0.00848188
69.1,-2.75382,0.436825,0.999964,-0.00848188
69.2,-2.63673,0.435365,0.999964,-0.00848188
69.3,-2.51963,0.433904,0.999964,-0.00848193
69.4,-2.40254,0.432444,0.999964,-0.00848199
69.5,-2.28545,0.431,0.999965,-0.00838482
69.6,-2.1685,0.430263,0.99999,-0.00436502
69.7,-2.05156,0.429549,0.999991,-0.00423338
69.8,-1.93466,0.429492,1,-0.000487259
69.9,-1.81775,0.429435,1,-0.000487259
70,-1.70085,0.429378,1,-0.000487259
70.1,-1.58394,0.429321,1,-0.000487259
70.2,-1.46704,0.429264,1,-0.000487259
70.3,-1.35014,0.429207,1,-0.000487259
70.4,-1.23323,0.42915,1,-0.000487259
70.5,-1.11633,0.429093,1,-0.000487259
70.6,-0.999425,0.429036,1,-0.000487259
70.7,-0.882521,0.428979,1,-0.000487259
70.8,-0.765617,0.428923,1,-0.000487259
70.9,-0.648714,0.428866,1,-0.000487259
71,-0.53181,0.428809,1,-0.000487259
71.1,-0.414906,0.428752,1,-0.000487259
71.2,-0.298002,0.428695,1,-0.000487259
71.3,-0.181098,0.428638,1,-0.000487259
71.4,-0.0641941,0.428581,1,-0.000487259
71.5,0.0527098,0.428524,1,-0.000487259
71.6,0.169614,0.428467,1,-0.000487259
71.7,0.286518,0.42841,1,-0.000487259
71.8,0.403422,0.428353,1,-0.000487259
71.9,0.520325,0.428296,1,-0.000487259
72,0.637229,0.428239,1,-0.000487259
72.1,0.754133,0.428182,1,-0.000487259
72.2,0.871037,0.428125,1,-0.000487259
72.3,0.987941,0.428068,1,-0.000487259
72.4,1.10484,0.428011,1,-0.000487259
72.5,1.22175,0.427954,1,-0.000490795
72.6,1.33868,0.427817,1,-0.000942879
72.7,1.45561,0.427613,0.999999,-0.0013255
72.8,1.57255,0.427355,0.999999,-0.00163272
72.9,1.68949,0.427057,0.999998,-0.00185972
73,1.80641,0.426734,0.999998,-0.002003
73.1,1.92333,0.426402,0.999998,-0.00206068
73.2,2.04024,0.426068,0.999998,-0.00206189
73.3,2.15715,0.425735,0.999998,-0.00206189
73.4,2.27406,0.425402,0.999998,-0.00206189
73.5,2.39096,0.425069,0.999998,-0.00206188
73.6,2.50787,0.424736,0.999998,-0.00206188
73.7,2.62478,0.424403,0.999998,-0.00206188
73.8,2.74169,0.42407,0.999998,-0.00206188
73.9,2.8586,0.423737,0.999998,-0.00206187
74,2.97551,0.423404,0.999998,-0.00206186
74.1,3.09242,0.423071,0.999998,-0.00206187
74.2,3.20933,0.422737,0.999998,-0.00206186
74.3,3.32624,0.422404,0.999998,-0.00206186
74.4,3.44315,0.422071,0.999998,-0.00206185
74.5,3.56006,0.421738,0.999998,-0.00206185
74.6,3.67697,0.421405,0.999998,-0.00206185
74.7,3.79388,0.421072,0.999998,-0.00206185
74.8,3.91079,0.420739,0.999998,-0.00206184
74.9,4.0277,0.420406,0.999998,-0.00206183
75,4.14461,0.420073,0.999998,-0.00206183
75.1,4.26152,0.41974,0.999998,-0.00206183
75.2,4.37843,0.419406,0.999998,-0.00206183
75.3,4.49534,0.419073,0.999998,-0.00206181
75.4,4.61225,0.41874,0.999998,-0.0020618
75.5,4.72916,0.418407,0.999998,-0.0020618
75.6,4.84607,0.418074,0.999998,-0.0020618
75.7,4.96298,0.417741,0.999998,-0.00206179
75.8,-4.92011,0.417408,0.999998,-0.00206178
75.9,-4.8032,0.417075,0.999998,-0.00206174
76,-4.68629,0.416742,0.999998,-0.00206173
76.1,-4.56938,0.416409,0.999998,-0.00206173
76.2,-4.45247,0.416076,0.999998,-0.00206172
76.3,-4.33556,0.415742,0.999998,-0.00206172
76.4,-4.21865,0.415409,0.999998,-0.00206171
76.5,-4.10174,0.415076,0.999998,-0.00206171
76.6,-3.98483,0.414743,0.999998,-0.0020617
76.7,-3.86792,0.41441,0.999998,-0.00206169
76.8,-3.75101,0.414077,0.999998,-0.00206168
76.9,-3.6341,0.413744,0.999998,-0.00206167
77,-3.51719,0.413411,0.999998,-0.00206166
77.1,-3.40028,0.413078,0.999998,-0.00206164
77.2,-3.28337,0.412745,0.999998,-0.00206163
77.3,-3.16646,0.412412,0.999998,-0.00206161
77.4,-3.04955,0.412079,0.999998,-0.00206159
77.5,-2.93264,0.411746,0.999998,-0.00206155
77.6,-2.81573,0.411413,0.999998,-0.00206152
77.7,-2.69882,0.41108,0.999998,-0.00206153
77.8,-2.58191,0.410746,0.999998,-0.00206157
77.9,-2.465,0.410413,0.999998,-0.00206148
78,-2.34809,0.41008,0.999998,-0.00206168
78.1,-2.23118,0.409747,0.999998,-0.00206132
78.2,-2.11428,0.40969,1,-0.000486861
78.3,-1.99738,0.409634,1,-0.000486861
78.4,-1.88047,0.409577,1,-0.000486861
78.5,-1.76357,0.40952,1,-0.000486861
78.6,-1.64666,0.409463,1,-0.000486861
78.7,-1.52976,0.409406,1,-0.000486861
78.8,-1.41286,0.409349,1,-0.000486861
78.9,-1.29595,0.409292,1,-0.000486861
79,-1.17905,0.409235,1,-0.000486861
79.1,-1.06214,0.409178,1,-0.000486861
79.2,-0.94524,0.409121,1,-0.000486861
79.3,-0.828336,0.409064,1,-0.000486861
79.4,-0.711432,0.409007,1,-0.000486861
79.5,-0.594529,0.40895,1,-0.000486861
79.6,-0.477625,0.408894,1,-0.000486861
79.7,-0.360721,0.408837,1,-0.000486861
79.8,-0.243817,0.40878,1,-0.000486861
79.9,-0.126913,0.408723,1,-0.000486861
80,-0.0100091,0.408666,1,-0.000486861
