0.1,-10.816,10.3829,0.999647,0.0265605
0.2,-0.799802,10.3867,0.999209,0.0397553
0.3,-0.765546,10.3922,0.998837,0.0482198
0.4,-0.710721,10.3924,0.999999,0.00137945
0.5,-0.63816,10.3869,0.999315,-0.0370035
0.6,-0.549372,10.3799,0.999143,-0.0413809
0.7,-0.449466,10.3776,0.999915,-0.0130349
0.8,-0.342187,10.3787,0.999985,0.00539455
0.9,-0.228458,10.3868,0.999135,0.0415856
1,-0.110065,10.3947,0.999197,0.0400672
1.1,0.0109519,10.4023,0.999302,0.0373468
1.2,0.134122,10.4083,0.999565,0.0295071
1.3,0.258594,10.4137,0.999648,0.0265474
1.4,0.383671,10.419,0.999667,0.02582
1.5,0.508856,10.4245,0.999655,0.0262815
1.6,0.633862,10.4301,0.999624,0.0274098
1.7,0.758645,10.436,0.999593,0.0285354
1.8,0.88325,10.4421,0.999562,0.0296003
1.9,1.00773,10.4483,0.999531,0.030627
2,1.13208,10.4548,0.999498,0.0316874
2.1,1.25117,10.4678,0.997872,0.065202
2.2,1.3719,10.4791,0.998441,0.0558108
2.3,1.4932,10.4896,0.998623,0.0524681
2.4,1.61476,10.4999,0.998698,0.0510181
2.5,1.73651,10.51,0.998753,0.0499334
2.6,1.85841,10.5199,0.998806,0.0488564
2.7,1.98046,10.5296,0.998861,0.0477164
2.8,2.10267,10.539,0.998919,0.0464755
2.9,2.22506,10.5482,0.998981,0.0451316
3,2.34762,10.557,0.999045,0.043702
3.1,2.47033,10.5657,0.999094,0.0425659
3.2,2.59309,10.5742,0.99911,0.0421698
3.3,2.71585,10.5828,0.999112,0.042141
3.4,2.83859,10.5914,0.999105,0.0422914
3.5,2.9613,10.6,0.999095,0.042527
3.6,3.08388,10.6089,0.999049,0.0436073
3.7,3.20633,10.618,0.999002,0.0446622
3.8,3.32864,10.6272,0.998956,0.0456907
3.9,3.45084,10.6367,0.998909,0.046692
4,3.57291,10.6463,0.998863,0.047666
4.1,3.69486,10.6562,0.998818,0.0486127
4.2,3.8167,10.6662,0.998773,0.0495329
4.3,3.93843,10.6764,0.998728,0.050427
4.4,4.06005,10.6867,0.998684,0.0512955
4.5,4.18156,10.6973,0.99864,0.0521392
4.6,4.30298,10.708,0.998597,0.0529585
4.7,4.4243,10.7188,0.998554,0.053754
4.8,4.54554,10.7298,0.998508,0.0546099
4.9,4.66676,10.741,0.998456,0.0555431
5,4.78796,10.7524,0.998402,0.0565178
5.1,4.90918,10.764,0.998345,0.0575044
5.2,-4.96959,10.7758,0.998288,0.0584909
5.3,-4.84836,10.7878,0.998231,0.0594519
5.4,-4.72711,10.7999,0.998176,0.0603774
5.5,-4.60588,10.8123,0.998122,0.0612619
5.6,-4.48465,10.8248,0.99807,0.0621053
5.7,-4.36343,10.8375,0.998018,0.062925
5.8,-4.24221,10.8504,0.997963,0.0638027
5.9,-4.12086,10.8635,0.997883,0.0650268
6,-3.99925,10.8769,0.997791,0.0664352
6.1,-3.87741,10.8908,0.99764,0.0686667
6.2,-3.7556,10.9048,0.997595,0.0693111
6.3,-3.63363,10.919,0.997527,0.0702811
6.4,-3.51129,10.9335,0.997435,0.071582
6.5,-3.38853,10.9483,0.997342,0.0728672
6.6,-3.26534,10.9634,0.997256,0.0740236
6.7,-3.14173,10.9787,0.997181,0.0750351
6.8,-3.01771,10.9943,0.997114,0.0759148
6.9,-2.89328,11.01,0.997056,0.076678
7,-2.76845,11.0258,0.997005,0.0773334
7.1,-2.64321,11.0419,0.996963,0.0778811
7.2,-2.51753,11.058,0.996929,0.0783151
7.3,-2.39142,11.0743,0.996904,0.0786271
7.4,-2.26486,11.0906,0.99689,0.0788098
7.5,-2.13785,11.1069,0.996886,0.0788576
7.6,-2.01038,11.1233,0.996893,0.0787675
7.7,-1.88246,11.1397,0.996911,0.0785379
7.8,-1.75409,11.156,0.99694,0.0781679
7.9,-1.62527,11.1723,0.99698,0.0776569
8,-1.49602,11.1884,0.997031,0.0770048
8.1,-1.36634,11.2044,0.997092,0.076212
8.2,-1.23624,11.2203,0.997162,0.0752792
8.3,-1.10574,11.2359,0.997243,0.0742079
8.4,-0.974864,11.2514,0.997332,0.0729998
8.5,-0.843616,11.2666,0.99742,0.0717912
8.6,-0.712009,11.2815,0.997502,0.0706348
8.7,-0.580056,11.2963,0.997581,0.0695169
8.8,-0.447767,11.3109,0.997656,0.068433
8.9,-0.315148,11.3252,0.997727,0.0673806
9,-0.182778,11.3377,0.998275,0.0587166
9.1,-0.0504393,11.3492,0.998551,0.0538121
9.2,0.0817449,11.3594,0.998831,0.0483327
9.3,0.214324,11.3701,0.998755,0.0498927
9.4,0.34726,11.381,0.998684,0.0512924
9.5,0.480554,11.3923,0.998609,0.0527319
9.6,0.61425,11.4039,0.998522,0.0543496
9.7,0.748419,11.416,0.998421,0.0561739
9.8,0.88281,11.4282,0.998368,0.0570993
9.9,1.01736,11.4407,0.998319,0.0579525
10,1.15231,11.4537,0.998188,0.0601684
10.1,1.28753,11.4669,0.998109,0.0614711
10.2,1.42326,11.4807,0.997965,0.0637696
10.3,1.55934,11.4948,0.99787,0.0652383
10.4,1.69601,11.5095,0.99772,0.0674869
10.5,1.83335,11.5246,0.997582,0.0695029
10.6,1.97166,11.5403,0.997433,0.0716099
10.7,2.11097,11.5563,0.997335,0.0729615
10.8,2.25126,11.5726,0.997273,0.0737954
10.9,2.39253,11.5891,0.997238,0.0742714
11,2.53481,11.6057,0.997223,0.0744672
11.1,2.67811,11.6223,0.997229,0.0743942
11.2,2.8225,11.639,0.997257,0.0740166
11.3,2.96848,11.6554,0.997367,0.0725216
11.4,3.1166,11.671,0.997655,0.068449
11.5,3.2663,11.6858,0.997942,0.0641298
11.6,3.4172,11.6998,0.998179,0.06032
11.7,3.56911,11.713,0.99838,0.0568964
11.8,3.72195,11.7255,0.998563,0.0535815
11.9,3.87571,11.7372,0.998747,0.0500478
12,4.03042,11.748,0.998942,0.0459963
12.1,4.18606,11.7578,0.999148,0.0412786
12.2,4.34256,11.7663,0.999354,0.035937
12.3,4.4998,11.7735,0.999546,0.0301176
12.4,4.65764,11.7792,0.999712,0.0239766
12.5,4.81592,11.7834,0.999844,0.0176361
12.6,4.97448,11.7861,0.999938,0.0111824
12.7,-4.86683,11.7873,0.999989,0.0046787
12.8,-4.70815,11.7872,1,-0.000528302
12.9,-4.54947,11.7871,1,-0.000528302
13,-4.3908,11.787,1,-0.000528302
13.1,-4.23212,11.7869,1,-0.000528302
13.2,-4.07345,11.7869,1,-0.000528302
13.3,-3.91477,11.7868,1,-0.000528302
13.4,-3.75609,11.7867,1,-0.000528302
13.5,-3.59742,11.7866,1,-0.000528302
13.6,-3.43874,11.7865,1,-0.000528302
13.7,-3.28007,11.7864,1,-0.000528302
13.8,-3.12139,11.7864,1,-0.000528302
13.9,-2.96271,11.7863,1,-0.000528302
14,-2.80404,11.7862,1,-0.000528302
14.1,-2.64536,11.7861,1,-0.000528302
14.2,-2.48669,11.786,1,-0.000528302
14.3,-2.32801,11.7859,1,-0.000528302
14.4,-2.16934,11.7859,1,-0.000528302
14.5,-2.01066,11.7858,1,-0.000528302
14.6,-1.85198,11.7857,1,-0.000528302
14.7,-1.69331,11.7856,1,-0.000528302
14.8,-1.53463,11.7855,1,-0.000528302
14.9,-1.37596,11.7854,1,-0.000528302
15,-1.21728,11.7854,1,-0.000528302
15.1,-1.0586,11.7853,1,-0.000528302
15.2,-0.899928,11.7852,1,-0.000528302
15.3,-0.741252,11.7851,1,-0.000528302
15.4,-0.582576,11.785,1,-0.000528302
15.5,-0.4239,11.7849,1,-0.000528302
15.6,-0.265224,11.7848,1,-0.000528302
15.7,-0.106548,11.7848,1,-0.000528302
15.8,0.0521275,11.7847,1,-0.000528302
15.9,0.210803,11.7846,1,-0.000528302
16,0.369479,11.7845,1,-0.000528302
16.1,0.528155,11.7844,1,-0.000528302
16.2,0.686831,11.7843,1,-0.000528302
16.3,0.845507,11.7843,1,-0.000528302
16.4,1.00418,11.7842,1,-0.000528302
16.5,1.16286,11.7841,1,-0.000528302
16.6,1.32153,11.784,1,-0.000528302
16.7,1.48021,11.7839,1,-0.000528302
16.8,1.63889,11.7838,1,-0.000528302
16.9,1.79756,11.7838,1,-0.000528302
17,1.95624,11.7837,1,-0.000528302
17.1,2.11491,11.7836,1,-0.000528302
17.2,2.27359,11.7835,1,-0.000528302
17.3,2.43227,11.7834,1,-0.000528302
17.4,2.59094,11.7833,1,-0.000528302
17.5,2.74952,11.7831,0.999999,-0.00103308
17.6,2.90794,11.7827,0.999998,-0.00197873
17.7,3.06626,11.7821,0.999996,-0.00290379
17.8,3.22453,11.7812,0.999993,-0.00378098
17.9,3.38278,11.7802,0.99999,-0.00457657
18,3.54106,11.7789,0.999986,-0.00525233
18.1,3.69942,11.7776,0.999983,-0.00576888
18.2,3.85788,11.7762,0.999981,-0.00609076
18.3,4.01647,11.7748,0.999981,-0.00619215
18.4,4.17507,11.7734,0.999981,-0.00619167
18.5,4.33366,11.7719,0.999981,-0.00619163
18.6,4.49225,11.7705,0.999981,-0.0061916
18.7,4.65084,11.7691,0.999981,-0.00619157
18.8,4.80943,11.7676,0.999981,-0.00619153
18.9,4.96803,11.7662,0.999981,-0.0061915
19,-4.87338,11.7648,0.999981,-0.00619146
19.1,-4.71479,11.7633,0.999981,-0.00619138
19.2,-4.5562,11.7619,0.999981,-0.00619134
19.3,-4.3976,11.7605,0.999981,-0.0061913
19.4,-4.23901,11.759,0.999981,-0.00619126
19.5,-4.08042,11.7576,0.999981,-0.00619121
19.6,-3.92183,11.7562,0.999981,-0.00619117
19.7,-3.76324,11.7547,0.999981,-0.00619112
19.8,-3.60464,11.7533,0.999981,-0.00619107
19.9,-3.44605,11.7519,0.999981,-0.00619101
20,-3.28746,11.7504,0.999981,-0.00619096
20.1,-3.12887,11.749,0.999981,-0.00619096
20.2,-2.97027,11.7476,0.999981,-0.00619096
20.3,-2.81168,11.7462,0.999981,-0.00619097
20.4,-2.65309,11.7447,0.999981,-0.00619097
20.5,-2.4945,11.7433,0.999981,-0.00619091
20.6,-2.33591,11.7419,0.999981,-0.00619091
20.7,-2.17731,11.7404,0.999981,-0.00619092
20.8,-2.01872,11.739,0.999981,-0.00619093
20.9,-1.86013,11.7376,0.999981,-0.00619085
21,-1.70154,11.7361,0.999981,-0.00619086
21.1,-1.54294,11.7347,0.999981,-0.00619087
21.2,-1.38435,11.7333,0.999981,-0.00619089
21.3,-1.22576,11.7318,0.999981,-0.0061908
21.4,-1.06717,11.7304,0.999981,-0.0061908
21.5,-0.908576,11.729,0.999981,-0.00619082
21.6,-0.749983,11.7275,0.999981,-0.00619083
21.7,-0.591391,11.7261,0.999981,-0.00619085
21.8,-0.432799,11.7247,0.999981,-0.00619074
21.9,-0.274207,11.7232,0.999981,-0.00619075
22,-0.115615,11.7218,0.999981,-0.00619077
22.1,0.0429774,11.7204,0.999981,-0.0061908
22.2,0.20157,11.719,0.999981,-0.00619083
22.3,0.360162,11.7175,0.999981,-0.00619066
22.4,0.518754,11.7161,0.999981,-0.00619068
22.5,0.677346,11.7147,0.999981,-0.00619072
22.6,0.835938,11.7132,0.999981,-0.00619077
22.7,0.99453,11.7118,0.999981,-0.00619083
22.8,1.15312,11.7104,0.999981,-0.00619051
22.9,1.31171,11.7089,0.999981,-0.00619055
23,1.47031,11.7075,0.999981,-0.00619062
23.1,1.6289,11.7061,0.999981,-0.00619079
23.2,1.78749,11.7046,0.999981,-0.00618881
23.3,1.94616,11.7041,0.999997,-0.00263412
23.4,2.10483,11.704,1,-0.000526709
23.5,2.26351,11.7039,1,-0.000526709
23.6,2.42218,11.7038,1,-0.000526709
23.7,2.58086,11.7037,1,-0.000526709
23.8,2.73953,11.7036,1,-0.000526709
23.9,2.89821,11.7036,1,-0.000526709
24,3.05689,11.7035,1,-0.000526709
24.1,3.21556,11.7034,1,-0.000526709
24.2,3.37424,11.7033,1,-0.000526709
24.3,3.53291,11.7032,1,-0.000526709
24.4,3.69159,11.7031,1,-0.000526709
24.5,3.85027,11.703,1,-0.000526709
24.6,4.00894,11.703,1,-0.000526709
24.7,4.16762,11.7029,1,-0.000526709
24.8,4.32629,11.7028,1,-0.000526709
24.9,4.48497,11.7027,1,-0.000526709
25,4.64365,11.7026,1,-0.000526709
25.1,4.80232,11.7025,1,-0.000526709
25.2,4.961,11.7025,1,-0.000526709
25.3,-4.88032,11.7024,1,-0.000526709
25.4,-4.72165,11.7023,1,-0.000526604
25.5,-4.56297,11.7022,1,-0.000526604
25.6,-4.4043,11.7021,1,-0.000526604
25.7,-4.24562,11.702,1,-0.000526604
25.8,-4.08694,11.702,1,-0.000526604
25.9,-3.92827,11.7019,1,-0.000526604
26,-3.76959,11.7018,1,-0.000526604
26.1,-3.61092,11.7017,1,-0.000526604
26.2,-3.45224,11.7016,1,-0.000526604
26.3,-3.29356,11.7015,1,-0.000526604
26.4,-3.13489,11.7015,1,-0.000526604
26.5,-2.97621,11.7014,1,-0.000526604
26.6,-2.81754,11.7013,1,-0.000526604
26.7,-2.65886,11.7012,1,-0.000526604
26.8,-2.50019,11.7011,1,-0.000526604
26.9,-2.34151,11.701,1,-0.000526604
27,-2.18283,11.701,1,-0.000526604
27.1,-2.02416,11.7009,1,-0.000526604
27.2,-1.86548,11.7008,1,-0.000526604
27.3,-1.70681,11.7007,1,-0.000526603
27.4,-1.54813,11.7006,1,-0.000526603
27.5,-1.38945,11.7005,1,-0.000526603
27.6,-1.23078,11.7004,1,-0.000526603
27.7,-1.0721,11.7004,1,-0.000526603
27.8,-0.913426,11.7003,1,-0.000526603
27.9,-0.75475,11.7002,1,-0.000526603
28,-0.596074,11.7001,1,-0.000526603
28.1,-0.437398,11.7,1,-0.000526603
28.2,-0.278722,11.6999,1,-0.000526603
28.3,-0.120046,11.6999,1,-0.000526603
28.4,0.0386297,11.6998,1,-0.000526603
28.5,0.197306,11.6997,1,-0.000526603
28.6,0.355982,11.6996,1,-0.000526603
28.7,0.514657,11.6995,1,-0.000526603
28.8,0.673333,11.6994,1,-0.000526603
28.9,0.832009,11.6994,1,-0.000526603
29,0.990685,11.6993,1,-0.000526603
29.1,1.14936,11.6992,1,-0.000526603
29.2,1.30804,11.6991,1,-0.000526603
29.3,1.46671,11.699,1,-0.000526603
29.4,1.62539,11.6989,1,-0.000526603
29.5,1.78406,11.6989,1,-0.000526603
29.6,1.94274,11.6988,1,-0.000526603
29.7,2.10142,11.6987,1,-0.000526603
29.8,2.26009,11.6986,1,-0.000526603
29.9,2.41877,11.6985,1,-0.000526603
30,2.57744,11.6984,1,-0.000526603
30.1,2.73612,11.6983,1,-0.000526603
30.2,2.8948,11.6983,1,-0.000526603
30.3,3.05347,11.6982,1,-0.000526603
30.4,3.21215,11.6981,1,-0.000526603
30.5,3.37082,11.698,1,-0.000526603
30.6,3.5295,11.6979,1,-0.000526603
30.7,3.68818,11.6978,1,-0.000526603
30.8,3.84685,11.6978,1,-0.000526603
30.9,4.00553,11.6977,1,-0.000526603
31,4.1642,11.6976,1,-0.000526603
31.1,4.32288,11.6975,1,-0.000526603
31.2,4.48156,11.6974,1,-0.000526603
31.3,4.64023,11.6973,1,-0.000526603
31.4,4.79891,11.6973,1,-0.000526603
31.5,4.95758,11.6972,1,-0.000526603
31.6,-4.88374,11.6971,1,-0.000526603
31.7,-4.72506,11.697,1,-0.000526498
31.8,-4.56639,11.6969,1,-0.000526498
31.9,-4.40771,11.6968,1,-0.000526498
32,-4.24903,11.6968,1,-0.000526446
32.1,-4.09036,11.6967,1,-0.000526453
32.2,-3.93168,11.6966,1,-0.000526458
32.3,-3.77301,11.6965,1,-0.000526464
32.4,-3.61433,11.6964,1,-0.00052647
32.5,-3.45566,11.6963,1,-0.000526477
32.6,-3.29698,11.6963,1,-0.000526483
32.7,-3.1383,11.6962,1,-0.000526489
32.8,-2.97963,11.6961,1,-0.000526498
32.9,-2.82095,11.696,1,-0.000526498
33,-2.66228,11.6959,1,-0.00052642
33.1,-2.5036,11.6958,1,-0.000526429
33.2,-2.34492,11.6957,1,-0.000526437
33.3,-2.18625,11.6957,1,-0.00052643
33.4,-2.02757,11.6956,1,-0.000526421
33.5,-1.8689,11.6955,1,-0.000526424
33.6,-1.71022,11.6954,1,-0.000526388
33.7,-1.55164,11.6953,1,-0.00052148
33.8,-1.39322,11.6952,1,-0.000512416
33.9,-1.23497,11.6952,1,-0.000503529
34,-1.07688,11.6951,1,-0.000494816
34.1,-0.918945,11.695,1,-0.000486288
34.2,-0.761168,11.695,1,-0.000477894
34.3,-0.603543,11.6949,1,-0.000469639
34.4,-0.446067,11.6948,1,-0.00046153
34.5,-0.288736,11.6947,1,-0.000453575
34.6,-0.131549,11.6947,1,-0.000445776
34.7,0.0254995,11.6946,1,-0.000438143
34.8,0.182411,11.6946,1,-0.000430684
34.9,0.339189,11.6945,1,-0.000423402
35,0.495837,11.6944,1,-0.000416299
35.1,0.652358,11.6944,1,-0.000409331
35.2,0.808755,11.6943,1,-0.000402593
35.3,0.965031,11.6943,1,-0.000395964
35.4,1.12119,11.6942,1,-0.000389539
35.5,1.27723,11.6942,1,-0.000383282
35.6,1.43317,11.6941,1,-0.000377147
35.7,1.58899,11.6941,1,-0.000371258
35.8,1.74471,11.6941,1,-0.000365556
35.9,1.90033,11.694,1,-0.000360064
36,2.05586,11.694,1,-0.00035477
36.1,2.21129,11.6939,1,-0.000349696
36.2,2.36664,11.6939,1,-0.000344929
36.3,2.52191,11.6939,1,-0.000340462
36.4,2.6771,11.6938,1,-0.000336289
36.5,2.83222,11.6938,1,-0.000332485
36.6,2.98729,11.6937,1,-0.000329177
36.7,3.1423,11.6937,1,-0.000326502
36.8,3.29728,11.6937,1,-0.000324663
36.9,3.45225,11.6936,1,-0.000324036
37,3.60722,11.6936,1,-0.000324051
37.1,3.76219,11.6936,1,-0.000324061
37.2,3.91716,11.6935,1,-0.000324057
37.3,4.07213,11.6935,1,-0.000324047
37.4,4.2271,11.6935,1,-0.000324065
37.5,4.38207,11.6934,1,-0.000324059
37.6,4.53704,11.6934,1,-0.000324027
37.7,4.69201,11.6934,1,-0.000323987
37.8,4.84698,11.6933,1,-0.000323954
37.9,-4.99805,11.6933,1,-0.000323933
38,-4.84308,11.6933,1,-0.000323892
38.1,-4.68811,11.6932,1,-0.000323907
38.2,-4.53314,11.6932,1,-0.000323868
38.3,-4.37817,11.6932,1,-0.000323844
38.4,-4.2232,11.6931,1,-0.000323843
38.5,-4.06822,11.6931,1,-0.000323859
38.6,-3.91325,11.6931,1,-0.000323823
38.7,-3.75828,11.693,1,-0.000323792
38.8,-3.60331,11.693,1,-0.000323749
38.9,-3.44834,11.693,1,-0.000323765
39,-3.29337,11.6929,1,-0.000323754
39.1,-3.1384,11.6929,1,-0.000323737
39.2,-2.98343,11.6929,1,-0.0003237
39.3,-2.82846,11.6928,1,-0.000323645
39.4,-2.67349,11.6928,1,-0.000323655
39.5,-2.51852,11.6927,1,-0.000323644
39.6,-2.36355,11.6927,1,-0.000323624
39.7,-2.20858,11.6927,1,-0.0003236
39.8,-2.0536,11.6926,1,-0.000323575
39.9,-1.89863,11.6926,1,-0.000323538
40,-1.74366,11.6926,1,-0.0003235
40.1,-1.58869,11.6925,1,-0.000323457
40.2,-1.43372,11.6925,1,-0.000323419
40.3,-1.27875,11.6925,1,-0.000323374
40.4,-1.12378,11.6924,1,-0.000323341
40.5,-0.969013,11.6924,1,-0.000233838
40.6,-0.814724,11.6925,1,-2.27131e-05
40.7,-0.661041,11.6926,1,0.000245655
40.8,-0.508034,11.6927,1,0.000546817
40.9,-0.355738,11.693,1,0.000864996
41,-0.203922,11.6933,0.999999,0.00108173
41.1,-0.0525476,11.6936,0.999999,0.00128115
41.2,0.0984271,11.694,0.999999,0.0014626
41.3,0.24903,11.6944,0.999999,0.00163136
41.4,0.399238,11.6949,0.999998,0.00181287
41.5,0.549238,11.6954,0.999998,0.00209854
41.6,0.700398,11.6961,0.999996,0.00293976
41.7,0.854043,11.6963,1,0.00065214
41.8,1.0093,11.6997,0.999899,0.0141787
41.9,1.16478,11.7037,0.999856,0.0169686
42,1.32024,11.7054,0.999974,0.00724231
42.1,1.47751,11.7069,0.999982,0.00598252
42.2,1.63518,11.7079,0.999991,0.00418088
42.3,1.79288,11.7094,0.999981,0.00614367
42.4,1.95053,11.7109,0.999981,0.00614224
42.5,2.10795,11.7124,0.999981,0.00613495
42.6,2.26517,11.7139,0.999981,0.00612867
42.7,2.42221,11.7154,0.999981,0.00612298
42.8,2.57912,11.7169,0.999981,0.00611866
42.9,2.73602,11.7184,0.999981,0.00611839
43,2.89292,11.7198,0.999981,0.00611837
43.1,3.04981,11.7213,0.999981,0.00611841
43.2,3.20671,11.7228,0.999981,0.00611845
43.3,3.36361,11.7243,0.999981,0.00611847
43.4,3.52051,11.7258,0.999981,0.0061185
43.5,3.67741,11.7273,0.999981,0.00611848
43.6,3.83453,11.7288,0.999981,0.0061579
43.7,3.99312,11.7304,0.999979,0.00642027
43.8,4.15172,11.7319,0.999979,0.00642025
43.9,4.31032,11.7335,0.999979,0.00642023
44,4.46891,11.7351,0.999979,0.00642021
44.1,4.62751,11.7366,0.999979,0.0064202
44.2,4.7861,11.7382,0.999979,0.00642018
44.3,4.9447,11.7398,0.999979,0.00642015
44.4,-4.8967,11.7413,0.999979,0.00642015
44.5,-4.73811,11.7429,0.999979,0.00642018
44.6,-4.57951,11.7445,0.999979,0.00642016
44.7,-4.42092,11.746,0.999979,0.00642012
44.8,-4.26231,11.7475,0.999982,0.00606384
44.9,-4.10371,11.749,0.999983,0.0058779
45,-3.94511,11.7504,0.999983,0.00578072
45.1,-3.7865,11.7518,0.999984,0.00572985
45.2,-3.6279,11.7532,0.999984,0.0057031
45.3,-3.46929,11.7546,0.999984,0.00568903
45.4,-3.31069,11.756,0.999984,0.00568167
45.5,-3.15208,11.7574,0.999984,0.00567775
45.6,-2.99348,11.7588,0.999984,0.00567565
45.7,-2.83487,11.7602,0.999984,0.00567457
45.8,-2.67627,11.7616,0.999984,0.005674
45.9,-2.51766,11.7629,0.999984,0.00567368
46,-2.35906,11.7643,0.999984,0.00567347
46.1,-2.20045,11.7657,0.999984,0.00567351
46.2,-2.04185,11.7671,0.999984,0.00567366
46.3,-1.88324,11.7685,0.999984,0.00567363
46.4,-1.72464,11.7699,0.999984,0.0056736
46.5,-1.56603,11.7713,0.999984,0.00567356
46.6,-1.40743,11.7727,0.999984,0.00567351
46.7,-1.24882,11.7741,0.999984,0.00567386
46.8,-1.09022,11.7755,0.999984,0.00567387
46.9,-0.931612,11.7769,0.999984,0.0056739
47,-0.773007,11.7783,0.999984,0.00567396
47.1,-0.614401,11.7797,0.999984,0.00567417
47.2,-0.455755,11.7807,0.999991,0.00425884
47.3,-0.297079,11.7806,1,-0.000528217
47.4,-0.138403,11.7805,1,-0.000528218
47.5,0.0202731,11.7805,1,-0.000528218
47.6,0.178949,11.7804,1,-0.000528218
47.7,0.337625,11.7803,1,-0.000528218
47.8,0.496301,11.7802,1,-0.000528218
47.9,0.654977,11.7801,1,-0.000528218
48,0.813653,11.78,1,-0.000528218
48.1,0.972329,11.78,1,-0.000528218
48.2,1.131,11.7799,1,-0.000528218
48.3,1.28968,11.7798,1,-0.000528218
48.4,1.44836,11.7797,1,-0.000528218
48.5,1.60703,11.7796,1,-0.000528218
48.6,1.76571,11.7795,1,-0.000528218
48.7,1.92438,11.7795,1,-0.000528218
48.8,2.08306,11.7794,1,-0.000528218
48.9,2.24174,11.7793,1,-0.000528218
49,2.40041,11.7792,1,-0.000528218
49.1,2.55909,11.7791,1,-0.000528218
49.2,2.71776,11.779,1,-0.000528218
49.3,2.87644,11.7789,1,-0.000528218
49.4,3.03512,11.7789,1,-0.000528218
49.5,3.19379,11.7788,1,-0.000528218
49.6,3.35247,11.7787,1,-0.000528218
49.7,3.51114,11.7786,1,-0.000528218
49.8,3.66982,11.7785,1,-0.000528218
49.9,3.8285,11.7784,1,-0.000528218
50,3.98717,11.7784,1,-0.000528218
50.1,4.14585,11.7783,1,-0.000528218
50.2,4.30452,11.7782,1,-0.000528218
50.3,4.4632,11.7781,1,-0.000528218
50.4,4.62188,11.778,1,-0.000528218
50.5,4.78055,11.7779,1,-0.000528218
50.6,4.93923,11.7779,1,-0.000528218
50.7,-4.9021,11.7778,1,-0.000528217
50.8,-4.74342,11.7777,1,-0.000528112
50.9,-4.58474,11.7776,1,-0.000528112
51,-4.42607,11.7775,1,-0.000528112
51.1,-4.26739,11.7774,1,-0.000528112
51.2,-4.10872,11.7774,1,-0.000528112
51.3,-3.95004,11.7773,1,-0.000528112
51.4,-3.79136,11.7772,1,-0.000528112
51.5,-3.63269,11.7771,1,-0.000528112
51.6,-3.47401,11.777,1,-0.000528112
51.7,-3.31534,11.7769,1,-0.000528112
51.8,-3.15666,11.7768,1,-0.000528112
51.9,-2.99798,11.7768,1,-0.000528112
52,-2.83931,11.7767,1,-0.000528112
52.1,-2.68063,11.7766,1,-0.000528112
52.2,-2.52196,11.7765,1,-0.000528112
52.3,-2.36328,11.7764,1,-0.000528112
52.4,-2.2046,11.7763,1,-0.000528112
52.5,-2.04593,11.7763,1,-0.000528112
52.6,-1.88725,11.7762,1,-0.000528112
52.7,-1.72858,11.7761,1,-0.000528112
52.8,-1.5699,11.776,1,-0.000528112
52.9,-1.41123,11.7759,1,-0.000528112
53,-1.25255,11.7758,1,-0.000528112
53.1,-1.09387,11.7758,1,-0.000528112
53.2,-0.935197,11.7757,1,-0.000528112
53.3,-0.776521,11.7756,1,-0.000528112
53.4,-0.617846,11.7755,1,-0.000528112
53.5,-0.45917,11.7754,1,-0.000528112
53.6,-0.300494,11.7753,1,-0.000528112
53.7,-0.141818,11.7753,1,-0.000528112
53.8,0.0168582,11.7752,1,-0.000528112
53.9,0.175534,11.7751,1,-0.000528112
54,0.33421,11.775,1,-0.000528112
54.1,0.492886,11.7749,1,-0.000528112
54.2,0.651562,11.7748,1,-0.000528112
54.3,0.810238,11.7748,1,-0.000528112
54.4,0.968914,11.7747,1,-0.000528112
54.5,1.12759,11.7746,1,-0.000528112
54.6,1.28627,11.7745,1,-0.000528112
54.7,1.44494,11.7744,1,-0.000528112
54.8,1.60362,11.7743,1,-0.000528112
54.9,1.76229,11.7742,1,-0.000528112
55,1.92097,11.7742,1,-0.000528112
55.1,2.07965,11.7741,1,-0.000528112
55.2,2.23832,11.774,1,-0.000528112
55.3,2.397,11.7739,1,-0.000528112
55.4,2.55567,11.7738,1,-0.000528112
55.5,2.71435,11.7737,1,-0.000528112
55.6,2.87302,11.7737,1,-0.000528112
55.7,3.0317,11.7736,1,-0.000528112
55.8,3.19038,11.7735,1,-0.000528112
55.9,3.34905,11.7734,1,-0.000528112
56,3.50773,11.7733,1,-0.000528112
56.1,3.6664,11.7732,1,-0.000528112
56.2,3.82508,11.7732,1,-0.000528112
56.3,3.98376,11.7731,1,-0.000528112
56.4,4.14243,11.773,1,-0.000528112
56.5,4.30111,11.7729,1,-0.000528112
56.6,4.45978,11.7728,1,-0.000528112
56.7,4.61846,11.7727,1,-0.000528112
56.8,4.77714,11.7727,1,-0.000528112
56.9,4.93581,11.7726,1,-0.000528112
57,-4.90551,11.7725,1,-0.000528112
57.1,-4.74683,11.7724,1,-0.000528006
57.2,-4.58816,11.7723,1,-0.000528006
57.3,-4.42948,11.7722,1,-0.000528006
57.4,-4.27081,11.7722,1,-0.000528006
57.5,-4.11213,11.7721,1,-0.000528006
57.6,-3.95345,11.772,1,-0.000528006
57.7,-3.79478,11.7719,1,-0.000528006
57.8,-3.6361,11.7718,1,-0.000528006
57.9,-3.47743,11.7717,1,-0.000528006
58,-3.31875,11.7716,1,-0.000528006
58.1,-3.16007,11.7716,1,-0.000528006
58.2,-3.0014,11.7715,1,-0.000528006
58.3,-2.84272,11.7714,1,-0.000528006
58.4,-2.68405,11.7713,1,-0.000528006
58.5,-2.52537,11.7712,1,-0.000528006
58.6,-2.3667,11.7711,1,-0.000528006
58.7,-2.20802,11.7711,1,-0.000528006
58.8,-2.04934,11.771,1,-0.000528006
58.9,-1.89067,11.7709,1,-0.000528006
59,-1.73199,11.7708,1,-0.000528006
59.1,-1.57332,11.7707,1,-0.000528006
59.2,-1.41464,11.7706,1,-0.000528006
59.3,-1.25596,11.7706,1,-0.000528006
59.4,-1.09729,11.7705,1,-0.000528006
59.5,-0.938612,11.7704,1,-0.000528006
59.6,-0.779936,11.7703,1,-0.000528006
59.7,-0.62126,11.7702,1,-0.000528006
59.8,-0.462584,11.7701,1,-0.000528006
59.9,-0.303908,11.7701,1,-0.000528006
60,-0.145232,11.77,1,-0.000528006
60.1,0.0134436,11.7699,1,-0.000528006
60.2,0.17212,11.7698,1,-0.000528006
60.3,0.330795,11.7697,1,-0.000528006
60.4,0.489471,11.7696,1,-0.000528006
60.5,0.648147,11.7695,1,-0.000528006
60.6,0.806823,11.7695,1,-0.000528006
60.7,0.965499,11.7694,1,-0.000528006
60.8,1.12418,11.7693,1,-0.000528006
60.9,1.28285,11.7692,1,-0.000528006
61,1.44153,11.7691,1,-0.000528006
61.1,1.6002,11.769,1,-0.000528006
61.2,1.75888,11.769,1,-0.000528006
61.3,1.91755,11.7689,1,-0.000528006
61.4,2.07623,11.7688,1,-0.000528006
61.5,2.23491,11.7687,1,-0.000528006
61.6,2.39358,11.7686,1,-0.000528006
61.7,2.55226,11.7685,1,-0.000528006
61.8,2.71093,11.7685,1,-0.000528006
61.9,2.86961,11.7684,1,-0.000528006
62,3.02829,11.7683,1,-0.000528006
62.1,3.18696,11.7682,1,-0.000528006
62.2,3.34564,11.7681,1,-0.000528006
62.3,3.50431,11.768,1,-0.000528006
62.4,3.66299,11.768,1,-0.000528006
62.5,3.82167,11.7679,1,-0.000528006
62.6,3.98034,11.7678,1,-0.000528006
62.7,4.13902,11.7677,1,-0.000528006
62.8,4.29769,11.7676,1,-0.000528006
62.9,4.45637,11.7675,1,-0.000528006
63,4.61505,11.7675,1,-0.000528006
63.1,4.77372,11.7674,1,-0.000528006
63.2,4.9324,11.7673,1,-0.000528006
63.3,-4.90893,11.7672,1,-0.000528006
63.4,-4.75025,11.7671,1,-0.0005279
63.5,-4.59157,11.767,1,-0.0005279
63.6,-4.4329,11.7669,1,-0.0005279
63.7,-4.27422,11.7669,1,-0.0005279
63.8,-4.11554,11.7668,1,-0.0005279
63.9,-3.95687,11.7667,1,-0.0005279
64,-3.79819,11.7666,1,-0.0005279
64.1,-3.63952,11.7665,1,-0.0005279
64.2,-3.48084,11.7664,1,-0.0005279
64.3,-3.32217,11.7664,1,-0.0005279
64.4,-3.16349,11.7663,1,-0.0005279
64.5,-3.00481,11.7662,1,-0.0005279
64.6,-2.84614,11.7661,1,-0.0005279
64.7,-2.68746,11.766,1,-0.0005279
64.8,-2.52879,11.7659,1,-0.0005279
64.9,-2.37011,11.7659,1,-0.0005279
65,-2.21143,11.7658,1,-0.0005279
65.1,-2.05276,11.7657,1,-0.0005279
65.2,-1.89408,11.7656,1,-0.0005279
65.3,-1.73541,11.7655,1,-0.0005279
65.4,-1.57673,11.7654,1,-0.0005279
65.5,-1.41805,11.7654,1,-0.0005279
65.6,-1.25938,11.7653,1,-0.0005279
65.7,-1.1007,11.7652,1,-0.0005279
65.8,-0.942027,11.7651,1,-0.0005279
65.9,-0.783351,11.765,1,-0.0005279
66,-0.624675,11.7649,1,-0.0005279
66.1,-0.465999,11.7648,1,-0.0005279
66.2,-0.307323,11.7648,1,-0.0005279
66.3,-0.148647,11.7647,1,-0.0005279
66.4,0.010029,11.7646,1,-0.0005279
66.5,0.168705,11.7645,1,-0.0005279
66.6,0.327381,11.7644,1,-0.0005279
66.7,0.486057,11.7643,1,-0.0005279
66.8,0.644733,11.7643,1,-0.0005279
66.9,0.803409,11.7642,1,-0.0005279
67,0.962085,11.7641,1,-0.0005279
67.1,1.12076,11.764,1,-0.0005279
67.2,1.27944,11.7639,1,-0.0005279
67.3,1.43811,11.7638,1,-0.0005279
67.4,1.59679,11.7638,1,-0.0005279
67.5,1.75546,11.7637,1,-0.0005279
67.6,1.91414,11.7636,1,-0.0005279
67.7,2.07282,11.7635,1,-0.0005279
67.8,2.23149,11.7634,1,-0.0005279
67.9,2.39017,11.7633,1,-0.0005279
68,2.54884,11.7633,1,-0.0005279
68.1,2.70752,11.7632,1,-0.0005279
68.2,2.8662,11.7631,1,-0.0005279
68.3,3.02487,11.763,1,-0.0005279
68.4,3.18355,11.7629,1,-0.0005279
68.5,3.34222,11.7628,1,-0.0005279
68.6,3.5009,11.7628,1,-0.0005279
68.7,3.65957,11.7627,1,-0.0005279
68.8,3.81825,11.7626,1,-0.0005279
68.9,3.97693,11.7625,1,-0.0005279
69,4.1356,11.7624,1,-0.0005279
69.1,4.29428,11.7623,1,-0.0005279
69.2,4.45296,11.7622,1,-0.0005279
69.3,4.61163,11.7622,1,-0.0005279
69.4,4.77031,11.7621,1,-0.0005279
69.5,4.92898,11.762,1,-0.0005279
69.6,-4.91234,11.7619,1,-0.0005279
69.7,-4.75366,11.7618,1,-0.000527794
69.8,-4.59499,11.7617,1,-0.000527794
69.9,-4.43631,11.7617,1,-0.000527794
70,-4.27764,11.7616,1,-0.000527794
70.1,-4.11896,11.7615,1,-0.000527794
70.2,-3.96028,11.7614,1,-0.000527794
70.3,-3.80161,11.7613,1,-0.000527794
70.4,-3.64293,11.7612,1,-0.000527794
70.5,-3.48426,11.7612,1,-0.000527794
70.6,-3.32558,11.7611,1,-0.000527794
70.7,-3.1669,11.761,1,-0.000527794
70.8,-3.00823,11.7609,1,-0.000527794
70.9,-2.84955,11.7608,1,-0.000527794
71,-2.69088,11.7607,1,-0.000527794
71.1,-2.5322,11.7607,1,-0.000527794
71.2,-2.37352,11.7606,1,-0.000527794
71.3,-2.21485,11.7605,1,-0.000527794
71.4,-2.05617,11.7604,1,-0.000527794
71.5,-1.8975,11.7603,1,-0.000527794
71.6,-1.73882,11.7602,1,-0.000527794
71.7,-1.58014,11.7601,1,-0.000527794
71.8,-1.42147,11.7601,1,-0.000527794
71.9,-1.26279,11.76,1,-0.000527794
72,-1.10412,11.7599,1,-0.000527794
72.1,-0.945441,11.7598,1,-0.000527794
72.2,-0.786765,11.7597,1,-0.000527794
72.3,-0.628089,11.7596,1,-0.000527794
72.4,-0.469413,11.7596,1,-0.000527794
72.5,-0.310738,11.7595,1,-0.000527794
72.6,-0.152062,11.7594,1,-0.000527794
72.7,0.00661433,11.7593,1,-0.000527794
72.8,0.16529,11.7592,1,-0.000527794
72.9,0.323966,11.7591,1,-0.000527794
73,0.482642,11.7591,1,-0.000527794
73.1,0.641318,11.759,1,-0.000527794
73.2,0.799994,11.7589,1,-0.000527794
73.3,0.95867,11.7588,1,-0.000527667
73.4,1.11735,11.7587,1,-0.000527794
73.5,1.27602,11.7586,1,-0.000527658
73.6,1.4347,11.7586,1,-0.00052736
73.7,1.59337,11.7585,1,-0.00052739
73.8,1.75205,11.7584,1,-0.000527794
73.9,1.91073,11.7583,1,-0.000527794
74,2.0694,11.7582,1,-0.000527794
74.1,2.22808,11.7581,1,-0.000527794
74.2,2.38675,11.7581,1,-0.000527794
74.3,2.54543,11.758,1,-0.000527794
74.4,2.7041,11.7579,1,-0.000527794
74.5,2.86278,11.7578,1,-0.000527794
74.6,3.02146,11.7577,1,-0.000527794
74.7,3.18013,11.7576,1,-0.000527794
74.8,3.33881,11.7575,1,-0.000527794
74.9,3.49748,11.7575,1,-0.000527794
75,3.65616,11.7574,1,-0.000527794
75.1,3.81484,11.7573,1,-0.000527794
75.2,3.97351,11.7572,1,-0.000527794
75.3,4.13219,11.7571,1,-0.000527794
75.4,4.29086,11.757,1,-0.000527794
75.5,4.44954,11.757,1,-0.000527794
75.6,4.60822,11.7569,1,-0.000527794
75.7,4.76689,11.7568,1,-0.000527794
75.8,4.92557,11.7567,1,-0.000527794
75.9,-4.91575,11.7566,1,-0.000527794
76,-4.75708,11.7565,1,-0.000527689
76.1,-4.5984,11.7565,1,-0.000527689
76.2,-4.43973,11.7564,1,-0.000527689
76.3,-4.28105,11.7563,1,-0.000527688
76.4,-4.12237,11.7562,1,-0.000527688
76.5,-3.9637,11.7561,1,-0.000527689
76.6,-3.80502,11.756,1,-0.000527688
76.7,-3.64635,11.756,1,-0.000527688
76.8,-3.48767,11.7559,1,-0.000527689
76.9,-3.32899,11.7558,1,-0.000527688
77,-3.17032,11.7557,1,-0.000527688
77.1,-3.01164,11.7556,1,-0.000527688
77.2,-2.85297,11.7555,1,-0.000527688
77.3,-2.69429,11.7554,1,-0.000527688
77.4,-2.53561,11.7554,1,-0.000527688
77.5,-2.37694,11.7553,1,-0.000527688
77.6,-2.21826,11.7552,1,-0.000527688
77.7,-2.05959,11.7551,1,-0.000527688
77.8,-1.90091,11.755,1,-0.000527688
77.9,-1.74224,11.7549,1,-0.000527688
78,-1.58356,11.7549,1,-0.000527688
78.1,-1.42488,11.7548,1,-0.000527688
78.2,-1.26621,11.7547,1,-0.000527688
78.3,-1.10753,11.7546,1,-0.000527688
78.4,-0.948856,11.7545,1,-0.000527688
78.5,-0.79018,11.7544,1,-0.000527688
78.6,-0.631504,11.7544,1,-0.000527688
78.7,-0.472828,11.7543,1,-0.000527688
78.8,-0.314152,11.7542,1,-0.000527688
78.9,-0.155476,11.7541,1,-0.000527688
79,0.0031997,11.754,1,-0.000527688
79.1,0.161876,11.7539,1,-0.000527688
79.2,0.320552,11.7539,1,-0.000527688
79.3,0.479228,11.7538,1,-0.000527688
79.4,0.637903,11.7537,1,-0.000527688
79.5,0.796579,11.7536,1,-0.000527688
79.6,0.955255,11.7535,1,-0.000527688
79.7,1.11393,11.7534,1,-0.000527688
79.8,1.27261,11.7534,1,-0.000527688
79.9,1.43128,11.7533,1,-0.000527688
80,1.58996,11.7532,1,-0.000527688
