0.1,-11.5681,9.69208,0.984254,0.176759
0.2,-1.56648,9.69462,0.999496,0.0317421
0.3,-1.55708,9.70557,0.992298,0.12387
0.4,-1.53384,9.72253,0.986354,0.16464
0.5,-1.49201,9.74615,0.981244,0.192772
0.6,-1.42744,9.77667,0.977947,0.208854
0.7,-1.34425,9.80524,0.98472,0.174146
0.8,-1.24748,9.8307,0.989607,0.143801
0.9,-1.14117,9.85343,0.992505,0.122205
1,-1.0295,9.86518,0.998094,0.0617059
1.1,-0.910595,9.87706,0.998193,0.0600918
1.2,-0.786602,9.8884,0.998434,0.0559426
1.3,-0.659129,9.89905,0.998662,0.0517053
1.4,-0.52927,9.90915,0.998827,0.0484189
1.5,-0.397876,9.91881,0.99894,0.0460215
1.6,-0.265636,9.92822,0.999004,0.0446103
1.7,-0.13302,9.93743,0.999048,0.0436148
1.8,-0.000297338,9.94648,0.999083,0.0428142
1.9,0.132409,9.95538,0.999111,0.0421598
2,0.265058,9.96418,0.999133,0.0416304
2.1,0.397632,9.97287,0.999152,0.0411779
2.2,0.531051,9.98187,0.999098,0.0424622
2.3,0.664594,9.99088,0.999098,0.0424554
2.4,0.797976,9.99979,0.999116,0.0420408
2.5,0.931118,10.0086,0.999137,0.0415405
2.6,1.06401,10.0173,0.999159,0.0409965
2.7,1.19664,10.0258,0.999184,0.0403919
2.8,1.32903,10.0342,0.99921,0.039742
2.9,1.46117,10.0424,0.999237,0.0390664
3,1.59307,10.0505,0.999263,0.0383807
3.1,1.72476,10.0584,0.999289,0.0376955
3.2,1.85623,10.0662,0.999315,0.0370174
3.3,1.98749,10.0738,0.999339,0.0363502
3.4,2.11857,10.0813,0.999363,0.0356958
3.5,2.24946,10.0886,0.999385,0.0350551
3.6,2.38018,10.0958,0.999406,0.0344508
3.7,2.51076,10.1029,0.999425,0.0338978
3.8,2.6412,10.1099,0.999443,0.0333855
3.9,2.77152,10.1168,0.999458,0.0329072
4,2.90173,10.1235,0.999473,0.0324598
4.1,3.03185,10.1302,0.999487,0.0320411
4.2,3.16187,10.1368,0.999499,0.0316495
4.3,3.29182,10.1433,0.999511,0.0312838
4.4,3.42171,10.1498,0.999521,0.0309427
4.5,3.55155,10.1562,0.999531,0.0306252
4.6,3.68134,10.1625,0.99954,0.03033
4.7,3.81111,10.1687,0.999548,0.0300559
4.8,3.94085,10.175,0.999556,0.0298018
4.9,4.07058,10.1811,0.999563,0.0295647
5,4.2003,10.1872,0.99957,0.0293325
5.1,4.33001,10.1933,0.999577,0.029099
5.2,4.45972,10.1993,0.999583,0.0288615
5.3,4.58942,10.2052,0.999591,0.0286156
5.4,4.71912,10.2111,0.999598,0.0283522
5.5,4.84883,10.217,0.999606,0.0280574
5.6,4.97855,10.2228,0.999616,0.0277021
5.7,-4.8917,10.2284,0.99963,0.0272037
5.8,-4.76185,10.2339,0.999659,0.0261111
5.9,-4.63145,10.2383,0.999773,0.0213231
6,-4.50002,10.241,0.999918,0.0127787
6.1,-4.3677,10.2414,0.999998,0.00195307
6.2,-4.23435,10.24,0.999979,-0.00653762
6.3,-4.09974,10.2365,0.999864,-0.0164684
6.4,-3.9643,10.2316,0.999736,-0.0229647
6.5,-3.82854,10.2261,0.999673,-0.0255729
6.6,-3.69273,10.2206,0.999664,-0.0259367
6.7,-3.55705,10.2152,0.999685,-0.0250996
6.8,-3.42149,10.21,0.999709,-0.0241298
6.9,-3.28607,10.2051,0.999731,-0.0231914
7,-3.15077,10.2003,0.999752,-0.0222823
7.1,-3.01559,10.1957,0.999771,-0.021402
7.2,-2.88053,10.1914,0.999789,-0.0205496
7.3,-2.74558,10.1871,0.999805,-0.0197243
7.4,-2.61074,10.1831,0.999821,-0.0189253
7.5,-2.47601,10.1792,0.999835,-0.018152
7.6,-2.34138,10.1755,0.999849,-0.0174035
7.7,-2.20685,10.172,0.999861,-0.0166781
7.8,-2.07242,10.1686,0.999872,-0.0159753
7.9,-1.93808,10.1653,0.999883,-0.015294
8,-1.80382,10.1622,0.999893,-0.0146333
8.1,-1.66966,10.1593,0.999902,-0.0139922
8.2,-1.53558,10.1564,0.999911,-0.01337
8.3,-1.40157,10.1537,0.999919,-0.0127655
8.4,-1.26765,10.1511,0.999926,-0.0121776
8.5,-1.1338,10.1487,0.999933,-0.0116049
8.6,-1.00002,10.1463,0.999939,-0.0110477
8.7,-0.866313,10.1441,0.999945,-0.0105084
8.8,-0.732672,10.142,0.99995,-0.00999762
8.9,-0.598355,10.1412,0.999993,-0.00379327
9,-0.464071,10.1404,0.999994,-0.00357992
9.1,-0.329407,10.1402,1,-0.000763966
9.2,-0.194745,10.1402,1,-0.00025103
9.3,-0.0597288,10.1406,0.999998,0.00192291
9.4,0.0752515,10.1411,0.999998,0.00220141
9.5,0.210577,10.1419,0.999992,0.00397118
9.6,0.350222,10.146,0.999825,0.0187343
9.7,0.491563,10.1467,0.999995,0.00302693
9.8,0.633546,10.145,0.999973,-0.00735024
9.9,0.782768,10.1474,0.999947,0.0103271
10,0.933438,10.1502,0.999925,0.0122272
10.1,1.08489,10.1532,0.999915,0.0130694
10.2,1.23676,10.1563,0.999909,0.0135084
10.3,1.38885,10.1595,0.999906,0.0137378
10.4,1.54105,10.1627,0.999904,0.013858
10.5,1.6933,10.1659,0.999903,0.0139212
10.6,1.84559,10.1691,0.999903,0.0139544
10.7,1.9979,10.1723,0.999902,0.013972
10.8,2.15021,10.1756,0.999902,0.0139813
10.9,2.30253,10.1788,0.999902,0.0139862
11,2.45485,10.182,0.999902,0.0139889
11.1,2.60718,10.1852,0.999902,0.0139903
11.2,2.7595,10.1885,0.999902,0.0139912
11.3,2.91182,10.1917,0.999902,0.0139916
11.4,3.06415,10.1949,0.999902,0.0139918
11.5,3.21647,10.1982,0.999902,0.0139919
11.6,3.3688,10.2014,0.999902,0.0139919
11.7,3.52112,10.2046,0.999902,0.013992
11.8,3.67344,10.2078,0.999902,0.013992
11.9,3.82577,10.2111,0.999902,0.013992
12,3.97809,10.2143,0.999902,0.0139921
12.1,4.13042,10.2175,0.999902,0.0139921
12.2,4.28274,10.2208,0.999902,0.0139922
12.3,4.43507,10.224,0.999902,0.0139922
12.4,4.58739,10.2272,0.999902,0.0139924
12.5,4.73972,10.2305,0.999902,0.013995
12.6,4.89207,10.2337,0.999902,0.0140263
12.7,-4.95553,10.2369,0.999901,0.0140637
12.8,-4.80311,10.2402,0.999901,0.0141005
12.9,-4.65065,10.2435,0.9999,0.0141349
13,-4.49816,10.2467,0.9999,0.0141698
13.1,-4.34529,10.2495,0.999929,0.0118904
13.2,-4.19195,10.2516,0.99996,0.00894984
13.3,-4.03816,10.253,0.999982,0.00606167
13.4,-3.88379,10.2535,0.999997,0.00231808
13.5,-3.72882,10.2531,0.999999,-0.00164121
13.6,-3.57347,10.2522,0.999992,-0.00401789
13.7,-3.41811,10.2512,0.999992,-0.0040137
13.8,-3.26274,10.2503,0.999992,-0.00401156
13.9,-3.10738,10.2494,0.999992,-0.00401046
14,-2.95202,10.2484,0.999992,-0.0040101
14.1,-2.79665,10.2475,0.999992,-0.00401002
14.2,-2.64128,10.2466,0.999992,-0.00401041
14.3,-2.48592,10.2456,0.999992,-0.00401072
14.4,-2.33055,10.2447,0.999992,-0.00401129
14.5,-2.17518,10.2438,0.999992,-0.00401315
14.6,-2.01981,10.2428,0.999992,-0.004021
14.7,-1.86444,10.2419,0.999992,-0.00403059
14.8,-1.70906,10.2409,0.999992,-0.00403775
14.9,-1.55368,10.24,0.999992,-0.00404437
15,-1.3983,10.239,0.999992,-0.0040493
15.1,-1.24291,10.2381,0.999992,-0.00405511
15.2,-1.08752,10.2371,0.999992,-0.00406026
15.3,-0.932123,10.2362,0.999992,-0.00406491
15.4,-0.776726,10.2352,0.999992,-0.00406962
15.5,-0.621326,10.2343,0.999992,-0.00407603
15.6,-0.465923,10.2333,0.999992,-0.00408128
15.7,-0.310517,10.2324,0.999992,-0.0040875
15.8,-0.155107,10.2314,0.999992,-0.00409254
15.9,0.000306234,10.2305,0.999992,-0.00409718
16,0.155722,10.2295,0.999992,-0.00410182
16.1,0.311142,10.2286,0.999992,-0.0041081
16.2,0.466565,10.2276,0.999992,-0.00411305
16.3,0.62199,10.2266,0.999992,-0.00411777
16.4,0.77742,10.2257,0.999992,-0.00412371
16.5,0.932853,10.2247,0.999991,-0.0041287
16.6,1.08829,10.2237,0.999991,-0.0041332
16.7,1.24373,10.2228,0.999991,-0.00413771
16.8,1.39917,10.2218,0.999991,-0.00414371
16.9,1.55462,10.2208,0.999991,-0.00414849
17,1.71007,10.2199,0.999991,-0.00415305
17.1,1.86552,10.2189,0.999991,-0.00415725
17.2,2.02098,10.2179,0.999991,-0.00416163
17.3,2.17644,10.2169,0.999991,-0.00416638
17.4,2.3319,10.216,0.999991,-0.00417213
17.5,2.48737,10.215,0.999991,-0.00417663
17.6,2.64284,10.214,0.999991,-0.00418117
17.7,2.79831,10.213,0.999991,-0.00418538
17.8,2.95379,10.2121,0.999991,-0.00418964
17.9,3.10927,10.2111,0.999991,-0.00419419
18,3.26475,10.2101,0.999991,-0.00419956
18.1,3.42024,10.2091,0.999991,-0.00420408
18.2,3.57573,10.2081,0.999991,-0.00420844
18.3,3.73122,10.2072,0.999991,-0.00421265
18.4,3.88672,10.2062,0.999991,-0.00421628
18.5,4.04222,10.2052,0.999991,-0.00422043
18.6,4.19773,10.2042,0.999991,-0.00422484
18.7,4.35324,10.2032,0.999991,-0.00422876
18.8,4.50875,10.2022,0.999991,-0.00423235
18.9,4.66427,10.2012,0.999991,-0.00423645
19,4.81979,10.2002,0.999991,-0.00424099
19.1,4.97531,10.1992,0.999991,-0.00424503
19.2,-4.86916,10.1983,0.999991,-0.0042488
19.3,-4.71363,10.1973,0.999991,-0.00425241
19.4,-4.55809,10.1963,0.999991,-0.00425603
19.5,-4.40255,10.1953,0.999991,-0.00425944
19.6,-4.24701,10.1943,0.999991,-0.00426365
19.7,-4.09147,10.1933,0.999991,-0.00426753
19.8,-3.93592,10.1923,0.999991,-0.00427135
19.9,-3.78036,10.1913,0.999991,-0.00427451
20,-3.6248,10.1903,0.999991,-0.00427811
20.1,-3.46924,10.1893,0.999991,-0.00428146
20.2,-3.31368,10.1883,0.999991,-0.00428385
20.3,-3.15811,10.1873,0.999991,-0.00428692
20.4,-3.00253,10.1863,0.999991,-0.00429051
20.5,-2.84696,10.1853,0.999991,-0.00429417
20.6,-2.69138,10.1843,0.999991,-0.00429755
20.7,-2.53579,10.1833,0.999991,-0.00429984
20.8,-2.3802,10.1822,0.999991,-0.0043026
20.9,-2.22461,10.1812,0.999991,-0.00430583
21,-2.06901,10.1802,0.999991,-0.00430934
21.1,-1.91341,10.1792,0.999991,-0.00431142
21.2,-1.75781,10.1782,0.999991,-0.0043141
21.3,-1.6022,10.1772,0.999991,-0.00431718
21.4,-1.44659,10.1762,0.999991,-0.00431917
21.5,-1.29097,10.1752,0.999991,-0.00432183
21.6,-1.13535,10.1742,0.999991,-0.00432481
21.7,-0.979726,10.1732,0.999991,-0.0043266
21.8,-0.824098,10.1722,0.999991,-0.0043291
21.9,-0.668466,10.1711,0.999991,-0.00433089
22,-0.512829,10.1701,0.999991,-0.00433343
22.1,-0.357189,10.1691,0.999991,-0.00433516
22.2,-0.201545,10.1681,0.999991,-0.00433756
22.3,-0.0458958,10.1671,0.999991,-0.00434014
22.4,0.109757,10.1661,0.999991,-0.00434163
22.5,0.265414,10.1651,0.999991,-0.00434383
22.6,0.421075,10.164,0.999991,-0.00434518
22.7,0.576741,10.163,0.999991,-0.00434719
22.8,0.73241,10.162,0.999991,-0.00434842
22.9,0.888084,10.161,0.999991,-0.00434959
23,1.04376,10.16,0.999991,-0.00435158
23.1,1.19944,10.159,0.999991,-0.00435289
23.2,1.35513,10.1579,0.99999,-0.00435388
23.3,1.51082,10.1569,0.999991,-0.00435562
23.4,1.66651,10.1559,0.999991,-0.00435669
23.5,1.82221,10.1549,0.999991,-0.00435756
23.6,1.97791,10.1539,0.999991,-0.00435909
23.7,2.13362,10.1528,0.999991,-0.00435983
23.8,2.28933,10.1518,0.999991,-0.00436038
23.9,2.44505,10.1508,0.99999,-0.00436094
24,2.60077,10.1498,0.999991,-0.00436258
24.1,2.75649,10.1488,0.999991,-0.00436313
24.2,2.91222,10.1477,0.99999,-0.00436354
24.3,3.06795,10.1467,0.99999,-0.00436383
24.4,3.22369,10.1457,0.99999,-0.00436406
24.5,3.37943,10.1447,0.99999,-0.0043651
24.6,3.53518,10.1437,0.99999,-0.00436534
24.7,3.69093,10.1426,0.99999,-0.0043653
24.8,3.84668,10.1416,0.99999,-0.0043653
24.9,4.00244,10.1406,0.99999,-0.00436511
25,4.1582,10.1396,0.99999,-0.00436482
25.1,4.31397,10.1385,0.99999,-0.00436463
25.2,4.46974,10.1375,0.99999,-0.00436477
25.3,4.62552,10.1365,0.99999,-0.00436438
25.4,4.7813,10.1355,0.99999,-0.00436405
25.5,4.93709,10.1345,0.99999,-0.00436342
25.6,-4.90712,10.1334,0.99999,-0.00436288
25.7,-4.75133,10.1324,0.999991,-0.00436151
25.8,-4.59553,10.1314,0.999991,-0.0043606
25.9,-4.43973,10.1304,0.999991,-0.00436019
26,-4.28392,10.1294,0.999991,-0.00435941
26.1,-4.12811,10.1283,0.99999,-0.00435864
26.2,-3.97229,10.1273,0.999991,-0.00435757
26.3,-3.81647,10.1263,0.999991,-0.00435568
26.4,-3.66064,10.1253,0.999991,-0.00435448
26.5,-3.50481,10.1243,0.99999,-0.00435325
26.6,-3.34898,10.1232,0.999991,-0.00435135
26.7,-3.19314,10.1222,0.999991,-0.00434989
26.8,-3.03736,10.1213,0.999992,-0.0041036
26.9,-2.88188,10.1206,0.999996,-0.00291993
27,-2.72669,10.1202,0.999999,-0.00166003
27.1,-2.57177,10.1201,1,-0.000415904
27.2,-2.4171,10.1203,1,0.000767689
27.3,-2.26268,10.1207,0.999998,0.00192715
27.4,-2.10851,10.1213,0.999996,0.00268233
27.5,-1.95458,10.1221,0.999995,0.00331369
27.6,-1.8009,10.123,0.999992,0.00397745
27.7,-1.64743,10.1241,0.999989,0.00471689
27.8,-1.49415,10.1254,0.999985,0.00555842
27.9,-1.34105,10.1269,0.999979,0.00652408
28,-1.1881,10.1287,0.999972,0.00749671
28.1,-1.03531,10.1306,0.999966,0.00825885
28.2,-0.88266,10.1327,0.99996,0.00895294
28.3,-0.730153,10.1349,0.999954,0.00958971
28.4,-0.577775,10.1372,0.999948,0.0101745
28.5,-0.425516,10.1397,0.999943,0.0107093
28.6,-0.273365,10.1423,0.999937,0.011195
28.7,-0.121312,10.1449,0.999932,0.0116311
28.8,0.0306551,10.1477,0.999928,0.0120166
28.9,0.182548,10.1506,0.999924,0.01235
29,0.334379,10.1535,0.99992,0.0126291
29.1,0.486175,10.1564,0.999917,0.0128882
29.2,0.63796,10.1595,0.999914,0.0131389
29.3,0.789747,10.1625,0.999911,0.0133587
29.4,0.941546,10.1657,0.999908,0.013541
29.5,1.09336,10.1688,0.999906,0.0136825
29.6,1.2452,10.172,0.999905,0.0137815
29.7,1.39707,10.1752,0.999904,0.0138382
29.8,1.54898,10.1784,0.999904,0.0138784
29.9,1.70092,10.1816,0.999903,0.0139182
30,1.85289,10.1848,0.999903,0.0139578
30.1,2.00489,10.188,0.999902,0.0139973
30.2,2.15692,10.1912,0.999901,0.0140366
30.3,2.30899,10.1945,0.999901,0.0140757
30.4,2.46109,10.1977,0.9999,0.0141144
30.5,2.61319,10.201,0.9999,0.0141141
30.6,2.76532,10.2043,0.9999,0.0141435
30.7,2.91746,10.2075,0.9999,0.0141641
30.8,3.06963,10.2108,0.999899,0.0141976
30.9,3.22181,10.2141,0.999899,0.0142206
31,3.37403,10.2174,0.999898,0.0142545
31.1,3.52627,10.2207,0.999898,0.0142785
31.2,3.67853,10.224,0.999898,0.0143137
31.3,3.83082,10.2273,0.999897,0.0143369
31.4,3.98317,10.2305,0.9999,0.0141199
31.5,4.13564,10.2336,0.999909,0.0134606
31.6,4.28832,10.2365,0.999924,0.012332
31.7,4.44121,10.239,0.99994,0.0109365
31.8,4.59429,10.2413,0.999952,0.00977373
31.9,4.74751,10.2433,0.999961,0.00887687
32,4.90085,10.2452,0.999966,0.00821395
32.1,-4.94574,10.247,0.99997,0.00770198
32.2,-4.79226,10.2487,0.999973,0.00731481
32.3,-4.63874,10.2504,0.999976,0.00699864
32.4,-4.48516,10.2519,0.999977,0.00675745
32.5,-4.33156,10.2534,0.999978,0.00656633
32.6,-4.17792,10.2549,0.999979,0.00644168
32.7,-4.02427,10.2564,0.99998,0.00636763
32.8,-3.8706,10.2579,0.99998,0.00633958
32.9,-3.71693,10.2594,0.99998,0.00631814
33,-3.56323,10.2608,0.99998,0.00629795
33.1,-3.40712,10.263,0.999958,0.00920633
33.2,-3.25255,10.2643,0.999983,0.00577004
33.3,-3.09754,10.2657,0.999982,0.00596916
33.4,-2.94246,10.267,0.999984,0.00558807
33.5,-2.78723,10.2683,0.999986,0.00537367
33.6,-2.63191,10.2695,0.999987,0.00509785
33.7,-2.47658,10.2706,0.999989,0.00471322
33.8,-2.32121,10.2716,0.999991,0.00436537
33.9,-2.1658,10.2725,0.999992,0.00401909
34,-2.01037,10.2734,0.999993,0.00368392
34.1,-1.8549,10.2742,0.999994,0.00335692
34.2,-1.69941,10.2749,0.999995,0.00303986
34.3,-1.54389,10.2755,0.999996,0.00273345
34.4,-1.38834,10.2761,0.999997,0.00243777
34.5,-1.23276,10.2766,0.999998,0.00215559
34.6,-1.07716,10.2771,0.999998,0.00189034
34.7,-0.921643,10.2774,0.999999,0.0015194
34.8,-0.766443,10.2777,0.999999,0.00144467
34.9,-0.611268,10.2784,0.999996,0.00298888
35,-0.456212,10.2794,0.999991,0.00417872
35.1,-0.301239,10.2807,0.999986,0.00526897
35.2,-0.14629,10.2821,0.999981,0.00624035
35.3,0.00870286,10.2837,0.999976,0.00698562
35.4,0.163764,10.2855,0.999973,0.0073854
35.5,0.318925,10.2872,0.999972,0.00742344
35.6,0.474209,10.2889,0.999975,0.00705746
35.7,0.62963,10.2903,0.99998,0.00626031
35.8,0.785115,10.2915,0.999986,0.00523784
35.9,0.940626,10.2926,0.99999,0.00437201
36,1.09619,10.2934,0.999994,0.00358018
36.1,1.25181,10.2941,0.999996,0.00280506
36.2,1.40691,10.2945,0.999998,0.00184292
36.3,1.56195,10.2953,0.999994,0.00345992
36.4,1.71691,10.2965,0.999987,0.00514517
36.5,1.87181,10.298,0.999979,0.00653312
36.6,2.02668,10.2998,0.99997,0.0076968
36.7,2.18159,10.3018,0.999963,0.0085743
36.8,2.33657,10.3039,0.999959,0.00909445
36.9,2.49166,10.3061,0.999958,0.00919662
37,2.64688,10.3082,0.999961,0.00883099
37.1,2.80226,10.31,0.999968,0.00797176
37.2,2.95767,10.3116,0.999976,0.00691254
37.3,3.11311,10.313,0.999982,0.006009
37.4,3.26861,10.3143,0.999987,0.00516892
37.5,3.42415,10.3153,0.999991,0.00435034
37.6,3.57974,10.3161,0.999994,0.0035606
37.7,3.73537,10.3168,0.999996,0.00279555
37.8,3.89105,10.3172,0.999998,0.0020544
37.9,4.04676,10.3176,0.999999,0.00133602
38,4.20252,10.3177,1,0.000637809
38.1,4.35831,10.3177,1,-3.95556e-05
38.2,4.51414,10.3175,1,-0.000698132
38.3,4.67001,10.3172,0.999999,-0.00133853
38.4,4.8259,10.3169,0.999999,-0.00158661
38.5,4.98181,10.3165,0.999999,-0.0015765
38.6,-4.86229,10.3161,0.999999,-0.00158359
38.7,-4.70638,10.3157,0.999999,-0.00158572
38.8,-4.55048,10.3154,0.999999,-0.00159025
38.9,-4.39457,10.315,0.999999,-0.00159303
39,-4.23866,10.3146,0.999999,-0.0015966
39.1,-4.08276,10.3143,0.999999,-0.00160038
39.2,-3.92685,10.3139,0.999999,-0.00160344
39.3,-3.77094,10.3135,0.999999,-0.00160684
39.4,-3.61503,10.3131,0.999999,-0.00161056
39.5,-3.45911,10.3128,0.999999,-0.00161384
39.6,-3.3032,10.3124,0.999999,-0.00161791
39.7,-3.14729,10.312,0.999999,-0.001621
39.8,-2.99137,10.3116,0.999999,-0.00162442
39.9,-2.83546,10.3112,0.999999,-0.00162765
40,-2.67954,10.3109,0.999999,-0.00163162
40.1,-2.52363,10.3105,0.999999,-0.00163479
40.2,-2.36771,10.3101,0.999999,-0.00163831
40.3,-2.21179,10.3097,0.999999,-0.0016421
40.4,-2.05587,10.3093,0.999999,-0.00164542
40.5,-1.89995,10.3089,0.999999,-0.00164868
40.6,-1.74403,10.3086,0.999999,-0.00165222
40.7,-1.5881,10.3082,0.999999,-0.0016555
40.8,-1.43218,10.3078,0.999999,-0.00165946
40.9,-1.27626,10.3074,0.999999,-0.00166274
41,-1.12033,10.307,0.999999,-0.00166664
41.1,-0.964406,10.3066,0.999999,-0.00167
41.2,-0.808479,10.3062,0.999999,-0.00167323
41.3,-0.652551,10.3058,0.999999,-0.00167667
41.4,-0.496622,10.3054,0.999999,-0.00168005
41.5,-0.340692,10.305,0.999999,-0.00168392
41.6,-0.184761,10.3046,0.999999,-0.00168724
41.7,-0.0288294,10.3043,0.999999,-0.00169098
41.8,0.127103,10.3039,0.999999,-0.00169445
41.9,0.283037,10.3035,0.999999,-0.00169785
42,0.438656,10.3029,0.999997,-0.00236568
42.1,0.593742,10.3021,0.999994,-0.00347819
42.2,0.748718,10.3012,0.999993,-0.00368842
42.3,0.90365,10.3005,0.999995,-0.00303868
42.4,1.05871,10.2997,0.999994,-0.00346277
42.5,1.21369,10.2989,0.999994,-0.00361133
42.6,1.36962,10.2985,0.999999,-0.00166027
42.7,1.52356,10.2972,0.999984,-0.00569244
42.8,1.67818,10.2962,0.999991,-0.00426257
42.9,1.83319,10.2954,0.999994,-0.00345521
43,1.9886,10.2948,0.999996,-0.00263535
43.1,2.14418,10.2942,0.999997,-0.00228714
43.2,2.29997,10.2938,0.999998,-0.00187078
43.3,2.45589,10.2934,0.999999,-0.00161023
43.4,2.61181,10.293,0.999999,-0.00163591
43.5,2.76773,10.2926,0.999999,-0.00163351
43.6,2.92364,10.2923,0.999999,-0.00163904
43.7,3.07956,10.2919,0.999999,-0.00164169
43.8,3.23548,10.2915,0.999999,-0.00164569
43.9,3.3914,10.2911,0.999999,-0.00164902
44,3.54732,10.2907,0.999999,-0.00165228
44.1,3.70325,10.2903,0.999999,-0.00165597
44.2,3.85917,10.2899,0.999999,-0.00165911
44.3,4.01509,10.2896,0.999999,-0.00166295
44.4,4.17102,10.2892,0.999999,-0.00166644
44.5,4.32695,10.2888,0.999999,-0.00167035
44.6,4.48287,10.2884,0.999999,-0.0016731
44.7,4.6388,10.288,0.999999,-0.00167682
44.8,4.79473,10.2876,0.999999,-0.00168034
44.9,4.95066,10.2872,0.999999,-0.00168379
45,-4.89341,10.2868,0.999999,-0.0016876
45.1,-4.73748,10.2864,0.999999,-0.00169064
45.2,-4.58154,10.286,0.999999,-0.0016946
45.3,-4.42561,10.2856,0.999999,-0.00169793
45.4,-4.26968,10.2852,0.999999,-0.00170127
45.5,-4.11374,10.2848,0.999999,-0.00170468
45.6,-3.9578,10.2844,0.999999,-0.00170782
45.7,-3.80186,10.284,0.999999,-0.00171181
45.8,-3.64593,10.2836,0.999999,-0.00171531
45.9,-3.48999,10.2832,0.999999,-0.0017191
46,-3.33405,10.2828,0.999998,-0.00172232
46.1,-3.1781,10.2824,0.999998,-0.00172554
46.2,-3.02216,10.282,0.999998,-0.00172899
46.3,-2.86622,10.2816,0.999998,-0.00173244
46.4,-2.71027,10.2812,0.999998,-0.00173626
46.5,-2.55433,10.2808,0.999998,-0.00173965
46.6,-2.39838,10.2804,0.999998,-0.0017434
46.7,-2.24243,10.28,0.999998,-0.0017468
46.8,-2.08648,10.2796,0.999998,-0.00174998
46.9,-1.93053,10.2792,0.999998,-0.00175331
47,-1.77458,10.2788,0.999998,-0.00175657
47.1,-1.61863,10.2783,0.999998,-0.00176043
47.2,-1.46267,10.2779,0.999998,-0.00176392
47.3,-1.30672,10.2775,0.999998,-0.00176771
47.4,-1.15076,10.2771,0.999998,-0.00177099
47.5,-0.994808,10.2767,0.999998,-0.00177434
47.6,-0.83885,10.2763,0.999998,-0.00177747
47.7,-0.682891,10.2759,0.999998,-0.00178084
47.8,-0.526931,10.2754,0.999998,-0.00178465
47.9,-0.37097,10.275,0.999998,-0.00178795
48,-0.215008,10.2746,0.999998,-0.00179185
48.1,-0.0590443,10.2742,0.999998,-0.00179507
48.2,0.0969202,10.2738,0.999998,-0.0017983
48.3,0.252886,10.2733,0.999998,-0.00180153
48.4,0.408853,10.2729,0.999998,-0.00180537
48.5,0.564821,10.2725,0.999998,-0.00180853
48.6,0.720789,10.2721,0.999998,-0.00181254
48.7,0.876759,10.2716,0.999998,-0.0018157
48.8,1.03273,10.2712,0.999998,-0.00181886
48.9,1.1887,10.2708,0.999998,-0.00182211
49,1.34468,10.2704,0.999998,-0.00182528
49.1,1.50065,10.2699,0.999998,-0.00182892
49.2,1.65663,10.2695,0.999998,-0.00183303
49.3,1.81261,10.2691,0.999998,-0.00183597
49.4,1.96858,10.2687,0.999998,-0.00183915
49.5,2.12456,10.2682,0.999998,-0.00184249
49.6,2.28054,10.2678,0.999998,-0.0018456
49.7,2.43653,10.2674,0.999998,-0.00184926
49.8,2.59251,10.2669,0.999998,-0.00185308
49.9,2.74849,10.2665,0.999998,-0.00185635
50,2.90448,10.2661,0.999998,-0.0018593
50.1,3.06047,10.2656,0.999998,-0.00186241
50.2,3.21646,10.2652,0.999998,-0.00186553
50.3,3.37244,10.2647,0.999998,-0.00186977
50.4,3.52844,10.2643,0.999998,-0.00187248
50.5,3.68443,10.2639,0.999998,-0.001876
50.6,3.84042,10.2634,0.999998,-0.00187937
50.7,3.99642,10.263,0.999998,-0.00188208
50.8,4.15241,10.2626,0.999998,-0.00188545
50.9,4.30841,10.2621,0.999998,-0.00188971
51,4.46441,10.2617,0.999998,-0.0018925
51.1,4.62041,10.2612,0.999998,-0.00189546
51.2,4.77641,10.2608,0.999998,-0.00189842
51.3,4.93241,10.2603,0.999998,-0.00190204
51.4,-4.91159,10.2599,0.999998,-0.00190583
51.5,-4.75558,10.2594,0.999998,-0.00190903
51.6,-4.59958,10.259,0.999998,-0.00191216
51.7,-4.44357,10.2585,0.999998,-0.0019147
51.8,-4.28756,10.2581,0.999998,-0.00191842
51.9,-4.13155,10.2576,0.999998,-0.00192096
52,-3.97554,10.2572,0.999998,-0.00192492
52.1,-3.81952,10.2567,0.999998,-0.00192763
52.2,-3.66351,10.2563,0.999998,-0.00193068
52.3,-3.50749,10.2558,0.999998,-0.00193431
52.4,-3.35148,10.2554,0.999998,-0.00193795
52.5,-3.19546,10.2549,0.999998,-0.00194073
52.6,-3.03944,10.2545,0.999998,-0.00194327
52.7,-2.88342,10.254,0.999998,-0.00194691
52.8,-2.72739,10.2536,0.999998,-0.00194969
52.9,-2.57137,10.2531,0.999998,-0.0019529
53,-2.41534,10.2527,0.999998,-0.00195585
53.1,-2.25932,10.2522,0.999998,-0.00195855
53.2,-2.10329,10.2517,0.999998,-0.00196279
53.3,-1.94726,10.2513,0.999998,-0.00196557
53.4,-1.79123,10.2508,0.999998,-0.00196808
53.5,-1.63519,10.2504,0.999998,-0.00197077
53.6,-1.47916,10.2499,0.999998,-0.00197476
53.7,-1.32312,10.2494,0.999998,-0.00197761
53.8,-1.16709,10.249,0.999998,-0.00198012
53.9,-1.01105,10.2485,0.999998,-0.00198262
54,-0.855008,10.248,0.999998,-0.0019867
54.1,-0.698966,10.2476,0.999998,-0.00198937
54.2,-0.542923,10.2471,0.999998,-0.00199186
54.3,-0.386879,10.2466,0.999998,-0.00199506
54.4,-0.230833,10.2462,0.999998,-0.00199834
54.5,-0.0747851,10.2457,0.999998,-0.00200091
54.6,0.0812642,10.2452,0.999998,-0.00200321
54.7,0.237315,10.2448,0.999998,-0.0020072
54.8,0.393367,10.2443,0.999998,-0.00200967
54.9,0.549421,10.2438,0.999998,-0.00201195
55,0.705476,10.2434,0.999998,-0.00201505
55.1,0.861533,10.2429,0.999998,-0.00201823
55.2,1.01759,10.2424,0.999998,-0.00202068
55.3,1.17365,10.2419,0.999998,-0.00202286
55.4,1.32971,10.2415,0.999998,-0.00202658
55.5,1.48578,10.241,0.999998,-0.00202902
55.6,1.64184,10.2405,0.999998,-0.00203099
55.7,1.79791,10.24,0.999998,-0.0020349
55.8,1.95397,10.2396,0.999998,-0.00203714
55.9,2.11004,10.2391,0.999998,-0.00203928
56,2.26612,10.2386,0.999998,-0.00204281
56.1,2.42219,10.2381,0.999998,-0.00204522
56.2,2.57826,10.2377,0.999998,-0.00204706
56.3,2.73434,10.2372,0.999998,-0.00205068
56.4,2.89042,10.2367,0.999998,-0.00205298
56.5,3.0465,10.2362,0.999998,-0.00205462
56.6,3.20258,10.2357,0.999998,-0.00205832
56.7,3.35866,10.2352,0.999998,-0.00206051
56.8,3.51474,10.2348,0.999998,-0.00206288
56.9,3.67083,10.2343,0.999998,-0.00206581
57,3.82692,10.2338,0.999998,-0.00206741
57.1,3.98301,10.2333,0.999998,-0.00207129
57.2,4.1391,10.2328,0.999998,-0.00207287
57.3,4.29519,10.2323,0.999998,-0.00207454
57.4,4.45129,10.2319,0.999998,-0.00207783
57.5,4.60738,10.2314,0.999998,-0.00207959
57.6,4.76348,10.2309,0.999998,-0.00208306
57.7,4.91958,10.2304,0.999998,-0.00208489
57.8,-4.92432,10.2299,0.999998,-0.00208633
57.9,-4.76822,10.2294,0.999998,-0.00208931
58,-4.61211,10.2289,0.999998,-0.00209141
58.1,-4.456,10.2284,0.999998,-0.00209418
58.2,-4.2999,10.2279,0.999998,-0.00209558
58.3,-4.14379,10.2275,0.999998,-0.00209873
58.4,-3.98767,10.227,0.999998,-0.0021001
58.5,-3.83156,10.2265,0.999998,-0.00210354
58.6,-3.67544,10.226,0.999998,-0.00210151
58.7,-3.51931,10.2255,0.999998,-0.00206497
58.8,-3.36315,10.225,0.999998,-0.00198175
58.9,-3.20695,10.2246,0.999998,-0.00185005
59,-3.0509,10.2242,0.999999,-0.00160991
59.1,-2.89537,10.2198,0.999821,-0.0188966
59.2,-2.73992,10.2183,0.99998,-0.00630401
59.3,-2.58356,10.2173,0.99999,-0.004401
59.4,-2.42715,10.2168,0.999998,-0.00215387
59.5,-2.27073,10.2164,0.999999,-0.00149267
59.6,-2.11456,10.2165,1,0.000300453
59.7,-1.95865,10.2171,0.999997,0.00252819
59.8,-1.80289,10.2181,0.999991,0.004241
59.9,-1.64715,10.2195,0.999982,0.00600661
60,-1.4914,10.2214,0.999968,0.00800491
60.1,-1.33563,10.2237,0.999951,0.00993207
60.2,-1.18071,10.2256,0.999967,0.00818617
60.3,-1.02529,10.2276,0.999964,0.00843151
60.4,-0.869735,10.2295,0.999967,0.00818442
60.5,-0.714135,10.2313,0.999971,0.00758648
60.6,-0.558355,10.2329,0.999977,0.00678332
60.7,-0.402398,10.2342,0.999984,0.00566559
60.8,-0.246379,10.2352,0.999991,0.00415802
60.9,-0.0902875,10.2358,0.999996,0.00283342
61,0.0659143,10.2362,0.999999,0.00165508
61.1,0.222172,10.2366,0.999999,0.00164973
61.2,0.378427,10.2371,0.999998,0.00221794
61.3,0.53467,10.2378,0.999996,0.00273176
61.4,0.690907,10.2384,0.999996,0.0028329
61.5,0.847072,10.2391,0.999996,0.00295158
61.6,1.00321,10.2399,0.999995,0.00330791
61.7,1.15939,10.2408,0.999993,0.00367267
61.8,1.31556,10.2417,0.999993,0.00382687
61.9,1.47168,10.2426,0.999992,0.00390528
62,1.6278,10.2436,0.999992,0.00410416
62.1,1.78389,10.2446,0.999991,0.00426934
62.2,1.93995,10.2456,0.999991,0.0043525
62.3,2.09599,10.2465,0.999993,0.00385016
62.4,2.25176,10.2489,0.999948,0.0102302
62.5,2.40671,10.2522,0.9999,0.0141076
62.6,2.56165,10.2555,0.999899,0.0142303
62.7,2.71643,10.2588,0.999898,0.0143098
62.8,2.87086,10.2628,0.999858,0.0168274
62.9,3.02474,10.2674,0.999803,0.0198607
63,3.17842,10.2725,0.999752,0.0222674
63.1,3.3319,10.2781,0.999716,0.0238268
63.2,3.48521,10.284,0.99967,0.0257044
63.3,3.63829,10.2905,0.999603,0.0281586
63.4,3.79113,10.2976,0.999535,0.0304793
63.5,3.94377,10.305,0.99948,0.0322395
63.6,4.09628,10.3128,0.999436,0.033573
63.7,4.24882,10.3208,0.9994,0.0346211
63.8,4.40337,10.329,0.999388,0.0349809
63.9,4.55662,10.3364,0.999481,0.0322054
64,4.71098,10.344,0.999466,0.0326606
64.1,4.86461,10.3514,0.999501,0.0315782
64.2,-4.98118,10.3587,0.999496,0.0317591
64.3,-4.82738,10.3659,0.99952,0.0309858
64.4,-4.67328,10.3732,0.99952,0.0309949
64.5,-4.51941,10.3802,0.999534,0.0305228
64.6,-4.36532,10.3873,0.999539,0.0303643
64.7,-4.21132,10.3943,0.999554,0.0298539
64.8,-4.05726,10.4012,0.99955,0.0299969
64.9,-3.90316,10.4082,0.999549,0.030029
65,-3.74911,10.4152,0.999549,0.0300454
65.1,-3.59497,10.4221,0.999557,0.029752
65.2,-3.44083,10.4289,0.999573,0.0292256
65.3,-3.28662,10.4356,0.999588,0.0287148
65.4,-3.13239,10.4422,0.999605,0.0281208
65.5,-2.97811,10.4486,0.999615,0.0277448
65.6,-2.82384,10.455,0.999622,0.0275078
65.7,-2.66959,10.4615,0.999613,0.0278198
65.8,-2.51549,10.4682,0.999583,0.0288882
65.9,-2.36067,10.4767,0.999345,0.0361798
66,-2.20809,10.4884,0.998715,0.0506881
66.1,-2.05382,10.4996,0.998831,0.0483373
66.2,-1.90062,10.5096,0.999071,0.0430885
66.3,-1.74628,10.52,0.999002,0.044656
66.4,-1.59304,10.5309,0.998894,0.0470103
66.5,-1.43892,10.5422,0.998836,0.0482317
66.6,-1.28542,10.5531,0.998896,0.0469724
66.7,-1.13125,10.5642,0.998854,0.0478631
66.8,-0.977596,10.5754,0.998835,0.048258
66.9,-0.823382,10.5867,0.998828,0.0484059
67,-0.66949,10.5978,0.998858,0.0477838
67.1,-0.515151,10.6089,0.998866,0.0476133
67.2,-0.361031,10.6198,0.998895,0.0469921
67.3,-0.206534,10.6307,0.998922,0.0464311
67.4,-0.0521634,10.6412,0.998968,0.0454304
67.5,0.102532,10.6516,0.999011,0.0444723
67.6,0.257178,10.6617,0.99907,0.043112
67.7,0.412144,10.6714,0.999138,0.0415033
67.8,0.567232,10.6804,0.999248,0.0387744
67.9,0.722898,10.6882,0.999445,0.0333184
68,0.878734,10.6939,0.999706,0.0242642
68.1,1.03477,10.6971,0.999906,0.0137407
68.2,1.19071,10.6979,0.999994,0.00335533
68.3,1.34684,10.698,1,0.000261608
68.4,1.50285,10.698,1,0.000228947
68.5,1.65892,10.6981,1,0.000211854
68.6,1.81487,10.6981,1,0.000153048
68.7,1.97086,10.6982,1,0.000118641
68.8,2.12673,10.6982,1,6.61686e-05
68.9,2.28259,10.6982,1,3.06333e-05
69,2.43832,10.6982,1,-7.09814e-06
69.1,2.59405,10.6982,1,-1.73693e-05
69.2,2.74982,10.6982,1,-1.68683e-05
69.3,2.90558,10.6982,1,-1.62383e-05
69.4,3.06134,10.6982,1,-1.56433e-05
69.5,3.2171,10.6982,1,-1.50373e-05
69.6,3.37286,10.6982,1,-1.44354e-05
69.7,3.52862,10.6982,1,-1.3832e-05
69.8,3.68438,10.6982,1,-1.32272e-05
69.9,3.84014,10.6982,1,-1.2626e-05
70,3.9959,10.6982,1,-1.2008e-05
70.1,4.15166,10.6982,1,-1.13939e-05
70.2,4.30742,10.6982,1,-1.07758e-05
70.3,4.46318,10.6982,1,-1.01609e-05
70.4,4.61894,10.6982,1,-9.54287e-06
70.5,4.7747,10.6982,1,-8.92819e-06
70.6,4.93046,10.6982,1,-8.30335e-06
70.7,-4.91378,10.6982,1,-7.67612e-06
70.8,-4.75802,10.6982,1,-7.04041e-06
70.9,-4.60226,10.6982,1,-6.41344e-06
71,-4.4465,10.6982,1,-5.78278e-06
71.1,-4.29074,10.6982,1,-5.15378e-06
71.2,-4.13498,10.6982,1,-4.52544e-06
71.3,-3.97922,10.6982,1,-3.88142e-06
71.4,-3.82346,10.6982,1,-3.2373e-06
71.5,-3.6677,10.6982,1,-2.59651e-06
71.6,-3.51193,10.6982,1,-1.95232e-06
71.7,-3.35617,10.6982,1,-1.31243e-06
71.8,-3.20041,10.6982,1,-6.65914e-07
71.9,-3.04465,10.6982,1,-1.21829e-08
72,-2.88889,10.6982,1,6.43821e-07
72.1,-2.73313,10.6982,1,1.29983e-06
72.2,-2.57737,10.6982,1,1.95498e-06
72.3,-2.42161,10.6982,1,2.61451e-06
72.4,-2.26585,10.6982,1,3.26604e-06
72.5,-2.11009,10.6982,1,3.92387e-06
72.6,-1.95433,10.6982,1,4.59022e-06
72.7,-1.79857,10.6982,1,5.26136e-06
72.8,-1.64281,10.6982,1,5.93058e-06
72.9,-1.48705,10.6982,1,6.59876e-06
73,-1.33129,10.6982,1,7.26795e-06
73.1,-1.17553,10.6982,1,7.93606e-06
73.2,-1.01977,10.6982,1,8.61957e-06
73.3,-0.864008,10.6982,1,9.30085e-06
73.4,-0.708247,10.6982,1,9.98442e-06
73.5,-0.552487,10.6982,1,1.06645e-05
73.6,-0.396726,10.6982,1,1.13493e-05
73.7,-0.240966,10.6982,1,1.20292e-05
73.8,-0.0852053,10.6982,1,1.27261e-05
73.9,0.0705553,10.6982,1,1.34191e-05
74,0.226316,10.6982,1,1.41174e-05
74.1,0.382076,10.6983,1,1.48103e-05
74.2,0.537837,10.6983,1,1.55059e-05
74.3,0.693597,10.6983,1,1.62095e-05
74.4,0.849358,10.6983,1,1.69169e-05
74.5,1.00512,10.6983,1,1.76257e-05
74.6,1.16088,10.6983,1,1.8333e-05
74.7,1.31664,10.6983,1,1.90418e-05
74.8,1.4724,10.6983,1,1.97521e-05
74.9,1.62816,10.6983,1,2.04726e-05
75,1.78392,10.6983,1,2.11962e-05
75.1,1.93968,10.6983,1,2.19183e-05
75.2,2.09544,10.6983,1,2.26403e-05
75.3,2.2512,10.6983,1,2.33624e-05
75.4,2.40696,10.6983,1,2.4081e-05
75.5,2.56273,10.6983,1,2.48162e-05
75.6,2.71849,10.6983,1,2.55532e-05
75.7,2.87425,10.6984,1,2.62885e-05
75.8,3.03001,10.6984,1,2.70237e-05
75.9,3.18577,10.6984,1,2.77571e-05
76,3.34153,10.6984,1,2.8499e-05
76.1,3.49729,10.6984,1,2.92436e-05
76.2,3.65305,10.6984,1,2.99881e-05
76.3,3.80881,10.6984,1,3.07404e-05
76.4,3.96457,10.6984,1,3.14928e-05
76.5,4.12033,10.6984,1,3.22433e-05
76.6,4.27609,10.6984,1,3.29906e-05
76.7,4.43185,10.6984,1,3.37521e-05
76.8,4.58762,10.6985,1,3.45115e-05
76.9,4.74338,10.6985,1,3.5273e-05
77,4.89914,10.6985,1,3.60323e-05
77.1,-4.9451,10.6985,1,3.68047e-05
77.2,-4.78934,10.6985,1,3.75947e-05
77.3,-4.63358,10.6985,1,3.83649e-05
77.4,-4.47782,10.6985,1,3.91351e-05
77.5,-4.32206,10.6985,1,3.99214e-05
77.6,-4.1663,10.6985,1,4.06868e-05
77.7,-4.01054,10.6985,1,4.14652e-05
77.8,-3.85478,10.6986,1,4.22723e-05
77.9,-3.69901,10.6986,1,4.30457e-05
78,-3.54325,10.6986,1,4.3841e-05
78.1,-3.38749,10.6986,1,4.4624e-05
78.2,-3.23173,10.6986,1,4.542e-05
78.3,-3.07597,10.6986,1,4.62237e-05
78.4,-2.92021,10.6986,1,4.70274e-05
78.5,-2.76445,10.6986,1,4.78285e-05
78.6,-2.60869,10.6987,1,4.86297e-05
78.7,-2.45293,10.6987,1,4.94413e-05
78.8,-2.29717,10.6987,1,5.02475e-05
78.9,-2.1414,10.6987,1,5.10672e-05
79,-1.98564,10.6987,1,5.18871e-05
79.1,-1.82988,10.6987,1,5.26902e-05
79.2,-1.67412,10.6987,1,5.35177e-05
79.3,-1.51836,10.6988,1,5.4348e-05
79.4,-1.3626,10.6988,1,5.51726e-05
79.5,-1.20684,10.6988,1,5.6003e-05
79.6,-1.05108,10.6988,1,5.68305e-05
79.7,-0.895315,10.6988,1,5.76652e-05
79.8,-0.739553,10.6988,1,5.85089e-05
79.9,-0.583792,10.6988,1,5.93465e-05
80,-0.428031,10.6989,1,6.0184e-05
