0.1,-12.7511,0.517634,0.992444,-0.122699
0.2,-2.7352,0.496224,0.975744,-0.218916
0.3,-2.70813,0.488708,0.997524,-0.0703334
0.4,-2.66725,0.471158,0.989545,-0.144222
0.5,-2.58924,0.44312,0.984527,-0.175231
0.6,-2.47666,0.44503,0.999951,0.0099429
0.7,-2.34188,0.46284,0.996565,0.0828194
0.8,-2.20352,0.484121,0.995264,0.0972104
0.9,-2.06517,0.505402,0.995264,0.0972101
1,-1.92682,0.526683,0.995264,0.0972098
1.1,-1.78847,0.547964,0.995264,0.0972096
1.2,-1.65012,0.569245,0.995264,0.0972092
1.3,-1.51177,0.590526,0.995264,0.097209
1.4,-1.3731,0.611869,0.99525,0.0973494
1.5,-1.23027,0.633494,0.995304,0.0967983
1.6,-1.0857,0.654854,0.995488,0.0948842
1.7,-0.937682,0.67513,0.996054,0.0887547
1.8,-0.786165,0.693015,0.997018,0.0771753
1.9,-0.631714,0.707602,0.998062,0.0622241
2,-0.475048,0.718381,0.99896,0.0455851
2.1,-0.316903,0.725097,0.999601,0.0282438
2.2,-0.157983,0.727656,0.999942,0.0107306
2.3,0.00107534,0.727655,1,-3.94389e-06
2.4,0.160134,0.727655,1,-3.94353e-06
2.5,0.319193,0.727654,1,-3.94353e-06
2.6,0.478251,0.727653,1,-3.94353e-06
2.7,0.63731,0.727653,1,-3.94353e-06
2.8,0.796368,0.727652,1,-3.94353e-06
2.9,0.955309,0.727786,1,0.000560686
3,1.11412,0.728091,0.999999,0.00127894
3.1,1.27284,0.728566,0.999998,0.0019919
3.2,1.43148,0.729207,0.999996,0.00268951
3.3,1.59007,0.730007,0.999994,0.00335923
3.4,1.74865,0.730956,0.999992,0.0039864
3.5,1.90724,0.732041,0.99999,0.0045545
3.6,2.06587,0.733243,0.999987,0.00504598
3.7,2.22456,0.73454,0.999985,0.00544331
3.8,2.38333,0.735906,0.999984,0.00573036
3.9,2.54219,0.737312,0.999983,0.005894
4,2.70113,0.738726,0.999982,0.0059303
4.1,2.86007,0.740141,0.999982,0.00593029
4.2,3.019,0.741555,0.999982,0.00593029
4.3,3.17794,0.74297,0.999982,0.00593028
4.4,3.33688,0.744384,0.999982,0.00593027
4.5,3.49581,0.745799,0.999982,0.00593026
4.6,3.65475,0.747214,0.999982,0.00593025
4.7,3.81369,0.748628,0.999982,0.00593024
4.8,3.97262,0.750043,0.999982,0.00593023
4.9,4.13156,0.751457,0.999982,0.00593022
5,4.29049,0.752872,0.999982,0.00593021
5.1,4.44943,0.754286,0.999982,0.0059302
5.2,4.60837,0.755701,0.999982,0.00593019
5.3,4.7673,0.757115,0.999982,0.00593018
5.4,4.92624,0.75853,0.999982,0.00593017
5.5,-4.91482,0.759944,0.999982,0.00593016
5.6,-4.75589,0.761359,0.999982,0.00593016
5.7,-4.59695,0.762773,0.999982,0.00593014
5.8,-4.43801,0.764188,0.999982,0.00593013
5.9,-4.27908,0.765603,0.999982,0.00593012
6,-4.12014,0.767017,0.999982,0.00593012
6.1,-3.9612,0.768432,0.999982,0.0059301
6.2,-3.80227,0.769846,0.999982,0.00593009
6.3,-3.64333,0.771261,0.999982,0.00593008
6.4,-3.48439,0.772675,0.999982,0.00593007
6.5,-3.32546,0.77409,0.999982,0.00593006
6.6,-3.16652,0.775504,0.999982,0.00593004
6.7,-3.00758,0.776919,0.999982,0.00593003
6.8,-2.84865,0.778333,0.999982,0.00593002
6.9,-2.68971,0.779748,0.999982,0.00593001
7,-2.53078,0.781162,0.999982,0.00593
7.1,-2.37184,0.782577,0.999982,0.00592997
7.2,-2.2129,0.783992,0.999982,0.00592996
7.3,-2.05397,0.785406,0.999982,0.00592996
7.4,-1.89503,0.786821,0.999982,0.00592995
7.5,-1.73609,0.788235,0.999982,0.00592993
7.6,-1.57716,0.78965,0.999982,0.00592992
7.7,-1.41822,0.791064,0.999982,0.00592991
7.8,-1.25928,0.792479,0.999982,0.00592988
7.9,-1.10035,0.793893,0.999982,0.00592987
8,-0.94141,0.795308,0.999982,0.00592985
8.1,-0.782473,0.796722,0.999982,0.00592984
8.2,-0.623537,0.798137,0.999982,0.00592982
8.3,-0.4646,0.799551,0.999982,0.00592981
8.4,-0.305664,0.800966,0.999982,0.0059298
8.5,-0.146727,0.80238,0.999982,0.00592981
8.6,0.0122093,0.803795,0.999982,0.00592977
8.7,0.171146,0.805209,0.999982,0.0059298
8.8,0.330082,0.806624,0.999982,0.00592973
8.9,0.489019,0.808038,0.999982,0.00592997
9,0.648072,0.808336,0.999999,0.00124589
9.1,0.80713,0.808335,1,-5.55793e-06
9.2,0.966189,0.808334,1,-5.55795e-06
9.3,1.12525,0.808333,1,-5.55795e-06
9.4,1.28431,0.808333,1,-5.55795e-06
9.5,1.44336,0.808332,1,-5.55795e-06
9.6,1.60242,0.808331,1,-5.55795e-06
9.7,1.76148,0.80833,1,-5.55795e-06
9.8,1.92054,0.808329,1,-5.55795e-06
9.9,2.0796,0.808328,1,-5.55795e-06
10,2.23866,0.808327,1,-5.55795e-06
10.1,2.39772,0.808326,1,-5.55795e-06
10.2,2.55677,0.808325,1,-5.55795e-06
10.3,2.71583,0.808324,1,-5.55795e-06
10.4,2.87489,0.808324,1,-5.55795e-06
10.5,3.03395,0.808323,1,-5.55795e-06
10.6,3.19301,0.808322,1,-5.55795e-06
10.7,3.35207,0.808321,1,-5.55795e-06
10.8,3.51113,0.80832,1,-5.55795e-06
10.9,3.67018,0.808319,1,-5.55795e-06
11,3.82924,0.808318,1,-5.55795e-06
11.1,3.9883,0.808317,1,-5.55795e-06
11.2,4.14736,0.808316,1,-5.55795e-06
11.3,4.30642,0.808316,1,-5.55795e-06
11.4,4.46548,0.808315,1,-5.55795e-06
11.5,4.62454,0.808314,1,-5.55795e-06
11.6,4.78359,0.808313,1,-5.55795e-06
11.7,4.94265,0.808312,1,-5.55795e-06
11.8,-4.89829,0.808311,1,-5.55795e-06
11.9,-4.73923,0.80831,1,-5.55684e-06
12,-4.58017,0.808309,1,-5.55684e-06
12.1,-4.42111,0.808308,1,-5.55684e-06
12.2,-4.26205,0.808307,1,-5.55684e-06
12.3,-4.103,0.808307,1,-5.55684e-06
12.4,-3.94394,0.808306,1,-5.55684e-06
12.5,-3.78502,0.808285,1,-8.97762e-05
12.6,-3.62654,0.808197,1,-0.000368921
12.7,-3.46848,0.808047,1,-0.000633024
12.8,-3.31084,0.807836,1,-0.000892453
12.9,-3.15361,0.807566,0.999999,-0.00114313
13,-2.99678,0.80724,0.999999,-0.00138184
13.1,-2.84034,0.806861,0.999999,-0.0016071
13.2,-2.68429,0.806434,0.999998,-0.00181629
13.3,-2.52862,0.805962,0.999998,-0.00200806
13.4,-2.37332,0.80545,0.999998,-0.00218028
13.5,-2.21838,0.804904,0.999997,-0.00233155
13.6,-2.0638,0.804328,0.999997,-0.00246035
13.7,-1.90939,0.803153,0.999987,-0.00502383
13.8,-1.75607,0.80332,1,0.000712459
13.9,-1.60304,0.804874,0.999978,0.00667961
14,-1.45014,0.806957,0.99996,0.0089599
14.1,-1.29766,0.80853,0.999977,0.00677967
14.2,-1.14491,0.811251,0.999932,0.0117109
14.3,-0.991857,0.814898,0.999877,0.0156782
14.4,-0.838793,0.818971,0.999847,0.0175068
14.5,-0.685378,0.823751,0.99979,0.0205127
14.6,-0.53099,0.829449,0.999704,0.0243499
14.7,-0.374676,0.835855,0.999631,0.0271498
14.8,-0.217704,0.842297,0.999629,0.0272266
14.9,-0.0607328,0.848739,0.999629,0.0272265
15,0.0962386,0.855181,0.999629,0.0272265
15.1,0.25321,0.861623,0.999629,0.0272264
15.2,0.410181,0.868065,0.999629,0.0272264
15.3,0.567153,0.874507,0.999629,0.0272263
15.4,0.724124,0.880949,0.999629,0.0272263
15.5,0.881096,0.887391,0.999629,0.0272262
15.6,1.03807,0.893833,0.999629,0.0272262
15.7,1.19504,0.900275,0.999629,0.0272261
15.8,1.35201,0.906717,0.999629,0.0272261
15.9,1.50898,0.913159,0.999629,0.027226
16,1.66595,0.9196,0.999629,0.027226
16.1,1.82292,0.926042,0.999629,0.0272259
16.2,1.97989,0.932484,0.999629,0.0272258
16.3,2.13687,0.938926,0.999629,0.0272258
16.4,2.29384,0.945368,0.999629,0.0272257
16.5,2.45081,0.95181,0.999629,0.0272257
16.6,2.60778,0.958252,0.999629,0.0272256
16.7,2.76475,0.964694,0.999629,0.0272256
16.8,2.92172,0.971136,0.999629,0.0272255
16.9,3.07869,0.977578,0.999629,0.0272255
17,3.23566,0.98402,0.999629,0.0272254
17.1,3.39264,0.990462,0.999629,0.0272254
17.2,3.54961,0.996904,0.999629,0.0272253
17.3,3.70658,1.00335,0.999629,0.0272252
17.4,3.86355,1.00979,0.999629,0.0272252
17.5,4.02052,1.01623,0.999629,0.0272251
17.6,4.17749,1.02267,0.999629,0.0272251
17.7,4.33446,1.02911,0.999629,0.027225
17.8,4.49144,1.03556,0.999629,0.027225
17.9,4.64841,1.042,0.999629,0.0272249
18,4.80538,1.04844,0.999629,0.0272249
18.1,4.96233,1.05488,0.99963,0.0272005
18.2,-4.88091,1.06125,0.999637,0.0269615
18.3,-4.72433,1.06756,0.999643,0.026727
18.4,-4.56794,1.07382,0.999649,0.0264968
18.5,-4.41173,1.08001,0.999655,0.0262708
18.6,-4.25569,1.08615,0.999661,0.0260491
18.7,-4.09983,1.09224,0.999666,0.0258314
18.8,-3.94413,1.09826,0.999672,0.0256178
18.9,-3.7886,1.10424,0.999677,0.0254082
19,-3.63323,1.11016,0.999682,0.0252024
19.1,-3.47802,1.11603,0.999687,0.0250006
19.2,-3.32297,1.12185,0.999692,0.0248017
19.3,-3.16799,1.12702,0.999758,0.0219965
19.4,-3.01311,1.13189,0.999784,0.0207814
19.5,-2.85835,1.13664,0.999794,0.0202772
19.6,-2.70374,1.14134,0.999799,0.0200687
19.7,-2.54927,1.14601,0.999801,0.0199374
19.8,-2.39494,1.15065,0.999804,0.0198155
19.9,-2.24075,1.15525,0.999806,0.0196995
20,-2.08669,1.15983,0.999808,0.0195875
20.1,-1.93277,1.16438,0.99981,0.0194785
20.2,-1.77897,1.1689,0.999812,0.019372
20.3,-1.6253,1.17339,0.999814,0.0192678
20.4,-1.47175,1.17786,0.999816,0.0191657
20.5,-1.31833,1.18231,0.999818,0.0190656
20.6,-1.16502,1.18673,0.99982,0.0189674
20.7,-1.01183,1.19112,0.999822,0.0188711
20.8,-0.85876,1.19549,0.999824,0.0187766
20.9,-0.705798,1.19983,0.999825,0.018684
21,-0.552946,1.20416,0.999827,0.0185931
21.1,-0.400202,1.20846,0.999829,0.0185039
21.2,-0.247563,1.21273,0.99983,0.0184165
21.3,-0.0950272,1.21699,0.999832,0.0183307
21.4,0.0574068,1.22122,0.999834,0.0182466
21.5,0.209741,1.22544,0.999835,0.018164
21.6,0.361979,1.22963,0.999837,0.0180831
21.7,0.514121,1.2338,0.999838,0.0180037
21.8,0.666169,1.23796,0.999839,0.0179258
21.9,0.818126,1.24209,0.999841,0.0178494
22,0.969992,1.2462,0.999842,0.0177745
22.1,1.12177,1.2503,0.999843,0.0177024
22.2,1.27349,1.25438,0.999844,0.0176534
22.3,1.42514,1.25845,0.999845,0.0175889
22.4,1.5767,1.2625,0.999846,0.0175224
22.5,1.72819,1.26654,0.999848,0.0174568
22.6,1.8796,1.27056,0.999849,0.0173925
22.7,2.03094,1.27456,0.99985,0.0173297
22.8,2.1822,1.27855,0.999851,0.0172684
22.9,2.33339,1.28252,0.999852,0.0172085
23,2.48451,1.28648,0.999853,0.0171501
23.1,2.63556,1.29042,0.999854,0.0170931
23.2,2.78655,1.29435,0.999855,0.0170376
23.3,2.93747,1.29826,0.999856,0.0169836
23.4,3.08833,1.30217,0.999857,0.0169311
23.5,3.23913,1.30606,0.999857,0.01688
23.6,3.38987,1.30993,0.999858,0.0168305
23.7,3.54056,1.3138,0.999859,0.0167824
23.8,3.69118,1.31765,0.99986,0.0167359
23.9,3.84176,1.32149,0.999861,0.016691
24,3.99228,1.32533,0.999861,0.0166477
24.1,4.14276,1.32915,0.999862,0.016606
24.2,4.29319,1.33296,0.999863,0.016566
24.3,4.44357,1.33676,0.999863,0.0165278
24.4,4.59391,1.34055,0.999864,0.0164914
24.5,4.74421,1.34434,0.999865,0.0164569
24.6,4.89447,1.34811,0.999865,0.0164244
24.7,-4.95531,1.35188,0.999866,0.016394
24.8,-4.8051,1.3557,0.999862,0.0165991
24.9,-4.65477,1.35981,0.99984,0.0178697
25,-4.50418,1.36443,0.999798,0.0200868
25.1,-4.35303,1.36984,0.999725,0.0234525
25.2,-4.20139,1.3758,0.999669,0.0257328
25.3,-4.04975,1.38175,0.999669,0.0257327
25.4,-3.89811,1.3877,0.999669,0.0257326
25.5,-3.74647,1.39365,0.999669,0.0257325
25.6,-3.59483,1.3996,0.999669,0.0257324
25.7,-3.44319,1.40556,0.999669,0.0257323
25.8,-3.29155,1.41151,0.999669,0.0257322
25.9,-3.13991,1.41746,0.999669,0.0257321
26,-2.98828,1.42341,0.999669,0.025732
26.1,-2.83664,1.42936,0.999669,0.025732
26.2,-2.685,1.43531,0.999669,0.0257319
26.3,-2.53336,1.44127,0.999669,0.0257318
26.4,-2.38172,1.44722,0.999669,0.0257317
26.5,-2.23008,1.45317,0.999669,0.0257316
26.6,-2.07844,1.45912,0.999669,0.0257315
26.7,-1.9268,1.46507,0.999669,0.0257314
26.8,-1.77516,1.47102,0.999669,0.0257313
26.9,-1.62352,1.47698,0.999669,0.0257313
27,-1.47188,1.48293,0.999669,0.0257312
27.1,-1.32024,1.48888,0.999669,0.0257311
27.2,-1.16861,1.49483,0.999669,0.025731
27.3,-1.01697,1.50078,0.999669,0.0257309
27.4,-0.865327,1.50673,0.999669,0.0257308
27.5,-0.713688,1.51269,0.999669,0.0257307
27.6,-0.562049,1.51864,0.999669,0.0257307
27.7,-0.41041,1.52459,0.999669,0.0257306
27.8,-0.258771,1.53054,0.999669,0.0257305
27.9,-0.107132,1.53649,0.999669,0.0257304
28,0.0445075,1.54244,0.999669,0.0257303
28.1,0.196147,1.5484,0.999669,0.0257302
28.2,0.347786,1.55435,0.999669,0.0257301
28.3,0.499425,1.5603,0.999669,0.02573
28.4,0.651064,1.56625,0.999669,0.0257299
28.5,0.802703,1.5722,0.999669,0.0257298
28.6,0.954342,1.57815,0.999669,0.0257297
28.7,1.10598,1.58411,0.999669,0.0257296
28.8,1.25762,1.59006,0.999669,0.0257296
28.9,1.40926,1.59601,0.999669,0.0257295
29,1.5609,1.60196,0.999669,0.0257294
29.1,1.71254,1.60791,0.999669,0.0257293
29.2,1.86418,1.61386,0.999669,0.0257292
29.3,2.01582,1.61981,0.999669,0.0257293
29.4,2.16768,1.62583,0.999663,0.0259667
29.5,2.31982,1.6319,0.999656,0.0262156
29.6,2.47221,1.63803,0.999652,0.0263773
29.7,2.62489,1.64419,0.999648,0.0265194
29.8,2.77784,1.65037,0.999647,0.0265881
29.9,2.9311,1.65657,0.999646,0.026607
30,3.08463,1.66277,0.999647,0.0265661
30.1,3.23849,1.66894,0.99965,0.0264465
30.2,3.39263,1.67509,0.999655,0.0262798
30.3,3.54711,1.68118,0.999662,0.0260076
30.4,3.70188,1.6872,0.99967,0.0257007
30.5,3.85699,1.69313,0.999681,0.0252639
30.6,4.01239,1.69896,0.999692,0.0248059
30.7,4.16812,1.70466,0.999707,0.0241962
30.8,4.32415,1.71022,0.999722,0.023579
30.9,4.4805,1.7156,0.99974,0.0227939
31,4.63713,1.7208,0.999758,0.0220136
31.1,4.79406,1.72578,0.999778,0.0210558
31.2,4.95126,1.73055,0.999798,0.0201161
31.3,-4.89126,1.73505,0.99982,0.0189927
31.4,-4.73355,1.7393,0.99984,0.0179043
31.5,-4.57559,1.74325,0.999862,0.0166295
31.6,-4.41742,1.74692,0.999881,0.015409
31.7,-4.25905,1.75027,0.999901,0.0140615
31.8,-4.10052,1.75333,0.999918,0.0128423
31.9,-3.94178,1.75584,0.999945,0.0105279
32,-3.78285,1.75757,0.999974,0.00727186
32.1,-3.62383,1.75847,0.999993,0.00375528
32.2,-3.46477,1.75855,1,0.000321134
32.3,-3.30571,1.75854,1,-2.45691e-05
32.4,-3.14665,1.75854,1,-2.45691e-05
32.5,-2.98759,1.75854,1,-2.45691e-05
32.6,-2.82853,1.75853,1,-2.45691e-05
32.7,-2.66947,1.75853,1,-2.45691e-05
32.8,-2.51042,1.75852,1,-2.45691e-05
32.9,-2.35136,1.75852,1,-2.45691e-05
33,-2.1923,1.75852,1,-2.45691e-05
33.1,-2.03324,1.75851,1,-2.45691e-05
33.2,-1.87418,1.75851,1,-2.45691e-05
33.3,-1.71512,1.7585,1,-2.45691e-05
33.4,-1.55606,1.7585,1,-2.45691e-05
33.5,-1.39701,1.7585,1,-2.45691e-05
33.6,-1.23795,1.75849,1,-2.45691e-05
33.7,-1.07889,1.75849,1,-2.45691e-05
33.8,-0.919829,1.75849,1,-2.45691e-05
33.9,-0.760771,1.75848,1,-2.45691e-05
34,-0.601712,1.75848,1,-2.45691e-05
34.1,-0.442654,1.75847,1,-2.45691e-05
34.2,-0.283595,1.75847,1,-2.45691e-05
34.3,-0.124536,1.75847,1,-2.45691e-05
34.4,0.0345222,1.75846,1,-2.45691e-05
34.5,0.193581,1.75846,1,-2.45691e-05
34.6,0.352639,1.75845,1,-2.45691e-05
34.7,0.511698,1.75845,1,-2.45691e-05
34.8,0.670757,1.75845,1,-2.45691e-05
34.9,0.829815,1.75844,1,-2.45691e-05
35,0.988874,1.75844,1,-2.45691e-05
35.1,1.14793,1.75843,1,-2.45691e-05
35.2,1.30699,1.75843,1,-2.45691e-05
35.3,1.46605,1.75843,1,-2.45691e-05
35.4,1.62511,1.75842,1,-2.45691e-05
35.5,1.78417,1.75842,1,-2.45691e-05
35.6,1.94323,1.75841,1,-2.45691e-05
35.7,2.10228,1.75841,1,-2.45691e-05
35.8,2.26134,1.75841,1,-2.45691e-05
35.9,2.4204,1.7584,1,-2.45691e-05
36,2.57946,1.7584,1,-2.45691e-05
36.1,2.73852,1.75839,1,-2.45691e-05
36.2,2.89758,1.75839,1,-2.45691e-05
36.3,3.05664,1.75839,1,-2.45691e-05
36.4,3.21569,1.75838,1,-2.45691e-05
36.5,3.37475,1.75838,1,-2.45691e-05
36.6,3.53381,1.75838,1,-2.45691e-05
36.7,3.69287,1.75837,1,-2.45691e-05
36.8,3.85193,1.75837,1,-2.45691e-05
36.9,4.01099,1.75836,1,-2.45691e-05
37,4.16996,1.75836,1,-1.92273e-05
37.1,4.32842,1.75837,1,1.42898e-05
37.2,4.48639,1.75838,1,5.38526e-05
37.3,4.64387,1.75841,1,0.000101137
37.4,4.80088,1.75845,1,0.000158369
37.5,4.95743,1.7585,1,0.000228582
37.6,-4.88648,1.75858,1,0.000315973
37.7,-4.73084,1.75868,1,0.000426444
37.8,-4.57564,1.75882,1,0.00056841
37.9,-4.42086,1.75899,1,0.000754109
38,-4.2665,1.75923,1,0.00100159
38.1,-4.11255,1.75955,0.999999,0.001338
38.2,-3.95899,1.75997,0.999998,0.00180478
38.3,-3.80581,1.76054,0.999997,0.00246623
38.4,-3.65299,1.76134,0.999994,0.00342317
38.5,-3.50049,1.76246,0.999988,0.00483406
38.6,-3.34825,1.76408,0.999976,0.0069427
38.7,-3.1961,1.76642,0.999949,0.0100943
38.8,-3.04371,1.76982,0.999893,0.0146466
38.9,-2.89041,1.77458,0.999791,0.0204481
39,-2.735,1.78053,0.999679,0.0253179
39.1,-2.57748,1.78655,0.999678,0.0253875
39.2,-2.41995,1.79258,0.999678,0.0253874
39.3,-2.26242,1.7986,0.999678,0.0253874
39.4,-2.1049,1.80462,0.999678,0.0253873
39.5,-1.94737,1.81064,0.999678,0.0253873
39.6,-1.78984,1.81666,0.999678,0.0253872
39.7,-1.63232,1.82269,0.999678,0.0253872
39.8,-1.47479,1.82871,0.999678,0.0253871
39.9,-1.31727,1.83473,0.999678,0.0253871
40,-1.15974,1.84075,0.999678,0.025387
40.1,-1.00221,1.84678,0.999678,0.025387
40.2,-0.844687,1.8528,0.999678,0.0253869
40.3,-0.687161,1.85882,0.999678,0.0253869
40.4,-0.529635,1.86484,0.999678,0.0253868
40.5,-0.372108,1.87086,0.999678,0.0253868
40.6,-0.214824,1.87682,0.999684,0.0251531
40.7,-0.057796,1.88272,0.99969,0.0249052
40.8,0.098982,1.88855,0.999696,0.0246626
40.9,0.255515,1.89432,0.999702,0.0244246
41,0.411809,1.90003,0.999707,0.0241913
41.1,0.567868,1.90568,0.999713,0.0239625
41.2,0.723698,1.91127,0.999718,0.0237383
41.3,0.879303,1.9168,0.999723,0.0235186
41.4,1.03469,1.92228,0.999728,0.0233034
41.5,1.18986,1.92771,0.999733,0.0230926
41.6,1.34482,1.93308,0.999738,0.0228862
41.7,1.49958,1.93839,0.999743,0.0226841
41.8,1.65414,1.94366,0.999747,0.0224863
41.9,1.8085,1.94888,0.999751,0.0222928
42,1.96267,1.95405,0.999756,0.0221034
42.1,2.11666,1.95917,0.99976,0.0219182
42.2,2.27046,1.96425,0.999764,0.0217371
42.3,2.42409,1.96928,0.999768,0.0215599
42.4,2.57754,1.97426,0.999771,0.0213868
42.5,2.73082,1.9792,0.999775,0.0212175
42.6,2.88394,1.9841,0.999779,0.0210159
42.7,3.03695,1.98877,0.999799,0.0200665
42.8,3.18992,1.99301,0.999833,0.0182531
42.9,3.34289,1.99668,0.999876,0.0157509
43,3.4959,1.99977,0.999912,0.0132701
43.1,3.64885,2.00256,0.999928,0.0120052
43.2,3.80165,2.00516,0.999938,0.011171
43.3,3.95426,2.00762,0.999944,0.0105744
43.4,4.10668,2.00996,0.999949,0.0101139
43.5,4.25887,2.01222,0.999953,0.00973194
43.6,4.41085,2.0144,0.999956,0.00939376
43.7,4.56262,2.0165,0.999959,0.00907091
43.8,4.71418,2.0185,0.999963,0.0086552
43.9,4.86641,2.01857,1,0.00030311
44,-4.97921,2.01545,0.99991,-0.0133856
44.1,-4.82307,2.01127,0.999843,-0.0177126
44.2,-4.66604,2.00671,0.999814,-0.0192965
44.3,-4.50743,2.00224,0.999824,-0.018787
44.4,-4.34866,1.99832,0.999865,-0.0164412
44.5,-4.18986,1.9948,0.999891,-0.014779
44.6,-4.03102,1.9916,0.99991,-0.0134243
44.7,-3.87217,1.98868,0.999925,-0.0122722
44.8,-3.7133,1.98602,0.999938,-0.0111705
44.9,-3.55441,1.9836,0.999949,-0.010141
45,-3.3955,1.98144,0.999959,-0.00909831
45.1,-3.23658,1.97943,0.999965,-0.00841323
45.2,-3.0778,1.97752,0.999968,-0.00802223
45.3,-2.91935,1.97568,0.99997,-0.00775349
45.4,-2.7612,1.97388,0.999971,-0.00758303
45.5,-2.60333,1.97211,0.999972,-0.00746344
45.6,-2.44552,1.97023,0.999969,-0.00791827
45.7,-2.28769,1.96821,0.999964,-0.00852312
45.8,-2.12981,1.96605,0.999958,-0.00912536
45.9,-1.97186,1.96375,0.999953,-0.00968734
46,-1.81381,1.96133,0.999948,-0.0101905
46.1,-1.65563,1.95881,0.999944,-0.0106201
46.2,-1.49732,1.9562,0.99994,-0.0109629
46.3,-1.33885,1.95354,0.999937,-0.0112071
46.4,-1.18021,1.95084,0.999936,-0.0113435
46.5,-1.02154,1.94813,0.999935,-0.0113588
46.6,-0.86287,1.94543,0.999935,-0.0113588
46.7,-0.704198,1.94273,0.999935,-0.0113588
46.8,-0.545526,1.94002,0.999935,-0.0113588
46.9,-0.386855,1.93732,0.999935,-0.0113587
47,-0.228183,1.93462,0.999935,-0.0113587
47.1,-0.0695111,1.93191,0.999935,-0.0113587
47.2,0.0891607,1.92921,0.999935,-0.0113587
47.3,0.247833,1.92651,0.999935,-0.0113587
47.4,0.406504,1.9238,0.999935,-0.0113587
47.5,0.565176,1.9211,0.999935,-0.0113586
47.6,0.723848,1.9184,0.999935,-0.0113586
47.7,0.88252,1.91569,0.999935,-0.0113586
47.8,1.04119,1.91299,0.999935,-0.0113586
47.9,1.19986,1.91029,0.999935,-0.0113586
48,1.35853,1.90758,0.999935,-0.0113586
48.1,1.51721,1.90488,0.999935,-0.0113585
48.2,1.67588,1.90217,0.999935,-0.0113585
48.3,1.83455,1.89947,0.999935,-0.0113585
48.4,1.99322,1.89677,0.999935,-0.0113585
48.5,2.15189,1.89406,0.999935,-0.0113585
48.6,2.31057,1.89136,0.999935,-0.0113585
48.7,2.46924,1.88866,0.999935,-0.0113585
48.8,2.62791,1.88595,0.999935,-0.0113584
48.9,2.78658,1.88325,0.999935,-0.0113584
49,2.94525,1.88055,0.999935,-0.0113584
49.1,3.10392,1.87784,0.999935,-0.0113584
49.2,3.2626,1.87514,0.999935,-0.0113584
49.3,3.42127,1.87243,0.999935,-0.0113584
49.4,3.57994,1.86973,0.999935,-0.0113583
49.5,3.73861,1.86703,0.999935,-0.0113583
49.6,3.89728,1.86432,0.999935,-0.0113583
49.7,4.05596,1.86162,0.999935,-0.0113583
49.8,4.21463,1.85892,0.999935,-0.0113583
49.9,4.3733,1.85621,0.999935,-0.0113582
50,4.53197,1.85351,0.999935,-0.0113582
50.1,4.69064,1.85081,0.999935,-0.0113582
50.2,4.84932,1.8481,0.999935,-0.0113582
50.3,-4.99201,1.8454,0.999935,-0.0113582
50.4,-4.83334,1.8427,0.999935,-0.0113582
50.5,-4.67467,1.83999,0.999935,-0.0113581
50.6,-4.516,1.83729,0.999935,-0.0113581
50.7,-4.35733,1.83458,0.999935,-0.0113581
50.8,-4.19865,1.83188,0.999935,-0.0113581
50.9,-4.03998,1.82918,0.999935,-0.0113581
51,-3.88131,1.82647,0.999935,-0.011358
51.1,-3.72264,1.82377,0.999935,-0.0113581
51.2,-3.56397,1.82107,0.999935,-0.011358
51.3,-3.40529,1.81836,0.999935,-0.0113579
51.4,-3.24653,1.81592,0.999948,-0.0102374
51.5,-3.08756,1.81436,0.999978,-0.00655421
51.6,-2.92852,1.8133,0.99999,-0.00445143
51.7,-2.76946,1.8133,1,-2.56651e-05
51.8,-2.61041,1.8133,1,-2.56649e-05
51.9,-2.45135,1.81329,1,-2.56649e-05
52,-2.29229,1.81329,1,-2.56649e-05
52.1,-2.13323,1.81328,1,-2.56649e-05
52.2,-1.97417,1.81328,1,-2.56649e-05
52.3,-1.81511,1.81328,1,-2.56649e-05
52.4,-1.65605,1.81327,1,-2.56649e-05
52.5,-1.497,1.81327,1,-2.56649e-05
52.6,-1.33794,1.81326,1,-2.56649e-05
52.7,-1.17888,1.81326,1,-2.56649e-05
52.8,-1.01982,1.81326,1,-2.56649e-05
52.9,-0.860761,1.81325,1,-2.56649e-05
53,-0.701703,1.81325,1,-2.56649e-05
53.1,-0.542644,1.81324,1,-2.56649e-05
53.2,-0.383756,1.81328,1,0.00014761
53.3,-0.225083,1.81337,1,0.000380593
53.4,-0.0666166,1.81352,1,0.000627125
53.5,0.0916477,1.81374,1,0.0008887
53.6,0.249717,1.81402,0.999999,0.00116696
53.7,0.407597,1.81437,0.999999,0.00146371
53.8,0.565295,1.81479,0.999998,0.0017809
53.9,0.722818,1.8153,0.999998,0.00212071
54,0.880174,1.81589,0.999997,0.00248551
54.1,1.03737,1.81657,0.999996,0.00287785
54.2,1.19442,1.81735,0.999995,0.0033005
54.3,1.35132,1.81824,0.999993,0.00375633
54.4,1.5081,1.81925,0.999991,0.00424833
54.5,1.66476,1.82038,0.999989,0.0047796
54.6,1.82132,1.82165,0.999986,0.00535299
54.7,1.97779,1.82306,0.999982,0.00597112
54.8,2.13418,1.82462,0.999978,0.00663598
54.9,2.29053,1.82636,0.999973,0.00734858
55,2.44685,1.82827,0.999967,0.00810837
55.1,2.60317,1.83038,0.99996,0.00891259
55.2,2.75951,1.83268,0.999952,0.0097553
55.3,2.91592,1.83519,0.999944,0.0106265
55.4,3.07243,1.83791,0.999934,0.0115108
55.5,3.22909,1.84084,0.999923,0.0123869
55.6,3.38593,1.84397,0.999913,0.0132263
55.7,3.543,1.84728,0.999902,0.013994
55.8,3.70036,1.85075,0.999893,0.0146499
55.9,3.85802,1.85435,0.999885,0.0151516
56,4.0158,1.85798,0.999883,0.0152728
56.1,4.17357,1.8616,0.999883,0.0152728
56.2,4.33135,1.86523,0.999883,0.0152727
56.3,4.48913,1.86886,0.999883,0.0152727
56.4,4.6469,1.87248,0.999883,0.0152727
56.5,4.80468,1.87611,0.999883,0.0152727
56.6,4.96245,1.87974,0.999883,0.0152726
56.7,-4.87977,1.88336,0.999883,0.0152726
56.8,-4.72199,1.88699,0.999883,0.0152726
56.9,-4.56422,1.89062,0.999883,0.0152726
57,-4.40644,1.89424,0.999883,0.0152725
57.1,-4.24867,1.89787,0.999883,0.0152725
57.2,-4.09089,1.9015,0.999883,0.0152725
57.3,-3.93312,1.90513,0.999883,0.0152725
57.4,-3.77534,1.90875,0.999883,0.0152724
57.5,-3.61756,1.91238,0.999883,0.0152724
57.6,-3.45979,1.91601,0.999883,0.0152724
57.7,-3.30201,1.91963,0.999883,0.0152723
57.8,-3.14424,1.92326,0.999883,0.0152723
57.9,-2.98646,1.92689,0.999883,0.0152723
58,-2.82869,1.93051,0.999883,0.0152722
58.1,-2.67091,1.93414,0.999883,0.0152722
58.2,-2.51313,1.93777,0.999883,0.0152722
58.3,-2.35536,1.94139,0.999883,0.0152721
58.4,-2.19758,1.94502,0.999883,0.0152721
58.5,-2.03981,1.94865,0.999883,0.0152721
58.6,-1.88203,1.95227,0.999883,0.015272
58.7,-1.72426,1.9559,0.999883,0.015272
58.8,-1.56648,1.95953,0.999883,0.015272
58.9,-1.4087,1.96315,0.999883,0.015272
59,-1.25093,1.96678,0.999883,0.0152719
59.1,-1.09315,1.97041,0.999883,0.0152719
59.2,-0.935378,1.97404,0.999883,0.0152719
59.3,-0.777602,1.97766,0.999883,0.0152718
59.4,-0.619827,1.98129,0.999883,0.0152718
59.5,-0.462051,1.98492,0.999883,0.0152718
59.6,-0.304276,1.98854,0.999883,0.0152717
59.7,-0.1465,1.99217,0.999883,0.0152717
59.8,0.0112757,1.9958,0.999883,0.0152716
59.9,0.169051,1.99942,0.999883,0.0152716
60,0.326827,2.00305,0.999883,0.0152716
60.1,0.484603,2.00668,0.999883,0.0152715
60.2,0.642378,2.0103,0.999883,0.0152714
60.3,0.800154,2.01393,0.999883,0.0152714
60.4,0.95793,2.01756,0.999883,0.0152713
60.5,1.11571,2.02118,0.999883,0.0152713
60.6,1.27348,2.02481,0.999883,0.0152712
60.7,1.43126,2.02844,0.999883,0.0152708
60.8,1.58918,2.03187,0.999896,0.0144296
60.9,1.74755,2.03478,0.999925,0.0122567
61,1.90596,2.03743,0.999938,0.0111273
61.1,2.06506,2.0399,0.999947,0.0103373
61.2,2.22415,2.04226,0.999951,0.00988233
61.3,2.38324,2.04455,0.999954,0.00956671
61.4,2.54234,2.04678,0.999957,0.00932582
61.5,2.70143,2.04896,0.999958,0.00912842
61.6,2.86052,2.0511,0.99996,0.00894427
61.7,3.01961,2.05319,0.999962,0.00876775
61.8,3.1787,2.05524,0.999963,0.00859659
61.9,3.33779,2.05726,0.999964,0.00842967
62,3.49688,2.05923,0.999966,0.00826637
62.1,3.65597,2.06117,0.999967,0.00810635
62.2,3.81506,2.06307,0.999968,0.00794939
62.3,3.97415,2.06493,0.99997,0.00779538
62.4,4.13323,2.06676,0.999971,0.0076442
62.5,4.29232,2.06855,0.999972,0.00749579
62.6,4.45141,2.07031,0.999973,0.00735006
62.7,4.61049,2.07203,0.999974,0.00720693
62.8,4.76958,2.07372,0.999975,0.00706638
62.9,4.92866,2.07537,0.999976,0.00692835
63,-4.91225,2.07703,0.999976,0.00692832
63.1,-4.75317,2.07868,0.999976,0.00692832
63.2,-4.59408,2.08034,0.999976,0.00692832
63.3,-4.43499,2.08199,0.999976,0.0069283
63.4,-4.27591,2.08365,0.999976,0.00692828
63.5,-4.11682,2.08531,0.999976,0.00692828
63.6,-3.95774,2.08696,0.999976,0.00692826
63.7,-3.79865,2.08862,0.999976,0.00692826
63.8,-3.63957,2.09027,0.999976,0.00692823
63.9,-3.48048,2.09193,0.999976,0.00692822
64,-3.3214,2.09358,0.999976,0.00692823
64.1,-3.16231,2.09524,0.999976,0.0069282
64.2,-3.00323,2.0969,0.999976,0.00692822
64.3,-2.84414,2.09855,0.999976,0.0069282
64.4,-2.68506,2.10021,0.999976,0.00692817
64.5,-2.52597,2.10186,0.999976,0.00692819
64.6,-2.36689,2.10352,0.999976,0.00692815
64.7,-2.2078,2.10517,0.999976,0.00692811
64.8,-2.04872,2.10683,0.999976,0.00692815
64.9,-1.88963,2.10849,0.999976,0.00692807
65,-1.73055,2.11014,0.999976,0.00692811
65.1,-1.57146,2.1118,0.999976,0.00692816
65.2,-1.41237,2.11345,0.999976,0.00692807
65.3,-1.25329,2.11511,0.999976,0.00692826
65.4,-1.09419,2.11653,0.999982,0.00593729
65.5,-0.935133,2.11652,1,-3.17329e-05
65.6,-0.776075,2.11652,1,-3.17329e-05
65.7,-0.617016,2.11651,1,-3.17329e-05
65.8,-0.457958,2.11651,1,-3.1733e-05
65.9,-0.298899,2.1165,1,-3.1733e-05
66,-0.139841,2.1165,1,-3.1733e-05
66.1,0.0192181,2.11649,1,-3.1733e-05
66.2,0.178277,2.11649,1,-3.1733e-05
66.3,0.337335,2.11648,1,-3.1733e-05
66.4,0.496394,2.11648,1,-3.1733e-05
66.5,0.655452,2.11647,1,-3.1733e-05
66.6,0.814511,2.11647,1,-3.1733e-05
66.7,0.97357,2.11646,1,-3.1733e-05
66.8,1.13263,2.11646,1,-3.1733e-05
66.9,1.29169,2.11645,1,-3.1733e-05
67,1.45075,2.11645,1,-3.1733e-05
67.1,1.6098,2.11644,1,-3.1733e-05
67.2,1.76886,2.11644,1,-3.1733e-05
67.3,1.92792,2.11643,1,-3.1733e-05
67.4,2.08698,2.11643,1,-3.1733e-05
67.5,2.24604,2.11642,1,-3.1733e-05
67.6,2.4051,2.11642,1,-3.1733e-05
67.7,2.56416,2.11641,1,-3.1733e-05
67.8,2.72321,2.11641,1,-3.1733e-05
67.9,2.88227,2.1164,1,-3.1733e-05
68,3.04133,2.1164,1,-3.1733e-05
68.1,3.20039,2.11639,1,-3.1733e-05
68.2,3.35945,2.11639,1,-3.1733e-05
68.3,3.51851,2.11638,1,-3.1733e-05
68.4,3.67757,2.11638,1,-3.1733e-05
68.5,3.83662,2.11637,1,-3.1733e-05
68.6,3.99568,2.11637,1,-3.1733e-05
68.7,4.15474,2.11636,1,-3.1733e-05
68.8,4.3138,2.11636,1,-3.1733e-05
68.9,4.47286,2.11635,1,-3.1733e-05
69,4.63192,2.11635,1,-3.1733e-05
69.1,4.79098,2.11634,1,-3.1733e-05
69.2,4.95003,2.11634,1,-3.1733e-05
69.3,-4.89091,2.11633,1,-3.1733e-05
69.4,-4.73185,2.11633,1,-3.17266e-05
69.5,-4.57279,2.11632,1,-3.17266e-05
69.6,-4.41373,2.11632,1,-3.17266e-05
69.7,-4.25467,2.11631,1,-3.17266e-05
69.8,-4.09561,2.11631,1,-3.17266e-05
69.9,-3.93656,2.1163,1,-3.17266e-05
70,-3.7775,2.1163,1,-3.17266e-05
70.1,-3.61844,2.11629,1,-3.17266e-05
70.2,-3.45938,2.11629,1,-3.17266e-05
70.3,-3.30032,2.11628,1,-3.17266e-05
70.4,-3.14126,2.11628,1,-3.17266e-05
70.5,-2.9822,2.11627,1,-3.17266e-05
70.6,-2.82315,2.11627,1,-3.17266e-05
70.7,-2.66409,2.11626,1,-3.17266e-05
70.8,-2.50503,2.11626,1,-3.17266e-05
70.9,-2.34597,2.11625,1,-3.17266e-05
71,-2.18691,2.11625,1,-3.17266e-05
71.1,-2.02785,2.11624,1,-3.17266e-05
71.2,-1.86879,2.11624,1,-3.17266e-05
71.3,-1.70974,2.11623,1,-3.17266e-05
71.4,-1.55068,2.11623,1,-3.17266e-05
71.5,-1.39162,2.11622,1,-3.17266e-05
71.6,-1.23256,2.11622,1,-3.17266e-05
71.7,-1.0735,2.11621,1,-3.17266e-05
71.8,-0.914443,2.11621,1,-3.17266e-05
71.9,-0.755384,2.1162,1,-3.17266e-05
72,-0.596326,2.1162,1,-3.17266e-05
72.1,-0.437267,2.11619,1,-3.17266e-05
72.2,-0.278209,2.11619,1,-3.17267e-05
72.3,-0.11915,2.11618,1,-3.17267e-05
72.4,0.0399085,2.11618,1,-3.17267e-05
72.5,0.198967,2.11617,1,-3.17267e-05
72.6,0.358026,2.11617,1,-3.17267e-05
72.7,0.517084,2.11616,1,-3.17267e-05
72.8,0.676143,2.11616,1,-3.17267e-05
72.9,0.835202,2.11615,1,-3.17267e-05
73,0.99426,2.11615,1,-3.17267e-05
73.1,1.15332,2.11614,1,-3.17267e-05
73.2,1.31238,2.11614,1,-3.17267e-05
73.3,1.47144,2.11613,1,-3.17267e-05
73.4,1.63049,2.11613,1,-3.17267e-05
73.5,1.78955,2.11612,1,-3.17267e-05
73.6,1.94861,2.11612,1,-3.17267e-05
73.7,2.10767,2.11611,1,-3.17267e-05
73.8,2.26673,2.11611,1,-3.17267e-05
73.9,2.42579,2.1161,1,-3.17267e-05
74,2.58485,2.1161,1,-3.17267e-05
74.1,2.7439,2.11609,1,-3.17267e-05
74.2,2.90296,2.11609,1,-3.17267e-05
74.3,3.06202,2.11608,1,-3.17267e-05
74.4,3.22108,2.11608,1,-3.17267e-05
74.5,3.38014,2.11607,1,-3.17267e-05
74.6,3.5392,2.11607,1,-3.17267e-05
74.7,3.69826,2.11606,1,-3.17267e-05
74.8,3.85731,2.11606,1,-3.17267e-05
74.9,4.01637,2.11605,1,-3.17267e-05
75,4.17543,2.11605,1,-3.17267e-05
75.1,4.33449,2.11604,1,-3.17267e-05
75.2,4.49355,2.11604,1,-3.17267e-05
75.3,4.65261,2.11603,1,-3.17267e-05
75.4,4.81167,2.11603,1,-3.17267e-05
75.5,4.97072,2.11602,1,-3.17267e-05
75.6,-4.87022,2.11602,1,-3.17267e-05
75.7,-4.71116,2.11601,1,-3.17203e-05
75.8,-4.5521,2.11601,1,-3.17203e-05
75.9,-4.39304,2.116,1,-3.17203e-05
76,-4.23398,2.116,1,-3.17203e-05
76.1,-4.07492,2.11599,1,-3.17203e-05
76.2,-3.91587,2.11599,1,-3.17203e-05
76.3,-3.75681,2.11598,1,-3.17203e-05
76.4,-3.59775,2.11598,1,-3.17203e-05
76.5,-3.43869,2.11597,1,-3.17203e-05
76.6,-3.27963,2.11597,1,-3.17203e-05
76.7,-3.12057,2.11596,1,-3.17203e-05
76.8,-2.96151,2.11596,1,-3.17203e-05
76.9,-2.80246,2.11595,1,-3.17203e-05
77,-2.6434,2.11595,1,-3.17203e-05
77.1,-2.48434,2.11594,1,-3.17203e-05
77.2,-2.32528,2.11594,1,-3.17203e-05
77.3,-2.16622,2.11593,1,-3.17203e-05
77.4,-2.00716,2.11593,1,-3.17203e-05
77.5,-1.8481,2.11592,1,-3.17203e-05
77.6,-1.68905,2.11592,1,-3.17203e-05
77.7,-1.52999,2.11591,1,-3.17203e-05
77.8,-1.37093,2.11591,1,-3.17203e-05
77.9,-1.21187,2.1159,1,-3.17203e-05
78,-1.05281,2.1159,1,-3.17203e-05
78.1,-0.893753,2.11589,1,-3.17203e-05
78.2,-0.734694,2.11589,1,-3.17204e-05
78.3,-0.575635,2.11588,1,-3.17204e-05
78.4,-0.416577,2.11588,1,-3.17204e-05
78.5,-0.257518,2.11587,1,-3.17204e-05
78.6,-0.0984596,2.11587,1,-3.17204e-05
78.7,0.060599,2.11586,1,-3.17204e-05
78.8,0.219658,2.11586,1,-3.17204e-05
78.9,0.378716,2.11585,1,-3.17204e-05
79,0.537775,2.11585,1,-3.17204e-05
79.1,0.696833,2.11584,1,-3.17204e-05
79.2,0.855892,2.11584,1,-3.17204e-05
79.3,1.01495,2.11583,1,-3.17204e-05
79.4,1.17401,2.11583,1,-3.17204e-05
79.5,1.33307,2.11582,1,-3.17204e-05
79.6,1.49213,2.11582,1,-3.17204e-05
79.7,1.65118,2.11581,1,-3.17204e-05
79.8,1.81024,2.11581,1,-3.17204e-05
79.9,1.9693,2.1158,1,-3.17204e-05
80,2.12836,2.1158,1,-3.17204e-05
