0.1,-10.8118,11.1242,0.981546,-0.191225
0.2,-0.727604,11.1162,0.998522,-0.054356
0.3,-0.641617,11.1177,0.999948,0.0101761
0.4,-0.563728,11.1199,0.999891,0.0147914
0.5,-0.482162,11.1217,0.999922,0.0125249
0.6,-0.384688,11.1336,0.997305,0.0733714
0.7,-0.267031,11.1467,0.99745,0.0713647
0.8,-0.139578,11.1513,0.999708,0.0241757
0.9,-0.011341,11.1513,1,-0.000500204
1,0.116896,11.1512,1,-0.000500204
1.1,0.245133,11.1512,1,-0.000500204
1.2,0.37337,11.1511,1,-0.000500204
1.3,0.501607,11.151,1,-0.000500204
1.4,0.629844,11.151,1,-0.000500204
1.5,0.758081,11.1509,1,-0.000500204
1.6,0.886319,11.1508,1,-0.000500204
1.7,1.01456,11.1508,1,-0.000500204
1.8,1.1428,11.1507,1,-0.000459822
1.9,1.27107,11.1507,1,-0.000358342
2,1.39937,11.1507,1,-0.000197866
2.1,1.52772,11.1507,1,-3.89315e-05
2.2,1.65596,11.1506,1,-0.000500207
2.3,1.7842,11.1506,1,-0.000500207
2.4,1.91243,11.1505,1,-0.000500207
2.5,2.04067,11.1504,1,-0.000500207
2.6,2.16891,11.1504,1,-0.000500207
2.7,2.29714,11.1503,1,-0.000500207
2.8,2.42538,11.1502,1,-0.000500207
2.9,2.55362,11.1502,1,-0.000500207
3,2.68185,11.1501,1,-0.000500207
3.1,2.81009,11.1501,1,-0.000500207
3.2,2.93833,11.15,1,-0.000500207
3.3,3.06657,11.1499,1,-0.000500207
3.4,3.1948,11.1499,1,-0.000500207
3.5,3.32304,11.1498,1,-0.000500207
3.6,3.45128,11.1497,1,-0.000500208
3.7,3.57951,11.1497,1,-0.000500207
3.8,3.70775,11.1496,1,-0.000500207
3.9,3.83599,11.1495,1,-0.000500207
4,3.96423,11.1495,1,-0.000500208
4.1,4.09246,11.1494,1,-0.000500208
4.2,4.2207,11.1494,1,-0.000500208
4.3,4.34894,11.1493,1,-0.000500184
4.4,4.47717,11.1492,1,-0.000500208
4.5,4.60541,11.1492,1,-0.000500208
4.6,4.73365,11.1491,1,-0.000500207
4.7,4.86193,11.1491,1,-0.000296561
4.8,4.99029,11.1491,1,6.10882e-06
4.9,-4.88127,11.1492,1,0.000304993
5,-4.75274,11.1493,1,0.000551182
5.1,-4.62413,11.1495,1,0.000729417
5.2,-4.49545,11.1497,1,0.000838592
5.3,-4.36672,11.1499,1,0.000881423
5.4,-4.23794,11.1501,1,0.000863993
5.5,-4.10914,11.1503,1,0.000794674
5.6,-3.98033,11.1505,1,0.000764684
5.7,-3.85153,11.1506,1,0.000753151
5.8,-3.72274,11.1508,1,0.000730154
5.9,-3.59397,11.151,1,0.000691555
6,-3.4652,11.1511,1,0.000681646
6.1,-3.3368,11.1511,1,-0.000154421
6.2,-3.20843,11.1511,1,-0.000165888
6.3,-3.08005,11.1511,1,-0.000177027
6.4,-2.95166,11.1511,1,-0.000161986
6.5,-2.82326,11.1511,1,-0.000147336
6.6,-2.69486,11.1512,1,-0.000133167
6.7,-2.56645,11.1512,1,-0.000119487
6.8,-2.43803,11.1512,1,-0.000106129
6.9,-2.30961,11.1512,1,-9.30194e-05
7,-2.18119,11.1512,1,-8.02091e-05
7.1,-2.05276,11.1512,1,-6.76978e-05
7.2,-1.92432,11.1512,1,-5.54822e-05
7.3,-1.79587,11.1513,1,-4.36306e-05
7.4,-1.66743,11.1513,1,-3.21773e-05
7.5,-1.53897,11.1513,1,-2.11684e-05
7.6,-1.41052,11.1514,1,-1.064e-05
7.7,-1.28205,11.1514,1,-6.41134e-07
7.8,-1.15359,11.1514,1,8.72956e-06
7.9,-1.02512,11.1515,1,1.74596e-05
8,-0.896643,11.1515,1,2.54513e-05
8.1,-0.768166,11.1515,1,3.2593e-05
8.2,-0.639686,11.1516,1,3.87153e-05
8.3,-0.511204,11.1516,1,4.374e-05
8.4,-0.38272,11.1516,1,4.74384e-05
8.5,-0.254235,11.1517,1,4.946e-05
8.6,-0.12575,11.1517,1,5.03314e-05
8.7,0.00273553,11.1518,1,5.08808e-05
8.8,0.131221,11.1518,1,5.1206e-05
8.9,0.259707,11.1519,1,5.27374e-05
9,0.388194,11.1519,1,5.27368e-05
9.1,0.51668,11.1519,1,5.27344e-05
9.2,0.645166,11.152,1,5.27312e-05
9.3,0.773652,11.152,1,5.27315e-05
9.4,0.902139,11.1521,1,5.2754e-05
9.5,1.03063,11.1521,1,5.27731e-05
9.6,1.15911,11.1522,1,5.27523e-05
9.7,1.28735,11.1521,1,-0.000500233
9.8,1.41644,11.1539,0.999956,0.00937204
9.9,1.54651,11.1578,0.999807,0.0196222
10,1.67602,11.1608,0.999879,0.0155863
10.1,1.80519,11.1634,0.999911,0.0133783
10.2,1.93403,11.1658,0.999925,0.0122242
10.3,2.06265,11.1681,0.999933,0.0115937
10.4,2.19108,11.1703,0.999936,0.0112709
10.5,2.3195,11.1725,0.999939,0.0110303
10.6,2.44792,11.1746,0.999941,0.0108877
10.7,2.57634,11.1767,0.999942,0.0108002
10.8,2.70476,11.1788,0.999942,0.0107439
10.9,2.83317,11.1809,0.999943,0.0107041
11,2.96158,11.183,0.999943,0.01067
11.1,3.09,11.1851,0.999944,0.0106111
11.2,3.21827,11.1864,0.999976,0.00690612
11.3,3.3465,11.1865,1,0.000297744
11.4,3.47474,11.1864,1,-0.000500942
11.5,3.60298,11.1864,1,-0.000500942
11.6,3.73121,11.1863,1,-0.000500942
11.7,3.85945,11.1862,1,-0.000500942
11.8,3.98769,11.1862,1,-0.000500942
11.9,4.11593,11.1861,1,-0.000500942
12,4.24416,11.1861,1,-0.000500942
12.1,4.3724,11.186,1,-0.000500942
12.2,4.50064,11.1859,1,-0.000500942
12.3,4.62887,11.1859,1,-0.000500942
12.4,4.75711,11.1858,1,-0.000500942
12.5,4.88535,11.1857,1,-0.000500942
12.6,-4.98641,11.1857,1,-0.000500942
12.7,-4.85818,11.1856,1,-0.000500842
12.8,-4.72994,11.1855,1,-0.000500842
12.9,-4.6017,11.1855,1,-0.000500842
13,-4.47346,11.1854,1,-0.000500842
13.1,-4.34523,11.1854,1,-0.000500842
13.2,-4.21699,11.1853,1,-0.000500842
13.3,-4.08875,11.1852,1,-0.000500842
13.4,-3.96052,11.1852,1,-0.000500842
13.5,-3.83228,11.1851,1,-0.000500842
13.6,-3.70404,11.185,1,-0.000500842
13.7,-3.57581,11.185,1,-0.000500842
13.8,-3.44757,11.1849,1,-0.000500842
13.9,-3.31933,11.1848,1,-0.000500842
14,-3.19109,11.1848,1,-0.000500842
14.1,-3.06286,11.1847,1,-0.000500842
14.2,-2.93462,11.1847,1,-0.000500842
14.3,-2.80638,11.1846,1,-0.000500842
14.4,-2.67815,11.1845,1,-0.000500842
14.5,-2.54991,11.1845,1,-0.000500842
14.6,-2.42167,11.1844,1,-0.000500842
14.7,-2.29344,11.1843,1,-0.000500842
14.8,-2.1652,11.1843,1,-0.000500842
14.9,-2.03696,11.1842,1,-0.000500842
15,-1.90872,11.1841,1,-0.000500842
15.1,-1.78049,11.1841,1,-0.000500842
15.2,-1.65225,11.184,1,-0.000500842
15.3,-1.52401,11.1839,1,-0.000500842
15.4,-1.39578,11.1839,1,-0.000500842
15.5,-1.26754,11.1838,1,-0.000500842
15.6,-1.1393,11.1838,1,-0.000500842
15.7,-1.01106,11.1837,1,-0.000500842
15.8,-0.882827,11.1836,1,-0.000500842
15.9,-0.75459,11.1836,1,-0.000500842
16,-0.626353,11.1835,1,-0.000500842
16.1,-0.498116,11.1834,1,-0.000500842
16.2,-0.369879,11.1834,1,-0.000500842
16.3,-0.241642,11.1833,1,-0.000500842
16.4,-0.113405,11.1832,1,-0.000500842
16.5,0.0148324,11.1832,1,-0.000500842
16.6,0.14307,11.1831,1,-0.000500842
16.7,0.271307,11.1831,1,-0.000500842
16.8,0.399544,11.183,1,-0.000500842
16.9,0.527781,11.1829,1,-0.000500842
17,0.656018,11.1829,1,-0.000500842
17.1,0.784255,11.1828,1,-0.000500842
17.2,0.912492,11.1827,1,-0.000500842
17.3,1.04073,11.1827,1,-0.000500842
17.4,1.16897,11.1826,1,-0.000500842
17.5,1.2972,11.1825,1,-0.000500842
17.6,1.42544,11.1825,1,-0.000500842
17.7,1.55368,11.1824,1,-0.000500842
17.8,1.68191,11.1824,1,-0.000500842
17.9,1.81015,11.1823,1,-0.000500842
18,1.93839,11.1822,1,-0.000500842
18.1,2.06663,11.1822,1,-0.000500842
18.2,2.19486,11.1821,1,-0.000500842
18.3,2.3231,11.182,1,-0.000500842
18.4,2.45134,11.182,1,-0.000500842
18.5,2.57957,11.1819,1,-0.000500842
18.6,2.70781,11.1818,1,-0.000500842
18.7,2.83605,11.1818,1,-0.000500842
18.8,2.96428,11.1817,1,-0.000500842
18.9,3.09252,11.1816,1,-0.000500842
19,3.22076,11.1816,1,-0.000500842
19.1,3.349,11.1815,1,-0.000500842
19.2,3.47723,11.1815,1,-0.000500842
19.3,3.60547,11.1814,1,-0.000500842
19.4,3.73371,11.1813,1,-0.000500842
19.5,3.86194,11.1813,1,-0.000500842
19.6,3.99018,11.1812,1,-0.000500843
19.7,4.11842,11.1811,1,-0.000500842
19.8,4.24666,11.1811,1,-0.000500842
19.9,4.37489,11.181,1,-0.000500843
20,4.50313,11.1809,1,-0.000500842
20.1,4.63137,11.1809,1,-0.000500843
20.2,4.7596,11.1808,1,-0.000500843
20.3,4.88784,11.1808,1,-0.000500843
20.4,-4.98392,11.1807,1,-0.000500843
20.5,-4.85568,11.1806,1,-0.000500742
20.6,-4.72745,11.1806,1,-0.000500742
20.7,-4.59921,11.1805,1,-0.000500742
20.8,-4.47097,11.1804,1,-0.000500742
20.9,-4.34273,11.1804,1,-0.000500742
21,-4.2145,11.1803,1,-0.000500742
21.1,-4.08626,11.1802,1,-0.000500742
21.2,-3.95802,11.1802,1,-0.000500742
21.3,-3.82979,11.1801,1,-0.000500742
21.4,-3.70155,11.1801,1,-0.000500742
21.5,-3.57331,11.18,1,-0.000500742
21.6,-3.44508,11.1799,1,-0.000500742
21.7,-3.31684,11.1799,1,-0.000500742
21.8,-3.1886,11.1798,1,-0.000500742
21.9,-3.06036,11.1797,1,-0.000500742
22,-2.93213,11.1797,1,-0.000500742
22.1,-2.80389,11.1796,1,-0.000500742
22.2,-2.67565,11.1795,1,-0.000500742
22.3,-2.54742,11.1795,1,-0.000500742
22.4,-2.41918,11.1794,1,-0.000500742
22.5,-2.29094,11.1793,1,-0.000500742
22.6,-2.16271,11.1793,1,-0.000500742
22.7,-2.03447,11.1792,1,-0.000500742
22.8,-1.90623,11.1792,1,-0.000500743
22.9,-1.77799,11.1791,1,-0.000500743
23,-1.64976,11.179,1,-0.000500742
23.1,-1.52152,11.179,1,-0.000500743
23.2,-1.39328,11.1789,1,-0.000500742
23.3,-1.26505,11.1788,1,-0.000500743
23.4,-1.13681,11.1788,1,-0.000500743
23.5,-1.00857,11.1787,1,-0.000500743
23.6,-0.880334,11.1786,1,-0.000500743
23.7,-0.752097,11.1786,1,-0.000500743
23.8,-0.62386,11.1785,1,-0.000500743
23.9,-0.495623,11.1785,1,-0.000500743
24,-0.367386,11.1784,1,-0.000500743
24.1,-0.239149,11.1783,1,-0.000500743
24.2,-0.110912,11.1783,1,-0.000500743
24.3,0.0173252,11.1782,1,-0.000500743
24.4,0.145562,11.1781,1,-0.000500743
24.5,0.273799,11.1781,1,-0.000500743
24.6,0.402036,11.178,1,-0.000500743
24.7,0.530273,11.1779,1,-0.000500743
24.8,0.658511,11.1779,1,-0.000500743
24.9,0.786748,11.1778,1,-0.000500743
25,0.914985,11.1778,1,-0.000500743
25.1,1.04322,11.1777,1,-0.000500743
25.2,1.17146,11.1776,1,-0.000500743
25.3,1.2997,11.1776,1,-0.000500743
25.4,1.42793,11.1775,1,-0.000500743
25.5,1.55617,11.1774,1,-0.000500743
25.6,1.68441,11.1774,1,-0.000500743
25.7,1.81264,11.1773,1,-0.000500743
25.8,1.94088,11.1772,1,-0.000500743
25.9,2.06912,11.1772,1,-0.000500743
26,2.19736,11.1771,1,-0.000500743
26.1,2.32559,11.177,1,-0.000500743
26.2,2.45383,11.177,1,-0.000500743
26.3,2.58207,11.1769,1,-0.000500743
26.4,2.7103,11.1769,1,-0.000500743
26.5,2.83854,11.1768,1,-0.000500743
26.6,2.96678,11.1767,1,-0.000500743
26.7,3.09501,11.1767,1,-0.000500743
26.8,3.22325,11.1766,1,-0.000500743
26.9,3.35149,11.1765,1,-0.000500743
27,3.47973,11.1765,1,-0.000500743
27.1,3.60796,11.1764,1,-0.000500743
27.2,3.7362,11.1763,1,-0.000500743
27.3,3.86444,11.1763,1,-0.000500743
27.4,3.99267,11.1762,1,-0.000500743
27.5,4.12091,11.1762,1,-0.000500743
27.6,4.24915,11.1761,1,-0.000500743
27.7,4.37739,11.176,1,-0.000500743
27.8,4.50562,11.176,1,-0.000500743
27.9,4.63386,11.1759,1,-0.000500743
28,4.7621,11.1758,1,-0.000500743
28.1,4.89033,11.1758,1,-0.000500743
28.2,-4.98143,11.1757,1,-0.000500743
28.3,-4.85319,11.1756,1,-0.000500643
28.4,-4.72495,11.1756,1,-0.000500643
28.5,-4.59672,11.1755,1,-0.000500643
28.6,-4.46848,11.1755,1,-0.000500643
28.7,-4.34024,11.1754,1,-0.000500643
28.8,-4.212,11.1753,1,-0.000500643
28.9,-4.08377,11.1753,1,-0.000500643
29,-3.95553,11.1752,1,-0.000500643
29.1,-3.82729,11.1751,1,-0.000500643
29.2,-3.69906,11.1751,1,-0.000500643
29.3,-3.57082,11.175,1,-0.000500643
29.4,-3.44258,11.1749,1,-0.000500643
29.5,-3.31435,11.1749,1,-0.000500643
29.6,-3.18611,11.1748,1,-0.000500643
29.7,-3.05787,11.1747,1,-0.000500643
29.8,-2.92963,11.1747,1,-0.000500643
29.9,-2.8014,11.1746,1,-0.000500643
30,-2.67316,11.1746,1,-0.000500643
30.1,-2.54492,11.1745,1,-0.000500643
30.2,-2.41663,11.1743,1,-0.000973174
30.3,-2.28829,11.1741,0.999999,-0.00162877
30.4,-2.1599,11.1737,0.999997,-0.00224131
30.5,-2.03148,11.1731,0.999996,-0.00280112
30.6,-1.90306,11.1725,0.999995,-0.00329831
30.7,-1.77465,11.1719,0.999993,-0.00372294
30.8,-1.64626,11.1711,0.999992,-0.00406571
30.9,-1.51789,11.1703,0.999991,-0.00431851
31,-1.38957,11.1695,0.99999,-0.00447496
31.1,-1.26129,11.1686,0.99999,-0.00453097
31.2,-1.13301,11.1678,0.99999,-0.00453109
31.3,-1.00473,11.167,0.99999,-0.0045311
31.4,-0.876451,11.1661,0.99999,-0.00453111
31.5,-0.748172,11.1653,0.99999,-0.00453112
31.6,-0.619893,11.1644,0.99999,-0.00453114
31.7,-0.491613,11.1636,0.99999,-0.00453114
31.8,-0.363334,11.1628,0.99999,-0.00453116
31.9,-0.235055,11.1619,0.99999,-0.00453117
32,-0.106776,11.1611,0.99999,-0.00453119
32.1,0.021503,11.1603,0.99999,-0.00453114
32.2,0.149782,11.1594,0.99999,-0.00453116
32.3,0.278061,11.1586,0.99999,-0.00453117
32.4,0.40634,11.1577,0.99999,-0.00453113
32.5,0.534619,11.1569,0.99999,-0.00453114
32.6,0.662899,11.1561,0.99999,-0.00453116
32.7,0.791178,11.1552,0.99999,-0.00453111
32.8,0.919457,11.1544,0.99999,-0.00453113
32.9,1.04774,11.1535,0.99999,-0.00453115
33,1.17601,11.1527,0.99999,-0.00453109
33.1,1.30429,11.1519,0.99999,-0.00453111
33.2,1.43257,11.151,0.99999,-0.00453114
33.3,1.56085,11.1502,0.99999,-0.00453107
33.4,1.68913,11.1493,0.99999,-0.0045311
33.5,1.81741,11.1485,0.99999,-0.00453112
33.6,1.94569,11.1477,0.99999,-0.00453106
33.7,2.07397,11.1468,0.99999,-0.00453108
33.8,2.20225,11.146,0.99999,-0.00453111
33.9,2.33053,11.1451,0.99999,-0.00453107
34,2.45881,11.1443,0.99999,-0.00453109
34.1,2.58709,11.1435,0.99999,-0.00453106
34.2,2.71536,11.1426,0.99999,-0.00453106
34.3,2.84364,11.1418,0.99999,-0.00453094
34.4,2.97192,11.1409,0.99999,-0.00453094
34.5,3.1002,11.1401,0.99999,-0.00453097
34.6,3.22848,11.1393,0.99999,-0.00453106
34.7,3.35676,11.1384,0.99999,-0.00453103
34.8,3.48504,11.1376,0.99999,-0.00453115
34.9,3.61332,11.1367,0.99999,-0.00453111
35,3.74163,11.1359,0.99999,-0.00452217
35.1,3.87005,11.1351,0.99999,-0.00448755
35.2,3.99858,11.1342,0.99999,-0.00445381
35.3,4.12722,11.1334,0.99999,-0.00442072
35.4,4.25597,11.1326,0.99999,-0.0043883
35.5,4.38483,11.1318,0.99999,-0.00435654
35.6,4.51378,11.131,0.999991,-0.00432548
35.7,4.64284,11.1302,0.999991,-0.00429515
35.8,4.772,11.1294,0.999991,-0.00426563
35.9,4.90125,11.1286,0.999991,-0.00423652
36,-4.96941,11.1278,0.999991,-0.00420839
36.1,-4.83997,11.1271,0.999991,-0.00418076
36.2,-4.71044,11.1263,0.999991,-0.00415373
36.3,-4.58082,11.1255,0.999992,-0.00412762
36.4,-4.45155,11.1253,0.999999,-0.00151797
36.5,-4.32285,11.1257,0.999998,0.00187318
36.6,-4.19417,11.1261,0.999998,0.00221789
36.7,-4.06548,11.1266,0.999997,0.00248897
36.8,-3.93677,11.1272,0.999996,0.00273558
36.9,-3.80804,11.1278,0.999996,0.00297326
37,-3.6793,11.1284,0.999995,0.00320439
37.1,-3.55055,11.1291,0.999994,0.00342892
37.2,-3.4218,11.1299,0.999993,0.00364624
37.3,-3.29304,11.1306,0.999993,0.00385577
37.4,-3.16428,11.1315,0.999992,0.00405692
37.5,-3.03552,11.1323,0.999991,0.00424891
37.6,-2.90677,11.1332,0.99999,0.00443109
37.7,-2.77803,11.1341,0.999989,0.00460276
37.8,-2.6493,11.1351,0.999989,0.00476324
37.9,-2.52059,11.136,0.999988,0.00491183
38,-2.39189,11.1371,0.999987,0.00504791
38.1,-2.26321,11.1381,0.999987,0.00517071
38.2,-2.13455,11.1391,0.999986,0.00527975
38.3,-2.00591,11.1402,0.999986,0.00537434
38.4,-1.8773,11.1413,0.999985,0.00545393
38.5,-1.74871,11.1424,0.999985,0.0055181
38.6,-1.62015,11.1435,0.999985,0.00556637
38.7,-1.4916,11.1446,0.999985,0.00557634
38.8,-1.36305,11.1457,0.999985,0.00557634
38.9,-1.2345,11.1468,0.999985,0.00557632
39,-1.10595,11.1479,0.999985,0.00557631
39.1,-0.977397,11.149,0.999985,0.0055763
39.2,-0.848846,11.1501,0.999985,0.00557628
39.3,-0.720295,11.1512,0.999985,0.00557627
39.4,-0.591743,11.1523,0.999985,0.00557626
39.5,-0.463192,11.1534,0.999985,0.00557625
39.6,-0.334641,11.1545,0.999985,0.00557624
39.7,-0.206089,11.1557,0.999985,0.00557623
39.8,-0.0775378,11.1568,0.999985,0.00557624
39.9,0.0510136,11.1579,0.999985,0.00557622
40,0.179565,11.159,0.999985,0.00557621
40.1,0.308116,11.1601,0.999985,0.00557622
40.2,0.436668,11.1612,0.999985,0.00557619
40.3,0.565219,11.1623,0.999985,0.00557618
40.4,0.69387,11.1634,0.999985,0.00543521
40.5,0.822795,11.1644,0.999987,0.00504598
40.6,0.952014,11.1653,0.999989,0.00462917
40.7,1.08154,11.1662,0.999991,0.00420234
40.8,1.21136,11.1669,0.999993,0.00377202
40.9,1.3415,11.1676,0.999994,0.00334209
41,1.47194,11.1682,0.999996,0.00291552
41.1,1.60268,11.1687,0.999997,0.00249434
41.2,1.73372,11.1691,0.999998,0.00207823
41.3,1.86506,11.1695,0.999999,0.00166869
41.4,1.99669,11.1698,0.999999,0.00127491
41.5,2.1286,11.17,0.999999,0.00116619
41.6,2.26079,11.1703,0.999999,0.00111765
41.7,2.39324,11.1705,0.999999,0.00106853
41.8,2.52439,11.1711,0.999997,0.00257315
41.9,2.65344,11.1722,0.999985,0.0054923
42,2.78203,11.1734,0.999981,0.00616781
42.1,2.91124,11.1744,0.999986,0.00527455
42.2,3.04189,11.1751,0.999995,0.00325578
42.3,3.1738,11.1754,0.999999,0.0015241
42.4,3.30572,11.1758,0.999999,0.00150352
42.5,3.43771,11.1761,0.999999,0.00141906
42.6,3.56974,11.1764,0.999999,0.00135667
42.7,3.70181,11.1767,0.999999,0.00131205
42.8,3.83388,11.177,0.999999,0.00129012
42.9,3.96597,11.1772,0.999999,0.00128908
43,4.09805,11.1775,0.999999,0.00128905
43.1,4.23013,11.1778,0.999999,0.00128901
43.2,4.36221,11.1781,0.999999,0.00128899
43.3,4.49429,11.1784,0.999999,0.00128893
43.4,4.62637,11.1787,0.999999,0.00128889
43.5,4.75845,11.1789,0.999999,0.00128888
43.6,4.89053,11.1792,0.999999,0.0012889
43.7,-4.97739,11.1795,0.999999,0.00128885
43.8,-4.84531,11.1798,0.999999,0.0012889
43.9,-4.71323,11.1801,0.999999,0.0012888
44,-4.58115,11.1804,0.999999,0.00128873
44.1,-4.44907,11.1807,0.999999,0.00128869
44.2,-4.31758,11.1809,0.999999,0.00114788
44.3,-4.18647,11.1812,0.999999,0.00105446
44.4,-4.05619,11.1814,1,0.000852858
44.5,-3.92655,11.1815,1,0.000695177
44.6,-3.7982,11.1816,1,0.000373594
44.7,-3.66997,11.1816,1,-0.000500773
44.8,-3.54173,11.1815,1,-0.000500773
44.9,-3.41349,11.1814,1,-0.000500773
45,-3.28526,11.1814,1,-0.000500773
45.1,-3.15702,11.1813,1,-0.000500773
45.2,-3.02878,11.1812,1,-0.000500773
45.3,-2.90055,11.1812,1,-0.000500773
45.4,-2.77231,11.1811,1,-0.000500773
45.5,-2.64407,11.181,1,-0.000500773
45.6,-2.51583,11.181,1,-0.000500773
45.7,-2.3876,11.1809,1,-0.000500773
45.8,-2.25936,11.1809,1,-0.000500773
45.9,-2.13112,11.1808,1,-0.000500773
46,-2.00289,11.1807,1,-0.000500773
46.1,-1.87465,11.1807,1,-0.000500825
46.2,-1.74641,11.1806,1,-0.000501031
46.3,-1.61818,11.1805,1,-0.000501001
46.4,-1.48994,11.1805,1,-0.000500979
46.5,-1.3617,11.1804,1,-0.000500937
46.6,-1.23346,11.1803,1,-0.000500887
46.7,-1.10523,11.1803,1,-0.000501329
46.8,-0.97699,11.1802,1,-0.000501355
46.9,-0.848753,11.1802,1,-0.000501394
47,-0.720515,11.1801,1,-0.000501481
47.1,-0.592278,11.18,1,-0.000501758
47.2,-0.464041,11.18,1,-0.000500773
47.3,-0.335804,11.1799,1,-0.000500773
47.4,-0.207567,11.1798,1,-0.000500773
47.5,-0.0793301,11.1798,1,-0.000500773
47.6,0.048907,11.1797,1,-0.000500773
47.7,0.177144,11.1796,1,-0.000500773
47.8,0.305381,11.1796,1,-0.000500773
47.9,0.433618,11.1795,1,-0.000500773
48,0.561855,11.1795,1,-0.000500773
48.1,0.690092,11.1794,1,-0.000500773
48.2,0.818329,11.1793,1,-0.000500773
48.3,0.946567,11.1793,1,-0.000500773
48.4,1.0748,11.1792,1,-0.000500773
48.5,1.20304,11.1791,1,-0.000500773
48.6,1.33128,11.1791,1,-0.000500773
48.7,1.45951,11.179,1,-0.000500773
48.8,1.58775,11.1789,1,-0.000500773
48.9,1.71599,11.1789,1,-0.000500773
49,1.84424,11.1788,1,-0.000667811
49.1,1.97252,11.1786,0.999999,-0.00112411
49.2,2.10083,11.1783,0.999999,-0.00156908
49.3,2.22917,11.178,0.999998,-0.00200423
49.4,2.35752,11.1775,0.999997,-0.00241958
49.5,2.48581,11.1772,0.999998,-0.00191248
49.6,2.61407,11.177,0.999999,-0.00122682
49.7,2.74231,11.1769,1,-0.000500745
49.8,2.87055,11.1769,1,-0.000500745
49.9,2.99878,11.1768,1,-0.000500745
50,3.12702,11.1767,1,-0.000500745
50.1,3.25526,11.1767,1,-0.000500745
50.2,3.38349,11.1766,1,-0.000500745
50.3,3.51173,11.1765,1,-0.000500745
50.4,3.63997,11.1765,1,-0.000500745
50.5,3.76821,11.1764,1,-0.000500745
50.6,3.89644,11.1764,1,-0.000500745
50.7,4.02468,11.1763,1,-0.000500745
50.8,4.15292,11.1762,1,-0.000500745
50.9,4.28115,11.1762,1,-0.000500745
51,4.40939,11.1761,1,-0.000500745
51.1,4.53763,11.176,1,-0.000500745
51.2,4.66587,11.176,1,-0.000500745
51.3,4.7941,11.1759,1,-0.000500745
51.4,4.92234,11.1758,1,-0.000500745
51.5,-4.94942,11.1758,1,-0.000500745
51.6,-4.82118,11.1757,1,-0.000500645
51.7,-4.69295,11.1757,1,-0.000500645
51.8,-4.56471,11.1756,1,-0.000500645
51.9,-4.43647,11.1755,1,-0.000500645
52,-4.30824,11.1755,1,-0.000500645
52.1,-4.18,11.1754,1,-0.000500645
52.2,-4.05176,11.1753,1,-0.000500645
52.3,-3.92352,11.1753,1,-0.000500645
52.4,-3.79529,11.1752,1,-0.000500645
52.5,-3.66705,11.1751,1,-0.000500645
52.6,-3.53881,11.1751,1,-0.000500645
52.7,-3.41058,11.175,1,-0.000500645
52.8,-3.28234,11.175,1,-0.000500645
52.9,-3.1541,11.1749,1,-0.000500645
53,-3.02587,11.1748,1,-0.000500645
53.1,-2.89763,11.1748,1,-0.000500645
53.2,-2.76939,11.1747,1,-0.000500645
53.3,-2.64115,11.1746,1,-0.000500645
53.4,-2.51292,11.1746,1,-0.000500645
53.5,-2.38468,11.1745,1,-0.000500645
53.6,-2.25644,11.1744,1,-0.000500645
53.7,-2.12821,11.1744,1,-0.000500645
53.8,-1.99997,11.1743,1,-0.000500645
53.9,-1.87173,11.1742,1,-0.000500645
54,-1.74349,11.1742,1,-0.000500645
54.1,-1.61526,11.1741,1,-0.000500645
54.2,-1.48702,11.1741,1,-0.000500645
54.3,-1.35878,11.174,1,-0.000500645
54.4,-1.23055,11.1739,1,-0.000500645
54.5,-1.10231,11.1739,1,-0.000500645
54.6,-0.974072,11.1738,1,-0.000500645
54.7,-0.845835,11.1737,1,-0.000500645
54.8,-0.717598,11.1737,1,-0.000500645
54.9,-0.589361,11.1736,1,-0.000500645
55,-0.461124,11.1735,1,-0.000500645
55.1,-0.332887,11.1735,1,-0.000500645
55.2,-0.20465,11.1734,1,-0.000500645
55.3,-0.0764125,11.1734,1,-0.000500645
55.4,0.0518246,11.1733,1,-0.000500645
55.5,0.180062,11.1732,1,-0.000500645
55.6,0.308299,11.1732,1,-0.000500645
55.7,0.436536,11.1731,1,-0.000500645
55.8,0.564773,11.173,1,-0.000500645
55.9,0.69301,11.173,1,-0.000500645
56,0.821247,11.1729,1,-0.000500645
56.1,0.949484,11.1728,1,-0.000500645
56.2,1.07772,11.1728,1,-0.000500645
56.3,1.20596,11.1727,1,-0.000500645
56.4,1.3342,11.1727,1,-0.000500645
56.5,1.46243,11.1726,1,-0.000500645
56.6,1.59067,11.1725,1,-0.000500645
56.7,1.71891,11.1725,1,-0.000500645
56.8,1.84714,11.1724,1,-0.000500645
56.9,1.97538,11.1723,1,-0.000500645
57,2.10362,11.1723,1,-0.000500645
57.1,2.23186,11.1722,1,-0.000500645
57.2,2.36009,11.1721,1,-0.000500645
57.3,2.48833,11.1721,1,-0.000500645
57.4,2.61657,11.172,1,-0.000500645
57.5,2.7448,11.1719,1,-0.000500645
57.6,2.87304,11.1719,1,-0.000500645
57.7,3.00128,11.1718,1,-0.000500645
57.8,3.12951,11.1718,1,-0.000500645
57.9,3.25775,11.1717,1,-0.000500645
58,3.38599,11.1716,1,-0.000500645
58.1,3.51423,11.1716,1,-0.000500645
58.2,3.64246,11.1715,1,-0.000500645
58.3,3.7707,11.1714,1,-0.000500645
58.4,3.89894,11.1714,1,-0.000500645
58.5,4.02717,11.1713,1,-0.000500645
58.6,4.15541,11.1712,1,-0.000500645
58.7,4.28365,11.1712,1,-0.000500645
58.8,4.41189,11.1711,1,-0.000500645
58.9,4.54012,11.1711,1,-0.000500645
59,4.66836,11.171,1,-0.000500645
59.1,4.7966,11.1709,1,-0.000500645
59.2,4.92483,11.1709,1,-0.000500645
59.3,-4.94693,11.1708,1,-0.000500645
59.4,-4.81869,11.1707,1,-0.000500545
59.5,-4.69045,11.1707,1,-0.000500545
59.6,-4.56222,11.1706,1,-0.000500545
59.7,-4.43398,11.1705,1,-0.000500545
59.8,-4.30574,11.1705,1,-0.000500545
59.9,-4.17751,11.1704,1,-0.000500545
60,-4.04927,11.1704,1,-0.000500545
60.1,-3.92103,11.1703,1,-0.000500545
60.2,-3.79279,11.1702,1,-0.000500545
60.3,-3.66456,11.1702,1,-0.000500545
60.4,-3.53632,11.1701,1,-0.000500545
60.5,-3.40808,11.17,1,-0.000500545
60.6,-3.27985,11.17,1,-0.000500545
60.7,-3.15161,11.1699,1,-0.000500545
60.8,-3.02337,11.1698,1,-0.000500545
60.9,-2.89513,11.1698,1,-0.000500545
61,-2.7669,11.1697,1,-0.000500545
61.1,-2.63866,11.1696,1,-0.000500545
61.2,-2.51042,11.1696,1,-0.000500545
61.3,-2.38219,11.1695,1,-0.000500545
61.4,-2.25395,11.1695,1,-0.000500545
61.5,-2.12571,11.1694,1,-0.000500545
61.6,-1.99748,11.1693,1,-0.000500545
61.7,-1.86924,11.1693,1,-0.000500545
61.8,-1.741,11.1692,1,-0.000500545
61.9,-1.61276,11.1691,1,-0.000500545
62,-1.48453,11.1691,1,-0.000500545
62.1,-1.35629,11.169,1,-0.000500545
62.2,-1.22805,11.1689,1,-0.000500545
62.3,-1.09982,11.1689,1,-0.000500545
62.4,-0.971579,11.1688,1,-0.000500545
62.5,-0.843342,11.1688,1,-0.000500545
62.6,-0.715105,11.1687,1,-0.000500545
62.7,-0.586867,11.1686,1,-0.000500545
62.8,-0.45863,11.1686,1,-0.000500545
62.9,-0.330393,11.1685,1,-0.000500545
63,-0.202156,11.1684,1,-0.000500545
63.1,-0.0739191,11.1684,1,-0.000500545
63.2,0.0543179,11.1683,1,-0.000500545
63.3,0.182555,11.1682,1,-0.000500545
63.4,0.310792,11.1682,1,-0.000500545
63.5,0.439029,11.1681,1,-0.000500545
63.6,0.567266,11.1681,1,-0.000500545
63.7,0.695503,11.168,1,-0.000500545
63.8,0.82374,11.1679,1,-0.000500545
63.9,0.951977,11.1679,1,-0.000500545
64,1.08021,11.1678,1,-0.000500545
64.1,1.20845,11.1677,1,-0.000500545
64.2,1.33669,11.1677,1,-0.000500545
64.3,1.46493,11.1676,1,-0.000500545
64.4,1.59316,11.1675,1,-0.000500545
64.5,1.7214,11.1675,1,-0.000500545
64.6,1.84964,11.1674,1,-0.000500545
64.7,1.97787,11.1673,1,-0.000500545
64.8,2.10614,11.1672,1,-0.000899323
64.9,2.23441,11.167,0.999999,-0.0013125
65,2.3627,11.1667,0.999999,-0.00165363
65.1,2.49098,11.1664,0.999998,-0.00191655
65.2,2.61925,11.166,0.999998,-0.00209652
65.3,2.7475,11.1656,0.999998,-0.00219042
65.4,2.87575,11.1652,0.999998,-0.00220486
65.5,3.00399,11.1648,0.999998,-0.00220487
65.6,3.13224,11.1644,0.999998,-0.00220489
65.7,3.26048,11.164,0.999998,-0.00220491
65.8,3.38873,11.1636,0.999998,-0.00220493
65.9,3.51697,11.1633,0.999998,-0.00220495
66,3.64522,11.1629,0.999998,-0.00220497
66.1,3.77346,11.1625,0.999998,-0.002205
66.2,3.90171,11.1621,0.999998,-0.00220502
66.3,4.02995,11.1617,0.999998,-0.00220504
66.4,4.1582,11.1613,0.999998,-0.00220507
66.5,4.28644,11.1609,0.999998,-0.0022051
66.6,4.41469,11.1605,0.999998,-0.00220513
66.7,4.54293,11.1601,0.999998,-0.00220516
66.8,4.67118,11.1597,0.999998,-0.00220519
66.9,4.79942,11.1593,0.999998,-0.00220523
67,4.92767,11.1589,0.999998,-0.00220527
67.1,-4.94409,11.1585,0.999998,-0.00220531
67.2,-4.81584,11.1582,0.999998,-0.00220532
67.3,-4.6876,11.1578,0.999998,-0.00220536
67.4,-4.55935,11.1574,0.999998,-0.00220541
67.5,-4.43111,11.157,0.999998,-0.00220546
67.6,-4.30286,11.1566,0.999998,-0.00220552
67.7,-4.17462,11.1562,0.999998,-0.00220558
67.8,-4.04637,11.1558,0.999998,-0.00220565
67.9,-3.91813,11.1554,0.999998,-0.00220572
68,-3.78988,11.155,0.999998,-0.00220579
68.1,-3.66164,11.1546,0.999998,-0.00220588
68.2,-3.53339,11.1542,0.999998,-0.00220586
68.3,-3.40515,11.1538,0.999998,-0.00220583
68.4,-3.2769,11.1535,0.999998,-0.00220581
68.5,-3.14866,11.1531,0.999998,-0.00220591
68.6,-3.02041,11.1527,0.999998,-0.00220589
68.7,-2.89217,11.1523,0.999998,-0.00220586
68.8,-2.76392,11.1519,0.999998,-0.00220583
68.9,-2.63568,11.1515,0.999998,-0.0022058
69,-2.50743,11.1511,0.999998,-0.00220594
69.1,-2.37919,11.1507,0.999998,-0.00220591
69.2,-2.25095,11.1503,0.999998,-0.00220588
69.3,-2.1227,11.1499,0.999998,-0.00220584
69.4,-1.99446,11.1495,0.999998,-0.00220579
69.5,-1.86621,11.1491,0.999998,-0.00220602
69.6,-1.73797,11.1488,0.999998,-0.00220598
69.7,-1.60972,11.1484,0.999998,-0.00220593
69.8,-1.48148,11.148,0.999998,-0.00220587
69.9,-1.35323,11.1476,0.999998,-0.00220578
70,-1.22499,11.1472,0.999998,-0.00220563
70.1,-1.09674,11.1468,0.999998,-0.00220633
70.2,-0.968495,11.1464,0.999998,-0.00220641
70.3,-0.84025,11.146,0.999998,-0.00220674
70.4,-0.712013,11.1459,1,-0.00050009
70.5,-0.583776,11.1459,1,-0.00050009
70.6,-0.455539,11.1458,1,-0.00050009
70.7,-0.327302,11.1458,1,-0.00050009
70.8,-0.199065,11.1457,1,-0.00050009
70.9,-0.0708278,11.1456,1,-0.00050009
71,0.0574093,11.1456,1,-0.00050009
71.1,0.185646,11.1455,1,-0.00050009
71.2,0.313883,11.1454,1,-0.00050009
71.3,0.44212,11.1454,1,-0.00050009
71.4,0.570358,11.1453,1,-0.00050009
71.5,0.698595,11.1452,1,-0.00050009
71.6,0.826832,11.1452,1,-0.00050009
71.7,0.955069,11.1451,1,-0.00050009
71.8,1.08331,11.145,1,-0.00050009
71.9,1.21154,11.145,1,-0.00050009
72,1.33978,11.1449,1,-0.00050009
72.1,1.46802,11.1449,1,-0.00050009
72.2,1.59625,11.1448,1,-0.00050009
72.3,1.72449,11.1447,1,-0.00050009
72.4,1.85273,11.1447,1,-0.00050009
72.5,1.98097,11.1446,1,-0.00050009
72.6,2.1092,11.1445,1,-0.00050009
72.7,2.23744,11.1445,1,-0.00050009
72.8,2.36568,11.1444,1,-0.00050009
72.9,2.49391,11.1443,1,-0.00050009
73,2.62215,11.1443,1,-0.00050009
73.1,2.75039,11.1442,1,-0.00050009
73.2,2.87862,11.1442,1,-0.00050009
73.3,3.00686,11.1441,1,-0.00050009
73.4,3.1351,11.144,1,-0.00050009
73.5,3.26334,11.144,1,-0.00050009
73.6,3.39157,11.1439,1,-0.00050009
73.7,3.51981,11.1438,1,-0.00050009
73.8,3.64805,11.1438,1,-0.00050009
73.9,3.77628,11.1437,1,-0.00050009
74,3.90452,11.1436,1,-0.00050009
74.1,4.03276,11.1436,1,-0.00050009
74.2,4.161,11.1435,1,-0.00050009
74.3,4.28923,11.1435,1,-0.00050009
74.4,4.41747,11.1434,1,-0.00050009
74.5,4.54571,11.1433,1,-0.00050009
74.6,4.67394,11.1433,1,-0.00050009
74.7,4.80218,11.1432,1,-0.00050009
74.8,4.93042,11.1431,1,-0.00050009
74.9,-4.94134,11.1431,1,-0.00050009
75,-4.81311,11.143,1,-0.00049999
75.1,-4.68487,11.1429,1,-0.00049999
75.2,-4.55663,11.1429,1,-0.00049999
75.3,-4.4284,11.1428,1,-0.00049999
75.4,-4.30016,11.1427,1,-0.00049999
75.5,-4.17192,11.1427,1,-0.00049999
75.6,-4.04368,11.1426,1,-0.00049999
75.7,-3.91545,11.1426,1,-0.00049999
75.8,-3.78721,11.1425,1,-0.00049999
75.9,-3.65897,11.1424,1,-0.00049999
76,-3.53074,11.1424,1,-0.00049999
76.1,-3.4025,11.1423,1,-0.00049999
76.2,-3.27426,11.1422,1,-0.00049999
76.3,-3.14602,11.1422,1,-0.00049999
76.4,-3.01779,11.1421,1,-0.00049999
76.5,-2.88955,11.142,1,-0.00049999
76.6,-2.76131,11.142,1,-0.00049999
76.7,-2.63308,11.1419,1,-0.00049999
76.8,-2.50484,11.1419,1,-0.00049999
76.9,-2.3766,11.1418,1,-0.00049999
77,-2.24837,11.1417,1,-0.00049999
77.1,-2.12013,11.1417,1,-0.00049999
77.2,-1.99189,11.1416,1,-0.00049999
77.3,-1.86365,11.1415,1,-0.00049999
77.4,-1.73542,11.1415,1,-0.00049999
77.5,-1.60718,11.1414,1,-0.00049999
77.6,-1.47894,11.1413,1,-0.00049999
77.7,-1.35071,11.1413,1,-0.00049999
77.8,-1.22247,11.1412,1,-0.00049999
77.9,-1.09423,11.1412,1,-0.00049999
78,-0.965994,11.1411,1,-0.00049999
78.1,-0.837757,11.141,1,-0.00049999
78.2,-0.70952,11.141,1,-0.00049999
78.3,-0.581283,11.1409,1,-0.00049999
78.4,-0.453046,11.1408,1,-0.00049999
78.5,-0.324809,11.1408,1,-0.00049999
78.6,-0.196572,11.1407,1,-0.00049999
78.7,-0.0683349,11.1406,1,-0.00049999
78.8,0.0599022,11.1406,1,-0.00049999
78.9,0.188179,11.1406,1,-0.000256078
79,0.316579,11.1407,1,0.000582604
79.1,0.445125,11.1411,0.999999,0.00172332
79.2,0.57381,11.1417,0.999995,0.00300511
79.3,0.702611,11.1425,0.999991,0.00433665
79.4,0.831558,11.1436,0.999985,0.00548668
79.5,0.960829,11.1448,0.999982,0.00606981
79.6,1.09052,11.1461,0.99998,0.00633759
79.7,1.22067,11.1474,0.999979,0.00643113
79.8,1.35131,11.1487,0.999979,0.00642913
79.9,1.48242,11.1499,0.99998,0.00637487
80,1.61402,11.1512,0.99998,0.00629309
