0.1,-14.0716,-9.28515,0.999661,0.0260433
0.2,-4.07087,-9.27431,0.990465,0.137761
0.3,-4.07753,-9.2579,0.974091,0.226158
0.4,-4.09173,-9.23286,0.929653,0.368438
0.5,-4.10904,-9.20763,0.92199,0.387213
0.6,-4.11811,-9.18366,0.943621,0.331029
0.7,-4.10977,-9.16007,0.964131,0.265426
0.8,-4.07959,-9.13748,0.978607,0.20574
0.9,-4.02927,-9.11646,0.9867,0.162551
1,-3.96384,-9.0954,0.989281,0.146024
1.1,-3.88523,-9.07407,0.990762,0.135614
1.2,-3.79542,-9.05387,0.992762,0.120097
1.3,-3.69496,-9.03744,0.995744,0.0921601
1.4,-3.58488,-9.02633,0.998239,0.0593249
1.5,-3.46904,-9.02252,0.999802,0.0198999
1.6,-3.34739,-9.02255,1,7.88042e-05
1.7,-3.21714,-9.02701,0.999773,-0.0213101
1.8,-3.08065,-9.03353,0.999543,-0.0302445
1.9,-2.94002,-9.04145,0.999348,-0.0361131
2,-2.79634,-9.05074,0.999125,-0.0418171
2.1,-2.65071,-9.06071,0.999012,-0.0444444
2.2,-2.50441,-9.0708,0.998991,-0.0449023
2.3,-2.35804,-9.08092,0.998988,-0.0449693
2.4,-2.21187,-9.09094,0.999005,-0.0446039
2.5,-2.066,-9.10084,0.999028,-0.0440843
2.6,-1.92041,-9.1106,0.999051,-0.0435618
2.7,-1.77507,-9.12026,0.999071,-0.0431036
2.8,-1.62993,-9.12982,0.999086,-0.042741
2.9,-1.48492,-9.13932,0.999097,-0.0424952
3,-1.33998,-9.1488,0.999101,-0.0423903
3.1,-1.19499,-9.15829,0.999098,-0.0424658
3.2,-1.04982,-9.16787,0.999084,-0.0427942
3.3,-0.90425,-9.17762,0.999052,-0.0435244
3.4,-0.757956,-9.1877,0.998995,-0.0448337
3.5,-0.610731,-9.1982,0.998918,-0.0465083
3.6,-0.462361,-9.20922,0.998821,-0.0485439
3.7,-0.312647,-9.22084,0.998703,-0.0509086
3.8,-0.162933,-9.23246,0.998703,-0.0509085
3.9,-0.0132188,-9.24408,0.998703,-0.0509084
4,0.136495,-9.2557,0.998703,-0.0509083
4.1,0.286209,-9.26732,0.998703,-0.0509081
4.2,0.435923,-9.27894,0.998703,-0.050908
4.3,0.585637,-9.29056,0.998703,-0.0509079
4.4,0.735351,-9.30219,0.998703,-0.0509077
4.5,0.885065,-9.31381,0.998703,-0.0509076
4.6,1.03478,-9.32543,0.998703,-0.0509074
4.7,1.18449,-9.33705,0.998703,-0.0509073
4.8,1.33421,-9.34867,0.998703,-0.0509072
4.9,1.48392,-9.36029,0.998703,-0.050907
5,1.63364,-9.37191,0.998703,-0.0509069
5.1,1.78335,-9.38353,0.998703,-0.0509068
5.2,1.93306,-9.39515,0.998703,-0.0509067
5.3,2.08278,-9.40676,0.998703,-0.0509067
5.4,2.23249,-9.41839,0.998703,-0.0509067
5.5,2.38221,-9.43001,0.998703,-0.0509066
5.6,2.53236,-9.4408,0.998886,-0.0471986
5.7,2.68328,-9.44912,0.999344,-0.0362114
5.8,2.83574,-9.45526,0.999647,-0.026553
5.9,2.99051,-9.46031,0.999768,-0.0215396
6,3.14532,-9.46473,0.999822,-0.018873
6.1,3.30013,-9.46883,0.999847,-0.0174869
6.2,3.45496,-9.47277,0.999859,-0.0167654
6.3,3.60979,-9.47661,0.999866,-0.016389
6.4,3.76462,-9.48042,0.999869,-0.0161924
6.5,3.91945,-9.48419,0.999871,-0.0160894
6.6,4.07428,-9.48796,0.999871,-0.0160354
6.7,4.22911,-9.49172,0.999872,-0.0160069
6.8,4.38394,-9.49547,0.999872,-0.0159918
6.9,4.53877,-9.49922,0.999872,-0.0159839
7,4.6936,-9.50298,0.999872,-0.0159796
7.1,4.84844,-9.50673,0.999872,-0.0159774
7.2,-4.99673,-9.51048,0.999872,-0.0159761
7.3,-4.84206,-9.51422,0.999873,-0.0159606
7.4,-4.68775,-9.51795,0.999873,-0.0159265
7.5,-4.5338,-9.52167,0.999874,-0.0158936
7.6,-4.38018,-9.52538,0.999874,-0.0158614
7.7,-4.22691,-9.52907,0.999875,-0.0158299
7.8,-4.07396,-9.53275,0.999875,-0.015799
7.9,-3.92133,-9.53642,0.999876,-0.0157687
8,-3.76901,-9.54008,0.999876,-0.0157392
8.1,-3.617,-9.54372,0.999877,-0.0157101
8.2,-3.4653,-9.54735,0.999877,-0.0156819
8.3,-3.31388,-9.55098,0.999878,-0.0156545
8.4,-3.16274,-9.55459,0.999878,-0.0156278
8.5,-3.01172,-9.55835,0.999867,-0.0162904
8.6,-2.86064,-9.5624,0.999846,-0.0175476
8.7,-2.7094,-9.56679,0.999819,-0.0190286
8.8,-2.55784,-9.57156,0.999787,-0.0206145
8.9,-2.40447,-9.57668,0.999758,-0.0219987
9,-2.25103,-9.5818,0.999758,-0.0219997
9.1,-2.0976,-9.58692,0.999758,-0.0219997
9.2,-1.94416,-9.59204,0.999758,-0.0219997
9.3,-1.79073,-9.59716,0.999758,-0.0219996
9.4,-1.63729,-9.60228,0.999758,-0.0219996
9.5,-1.48386,-9.6074,0.999758,-0.0219996
9.6,-1.33042,-9.61252,0.999758,-0.0219996
9.7,-1.17699,-9.61764,0.999758,-0.0219996
9.8,-1.02356,-9.62276,0.999758,-0.0219996
9.9,-0.870121,-9.62788,0.999758,-0.0219995
10,-0.716687,-9.633,0.999758,-0.0219995
10.1,-0.563252,-9.63812,0.999758,-0.0219995
10.2,-0.409818,-9.64324,0.999758,-0.0219995
10.3,-0.256384,-9.64836,0.999758,-0.0219995
10.4,-0.102949,-9.65348,0.999758,-0.0219995
10.5,0.050485,-9.6586,0.999758,-0.0219995
10.6,0.203919,-9.66372,0.999758,-0.0219995
10.7,0.357354,-9.66884,0.999758,-0.0219995
10.8,0.510788,-9.67396,0.999758,-0.0219995
10.9,0.664222,-9.67908,0.999758,-0.0219995
11,0.817656,-9.6842,0.999758,-0.0219994
11.1,0.971091,-9.68932,0.999758,-0.0219994
11.2,1.12453,-9.69444,0.999758,-0.0219994
11.3,1.27796,-9.69956,0.999758,-0.0219993
11.4,1.43139,-9.70469,0.999758,-0.0219993
11.5,1.58483,-9.70981,0.999758,-0.0219993
11.6,1.73826,-9.71493,0.999758,-0.0219993
11.7,1.8917,-9.72005,0.999758,-0.0219992
11.8,2.04513,-9.72517,0.999758,-0.0219991
11.9,2.19857,-9.73029,0.999758,-0.0219992
12,2.35199,-9.73541,0.999758,-0.0219888
12.1,2.50535,-9.74051,0.99976,-0.0219096
12.2,2.65864,-9.74559,0.999762,-0.0218323
12.3,2.81187,-9.75065,0.999763,-0.0217567
12.4,2.96504,-9.75569,0.999765,-0.0216828
12.5,3.11815,-9.76071,0.999766,-0.0216107
12.6,3.2712,-9.76572,0.999768,-0.0215402
12.7,3.42419,-9.77071,0.999769,-0.0214713
12.8,3.57712,-9.77568,0.999771,-0.0214039
12.9,3.73,-9.78064,0.999772,-0.0213384
13,3.88283,-9.78558,0.999774,-0.0212744
13.1,4.0356,-9.7905,0.999775,-0.0212124
13.2,4.18832,-9.79541,0.999776,-0.0211521
13.3,4.34099,-9.80031,0.999778,-0.0210923
13.4,4.49361,-9.80473,0.999819,-0.0190329
13.5,4.64618,-9.80683,0.99996,-0.00896375
13.6,4.79891,-9.8085,0.999975,-0.00707984
13.7,4.95214,-9.80798,0.999997,0.00241468
13.8,-4.89443,-9.80718,0.999993,0.00365199
13.9,-4.74099,-9.80628,0.999992,0.00404756
14,-4.58758,-9.80534,0.999991,0.0042481
14.1,-4.4342,-9.80436,0.99999,0.0044083
14.2,-4.28085,-9.80335,0.99999,0.00456089
14.3,-4.12753,-9.8023,0.999989,0.00471276
14.4,-3.97423,-9.80122,0.999988,0.0048654
14.5,-3.82095,-9.8001,0.999987,0.00501907
14.6,-3.66769,-9.79895,0.999987,0.00517384
14.7,-3.51446,-9.79776,0.999986,0.00532971
14.8,-3.36124,-9.79653,0.999985,0.00548658
14.9,-3.20804,-9.79527,0.999984,0.00564442
15,-3.05485,-9.79397,0.999983,0.00580312
15.1,-2.90168,-9.79263,0.999982,0.00596261
15.2,-2.74852,-9.79126,0.999981,0.00612283
15.3,-2.59537,-9.78985,0.99998,0.00628362
15.4,-2.44222,-9.7884,0.999979,0.00644493
15.5,-2.28908,-9.78692,0.999978,0.00660658
15.6,-2.13594,-9.7854,0.999977,0.00676848
15.7,-1.98281,-9.78384,0.999976,0.00693046
15.8,-1.82968,-9.78224,0.999975,0.00709233
15.9,-1.67654,-9.78061,0.999974,0.00725398
16,-1.5234,-9.77894,0.999972,0.00741519
16.1,-1.37025,-9.77723,0.999971,0.00757576
16.2,-1.2171,-9.77549,0.99997,0.00773548
16.3,-1.06394,-9.7737,0.999969,0.00789414
16.4,-0.910763,-9.77189,0.999968,0.0080515
16.5,-0.757576,-9.77003,0.999966,0.00820729
16.6,-0.604373,-9.76814,0.999965,0.00836128
16.7,-0.451153,-9.76622,0.999964,0.00851319
16.8,-0.297913,-9.76426,0.999963,0.00866273
16.9,-0.144653,-9.76227,0.999961,0.00880964
17,0.00863025,-9.76024,0.99996,0.00895361
17.1,0.161938,-9.75818,0.999959,0.00909428
17.2,0.315273,-9.75609,0.999957,0.00923138
17.3,0.468635,-9.75397,0.999956,0.00936458
17.4,0.622028,-9.75181,0.999955,0.00949354
17.5,0.775453,-9.74963,0.999954,0.00961795
17.6,0.928911,-9.74742,0.999953,0.00973745
17.7,1.0824,-9.74519,0.999951,0.00985172
17.8,1.23572,-9.74306,0.999956,0.00936178
17.9,1.38859,-9.74125,0.999967,0.00806576
18,1.54102,-9.73974,0.999977,0.00671293
18.1,1.69303,-9.73855,0.999986,0.00534455
18.2,1.84464,-9.73769,0.999992,0.00396482
18.3,1.99588,-9.73714,0.999997,0.00257746
18.4,2.14676,-9.7369,0.999999,0.00118597
18.5,2.29729,-9.73699,1,-0.000206108
18.6,2.44751,-9.73739,0.999999,-0.00159608
18.7,2.59742,-9.73811,0.999996,-0.00298073
18.8,2.74705,-9.73914,0.999991,-0.00435652
18.9,2.89641,-9.74048,0.999984,-0.00571992
19,3.04553,-9.74212,0.999975,-0.00706772
19.1,3.19443,-9.74406,0.999965,-0.00839322
19.2,3.34312,-9.74627,0.999954,-0.00962052
19.3,3.49166,-9.74874,0.999942,-0.0107274
19.4,3.64008,-9.75142,0.999932,-0.0116836
19.5,3.78844,-9.75426,0.999923,-0.0124357
19.6,3.93675,-9.75721,0.999917,-0.0128757
19.7,4.08503,-9.76019,0.999915,-0.0130108
19.8,4.23332,-9.76313,0.999917,-0.0128585
19.9,4.3816,-9.76607,0.999918,-0.0128499
20,4.52988,-9.76901,0.999918,-0.0128415
20.1,4.67814,-9.77195,0.999918,-0.0128334
20.2,4.8264,-9.77489,0.999918,-0.0128256
20.3,4.97465,-9.77782,0.999918,-0.012818
20.4,-4.87711,-9.78075,0.999918,-0.0128107
20.5,-4.72887,-9.78368,0.999918,-0.0128037
20.6,-4.58064,-9.78661,0.999918,-0.0127969
20.7,-4.43242,-9.78953,0.999918,-0.0127904
20.8,-4.2842,-9.79246,0.999918,-0.0127841
20.9,-4.13599,-9.79538,0.999918,-0.0127781
21,-3.98778,-9.79831,0.999918,-0.0127722
21.1,-3.83958,-9.80123,0.999918,-0.0127666
21.2,-3.69139,-9.80415,0.999919,-0.0127612
21.3,-3.5432,-9.80707,0.999919,-0.012756
21.4,-3.39501,-9.80998,0.999919,-0.0127511
21.5,-3.24683,-9.8129,0.999919,-0.0127464
21.6,-3.09866,-9.81581,0.999919,-0.0127419
21.7,-2.95049,-9.81873,0.999919,-0.0127375
21.8,-2.80232,-9.82164,0.999919,-0.0127334
21.9,-2.65415,-9.82455,0.999919,-0.0127294
22,-2.50599,-9.82747,0.999919,-0.0127257
22.1,-2.35784,-9.83038,0.999919,-0.0127221
22.2,-2.20968,-9.83329,0.999919,-0.0127188
22.3,-2.06153,-9.83619,0.999919,-0.0127156
22.4,-1.91338,-9.8391,0.999919,-0.0127127
22.5,-1.76524,-9.84201,0.999919,-0.0127099
22.6,-1.6171,-9.84492,0.999919,-0.0127072
22.7,-1.46896,-9.84783,0.999919,-0.0127048
22.8,-1.32082,-9.85073,0.999919,-0.0127025
22.9,-1.17268,-9.85364,0.999919,-0.0127004
23,-1.02455,-9.85654,0.999919,-0.0126984
23.1,-0.876417,-9.85945,0.999919,-0.0126966
23.2,-0.728286,-9.86235,0.999919,-0.0126949
23.3,-0.580155,-9.86525,0.999919,-0.0126947
23.4,-0.432023,-9.86816,0.999919,-0.0126962
23.5,-0.28389,-9.87106,0.999919,-0.0126966
23.6,-0.135757,-9.87397,0.999919,-0.012696
23.7,0.0123738,-9.87687,0.999919,-0.0126949
23.8,0.160504,-9.87978,0.999919,-0.0126933
23.9,0.308632,-9.88268,0.999919,-0.0126915
24,0.456758,-9.88558,0.999919,-0.0126895
24.1,0.604882,-9.88848,0.999919,-0.0126877
24.2,0.753004,-9.89139,0.99992,-0.0126856
24.3,0.901125,-9.89429,0.99992,-0.0126833
24.4,1.04924,-9.89719,0.99992,-0.0126821
24.5,1.19736,-9.90009,0.99992,-0.0126799
24.6,1.34548,-9.90299,0.99992,-0.0126842
24.7,1.4945,-9.90443,0.999981,-0.00619168
24.8,1.64389,-9.90547,0.99999,-0.00439661
24.9,1.79327,-9.90652,0.99999,-0.00445002
25,1.94245,-9.90782,0.999985,-0.00556132
25.1,2.09132,-9.90933,0.999979,-0.00652527
25.2,2.23985,-9.91105,0.999973,-0.00740891
25.3,2.38806,-9.91296,0.999966,-0.00828303
25.4,2.53596,-9.91507,0.999958,-0.00919549
25.5,2.68356,-9.9174,0.999948,-0.0101778
25.6,2.83089,-9.91997,0.999937,-0.011257
25.7,2.97796,-9.92281,0.999922,-0.0124583
25.8,3.1248,-9.92595,0.999905,-0.0138098
25.9,3.27145,-9.92943,0.999882,-0.0153423
26,3.41794,-9.9333,0.999854,-0.0170923
26.1,3.56442,-9.93777,0.999804,-0.0197837
26.2,3.71123,-9.94294,0.999738,-0.02288
26.3,3.85807,-9.94837,0.999711,-0.0240374
26.4,4.005,-9.95361,0.999732,-0.0231398
26.5,4.1522,-9.95791,0.99982,-0.0189555
26.6,4.29945,-9.96202,0.999836,-0.0181103
26.7,4.44673,-9.96603,0.999844,-0.0176774
26.8,4.59402,-9.97,0.999848,-0.0174555
26.9,4.74132,-9.97394,0.99985,-0.0173416
27,4.88862,-9.97786,0.999851,-0.0172832
27.1,-4.96408,-9.98178,0.999851,-0.0172532
27.2,-4.81678,-9.98569,0.999851,-0.0172379
27.3,-4.66947,-9.98961,0.999852,-0.0172299
27.4,-4.52217,-9.99352,0.999852,-0.0172258
27.5,-4.37486,-9.99743,0.999852,-0.0172237
27.6,-4.22756,-10.0013,0.999852,-0.0172226
27.7,-4.08026,-10.0053,0.999852,-0.0172221
27.8,-3.93295,-10.0092,0.999852,-0.0172218
27.9,-3.78565,-10.0131,0.999852,-0.0172217
28,-3.63834,-10.017,0.999852,-0.0172216
28.1,-3.49104,-10.0209,0.999852,-0.0172216
28.2,-3.34374,-10.0248,0.999852,-0.0172216
28.3,-3.19643,-10.0287,0.999852,-0.0172216
28.4,-3.04913,-10.0326,0.999852,-0.0172215
28.5,-2.90182,-10.0366,0.999852,-0.0172215
28.6,-2.75452,-10.0405,0.999852,-0.0172215
28.7,-2.60722,-10.0444,0.999852,-0.0172215
28.8,-2.45991,-10.0483,0.999852,-0.0172215
28.9,-2.31261,-10.0522,0.999852,-0.0172215
29,-2.1653,-10.0561,0.999852,-0.0172215
29.1,-2.018,-10.06,0.999852,-0.0172215
29.2,-1.8707,-10.0639,0.999852,-0.0172215
29.3,-1.72339,-10.0678,0.999852,-0.0172215
29.4,-1.57609,-10.0718,0.999852,-0.0172216
29.5,-1.42878,-10.0757,0.999852,-0.0172216
29.6,-1.28148,-10.0796,0.999852,-0.0172214
29.7,-1.13418,-10.0835,0.999852,-0.0172215
29.8,-0.986871,-10.0874,0.999852,-0.0172213
29.9,-0.839567,-10.0913,0.999852,-0.0172213
30,-0.687368,-10.0957,0.999824,-0.0187577
30.1,-0.53654,-10.0993,0.999878,-0.0156301
30.2,-0.387322,-10.1024,0.999905,-0.0137866
30.3,-0.237397,-10.1056,0.999907,-0.0136408
30.4,-0.0868103,-10.1086,0.999913,-0.0132116
30.5,0.063663,-10.1115,0.999921,-0.012569
30.6,0.213774,-10.1146,0.999914,-0.013097
30.7,0.364986,-10.1138,0.999993,0.00372567
30.8,0.516135,-10.1148,0.999989,-0.00460353
30.9,0.667059,-10.1138,0.999989,0.00467081
31,0.818322,-10.1129,0.99999,0.00437252
31.1,0.969508,-10.1119,0.99999,0.00451076
31.2,1.12072,-10.1109,0.99999,0.004539
31.3,1.27193,-10.1099,0.999989,0.00459579
31.4,1.42316,-10.1088,0.999989,0.0046459
31.5,1.57438,-10.1078,0.999989,0.00469838
31.6,1.72562,-10.1068,0.999989,0.00475073
31.7,1.87686,-10.1057,0.999988,0.00480386
31.8,2.02811,-10.1046,0.999988,0.00485728
31.9,2.17936,-10.1035,0.999988,0.00491115
32,2.33063,-10.1024,0.999988,0.00496543
32.1,2.4819,-10.1013,0.999987,0.00502049
32.2,2.63318,-10.1002,0.999987,0.00507564
32.3,2.78446,-10.0991,0.999987,0.00513146
32.4,2.93576,-10.0979,0.999986,0.00518759
32.5,3.08706,-10.0968,0.999986,0.00524439
32.6,3.23837,-10.0956,0.999986,0.00530148
32.7,3.3897,-10.0944,0.999986,0.00535877
32.8,3.54103,-10.0932,0.999985,0.00541672
32.9,3.69237,-10.092,0.999985,0.00547484
33,3.84371,-10.0908,0.999985,0.00553393
33.1,3.99507,-10.0895,0.999984,0.0055927
33.2,4.14644,-10.0883,0.999984,0.00565233
33.3,4.29782,-10.087,0.999984,0.00571246
33.4,4.44921,-10.0857,0.999983,0.00577206
33.5,4.60057,-10.0845,0.999984,0.00572695
33.6,4.75167,-10.0834,0.999987,0.00502877
33.7,4.90252,-10.0825,0.999993,0.0038419
33.8,-4.94685,-10.082,0.999997,0.00252439
33.9,-4.79643,-10.0818,0.999999,0.00116097
34,-4.6462,-10.0819,1,-0.00025141
34.1,-4.49592,-10.0822,0.999999,-0.00139928
34.2,-4.34471,-10.082,0.999999,0.00107415
34.3,-4.19332,-10.0809,0.999988,0.00481527
34.4,-4.04186,-10.0796,0.999982,0.00600115
34.5,-3.89038,-10.0782,0.99998,0.0062556
34.6,-3.73888,-10.0768,0.99998,0.00632033
34.7,-3.58738,-10.0754,0.99998,0.0063831
34.8,-3.43585,-10.074,0.999979,0.00644641
34.9,-3.28432,-10.0725,0.999979,0.00650971
35,-3.13277,-10.071,0.999978,0.00657346
35.1,-2.98121,-10.0696,0.999978,0.00663692
35.2,-2.82963,-10.0681,0.999978,0.0067007
35.3,-2.67803,-10.0666,0.999977,0.00676427
35.4,-2.52642,-10.065,0.999977,0.00682845
35.5,-2.3748,-10.0635,0.999976,0.00689205
35.6,-2.22316,-10.0619,0.999976,0.00695617
35.7,-2.0715,-10.0604,0.999975,0.00702051
35.8,-1.91982,-10.0588,0.999975,0.00708393
35.9,-1.76813,-10.0572,0.999974,0.00714801
36,-1.61642,-10.0556,0.999974,0.00721118
36.1,-1.46469,-10.0539,0.999974,0.00727512
36.2,-1.31294,-10.0523,0.999973,0.00733813
36.3,-1.16117,-10.0506,0.999973,0.00740111
36.4,-1.00939,-10.049,0.999972,0.0074641
36.5,-0.857583,-10.0473,0.999972,0.00752635
36.6,-0.705758,-10.0456,0.999971,0.00758871
36.7,-0.553911,-10.0439,0.999971,0.00764988
36.8,-0.402044,-10.0421,0.99997,0.00771186
36.9,-0.250156,-10.0404,0.99997,0.00777249
37,-0.0982451,-10.0386,0.999969,0.00783258
37.1,0.0536877,-10.0369,0.999969,0.00789248
37.2,0.205643,-10.0351,0.999968,0.00795161
37.3,0.357622,-10.0333,0.999968,0.00800984
37.4,0.509624,-10.0315,0.999967,0.00806794
37.5,0.661651,-10.0297,0.999967,0.00812424
37.6,0.813702,-10.0278,0.999967,0.00818085
37.7,0.965778,-10.026,0.999966,0.00823571
37.8,1.11788,-10.0241,0.999966,0.00828979
37.9,1.27001,-10.0222,0.999965,0.0083428
38,1.42216,-10.0203,0.999965,0.00839485
38.1,1.57434,-10.0184,0.999964,0.00844625
38.2,1.72655,-10.0165,0.999964,0.00849606
38.3,1.87879,-10.0146,0.999964,0.00854414
38.4,2.03105,-10.0127,0.999963,0.00859189
38.5,2.18334,-10.0107,0.999963,0.00863715
38.6,2.33567,-10.0088,0.999962,0.0086817
38.7,2.48802,-10.0068,0.999962,0.00872429
38.8,2.6404,-10.0048,0.999962,0.00876541
38.9,2.79282,-10.0028,0.999961,0.00880434
39,2.94526,-10.0009,0.999961,0.00884238
39.1,3.09774,-9.99885,0.999961,0.0088776
39.2,3.25025,-9.99684,0.99996,0.00891132
39.3,3.40279,-9.99482,0.99996,0.00894409
39.4,3.55536,-9.9928,0.99996,0.0089725
39.5,3.70797,-9.99077,0.999959,0.00900067
39.6,3.86061,-9.98873,0.999959,0.00902471
39.7,4.01329,-9.98669,0.999959,0.00904811
39.8,4.166,-9.98464,0.999959,0.00906826
39.9,4.31874,-9.98259,0.999959,0.00908736
40,4.47153,-9.98053,0.999959,0.00910166
40.1,4.62435,-9.97847,0.999958,0.00911457
40.2,4.7772,-9.97641,0.999958,0.00912514
40.3,4.93009,-9.97435,0.999958,0.00913198
40.4,-4.91698,-9.97228,0.999958,0.00913521
40.5,-4.76401,-9.97022,0.999958,0.00913706
40.6,-4.61101,-9.96816,0.999959,0.00910628
40.7,-4.45799,-9.96612,0.999959,0.00901541
40.8,-4.30491,-9.96405,0.999958,0.00913268
40.9,-4.15178,-9.96199,0.999959,0.00910548
41,-3.99862,-9.95994,0.999959,0.00909316
41.1,-3.84542,-9.95788,0.999959,0.00907287
41.2,-3.69218,-9.95583,0.999959,0.00905043
41.3,-3.5389,-9.95379,0.999959,0.00902359
41.4,-3.38558,-9.95176,0.99996,0.00899337
41.5,-3.23222,-9.94973,0.99996,0.0089596
41.6,-3.07882,-9.94771,0.99996,0.00892195
41.7,-2.92538,-9.9457,0.999961,0.00888076
41.8,-2.77189,-9.9437,0.999961,0.00883443
41.9,-2.61837,-9.94171,0.999961,0.00878274
42,-2.4648,-9.93973,0.999962,0.00872861
42.1,-2.31119,-9.93777,0.999962,0.00867057
42.2,-2.15754,-9.93581,0.999963,0.00860857
42.3,-2.00385,-9.93388,0.999964,0.00854004
42.4,-1.85012,-9.93196,0.999964,0.00846783
42.5,-1.69635,-9.93006,0.999965,0.00839313
42.6,-1.54254,-9.92818,0.999965,0.0083109
42.7,-1.38868,-9.92631,0.999966,0.00822569
42.8,-1.23479,-9.92447,0.999967,0.00813639
42.9,-1.08085,-9.92265,0.999968,0.00804227
43,-0.926875,-9.92085,0.999968,0.00794121
43.1,-0.772859,-9.91908,0.999969,0.0078389
43.2,-0.618803,-9.91733,0.99997,0.00773
43.3,-0.464708,-9.9156,0.999971,0.00761658
43.4,-0.310574,-9.91391,0.999972,0.00749807
43.5,-0.156401,-9.91224,0.999973,0.00737789
43.6,-0.0021898,-9.9106,0.999974,0.00724855
43.7,0.152059,-9.90899,0.999975,0.00711901
43.8,0.306344,-9.90741,0.999976,0.00698127
43.9,0.460666,-9.90586,0.999977,0.00684001
44,0.615025,-9.90435,0.999978,0.0066945
44.1,0.769418,-9.90287,0.999979,0.00654416
44.2,0.923846,-9.90143,0.99998,0.00639081
44.3,1.07831,-9.90002,0.999981,0.00623177
44.4,1.2328,-9.89865,0.999982,0.00606918
44.5,1.38733,-9.89733,0.999983,0.00590261
44.6,1.54189,-9.89604,0.999984,0.00573227
44.7,1.69648,-9.89479,0.999985,0.00555544
44.8,1.85109,-9.89358,0.999986,0.00537736
44.9,2.00574,-9.89241,0.999987,0.0051935
45,2.16031,-9.89138,0.999989,0.00463471
45.1,2.31484,-9.89042,0.999991,0.00427785
45.2,2.46938,-9.88952,0.999992,0.00406676
45.3,2.62398,-9.88862,0.999992,0.00404134
45.4,2.7787,-9.88768,0.999991,0.00422069
45.5,2.93349,-9.88676,0.999991,0.00412086
45.6,3.08831,-9.88592,0.999993,0.00381469
45.7,3.24314,-9.88511,0.999993,0.00363114
45.8,3.398,-9.88436,0.999994,0.00341235
45.9,3.55287,-9.88365,0.999995,0.00320155
46,3.70776,-9.883,0.999996,0.00298543
46.1,3.86266,-9.8824,0.999996,0.00276645
46.2,4.01757,-9.88185,0.999997,0.0025444
46.3,4.1725,-9.88134,0.999997,0.0023251
46.4,4.32744,-9.8809,0.999998,0.00209848
46.5,4.48239,-9.8805,0.999998,0.00187549
46.6,4.63735,-9.88016,0.999999,0.0016497
46.7,4.79231,-9.87987,0.999999,0.00142202
46.8,4.94728,-9.87963,0.999999,0.0011916
46.9,-4.89775,-9.87945,1,0.000962398
47,-4.74278,-9.87931,1,0.000734274
47.1,-4.5878,-9.87924,1,0.000512038
47.2,-4.43283,-9.87916,1,0.000512038
47.3,-4.27785,-9.87908,1,0.000512038
47.4,-4.12287,-9.879,1,0.000512038
47.5,-3.9679,-9.87892,1,0.000512038
47.6,-3.81292,-9.87884,1,0.000512038
47.7,-3.65795,-9.87876,1,0.000512038
47.8,-3.50297,-9.87868,1,0.000512038
47.9,-3.348,-9.8786,1,0.000512038
48,-3.19302,-9.87852,1,0.000512038
48.1,-3.03805,-9.87844,1,0.000512038
48.2,-2.88307,-9.87836,1,0.000512038
48.3,-2.7281,-9.87829,1,0.000512038
48.4,-2.57312,-9.87821,1,0.000512038
48.5,-2.41815,-9.87813,1,0.000512038
48.6,-2.26317,-9.87805,1,0.000512038
48.7,-2.10819,-9.87797,1,0.000512038
48.8,-1.95322,-9.87789,1,0.000512038
48.9,-1.79824,-9.87781,1,0.000512036
49,-1.64327,-9.87773,1,0.000512035
49.1,-1.48829,-9.87765,1,0.000512036
49.2,-1.33332,-9.87757,1,0.000512031
49.3,-1.17834,-9.87749,1,0.000512023
49.4,-1.02337,-9.87741,1,0.000512017
49.5,-0.868391,-9.87734,1,0.000512018
49.6,-0.713416,-9.87726,1,0.000512012
49.7,-0.55844,-9.87718,1,0.000512009
49.8,-0.403465,-9.8771,1,0.000512003
49.9,-0.24849,-9.87702,1,0.00051199
50,-0.0935143,-9.87694,1,0.000511977
50.1,0.0614611,-9.87686,1,0.000511965
50.2,0.216436,-9.87678,1,0.000511947
50.3,0.371412,-9.8767,1,0.000511915
50.4,0.526387,-9.87662,1,0.000511862
50.5,0.681363,-9.87654,1,0.000511783
50.6,0.836338,-9.87646,1,0.000511515
50.7,0.991313,-9.87639,1,0.000490244
50.8,1.14629,-9.87631,1,0.000512038
50.9,1.30126,-9.87623,1,0.000512038
51,1.45624,-9.87615,1,0.000512038
51.1,1.61121,-9.87607,1,0.000512038
51.2,1.76619,-9.87599,1,0.000512038
51.3,1.92117,-9.87592,1,0.000512038
51.4,2.07614,-9.87584,1,0.000512038
51.5,2.23112,-9.87576,1,0.000512038
51.6,2.38609,-9.87568,1,0.000512038
51.7,2.54107,-9.8756,1,0.000512038
51.8,2.69604,-9.87552,1,0.000512038
51.9,2.85102,-9.87544,1,0.000512038
52,3.00599,-9.87536,1,0.000512038
52.1,3.16097,-9.87528,1,0.000512038
52.2,3.31594,-9.8752,1,0.000512038
52.3,3.47092,-9.87512,1,0.000512038
52.4,3.62589,-9.87504,1,0.000512038
52.5,3.78087,-9.87497,1,0.000512038
52.6,3.93585,-9.87489,1,0.000512038
52.7,4.09082,-9.87481,1,0.000512038
52.8,4.2458,-9.87473,1,0.000512038
52.9,4.40077,-9.87465,1,0.000512038
53,4.55575,-9.87457,1,0.000512038
53.1,4.71072,-9.87449,1,0.000512038
53.2,4.8657,-9.87441,1,0.000512038
53.3,-4.97933,-9.87433,1,0.000512038
53.4,-4.82435,-9.87425,1,0.000511936
53.5,-4.66938,-9.87417,1,0.000511936
53.6,-4.5144,-9.87409,1,0.000511936
53.7,-4.35943,-9.87402,1,0.000511936
53.8,-4.20445,-9.87394,1,0.000511936
53.9,-4.04947,-9.87386,1,0.000511936
54,-3.8945,-9.87378,1,0.000511936
54.1,-3.73952,-9.8737,1,0.000511936
54.2,-3.58455,-9.87362,1,0.000511936
54.3,-3.42957,-9.87354,1,0.000511936
54.4,-3.2746,-9.87346,1,0.000511936
54.5,-3.11962,-9.87338,1,0.000511936
54.6,-2.96465,-9.8733,1,0.000511936
54.7,-2.80967,-9.87322,1,0.000511936
54.8,-2.6547,-9.87315,1,0.000511936
54.9,-2.49972,-9.87307,1,0.000511936
55,-2.34474,-9.87299,1,0.000511936
55.1,-2.18977,-9.87291,1,0.000511936
55.2,-2.03479,-9.87283,1,0.000511936
55.3,-1.87982,-9.87275,1,0.000511936
55.4,-1.72484,-9.87267,1,0.000511936
55.5,-1.56987,-9.87259,1,0.000511936
55.6,-1.41489,-9.87251,1,0.000511936
55.7,-1.25992,-9.87243,1,0.000511936
55.8,-1.10494,-9.87235,1,0.000511936
55.9,-0.949966,-9.87227,1,0.000511936
56,-0.794991,-9.8722,1,0.000511936
56.1,-0.640015,-9.87212,1,0.000511936
56.2,-0.48504,-9.87204,1,0.000511936
56.3,-0.330065,-9.87196,1,0.000511936
56.4,-0.175089,-9.87188,1,0.000511936
56.5,-0.0201139,-9.8718,1,0.000511936
56.6,0.134862,-9.87172,1,0.000511936
56.7,0.289837,-9.87164,1,0.000511936
56.8,0.444812,-9.87156,1,0.000511936
56.9,0.599788,-9.87148,1,0.000511936
57,0.754763,-9.8714,1,0.000511936
57.1,0.909738,-9.87132,1,0.000511936
57.2,1.06471,-9.87125,1,0.000511936
57.3,1.21969,-9.87117,1,0.000511936
57.4,1.37466,-9.87109,1,0.000511936
57.5,1.52964,-9.87101,1,0.000511936
57.6,1.68462,-9.87093,1,0.000511936
57.7,1.83959,-9.87085,1,0.000511936
57.8,1.99457,-9.87077,1,0.000511936
57.9,2.14954,-9.87069,1,0.000511936
58,2.30452,-9.87061,1,0.000511936
58.1,2.45949,-9.87053,1,0.000511936
58.2,2.61447,-9.87045,1,0.000511936
58.3,2.76944,-9.87037,1,0.000511936
58.4,2.92442,-9.8703,1,0.000511936
58.5,3.07939,-9.87022,1,0.000511936
58.6,3.23431,-9.8702,1,0.000232771
58.7,3.38908,-9.8704,1,-0.000676798
58.8,3.54373,-9.8708,0.999999,-0.00157302
58.9,3.69832,-9.87141,0.999997,-0.00242938
59,3.85288,-9.87219,0.999995,-0.00321264
59.1,4.00748,-9.87313,0.999992,-0.00388414
59.2,4.16214,-9.87419,0.99999,-0.00440295
59.3,4.31689,-9.87533,0.999989,-0.00473111
59.4,4.47177,-9.8765,0.999988,-0.00483968
59.5,4.62665,-9.87766,0.999988,-0.00483825
59.6,4.78153,-9.87882,0.999988,-0.00483826
59.7,4.93641,-9.87999,0.999988,-0.00483828
59.8,-4.90871,-9.88115,0.999988,-0.00483826
59.9,-4.75383,-9.88232,0.999988,-0.00483831
60,-4.59905,-9.88347,0.999988,-0.00480618
60.1,-4.44486,-9.88458,0.999989,-0.00462743
60.2,-4.29108,-9.88578,0.999988,-0.0049959
60.3,-4.13749,-9.88726,0.999981,-0.00621892
60.4,-3.984,-9.88906,0.999971,-0.00762642
60.5,-3.83053,-9.89119,0.999959,-0.00906272
60.6,-3.67698,-9.89364,0.999945,-0.0104439
60.7,-3.52328,-9.89639,0.999932,-0.0116913
60.8,-3.36934,-9.89937,0.999919,-0.0127267
60.9,-3.21509,-9.90253,0.999909,-0.013463
61,-3.06027,-9.90562,0.999914,-0.0131463
61.1,-2.90552,-9.90866,0.999917,-0.0128815
61.2,-2.75078,-9.91169,0.999917,-0.0128815
61.3,-2.59603,-9.91472,0.999917,-0.0128814
61.4,-2.44128,-9.91775,0.999917,-0.0128814
61.5,-2.28654,-9.92078,0.999917,-0.0128813
61.6,-2.13179,-9.92381,0.999917,-0.0128813
61.7,-1.97704,-9.92685,0.999917,-0.0128813
61.8,-1.82229,-9.92988,0.999917,-0.0128813
61.9,-1.66755,-9.93291,0.999917,-0.0128813
62,-1.5128,-9.93594,0.999917,-0.0128812
62.1,-1.35805,-9.93897,0.999917,-0.0128812
62.2,-1.20331,-9.94201,0.999917,-0.0128812
62.3,-1.04856,-9.94504,0.999917,-0.0128811
62.4,-0.893815,-9.94807,0.999917,-0.012881
62.5,-0.739068,-9.9511,0.999917,-0.012881
62.6,-0.584321,-9.95413,0.999917,-0.012881
62.7,-0.429574,-9.95716,0.999917,-0.0128809
62.8,-0.274828,-9.9602,0.999917,-0.0128809
62.9,-0.120081,-9.96323,0.999917,-0.0128809
63,0.0346656,-9.96626,0.999917,-0.0128809
63.1,0.189412,-9.96929,0.999917,-0.0128808
63.2,0.344159,-9.97232,0.999917,-0.0128808
63.3,0.498906,-9.97535,0.999917,-0.0128807
63.4,0.653652,-9.97839,0.999917,-0.0128805
63.5,0.808399,-9.98142,0.999917,-0.0128805
63.6,0.963146,-9.98445,0.999917,-0.0128803
63.7,1.11789,-9.98748,0.999917,-0.0128802
63.8,1.27264,-9.99051,0.999917,-0.0128799
63.9,1.42739,-9.99354,0.999917,-0.0128801
64,1.58213,-9.99658,0.999917,-0.0128799
64.1,1.73688,-9.99961,0.999917,-0.0128798
64.2,1.89163,-10.0026,0.999917,-0.0128799
64.3,2.04637,-10.0057,0.999917,-0.0128735
64.4,2.2013,-10.0077,0.999962,-0.00877522
64.5,2.35624,-10.0093,0.999978,-0.00659725
64.6,2.51119,-10.0106,0.999986,-0.00537118
64.7,2.66615,-10.0117,0.999989,-0.00469477
64.8,2.8211,-10.0128,0.999991,-0.00432682
64.9,2.97606,-10.0138,0.999991,-0.00412972
65,3.13101,-10.0148,0.999992,-0.00402682
65.1,3.28597,-10.0157,0.999992,-0.00397591
65.2,3.44092,-10.0167,0.999992,-0.00395377
65.3,3.59588,-10.0176,0.999992,-0.00394794
65.4,3.75084,-10.0186,0.999992,-0.00394793
65.5,3.90579,-10.0196,0.999992,-0.00394807
65.6,4.06075,-10.0205,0.999992,-0.003948
65.7,4.2157,-10.0215,0.999992,-0.00394815
65.8,4.37066,-10.0224,0.999992,-0.00394791
65.9,4.52562,-10.0234,0.999992,-0.00394799
66,4.68057,-10.0243,0.999992,-0.00395155
66.1,4.83555,-10.0243,1,0.000515037
66.2,4.99052,-10.0242,1,0.000515037
66.3,-4.8545,-10.0241,1,0.000515037
66.4,-4.69952,-10.024,1,0.000514934
66.5,-4.54455,-10.0239,1,0.000514934
66.6,-4.38957,-10.0239,1,0.000514934
66.7,-4.2346,-10.0238,1,0.000514934
66.8,-4.07962,-10.0237,1,0.000514934
66.9,-3.92465,-10.0236,1,0.000514934
67,-3.76967,-10.0235,1,0.000514934
67.1,-3.6147,-10.0235,1,0.000514934
67.2,-3.45972,-10.0234,1,0.000514934
67.3,-3.30475,-10.0233,1,0.000514934
67.4,-3.14977,-10.0232,1,0.000514934
67.5,-2.99479,-10.0231,1,0.000514934
67.6,-2.83982,-10.0231,1,0.000514934
67.7,-2.68484,-10.023,1,0.000514934
67.8,-2.52987,-10.0229,1,0.000514934
67.9,-2.37489,-10.0228,1,0.000514933
68,-2.21992,-10.0227,1,0.000514933
68.1,-2.06494,-10.0227,1,0.000514934
68.2,-1.90997,-10.0226,1,0.000514933
68.3,-1.75499,-10.0225,1,0.000514933
68.4,-1.60002,-10.0224,1,0.000514933
68.5,-1.44504,-10.0223,1,0.000514933
68.6,-1.29007,-10.0223,1,0.000514933
68.7,-1.13509,-10.0222,1,0.000514933
68.8,-0.980115,-10.0221,1,0.000514933
68.9,-0.825139,-10.022,1,0.000514933
69,-0.670164,-10.0219,1,0.000514933
69.1,-0.515188,-10.0219,1,0.000514933
69.2,-0.360213,-10.0218,1,0.000514933
69.3,-0.205238,-10.0217,1,0.000514933
69.4,-0.0502624,-10.0216,1,0.000514933
69.5,0.104713,-10.0215,1,0.000514933
69.6,0.259688,-10.0215,1,0.000514933
69.7,0.414664,-10.0214,1,0.000514933
69.8,0.569639,-10.0213,1,0.000514933
69.9,0.724614,-10.0212,1,0.000514933
70,0.87959,-10.0211,1,0.000514933
70.1,1.03457,-10.0211,1,0.000514933
70.2,1.18954,-10.021,1,0.000514933
70.3,1.34452,-10.0209,1,0.000514933
70.4,1.49949,-10.0208,1,0.000514933
70.5,1.65447,-10.0207,1,0.000514933
70.6,1.80944,-10.0207,1,0.000514933
70.7,1.96442,-10.0206,1,0.000514933
70.8,2.11939,-10.0205,1,0.000514933
70.9,2.27437,-10.0204,1,0.000514933
71,2.42934,-10.0203,1,0.000514933
71.1,2.58432,-10.0203,1,0.000514933
71.2,2.73929,-10.0202,1,0.000514933
71.3,2.89427,-10.0201,1,0.000514933
71.4,3.04925,-10.02,1,0.000514933
71.5,3.20422,-10.0199,1,0.000514933
71.6,3.3592,-10.0199,1,0.000514933
71.7,3.51417,-10.0198,1,0.000514933
71.8,3.66915,-10.0197,1,0.000514933
71.9,3.82412,-10.0196,1,0.000514933
72,3.9791,-10.0195,1,0.000514933
72.1,4.13407,-10.0195,1,0.000514933
72.2,4.28905,-10.0194,1,0.000514933
72.3,4.44402,-10.0193,1,0.000514933
72.4,4.599,-10.0192,1,0.000514933
72.5,4.75397,-10.0191,1,0.000514933
72.6,4.90895,-10.0191,1,0.000514933
72.7,-4.93607,-10.019,1,0.000514933
72.8,-4.7811,-10.0189,1,0.00051483
72.9,-4.62612,-10.0188,1,0.00051483
73,-4.47115,-10.0187,1,0.00051483
73.1,-4.31617,-10.0187,1,0.00051483
73.2,-4.1612,-10.0186,1,0.00051483
73.3,-4.00622,-10.0185,1,0.00051483
73.4,-3.85125,-10.0184,1,0.00051483
73.5,-3.69627,-10.0183,1,0.00051483
73.6,-3.5413,-10.0183,1,0.00051483
73.7,-3.38632,-10.0182,1,0.00051483
73.8,-3.23134,-10.0181,1,0.00051483
73.9,-3.07637,-10.018,1,0.00051483
74,-2.92139,-10.0179,1,0.00051483
74.1,-2.76642,-10.0179,1,0.00051483
74.2,-2.61144,-10.0178,1,0.00051483
74.3,-2.45647,-10.0177,1,0.00051483
74.4,-2.30149,-10.0176,1,0.00051483
74.5,-2.14652,-10.0175,1,0.00051483
74.6,-1.99154,-10.0175,1,0.00051483
74.7,-1.83657,-10.0174,1,0.00051483
74.8,-1.68159,-10.0173,1,0.00051483
74.9,-1.52662,-10.0172,1,0.00051483
75,-1.37164,-10.0171,1,0.00051483
75.1,-1.21666,-10.0171,1,0.00051483
75.2,-1.06169,-10.017,1,0.00051483
75.3,-0.906714,-10.0169,1,0.00051483
75.4,-0.751738,-10.0168,1,0.00051483
75.5,-0.596763,-10.0167,1,0.00051483
75.6,-0.441787,-10.0167,1,0.00051483
75.7,-0.286812,-10.0166,1,0.00051483
75.8,-0.131837,-10.0165,1,0.00051483
75.9,0.0231386,-10.0164,1,0.00051483
76,0.178114,-10.0163,1,0.00051483
76.1,0.333089,-10.0163,1,0.00051483
76.2,0.488065,-10.0162,1,0.00051483
76.3,0.64304,-10.0161,1,0.00051483
76.4,0.798015,-10.016,1,0.00051483
76.5,0.952991,-10.0159,1,0.00051483
76.6,1.10797,-10.0159,1,0.00051483
76.7,1.26294,-10.0158,1,0.00051483
76.8,1.41792,-10.0157,1,0.00051483
76.9,1.57289,-10.0156,1,0.00051483
77,1.72787,-10.0155,1,0.00051483
77.1,1.88284,-10.0155,1,0.00051483
77.2,2.03782,-10.0154,1,0.00051483
77.3,2.19279,-10.0153,1,0.00051483
77.4,2.34777,-10.0152,1,0.00051483
77.5,2.50274,-10.0151,1,0.00051483
77.6,2.65772,-10.0151,1,0.00051483
77.7,2.8127,-10.015,1,0.00051483
77.8,2.96767,-10.0149,1,0.00051483
77.9,3.12265,-10.0148,1,0.00051483
78,3.27762,-10.0147,1,0.00051483
78.1,3.4326,-10.0147,1,0.00051483
78.2,3.58757,-10.0146,1,0.00051483
78.3,3.74239,-10.0143,0.999999,0.00141248
78.4,3.89705,-10.0137,0.999997,0.00249767
78.5,4.0516,-10.013,0.999994,0.00355157
78.6,4.2061,-10.0119,0.99999,0.00454617
78.7,4.36059,-10.0107,0.999985,0.0054482
78.8,4.51476,-10.0094,0.999984,0.00572264
78.9,4.66852,-10.0081,0.999983,0.00582433
79,4.82181,-10.0069,0.999985,0.0055503
79.1,4.97459,-10.0058,0.999989,0.00468326
79.2,-4.8732,-10.0054,0.999998,0.00221587
79.3,-4.72137,-10.0033,0.999958,0.00911619
79.4,-4.57015,-10.0002,0.999905,0.0137472
79.5,-4.41965,-9.99654,0.999867,0.0163288
79.6,-4.26996,-9.99265,0.99985,0.0173139
79.7,-4.12109,-9.98866,0.999842,0.01778
79.8,-3.97306,-9.98467,0.99984,0.0178976
79.9,-3.82586,-9.9807,0.999841,0.0178508
80,-3.6795,-9.97677,0.999843,0.0177096
