0.1,-12.703,3.3606,0.996441,0.0842963
0.2,-2.69765,3.3351,0.937816,-0.347134
0.3,-2.6837,3.32968,0.997569,-0.0696877
0.4,-2.6735,3.34303,0.984018,0.178067
0.5,-2.65806,3.35333,0.991618,0.129205
0.6,-2.64203,3.36556,0.988405,0.151841
0.7,-2.62546,3.38196,0.979696,0.200488
0.8,-2.60929,3.40158,0.971046,0.238891
0.9,-2.59226,3.42119,0.971683,0.236288
1,-2.57097,3.44174,0.971896,0.235411
1.1,-2.53563,3.45696,0.98837,0.15207
1.2,-2.48355,3.46481,0.997709,0.0676458
1.3,-2.4127,3.46636,0.999933,0.0115423
1.4,-2.32168,3.46563,0.999989,-0.00472338
1.5,-2.21696,3.46935,0.999756,0.0220885
1.6,-2.10351,3.47556,0.999385,0.0350701
1.7,-1.9841,3.48251,0.999279,0.0379545
1.8,-1.86095,3.48904,0.99939,0.0349348
1.9,-1.73595,3.49483,0.999528,0.0307168
2,-1.6107,3.49999,0.999627,0.0273141
2.1,-1.48531,3.50483,0.999673,0.0255723
2.2,-1.35987,3.50949,0.999695,0.02468
2.3,-1.23439,3.51407,0.999707,0.0242226
2.4,-1.10889,3.51861,0.999712,0.0239879
2.5,-0.983383,3.52313,0.999715,0.0238673
2.6,-0.857872,3.52763,0.999717,0.0238054
2.7,-0.732359,3.53213,0.999717,0.0237735
2.8,-0.606845,3.53662,0.999718,0.0237571
2.9,-0.48133,3.54111,0.999718,0.0237486
3,-0.355815,3.5456,0.999718,0.0237442
3.1,-0.2303,3.55009,0.999718,0.0237419
3.2,-0.104784,3.55459,0.999718,0.0237407
3.3,0.020731,3.55908,0.999718,0.02374
3.4,0.146246,3.56357,0.999718,0.0237397
3.5,0.271762,3.56806,0.999718,0.0237395
3.6,0.397277,3.57255,0.999718,0.0237393
3.7,0.522793,3.57704,0.999718,0.0237392
3.8,0.648308,3.58153,0.999718,0.0237392
3.9,0.773824,3.58602,0.999718,0.0237391
4,0.899339,3.59051,0.999718,0.023739
4.1,1.02485,3.595,0.999718,0.0237389
4.2,1.15037,3.59949,0.999718,0.0237389
4.3,1.27589,3.60398,0.999718,0.0237388
4.4,1.4014,3.60847,0.999718,0.0237387
4.5,1.52692,3.61296,0.999718,0.0237386
4.6,1.65243,3.61745,0.999718,0.0237385
4.7,1.77795,3.62194,0.999718,0.0237384
4.8,1.90346,3.62644,0.999718,0.0237383
4.9,2.02898,3.63093,0.999718,0.0237382
5,2.15449,3.63542,0.999718,0.0237381
5.1,2.28001,3.63991,0.999718,0.0237381
5.2,2.40552,3.6444,0.999718,0.023738
5.3,2.53104,3.64889,0.999718,0.0237379
5.4,2.65656,3.65338,0.999718,0.0237379
5.5,2.78207,3.65787,0.999718,0.0237378
5.6,2.90759,3.66236,0.999718,0.0237377
5.7,3.0331,3.66685,0.999718,0.0237375
5.8,3.15862,3.67134,0.999718,0.0237373
5.9,3.28413,3.67583,0.999718,0.0237371
6,3.40965,3.68032,0.999718,0.0237368
6.1,3.53516,3.68481,0.999718,0.023736
6.2,3.66068,3.6893,0.999718,0.0237295
6.3,3.78646,3.6936,0.999742,0.0227093
6.4,3.91247,3.69762,0.999776,0.0211823
6.5,4.03867,3.70133,0.999809,0.0195302
6.6,4.16504,3.70473,0.99984,0.0178967
6.7,4.29156,3.70783,0.999867,0.016317
6.8,4.41819,3.71064,0.999891,0.0147788
6.9,4.54494,3.71316,0.999912,0.0132535
7,4.67179,3.71539,0.999931,0.0117129
7.1,4.79873,3.71733,0.999949,0.0101387
7.2,4.92574,3.71895,0.999964,0.00852622
7.3,-4.94719,3.72026,0.999976,0.00688057
7.4,-4.82007,3.72126,0.999986,0.0052116
7.5,-4.69292,3.72193,0.999994,0.00352913
7.6,-4.56576,3.72228,0.999998,0.00184171
7.7,-4.43859,3.72231,1,0.000155128
7.8,-4.31143,3.72231,1,-7.35399e-06
7.9,-4.18426,3.72231,1,-7.35398e-06
8,-4.0571,3.72231,1,-7.35398e-06
8.1,-3.92993,3.72231,1,-7.35398e-06
8.2,-3.80276,3.72231,1,-7.35398e-06
8.3,-3.6756,3.72231,1,-7.35398e-06
8.4,-3.54843,3.72231,1,-7.35398e-06
8.5,-3.42127,3.72231,1,-7.35398e-06
8.6,-3.2941,3.72231,1,-7.35398e-06
8.7,-3.16694,3.72231,1,-7.35398e-06
8.8,-3.03977,3.7223,1,-7.35398e-06
8.9,-2.9126,3.7223,1,-7.35398e-06
9,-2.78544,3.7223,1,-7.35398e-06
9.1,-2.65827,3.7223,1,-7.35398e-06
9.2,-2.53111,3.7223,1,-7.35398e-06
9.3,-2.40394,3.7223,1,-7.35398e-06
9.4,-2.27677,3.7223,1,-7.35398e-06
9.5,-2.14961,3.7223,1,-7.35398e-06
9.6,-2.02244,3.7223,1,-7.35398e-06
9.7,-1.89528,3.7223,1,-7.35398e-06
9.8,-1.76811,3.72229,1,-7.35398e-06
9.9,-1.64095,3.72229,1,-7.35398e-06
10,-1.51378,3.72229,1,-7.35398e-06
10.1,-1.38661,3.72229,1,-7.35398e-06
10.2,-1.25945,3.72229,1,-7.35398e-06
10.3,-1.13228,3.72229,1,-7.35398e-06
10.4,-1.00512,3.72229,1,-7.35398e-06
10.5,-0.877952,3.72229,1,-7.35398e-06
10.6,-0.750787,3.72229,1,-7.35397e-06
10.7,-0.623621,3.72229,1,-7.35397e-06
10.8,-0.496455,3.72229,1,-7.35397e-06
10.9,-0.36929,3.72228,1,-7.35397e-06
11,-0.242124,3.72228,1,-7.35397e-06
11.1,-0.114958,3.72228,1,-7.35397e-06
11.2,0.0122076,3.72228,1,-7.35397e-06
11.3,0.139373,3.72228,1,-7.35397e-06
11.4,0.266539,3.72228,1,-7.35397e-06
11.5,0.393705,3.72228,1,-7.35397e-06
11.6,0.52087,3.72228,1,-7.35397e-06
11.7,0.648036,3.72228,1,-7.35397e-06
11.8,0.775202,3.72228,1,-7.35397e-06
11.9,0.902367,3.72227,1,-7.35397e-06
12,1.02953,3.72227,1,-7.35397e-06
12.1,1.1567,3.72227,1,-7.35397e-06
12.2,1.28386,3.72227,1,-7.35397e-06
12.3,1.41103,3.72227,1,-7.35397e-06
12.4,1.5382,3.72227,1,-7.35397e-06
12.5,1.66536,3.72227,1,-7.35397e-06
12.6,1.79253,3.72227,1,-7.35397e-06
12.7,1.91969,3.72227,1,-7.35397e-06
12.8,2.04686,3.72227,1,-7.35397e-06
12.9,2.17402,3.72227,1,-7.35397e-06
13,2.30119,3.72226,1,-7.35397e-06
13.1,2.42836,3.72226,1,-7.35397e-06
13.2,2.55552,3.72226,1,-7.35397e-06
13.3,2.68269,3.72226,1,-7.35397e-06
13.4,2.80985,3.72226,1,-7.35396e-06
13.5,2.93702,3.72226,1,-7.35396e-06
13.6,3.06418,3.72226,1,-7.35396e-06
13.7,3.19135,3.72226,1,-7.35396e-06
13.8,3.31852,3.72226,1,-7.35396e-06
13.9,3.44568,3.72226,1,-7.35396e-06
14,3.57285,3.72225,1,-7.35396e-06
14.1,3.70001,3.72225,1,-7.35396e-06
14.2,3.82718,3.72225,1,-7.35396e-06
14.3,3.95435,3.72225,1,-7.35396e-06
14.4,4.08151,3.72225,1,-7.35396e-06
14.5,4.20868,3.72225,1,-7.35396e-06
14.6,4.33584,3.72225,1,-7.35396e-06
14.7,4.46301,3.72225,1,-7.35396e-06
14.8,4.59017,3.72225,1,-7.35396e-06
14.9,4.71734,3.72225,1,-7.35396e-06
15,4.84451,3.72224,1,-7.35396e-06
15.1,4.97167,3.72224,1,-7.35396e-06
15.2,-4.90116,3.72224,1,-7.35396e-06
15.3,-4.774,3.72224,1,-7.35249e-06
15.4,-4.64683,3.72224,1,-7.35249e-06
15.5,-4.51967,3.72224,1,-7.35249e-06
15.6,-4.3925,3.72224,1,-7.35249e-06
15.7,-4.26533,3.72224,1,-7.35248e-06
15.8,-4.13817,3.72224,1,-7.35248e-06
15.9,-4.011,3.72224,1,-7.35248e-06
16,-3.88384,3.72224,1,-7.35248e-06
16.1,-3.75667,3.72223,1,-7.35248e-06
16.2,-3.6295,3.72223,1,-7.35248e-06
16.3,-3.50234,3.72223,1,-7.35248e-06
16.4,-3.37517,3.72223,1,-7.35248e-06
16.5,-3.24801,3.72223,1,-7.35248e-06
16.6,-3.12084,3.72223,1,-7.35248e-06
16.7,-2.99368,3.72223,1,-7.35248e-06
16.8,-2.86651,3.72223,1,-7.35248e-06
16.9,-2.73934,3.72223,1,-7.35248e-06
17,-2.61218,3.72223,1,-7.35248e-06
17.1,-2.48501,3.72222,1,-7.35248e-06
17.2,-2.35785,3.72222,1,-7.35248e-06
17.3,-2.23068,3.72222,1,-7.35248e-06
17.4,-2.10352,3.72222,1,-7.35248e-06
17.5,-1.97635,3.72222,1,-7.35248e-06
17.6,-1.84918,3.72222,1,-7.35248e-06
17.7,-1.72202,3.72222,1,-7.35248e-06
17.8,-1.59485,3.72222,1,-7.35248e-06
17.9,-1.46769,3.72222,1,-7.35248e-06
18,-1.34052,3.72222,1,-7.35248e-06
18.1,-1.21336,3.72222,1,-7.35248e-06
18.2,-1.08619,3.72221,1,-7.35248e-06
18.3,-0.959024,3.72221,1,-7.35248e-06
18.4,-0.831858,3.72221,1,-7.35248e-06
18.5,-0.704693,3.72221,1,-7.35248e-06
18.6,-0.577527,3.72221,1,-7.35247e-06
18.7,-0.450361,3.72221,1,-7.35247e-06
18.8,-0.323196,3.72221,1,-7.35247e-06
18.9,-0.19603,3.72221,1,-7.35247e-06
19,-0.0688643,3.72221,1,-7.35247e-06
19.1,0.0583014,3.72221,1,-7.35247e-06
19.2,0.185467,3.7222,1,-7.35247e-06
19.3,0.312633,3.7222,1,-7.35247e-06
19.4,0.439798,3.7222,1,-7.35247e-06
19.5,0.566964,3.7222,1,-7.35247e-06
19.6,0.69413,3.7222,1,-7.35247e-06
19.7,0.821295,3.7222,1,-7.35247e-06
19.8,0.948461,3.7222,1,-7.35247e-06
19.9,1.07563,3.7222,1,-7.35247e-06
20,1.20279,3.7222,1,-7.35247e-06
20.1,1.32996,3.7222,1,-7.35247e-06
20.2,1.45712,3.7222,1,-7.35247e-06
20.3,1.58429,3.72219,1,-7.35247e-06
20.4,1.71146,3.72219,1,-7.35247e-06
20.5,1.83862,3.72219,1,-7.35247e-06
20.6,1.96579,3.72219,1,-7.35247e-06
20.7,2.09295,3.72219,1,-7.35247e-06
20.8,2.22012,3.72219,1,-7.35247e-06
20.9,2.34728,3.72219,1,-7.35247e-06
21,2.47445,3.72219,1,-7.35246e-06
21.1,2.60162,3.72219,1,-7.35246e-06
21.2,2.72878,3.72219,1,-7.35246e-06
21.3,2.85595,3.72218,1,-7.35246e-06
21.4,2.98311,3.72218,1,-7.35246e-06
21.5,3.11028,3.72218,1,-7.35246e-06
21.6,3.23744,3.72218,1,-7.35246e-06
21.7,3.36461,3.72218,1,-7.35246e-06
21.8,3.49178,3.72218,1,-7.35246e-06
21.9,3.61894,3.72218,1,-7.35246e-06
22,3.74611,3.72218,1,-7.35246e-06
22.1,3.87327,3.72218,1,-7.35246e-06
22.2,4.00044,3.72218,1,-7.35246e-06
22.3,4.1276,3.72218,1,-7.35246e-06
22.4,4.25477,3.72217,1,-7.35246e-06
22.5,4.38194,3.72217,1,-7.35246e-06
22.6,4.5091,3.72217,1,-7.35246e-06
22.7,4.63627,3.72217,1,-7.35246e-06
22.8,4.76343,3.72217,1,-7.35246e-06
22.9,4.8906,3.72217,1,-7.35246e-06
23,-4.98223,3.72217,1,-7.35246e-06
23.1,-4.85507,3.72217,1,-7.35099e-06
23.2,-4.7279,3.72217,1,-7.35099e-06
23.3,-4.60074,3.72217,1,-7.35099e-06
23.4,-4.47357,3.72216,1,-7.35098e-06
23.5,-4.34641,3.72216,1,-7.35098e-06
23.6,-4.21924,3.72216,1,-7.35098e-06
23.7,-4.09207,3.72216,1,-7.35098e-06
23.8,-3.96491,3.72216,1,-7.35098e-06
23.9,-3.83774,3.72216,1,-7.35098e-06
24,-3.71058,3.72216,1,-7.35098e-06
24.1,-3.58341,3.72216,1,-7.35098e-06
24.2,-3.45624,3.72216,1,-7.35098e-06
24.3,-3.32908,3.72216,1,-7.35098e-06
24.4,-3.20191,3.72216,1,-7.35098e-06
24.5,-3.07475,3.72215,1,-7.35098e-06
24.6,-2.94758,3.72215,1,-7.35098e-06
24.7,-2.82042,3.72215,1,-7.35098e-06
24.8,-2.69325,3.72215,1,-7.35098e-06
24.9,-2.56608,3.72215,1,-7.35098e-06
25,-2.43892,3.72215,1,-7.35098e-06
25.1,-2.31175,3.72215,1,-7.35098e-06
25.2,-2.18459,3.72215,1,-7.35098e-06
25.3,-2.05742,3.72215,1,-7.35098e-06
25.4,-1.93026,3.72215,1,-7.35098e-06
25.5,-1.80309,3.72214,1,-7.35098e-06
25.6,-1.67592,3.72214,1,-7.35098e-06
25.7,-1.54876,3.72214,1,-7.35098e-06
25.8,-1.42159,3.72214,1,-7.35098e-06
25.9,-1.29443,3.72214,1,-7.35098e-06
26,-1.16726,3.72214,1,-7.35098e-06
26.1,-1.0401,3.72214,1,-7.35097e-06
26.2,-0.91293,3.72214,1,-7.35097e-06
26.3,-0.785764,3.72214,1,-7.35097e-06
26.4,-0.658599,3.72214,1,-7.35097e-06
26.5,-0.531433,3.72214,1,-7.35097e-06
26.6,-0.404267,3.72213,1,-7.35097e-06
26.7,-0.277102,3.72213,1,-7.35097e-06
26.8,-0.149936,3.72213,1,-7.35097e-06
26.9,-0.0227704,3.72213,1,-7.35097e-06
27,0.104395,3.72213,1,-7.35097e-06
27.1,0.231561,3.72213,1,-7.35097e-06
27.2,0.358727,3.72213,1,-7.35097e-06
27.3,0.485892,3.72213,1,-7.35097e-06
27.4,0.613042,3.72211,1,-9.72925e-05
27.5,0.740152,3.72205,1,-0.000315219
27.6,0.867225,3.72195,1,-0.000530611
27.7,0.994263,3.72181,1,-0.000743402
27.8,1.12127,3.72163,1,-0.000953537
27.9,1.24824,3.72141,0.999999,-0.00116091
28,1.37519,3.72115,0.999999,-0.00136536
28.1,1.50211,3.72085,0.999999,-0.00156677
28.2,1.629,3.72051,0.999999,-0.00176507
28.3,1.75587,3.72014,0.999998,-0.00196007
28.4,1.88272,3.71973,0.999998,-0.00215167
28.5,2.00955,3.71929,0.999997,-0.00233969
28.6,2.13636,3.71881,0.999997,-0.00252397
28.7,2.26316,3.71829,0.999996,-0.00270434
28.8,2.38995,3.71774,0.999996,-0.00288069
28.9,2.51672,3.71716,0.999995,-0.00305275
29,2.64348,3.71655,0.999995,-0.00322041
29.1,2.77023,3.71591,0.999994,-0.00338347
29.2,2.89698,3.71523,0.999994,-0.00354175
29.3,3.02372,3.71453,0.999993,-0.00369504
29.4,3.15046,3.7138,0.999993,-0.00384312
29.5,3.27719,3.71304,0.999992,-0.00398583
29.6,3.40393,3.71226,0.999991,-0.00412296
29.7,3.53066,3.71145,0.999991,-0.00425431
29.8,3.6574,3.71061,0.99999,-0.00437967
29.9,3.78415,3.70976,0.99999,-0.00449886
30,3.91089,3.70888,0.999989,-0.00461171
30.1,4.03765,3.70798,0.999989,-0.00471798
30.2,4.16441,3.70707,0.999988,-0.00481754
30.3,4.29118,3.70613,0.999988,-0.00491021
30.4,4.41797,3.70518,0.999987,-0.0049958
30.5,4.54476,3.70422,0.999987,-0.00507416
30.6,4.67156,3.70324,0.999987,-0.00514517
30.7,4.79838,3.70225,0.999986,-0.00520866
30.8,4.92522,3.70124,0.999986,-0.00526455
30.9,-4.94794,3.70023,0.999986,-0.00531267
31,-4.82107,3.69921,0.999986,-0.00535297
31.1,-4.6942,3.69819,0.999985,-0.00538533
31.2,-4.5673,3.69716,0.999985,-0.00540736
31.3,-4.44041,3.69613,0.999985,-0.00540735
31.4,-4.31352,3.6951,0.999985,-0.00540733
31.5,-4.18662,3.69407,0.999985,-0.00540731
31.6,-4.05973,3.69304,0.999985,-0.0054073
31.7,-3.93284,3.69201,0.999985,-0.00540728
31.8,-3.80594,3.69098,0.999985,-0.00540727
31.9,-3.67905,3.68995,0.999985,-0.00540725
32,-3.55216,3.68892,0.999985,-0.00540723
32.1,-3.42526,3.68789,0.999985,-0.00540722
32.2,-3.29837,3.68686,0.999985,-0.0054072
32.3,-3.17148,3.68583,0.999985,-0.00540719
32.4,-3.04458,3.6848,0.999985,-0.00540717
32.5,-2.91769,3.68378,0.999985,-0.00540715
32.6,-2.7908,3.68275,0.999985,-0.00540714
32.7,-2.6639,3.68172,0.999985,-0.00540712
32.8,-2.53701,3.68069,0.999985,-0.00540711
32.9,-2.41012,3.67966,0.999985,-0.0054071
33,-2.28322,3.67863,0.999985,-0.00540708
33.1,-2.15633,3.6776,0.999985,-0.00540706
33.2,-2.02944,3.67657,0.999985,-0.00540703
33.3,-1.90254,3.67554,0.999985,-0.00540701
33.4,-1.77565,3.67451,0.999985,-0.00540698
33.5,-1.64876,3.67348,0.999985,-0.00540695
33.6,-1.52187,3.67245,0.999985,-0.00540692
33.7,-1.39497,3.67142,0.999985,-0.00540689
33.8,-1.26808,3.67039,0.999985,-0.00540687
33.9,-1.14119,3.66936,0.999985,-0.00540684
34,-1.01429,3.66833,0.999985,-0.00540685
34.1,-0.887399,3.6673,0.999985,-0.00540683
34.2,-0.760506,3.66627,0.999985,-0.00540684
34.3,-0.633613,3.66524,0.999985,-0.00540681
34.4,-0.50672,3.66422,0.999985,-0.00540683
34.5,-0.379826,3.66319,0.999985,-0.00540686
34.6,-0.252933,3.66216,0.999985,-0.00540682
34.7,-0.12604,3.66113,0.999985,-0.00540685
34.8,0.000853151,3.6601,0.999985,-0.0054068
34.9,0.127746,3.65907,0.999985,-0.00540683
35,0.25464,3.65804,0.999985,-0.00540679
35.1,0.381533,3.65701,0.999985,-0.00540683
35.2,0.508426,3.65598,0.999985,-0.00540677
35.3,0.635319,3.65495,0.999985,-0.00540682
35.4,0.762212,3.65392,0.999985,-0.00540675
35.5,0.889106,3.65289,0.999985,-0.00540682
35.6,1.016,3.65186,0.999985,-0.00540674
35.7,1.14289,3.65083,0.999985,-0.00540659
35.8,1.26979,3.6498,0.999985,-0.00540673
35.9,1.39668,3.64877,0.999985,-0.00540692
36,1.52357,3.64774,0.999985,-0.00540667
36.1,1.65046,3.64671,0.999985,-0.0054073
36.2,1.77738,3.64572,0.999986,-0.00523869
36.3,1.90432,3.64479,0.999988,-0.00488853
36.4,2.03128,3.64389,0.999989,-0.00471439
36.5,2.15828,3.64306,0.999991,-0.00435206
36.6,2.28528,3.64226,0.999991,-0.0041738
36.7,2.41232,3.64154,0.999993,-0.00380034
36.8,2.53937,3.64085,0.999994,-0.00361657
36.9,2.66644,3.64023,0.999995,-0.00323537
37,2.79352,3.63965,0.999995,-0.00304848
37.1,2.92063,3.63915,0.999996,-0.00265764
37.2,3.04774,3.63868,0.999997,-0.00246613
37.3,3.17487,3.63828,0.999998,-0.00207306
37.4,3.302,3.63792,0.999998,-0.0018752
37.5,3.42915,3.63764,0.999999,-0.00147918
37.6,3.5563,3.6374,0.999999,-0.00128055
37.7,3.68346,3.63723,1,-0.000878303
37.8,3.81062,3.6371,1,-0.000679928
37.9,3.93779,3.63705,1,-0.000274602
38,4.06495,3.63704,1,-7.51388e-05
38.1,4.19212,3.63704,1,-5.64874e-06
38.2,4.31928,3.63703,1,-5.64875e-06
38.3,4.44645,3.63703,1,-5.64875e-06
38.4,4.57361,3.63703,1,-5.64875e-06
38.5,4.70078,3.63703,1,-5.64875e-06
38.6,4.82795,3.63703,1,-5.64875e-06
38.7,4.95511,3.63703,1,-5.64875e-06
38.8,-4.91772,3.63703,1,-5.64875e-06
38.9,-4.79056,3.63703,1,-5.64762e-06
39,-4.66339,3.63703,1,-5.64762e-06
39.1,-4.53622,3.63703,1,-5.64762e-06
39.2,-4.40906,3.63703,1,-5.64762e-06
39.3,-4.28189,3.63703,1,-5.64762e-06
39.4,-4.15473,3.63703,1,-5.64762e-06
39.5,-4.02756,3.63703,1,-5.64762e-06
39.6,-3.9004,3.63702,1,-5.64762e-06
39.7,-3.77323,3.63702,1,-5.64762e-06
39.8,-3.64606,3.63702,1,-5.64762e-06
39.9,-3.5189,3.63702,1,-5.64762e-06
40,-3.39173,3.63702,1,-5.64762e-06
40.1,-3.26457,3.63702,1,-5.64762e-06
40.2,-3.1374,3.63702,1,-5.64762e-06
40.3,-3.01024,3.63702,1,-5.64762e-06
40.4,-2.88307,3.63702,1,-5.64762e-06
40.5,-2.7559,3.63702,1,-5.64762e-06
40.6,-2.62874,3.63702,1,-5.64762e-06
40.7,-2.50157,3.63702,1,-5.64762e-06
40.8,-2.37441,3.63702,1,-5.64762e-06
40.9,-2.24724,3.63702,1,-5.64762e-06
41,-2.12007,3.63701,1,-5.64762e-06
41.1,-1.99291,3.63701,1,-5.64762e-06
41.2,-1.86574,3.63701,1,-5.64762e-06
41.3,-1.73858,3.63701,1,-5.64762e-06
41.4,-1.61141,3.63701,1,-5.64762e-06
41.5,-1.48425,3.63701,1,-5.64762e-06
41.6,-1.35708,3.63701,1,-5.64762e-06
41.7,-1.22992,3.63701,1,-5.64762e-06
41.8,-1.10275,3.63701,1,-5.64762e-06
41.9,-0.975584,3.63701,1,-5.64762e-06
42,-0.848418,3.63701,1,-5.64762e-06
42.1,-0.721252,3.63701,1,-5.64762e-06
42.2,-0.594087,3.63701,1,-5.64762e-06
42.3,-0.466921,3.63701,1,-5.64762e-06
42.4,-0.339755,3.637,1,-5.64762e-06
42.5,-0.21259,3.637,1,-5.64762e-06
42.6,-0.0854239,3.637,1,-5.64762e-06
42.7,0.0417418,3.637,1,-5.64762e-06
42.8,0.168907,3.637,1,-5.64762e-06
42.9,0.296073,3.637,1,-5.64762e-06
43,0.423239,3.637,1,-5.64762e-06
43.1,0.550404,3.637,1,-5.64762e-06
43.2,0.67757,3.637,1,-5.64762e-06
43.3,0.804736,3.637,1,-5.64762e-06
43.4,0.931902,3.637,1,-5.64762e-06
43.5,1.05907,3.637,1,-5.64762e-06
43.6,1.18623,3.637,1,-5.64762e-06
43.7,1.3134,3.637,1,-5.64762e-06
43.8,1.44056,3.63699,1,-5.64762e-06
43.9,1.56773,3.63699,1,-5.64762e-06
44,1.6949,3.63699,1,-5.64762e-06
44.1,1.82206,3.63699,1,-5.64762e-06
44.2,1.94923,3.63699,1,-5.64762e-06
44.3,2.07639,3.63699,1,-5.64762e-06
44.4,2.20356,3.63699,1,-5.64762e-06
44.5,2.33072,3.63699,1,-5.64762e-06
44.6,2.45789,3.63699,1,-5.64762e-06
44.7,2.58506,3.63699,1,-5.64762e-06
44.8,2.71222,3.63699,1,-5.64762e-06
44.9,2.83939,3.63699,1,-5.64762e-06
45,2.96655,3.63699,1,-5.64762e-06
45.1,3.09372,3.63699,1,-5.64762e-06
45.2,3.22088,3.63698,1,-5.64762e-06
45.3,3.34805,3.63698,1,-5.64762e-06
45.4,3.47522,3.63698,1,-5.64762e-06
45.5,3.60238,3.63698,1,-5.64762e-06
45.6,3.72955,3.63698,1,-5.64762e-06
45.7,3.85671,3.63698,1,-5.64762e-06
45.8,3.98388,3.63698,1,-5.64762e-06
45.9,4.11105,3.63698,1,-5.64762e-06
46,4.23821,3.63698,1,-5.64762e-06
46.1,4.36526,3.63692,1,-0.000290251
46.2,4.49214,3.63678,1,-0.0007616
46.3,4.6188,3.63652,0.999999,-0.0013381
46.4,4.74525,3.63615,0.999998,-0.00197624
46.5,4.87147,3.63565,0.999996,-0.00265478
46.6,4.99748,3.63501,0.999994,-0.00336223
46.7,-4.87671,3.63423,0.999992,-0.00409337
46.8,-4.7511,3.63332,0.999988,-0.00484557
46.9,-4.62569,3.63226,0.999984,-0.00561745
47,-4.50044,3.63105,0.999979,-0.00640891
47.1,-4.37537,3.62968,0.999974,-0.00721946
47.2,-4.25045,3.62817,0.999968,-0.00804928
47.3,-4.12568,3.62649,0.99996,-0.00889818
47.4,-4.00103,3.62465,0.999952,-0.00976561
47.5,-3.87651,3.62265,0.999943,-0.0106513
47.6,-3.75209,3.62048,0.999933,-0.0115542
47.7,-3.62776,3.61813,0.999922,-0.0124728
47.8,-3.5035,3.61562,0.99991,-0.0134062
47.9,-3.37931,3.61292,0.999897,-0.0143517
48,-3.25516,3.61005,0.999883,-0.0153069
48.1,-3.13104,3.60699,0.999868,-0.0162677
48.2,-3.00693,3.60376,0.999852,-0.0172314
48.3,-2.88281,3.60035,0.999835,-0.0181923
48.4,-2.75867,3.59675,0.999817,-0.0191453
48.5,-2.63448,3.59298,0.999798,-0.0200845
48.6,-2.51024,3.58903,0.999779,-0.0210028
48.7,-2.38591,3.58492,0.99976,-0.0218926
48.8,-2.26148,3.58064,0.999741,-0.0227455
48.9,-2.13694,3.57621,0.999723,-0.0235524
49,-2.01226,3.57163,0.999705,-0.0243039
49.1,-1.88742,3.56692,0.999688,-0.0249908
49.2,-1.76241,3.56209,0.999672,-0.0256031
49.3,-1.63722,3.55716,0.999658,-0.0261326
49.4,-1.51182,3.55214,0.999647,-0.0265693
49.5,-1.38636,3.54708,0.999643,-0.0267227
49.6,-1.2609,3.54203,0.999642,-0.0267367
49.7,-1.13543,3.53697,0.999642,-0.0267399
49.8,-1.00997,3.53191,0.999642,-0.0267384
49.9,-0.884512,3.52685,0.999642,-0.0267706
50,-0.759049,3.5218,0.999642,-0.0267377
50.1,-0.633603,3.51669,0.999636,-0.026995
50.2,-0.508156,3.51159,0.999636,-0.0269746
50.3,-0.382746,3.50639,0.999621,-0.0275227
50.4,-0.25736,3.50112,0.999611,-0.0278833
50.5,-0.13201,3.49575,0.999596,-0.0284105
50.6,-0.00669,3.49029,0.999583,-0.0288618
50.7,0.118604,3.48477,0.999573,-0.0292363
50.8,0.243882,3.4792,0.999565,-0.0294827
50.9,0.369149,3.4736,0.999561,-0.0296298
51,0.49441,3.46798,0.999558,-0.0297305
51.1,0.619665,3.46235,0.999555,-0.029814
51.2,0.744915,3.45671,0.999553,-0.0298822
51.3,0.870162,3.45105,0.999552,-0.0299333
51.4,0.995406,3.44539,0.999551,-0.029971
51.5,1.12065,3.43972,0.99955,-0.0300033
51.6,1.24589,3.43405,0.999549,-0.0300352
51.7,1.37112,3.42837,0.999548,-0.0300684
51.8,1.49636,3.42268,0.999547,-0.0301012
51.9,1.62159,3.41699,0.999546,-0.0301355
52,1.74682,3.41129,0.999545,-0.0301715
52.1,1.87205,3.40558,0.999544,-0.0302099
52.2,1.99727,3.39987,0.999542,-0.0302508
52.3,2.12249,3.39415,0.999541,-0.0302944
52.4,2.24771,3.38842,0.99954,-0.0303407
52.5,2.37293,3.38268,0.999538,-0.0303896
52.6,2.49814,3.37693,0.999537,-0.0304422
52.7,2.62334,3.37117,0.999535,-0.0304943
52.8,2.74855,3.3654,0.999534,-0.0305411
52.9,2.87375,3.35962,0.999532,-0.0305821
53,2.99894,3.35384,0.999531,-0.0306191
53.1,3.12414,3.34805,0.99953,-0.0306544
53.2,3.24933,3.34225,0.999529,-0.030689
53.3,3.37452,3.33645,0.999528,-0.0307241
53.4,3.4997,3.33064,0.999527,-0.0307603
53.5,3.62489,3.32483,0.999526,-0.0307987
53.6,3.75006,3.319,0.999524,-0.0308423
53.7,3.87524,3.31317,0.999523,-0.0308923
53.8,4.00041,3.30732,0.999521,-0.0309511
53.9,4.12557,3.30146,0.999519,-0.0310226
54,4.25072,3.29559,0.999516,-0.0311133
54.1,4.37585,3.28969,0.999512,-0.0312392
54.2,4.50095,3.28375,0.999505,-0.031472
54.3,4.6281,3.28371,1,-0.000187351
54.4,4.75413,3.28008,0.999816,-0.0191671
54.5,4.88055,3.2775,0.999908,-0.0135462
54.6,-4.9933,3.27356,0.999784,-0.0207642
54.7,-4.86676,3.27086,0.999899,-0.014207
54.8,-4.74026,3.26755,0.999849,-0.0174049
54.9,-4.61352,3.26516,0.999921,-0.0125927
55,-4.48667,3.26303,0.999938,-0.0111481
55.1,-4.35989,3.25978,0.999854,-0.0170998
55.2,-4.23286,3.25836,0.999972,-0.00743253
55.3,-4.10583,3.25625,0.999939,-0.0110604
55.4,-3.97869,3.25565,0.999995,-0.00318016
55.5,-3.85154,3.25425,0.999973,-0.00730563
55.6,-3.72437,3.25425,1,2.01047e-06
55.7,-3.59719,3.25398,0.999999,-0.00144274
55.8,-3.47003,3.25398,1,2.01622e-06
55.9,-3.34286,3.25398,1,2.01623e-06
56,-3.2157,3.25398,1,2.01623e-06
56.1,-3.08853,3.25398,1,2.01623e-06
56.2,-2.96136,3.25398,1,2.01623e-06
56.3,-2.8342,3.25398,1,2.01623e-06
56.4,-2.70703,3.25398,1,2.01623e-06
56.5,-2.57987,3.25398,1,2.01623e-06
56.6,-2.4527,3.25398,1,2.01623e-06
56.7,-2.32554,3.25398,1,2.01623e-06
56.8,-2.19837,3.25398,1,2.01623e-06
56.9,-2.0712,3.25398,1,2.01623e-06
57,-1.94404,3.25398,1,2.01623e-06
57.1,-1.81687,3.25398,1,2.01623e-06
57.2,-1.68971,3.25398,1,2.01623e-06
57.3,-1.56254,3.25398,1,2.01623e-06
57.4,-1.43538,3.25398,1,2.01623e-06
57.5,-1.30821,3.25398,1,2.01623e-06
57.6,-1.18104,3.25398,1,2.01623e-06
57.7,-1.05388,3.25398,1,2.01623e-06
57.8,-0.926713,3.25398,1,2.01623e-06
57.9,-0.799547,3.25398,1,2.01624e-06
58,-0.672382,3.25398,1,2.01624e-06
58.1,-0.545216,3.25398,1,2.01624e-06
58.2,-0.41805,3.25398,1,2.01624e-06
58.3,-0.290884,3.25398,1,2.01624e-06
58.4,-0.163719,3.25398,1,2.01624e-06
58.5,-0.0365531,3.25398,1,2.01624e-06
58.6,0.0906126,3.25398,1,2.01624e-06
58.7,0.217778,3.25398,1,2.01624e-06
58.8,0.344944,3.25398,1,2.01624e-06
58.9,0.47211,3.25398,1,2.01624e-06
59,0.599275,3.25398,1,2.01624e-06
59.1,0.726441,3.25398,1,2.01624e-06
59.2,0.853607,3.25399,1,2.01624e-06
59.3,0.980772,3.25399,1,2.01624e-06
59.4,1.10794,3.25399,1,2.01624e-06
59.5,1.2351,3.25399,1,2.01624e-06
59.6,1.36227,3.25399,1,2.01624e-06
59.7,1.48944,3.25399,1,2.01624e-06
59.8,1.6166,3.25399,1,2.01624e-06
59.9,1.74377,3.25399,1,2.01624e-06
60,1.87093,3.25399,1,2.01624e-06
60.1,1.9981,3.25399,1,2.01624e-06
60.2,2.12526,3.25399,1,2.01624e-06
60.3,2.25243,3.25399,1,2.01624e-06
60.4,2.3796,3.25399,1,2.01624e-06
60.5,2.50676,3.25399,1,2.01624e-06
60.6,2.63393,3.25399,1,2.01625e-06
60.7,2.76109,3.25399,1,2.01625e-06
60.8,2.88826,3.25399,1,2.01625e-06
60.9,3.01542,3.25399,1,2.01625e-06
61,3.14259,3.25399,1,2.01625e-06
61.1,3.26976,3.25399,1,2.01625e-06
61.2,3.39692,3.25399,1,2.01625e-06
61.3,3.52409,3.25399,1,2.01625e-06
61.4,3.65125,3.25399,1,2.01625e-06
61.5,3.77842,3.25399,1,2.01625e-06
61.6,3.90558,3.25399,1,2.01625e-06
61.7,4.03275,3.25399,1,2.01625e-06
61.8,4.1599,3.25399,1,5.2418e-06
61.9,4.2869,3.254,1,2.90425e-05
62,4.41376,3.25401,1,5.3708e-05
62.1,4.54048,3.25402,1,7.93032e-05
62.2,4.66707,3.25404,1,0.000105904
62.3,4.79353,3.25407,1,0.000133583
62.4,4.91986,3.2541,1,0.000162419
62.5,-4.95394,3.25414,1,0.000192506
62.6,-4.82786,3.25418,1,0.000223936
62.7,-4.7019,3.25423,1,0.000256815
62.8,-4.57607,3.25428,1,0.000291253
62.9,-4.45035,3.25434,1,0.000327367
63,-4.32474,3.25441,1,0.000365288
63.1,-4.19925,3.25449,1,0.000405161
63.2,-4.07387,3.25457,1,0.000447142
63.3,-3.94859,3.25467,1,0.0004914
63.4,-3.82342,3.25477,1,0.000538113
63.5,-3.69835,3.25488,1,0.000587478
63.6,-3.57339,3.255,1,0.000639714
63.7,-3.44852,3.25513,1,0.00069505
63.8,-3.32375,3.25527,1,0.000753758
63.9,-3.19908,3.25542,1,0.000816114
64,-3.07449,3.25559,1,0.000882422
64.1,-2.95,3.25577,1,0.000953022
64.2,-2.8256,3.25596,0.999999,0.00102828
64.3,-2.70129,3.25617,0.999999,0.0011086
64.4,-2.57706,3.25639,0.999999,0.00119443
64.5,-2.45291,3.25664,0.999999,0.00128626
64.6,-2.32884,3.2569,0.999999,0.00138462
64.7,-2.20486,3.25717,0.999999,0.00149011
64.8,-2.08095,3.25748,0.999999,0.00160337
64.9,-1.95712,3.2578,0.999998,0.00172512
65,-1.83336,3.25815,0.999998,0.00185616
65.1,-1.70967,3.25852,0.999998,0.00199735
65.2,-1.58606,3.25892,0.999998,0.00214962
65.3,-1.46251,3.25936,0.999997,0.00231407
65.4,-1.33903,3.25982,0.999997,0.00249182
65.5,-1.21561,3.26032,0.999996,0.0026842
65.6,-1.09225,3.26086,0.999996,0.0028926
65.7,-0.968956,3.26145,0.999995,0.00311857
65.8,-0.845716,3.26207,0.999994,0.00336383
65.9,-0.722531,3.26275,0.999993,0.00363024
66,-0.599397,3.26348,0.999992,0.00391986
66.1,-0.476312,3.26427,0.999991,0.00423494
66.2,-0.353273,3.26513,0.99999,0.00457792
66.3,-0.230275,3.26605,0.999988,0.00495147
66.4,-0.107315,3.26705,0.999986,0.00535844
66.5,0.0156116,3.26813,0.999983,0.00580181
66.6,0.138511,3.26931,0.99998,0.00628485
66.7,0.261388,3.27058,0.999977,0.00681083
66.8,0.38425,3.27195,0.999973,0.00738316
66.9,0.507104,3.27344,0.999968,0.00800516
67,0.629961,3.27506,0.999962,0.00868006
67.1,0.752831,3.27682,0.999956,0.00941056
67.2,0.875725,3.27872,0.999948,0.0101988
67.3,0.998658,3.28078,0.999939,0.0110459
67.4,1.12165,3.28301,0.999929,0.0119514
67.5,1.24471,3.28542,0.999917,0.012913
67.6,1.36787,3.28802,0.999903,0.0139254
67.7,1.49115,3.29082,0.999888,0.01498
67.8,1.61459,3.29382,0.999871,0.0160639
67.9,1.7382,3.29704,0.999853,0.017159
68,1.86202,3.30046,0.999834,0.0182418
68.1,1.98601,3.30401,0.99982,0.0189538
68.2,2.11,3.30757,0.99982,0.0189538
68.3,2.23399,3.31112,0.99982,0.0189538
68.4,2.35797,3.31468,0.99982,0.0189537
68.5,2.48196,3.31823,0.99982,0.0189537
68.6,2.60595,3.32179,0.99982,0.0189536
68.7,2.72994,3.32535,0.99982,0.0189536
68.8,2.85393,3.3289,0.99982,0.0189535
68.9,2.97792,3.33246,0.99982,0.0189535
69,3.10191,3.33601,0.99982,0.0189534
69.1,3.22589,3.33957,0.99982,0.0189534
69.2,3.34988,3.34313,0.99982,0.0189533
69.3,3.47387,3.34668,0.99982,0.0189533
69.4,3.59786,3.35024,0.99982,0.0189532
69.5,3.72185,3.35379,0.99982,0.0189532
69.6,3.84584,3.35735,0.99982,0.0189531
69.7,3.96982,3.3609,0.99982,0.018953
69.8,4.09381,3.36446,0.99982,0.018953
69.9,4.2178,3.36802,0.99982,0.018953
70,4.34179,3.37157,0.99982,0.0189529
70.1,4.46578,3.37513,0.99982,0.0189529
70.2,4.58977,3.37868,0.99982,0.0189528
70.3,4.71376,3.38224,0.99982,0.0189528
70.4,4.83774,3.38579,0.99982,0.0189527
70.5,4.96177,3.38938,0.999817,0.0191277
70.6,-4.91414,3.39303,0.999811,0.0194197
70.7,-4.78999,3.39673,0.999806,0.0196975
70.8,-4.66579,3.40048,0.999801,0.0199612
70.9,-4.54153,3.40427,0.999796,0.0202111
71,-4.41722,3.40812,0.999791,0.0204474
71.1,-4.29286,3.412,0.999786,0.0206702
71.2,-4.16846,3.41593,0.999782,0.0208796
71.3,-4.04401,3.41989,0.999778,0.0210797
71.4,-3.91952,3.4239,0.999774,0.0212728
71.5,-3.795,3.42793,0.99977,0.0214593
71.6,-3.67043,3.43201,0.999766,0.0216393
71.7,-3.5458,3.43609,0.999764,0.0217082
71.8,-3.42107,3.44015,0.999768,0.0215403
71.9,-3.29619,3.44414,0.999776,0.0211614
72,-3.17113,3.44803,0.999787,0.0206283
72.1,-3.04587,3.45181,0.9998,0.019989
72.2,-2.92041,3.45545,0.999814,0.019278
72.3,-2.79473,3.45896,0.999829,0.0185182
72.4,-2.66885,3.46232,0.999843,0.0177251
72.5,-2.54275,3.46552,0.999857,0.0169096
72.6,-2.41643,3.46858,0.999871,0.0160796
72.7,-2.28991,3.47148,0.999884,0.0152421
72.8,-2.16319,3.47422,0.999896,0.0144021
72.9,-2.03627,3.4768,0.999908,0.0135634
73,-1.90915,3.47923,0.999919,0.0127278
73.1,-1.78185,3.4815,0.999929,0.0118937
73.2,-1.65436,3.48361,0.999939,0.0110547
73.3,-1.52668,3.48556,0.999948,0.0102002
73.4,-1.39882,3.48735,0.999957,0.00931815
73.5,-1.27078,3.48896,0.999965,0.00840688
73.6,-1.14253,3.49036,0.999973,0.00729733
73.7,-1.01402,3.49146,0.999984,0.00571286
73.8,-0.885363,3.4924,0.999988,0.00490704
73.9,-0.756649,3.49335,0.999988,0.004938
74,-0.627898,3.49433,0.999987,0.00509379
74.1,-0.499112,3.49534,0.999986,0.00526758
74.2,-0.370294,3.49639,0.999985,0.0054439
74.3,-0.241445,3.49747,0.999984,0.00562039
74.4,-0.112566,3.49859,0.999983,0.00579664
74.5,0.0163411,3.49974,0.999982,0.00597262
74.6,0.145275,3.50092,0.999981,0.00614828
74.7,0.274235,3.50214,0.99998,0.00632362
74.8,0.403219,3.50339,0.999979,0.00649861
74.9,0.532226,3.50468,0.999978,0.00667325
75,0.661255,3.506,0.999977,0.00684754
75.1,0.790304,3.50735,0.999975,0.00702141
75.2,0.919373,3.50874,0.999974,0.00719489
75.3,1.04846,3.51016,0.999973,0.00736795
75.4,1.17756,3.51161,0.999972,0.0075405
75.5,1.30668,3.5131,0.99997,0.00771262
75.6,1.43581,3.51462,0.999969,0.00788421
75.7,1.56496,3.51617,0.999968,0.00805525
75.8,1.69411,3.51775,0.999966,0.0082257
75.9,1.82328,3.51937,0.999965,0.00839558
76,1.95245,3.52102,0.999963,0.0085648
76.1,2.08164,3.52271,0.999962,0.00873332
76.2,2.21083,3.52442,0.99996,0.00890113
76.3,2.34002,3.52617,0.999959,0.00906817
76.4,2.46922,3.52795,0.999957,0.0092344
76.5,2.59843,3.52976,0.999956,0.00939978
76.6,2.72763,3.53161,0.999954,0.00956426
76.7,2.85684,3.53348,0.999953,0.00972779
76.8,2.98604,3.53539,0.999951,0.00989028
76.9,3.11525,3.53733,0.99995,0.0100517
77,3.24445,3.5393,0.999948,0.010212
77.1,3.37365,3.5413,0.999946,0.0103712
77.2,3.50284,3.54333,0.999945,0.0105291
77.3,3.63202,3.54539,0.999943,0.0106857
77.4,3.7612,3.54748,0.999941,0.0108409
77.5,3.89038,3.5496,0.99994,0.0109946
77.6,4.01954,3.55175,0.999938,0.0111469
77.7,4.14869,3.55392,0.999936,0.0112976
77.8,4.27783,3.55613,0.999934,0.0114466
77.9,4.40696,3.55837,0.999933,0.0115939
78,4.53607,3.56063,0.999931,0.0117394
78.1,4.66517,3.56292,0.999929,0.011883
78.2,4.79425,3.56524,0.999928,0.0120247
78.3,4.92332,3.56758,0.999926,0.0121642
78.4,-4.94764,3.56995,0.999924,0.0123016
78.5,-4.81861,3.57235,0.999923,0.0124368
78.6,-4.6896,3.57477,0.999921,0.0125696
78.7,-4.56062,3.57722,0.999919,0.0127315
78.8,-4.43184,3.57978,0.999911,0.0133329
78.9,-4.30316,3.58241,0.999907,0.0136279
79,-4.1745,3.58503,0.999907,0.0136692
79.1,-4.04584,3.58766,0.999907,0.0136692
79.2,-3.91718,3.59029,0.999907,0.0136692
79.3,-3.78851,3.59292,0.999907,0.0136691
79.4,-3.65985,3.59555,0.999907,0.0136691
79.5,-3.53119,3.59818,0.999907,0.0136691
79.6,-3.40253,3.6008,0.999907,0.013669
79.7,-3.27387,3.60343,0.999907,0.013669
79.8,-3.14521,3.60606,0.999907,0.013669
79.9,-3.01655,3.60869,0.999907,0.0136689
80,-2.88797,3.61136,0.999903,0.0139173
