0.1,-14.17,5.09761,0.746329,-0.665577
0.2,-4.0244,4.90077,0.714009,-0.700137
0.3,-3.92646,4.77425,0.770779,-0.637103
0.4,-3.85493,4.69019,0.833155,-0.55304
0.5,-3.79504,4.62252,0.861849,-0.507166
0.6,-3.74393,4.56785,0.889132,-0.457651
0.7,-3.70194,4.52653,0.920124,-0.391627
0.8,-3.6669,4.49954,0.957942,-0.286963
0.9,-3.63698,4.48195,0.979231,-0.202746
1,-3.60696,4.46572,0.982269,-0.187476
1.1,-3.57238,4.44464,0.973447,-0.228912
1.2,-3.52818,4.4184,0.966766,-0.255661
1.3,-3.47416,4.39502,0.977777,-0.209646
1.4,-3.40857,4.38302,0.995077,-0.0991068
1.5,-3.32466,4.37281,0.997305,-0.0733717
1.6,-3.22529,4.3606,0.99688,-0.0789322
1.7,-3.11917,4.35565,0.999524,-0.0308336
1.8,-3.00926,4.3549,0.999989,-0.00470604
1.9,-2.89886,4.35457,0.999998,-0.00219522
2,-2.78856,4.35452,1,-0.000481782
2.1,-2.67825,4.35446,1,-0.000481782
2.2,-2.56794,4.35441,1,-0.000481782
2.3,-2.45763,4.35436,1,-0.000481782
2.4,-2.34733,4.3543,1,-0.000481782
2.5,-2.23702,4.35425,1,-0.000481782
2.6,-2.12671,4.3542,1,-0.000481782
2.7,-2.0164,4.35414,1,-0.000481782
2.8,-1.90609,4.35409,1,-0.000481782
2.9,-1.79579,4.35404,1,-0.000481782
3,-1.68548,4.35399,1,-0.000481782
3.1,-1.57517,4.35393,1,-0.000481782
3.2,-1.46486,4.35388,1,-0.000481782
3.3,-1.35456,4.35383,1,-0.000481782
3.4,-1.24425,4.35377,1,-0.000481782
3.5,-1.13394,4.35372,1,-0.000481782
3.6,-1.02363,4.35367,1,-0.000481782
3.7,-0.913324,4.35362,1,-0.000481782
3.8,-0.803016,4.35356,1,-0.000481782
3.9,-0.692708,4.35351,1,-0.000481782
4,-0.5824,4.35346,1,-0.000481782
4.1,-0.472093,4.3534,1,-0.000481782
4.2,-0.361785,4.35335,1,-0.000481782
4.3,-0.251477,4.3533,1,-0.000481782
4.4,-0.141169,4.35324,1,-0.000481782
4.5,-0.0308614,4.35319,1,-0.000481782
4.6,0.0794464,4.35314,1,-0.000481782
4.7,0.189754,4.35309,1,-0.000481782
4.8,0.300062,4.35303,1,-0.000481782
4.9,0.41037,4.35298,1,-0.000481782
5,0.520678,4.35293,1,-0.000481782
5.1,0.630985,4.35287,1,-0.000481782
5.2,0.741293,4.35282,1,-0.000481782
5.3,0.851601,4.35277,1,-0.000481782
5.4,0.961909,4.35272,1,-0.000481782
5.5,1.07222,4.35266,1,-0.000481782
5.6,1.18252,4.35261,1,-0.000481782
5.7,1.29283,4.35256,1,-0.000481782
5.8,1.40314,4.3525,1,-0.000481782
5.9,1.51345,4.35245,1,-0.000481782
6,1.62376,4.3524,1,-0.000481782
6.1,1.73406,4.35234,1,-0.000481782
6.2,1.84437,4.35229,1,-0.000481782
6.3,1.95468,4.35224,1,-0.000481782
6.4,2.06499,4.35219,1,-0.000481782
6.5,2.17529,4.35213,1,-0.000481782
6.6,2.2856,4.35208,1,-0.000481782
6.7,2.39591,4.35203,1,-0.000481782
6.8,2.50622,4.35197,1,-0.000481782
6.9,2.61653,4.35192,1,-0.000481782
7,2.72683,4.35187,1,-0.000481782
7.1,2.83714,4.35182,1,-0.000481782
7.2,2.94745,4.35176,1,-0.000481782
7.3,3.05776,4.35171,1,-0.000481782
7.4,3.16806,4.35166,1,-0.000481782
7.5,3.27837,4.3516,1,-0.000481782
7.6,3.38868,4.35155,1,-0.000481782
7.7,3.49899,4.3515,1,-0.000481782
7.8,3.60929,4.35145,1,-0.000481782
7.9,3.7196,4.35139,1,-0.000481782
8,3.82991,4.35134,1,-0.000481782
8.1,3.94022,4.35129,1,-0.000481782
8.2,4.05053,4.35123,1,-0.000481782
8.3,4.16083,4.35118,1,-0.000481782
8.4,4.27114,4.35113,1,-0.000481782
8.5,4.38145,4.35107,1,-0.000481782
8.6,4.49176,4.35102,1,-0.000481782
8.7,4.60206,4.35097,1,-0.000481782
8.8,4.71237,4.35092,1,-0.000481782
8.9,4.82268,4.35086,1,-0.000481782
9,4.93299,4.35081,1,-0.000481782
9.1,-4.95671,4.35076,1,-0.000481782
9.2,-4.8464,4.3507,1,-0.000481686
9.3,-4.73609,4.35065,1,-0.000481686
9.4,-4.62578,4.3506,1,-0.000481686
9.5,-4.51547,4.35055,1,-0.000481686
9.6,-4.40517,4.35049,1,-0.000481686
9.7,-4.29486,4.35044,1,-0.000481686
9.8,-4.18455,4.35039,1,-0.000481686
9.9,-4.07424,4.35033,1,-0.000481686
10,-3.96394,4.35028,1,-0.000481686
10.1,-3.85363,4.35023,1,-0.000481686
10.2,-3.74332,4.35017,1,-0.000481686
10.3,-3.63301,4.35012,1,-0.000481686
10.4,-3.52271,4.35007,1,-0.000481686
10.5,-3.4124,4.35002,1,-0.000481686
10.6,-3.30209,4.34996,1,-0.000481686
10.7,-3.19178,4.34991,1,-0.000481686
10.8,-3.08147,4.34986,1,-0.000481686
10.9,-2.97117,4.3498,1,-0.000481686
11,-2.86086,4.34975,1,-0.000481686
11.1,-2.75055,4.3497,1,-0.000481686
11.2,-2.64024,4.34965,1,-0.000481686
11.3,-2.52994,4.34959,1,-0.000481686
11.4,-2.41963,4.34954,1,-0.000481686
11.5,-2.30932,4.34949,1,-0.000481686
11.6,-2.19901,4.34943,1,-0.000481686
11.7,-2.08871,4.34938,1,-0.000481686
11.8,-1.9784,4.34933,1,-0.000481686
11.9,-1.86809,4.34928,1,-0.000481686
12,-1.75778,4.34922,1,-0.000481686
12.1,-1.64747,4.34917,1,-0.000481686
12.2,-1.53717,4.34912,1,-0.000481686
12.3,-1.42686,4.34906,1,-0.000481686
12.4,-1.31655,4.34901,1,-0.000481686
12.5,-1.20624,4.34896,1,-0.000481686
12.6,-1.09593,4.3489,1,-0.000481686
12.7,-0.985627,4.34885,1,-0.000481686
12.8,-0.875319,4.3488,1,-0.000481686
12.9,-0.765011,4.34875,1,-0.000481686
13,-0.654703,4.34869,1,-0.000481686
13.1,-0.544396,4.34864,1,-0.000481686
13.2,-0.434088,4.34859,1,-0.000481686
13.3,-0.32378,4.34853,1,-0.000481686
13.4,-0.213472,4.34848,1,-0.000481686
13.5,-0.103164,4.34843,1,-0.000481686
13.6,0.00714332,4.34838,1,-0.000481686
13.7,0.117451,4.34832,1,-0.000481686
13.8,0.227759,4.34827,1,-0.000481686
13.9,0.338067,4.34822,1,-0.000481686
14,0.448375,4.34816,1,-0.000481686
14.1,0.558682,4.34811,1,-0.000481686
14.2,0.66899,4.34806,1,-0.000481686
14.3,0.779298,4.348,1,-0.000481686
14.4,0.889606,4.34795,1,-0.000481686
14.5,0.999914,4.3479,1,-0.000481686
14.6,1.11022,4.34785,1,-0.000481686
14.7,1.22053,4.34779,1,-0.000481686
14.8,1.33084,4.34774,1,-0.000481686
14.9,1.44114,4.34769,1,-0.000481686
15,1.55145,4.34763,1,-0.000481686
15.1,1.66176,4.34758,1,-0.000481686
15.2,1.77207,4.34753,1,-0.000481686
15.3,1.88238,4.34748,1,-0.000481686
15.4,1.99268,4.34742,1,-0.000481686
15.5,2.10299,4.34737,1,-0.000481686
15.6,2.2133,4.34732,1,-0.000481686
15.7,2.32361,4.34726,1,-0.000481686
15.8,2.43391,4.34721,1,-0.000481686
15.9,2.54422,4.34716,1,-0.000481686
16,2.65453,4.34711,1,-0.000481686
16.1,2.76484,4.34705,1,-0.000481686
16.2,2.87515,4.347,1,-0.000481686
16.3,2.98545,4.34695,1,-0.000481686
16.4,3.09576,4.34689,1,-0.000481686
16.5,3.20607,4.34684,1,-0.000481686
16.6,3.31638,4.34679,1,-0.000481686
16.7,3.42668,4.34673,1,-0.000481686
16.8,3.53699,4.34668,1,-0.000481686
16.9,3.6473,4.34663,1,-0.000481686
17,3.75761,4.34658,1,-0.000481686
17.1,3.86791,4.34652,1,-0.000481686
17.2,3.97822,4.34647,1,-0.000481686
17.3,4.08853,4.34642,1,-0.000481686
17.4,4.19884,4.34636,1,-0.000481686
17.5,4.30915,4.34631,1,-0.000481686
17.6,4.41945,4.34626,1,-0.000481686
17.7,4.52976,4.34621,1,-0.000481686
17.8,4.64007,4.34615,1,-0.000481686
17.9,4.75038,4.3461,1,-0.000481686
18,4.86068,4.34605,1,-0.000481686
18.1,4.97099,4.34599,1,-0.000481686
18.2,-4.9187,4.34594,1,-0.000481686
18.3,-4.80839,4.34589,1,-0.00048159
18.4,-4.69809,4.34583,1,-0.00048159
18.5,-4.58778,4.34578,1,-0.00048159
18.6,-4.47747,4.34573,1,-0.00048159
18.7,-4.36716,4.34568,1,-0.00048159
18.8,-4.25685,4.34562,1,-0.00048159
18.9,-4.14655,4.34557,1,-0.00048159
19,-4.03624,4.34552,1,-0.00048159
19.1,-3.92593,4.34546,1,-0.00048159
19.2,-3.81562,4.34541,1,-0.00048159
19.3,-3.70532,4.34536,1,-0.00048159
19.4,-3.59501,4.34531,1,-0.00048159
19.5,-3.4847,4.34525,1,-0.00048159
19.6,-3.37439,4.3452,1,-0.00048159
19.7,-3.26409,4.34515,1,-0.00048159
19.8,-3.15378,4.34509,1,-0.00048159
19.9,-3.04347,4.34504,1,-0.00048159
20,-2.93316,4.34499,1,-0.00048159
20.1,-2.82285,4.34493,1,-0.00048159
20.2,-2.71255,4.34488,1,-0.00048159
20.3,-2.60224,4.34483,1,-0.00048159
20.4,-2.49193,4.34478,1,-0.00048159
20.5,-2.38162,4.34472,1,-0.00048159
20.6,-2.27132,4.34467,1,-0.00048159
20.7,-2.16101,4.34462,1,-0.00048159
20.8,-2.0507,4.34456,1,-0.00048159
20.9,-1.94039,4.34451,1,-0.00048159
21,-1.82997,4.34437,0.999999,-0.00100552
21.1,-1.71935,4.34406,0.999998,-0.00202784
21.2,-1.60855,4.34358,0.999995,-0.00308672
21.3,-1.49761,4.34291,0.999991,-0.00417862
21.4,-1.38654,4.34205,0.999986,-0.0052967
21.5,-1.27538,4.34101,0.999979,-0.00643033
21.6,-1.16417,4.33978,0.999971,-0.00756424
21.7,-1.05293,4.33836,0.999962,-0.00867779
21.8,-0.941704,4.33677,0.999952,-0.00974452
21.9,-0.830531,4.33501,0.999942,-0.0107321
22,-0.719446,4.33311,0.999933,-0.0116034
22.1,-0.608396,4.33111,0.999926,-0.0121431
22.2,-0.497318,4.32908,0.999923,-0.012404
22.3,-0.386184,4.32702,0.999922,-0.0125085
22.4,-0.275003,4.32497,0.999922,-0.0125156
22.5,-0.163781,4.32292,0.999922,-0.0124805
22.6,-0.0525183,4.32087,0.999923,-0.0124466
22.7,0.0587827,4.31883,0.999923,-0.0124138
22.8,0.170121,4.3168,0.999923,-0.0123823
22.9,0.281495,4.31477,0.999924,-0.0123518
23,0.392904,4.31274,0.999924,-0.0123225
23.1,0.504347,4.31072,0.999924,-0.0122942
23.2,0.615821,4.3087,0.999925,-0.012267
23.3,0.727327,4.30669,0.999925,-0.0122409
23.4,0.838863,4.30468,0.999925,-0.0122157
23.5,0.950427,4.30267,0.999926,-0.0121915
23.6,1.06202,4.30067,0.999926,-0.0121683
23.7,1.17364,4.29867,0.999926,-0.012146
23.8,1.28528,4.29668,0.999926,-0.0121246
23.9,1.39695,4.29468,0.999927,-0.0121041
24,1.50864,4.29269,0.999927,-0.0120845
24.1,1.62035,4.29071,0.999927,-0.0120657
24.2,1.73209,4.28872,0.999927,-0.0120477
24.3,1.84384,4.28674,0.999928,-0.0120306
24.4,1.95562,4.28476,0.999928,-0.0120143
24.5,2.06741,4.28278,0.999928,-0.0119987
24.6,2.17922,4.28081,0.999928,-0.0119839
24.7,2.29105,4.27884,0.999928,-0.0119698
24.8,2.40289,4.27687,0.999928,-0.0119564
24.9,2.51475,4.2749,0.999929,-0.0119438
25,2.62662,4.27293,0.999929,-0.0119319
25.1,2.73851,4.27097,0.999929,-0.0119206
25.2,2.8504,4.269,0.999929,-0.01191
25.3,2.96229,4.26718,0.999939,-0.0110715
25.4,3.07413,4.26583,0.999966,-0.00825833
25.5,3.18588,4.26494,0.999985,-0.00548684
25.6,3.29756,4.26447,0.999995,-0.00299203
25.7,3.40916,4.26435,1,-0.000861938
25.8,3.52069,4.26453,1,0.000912013
25.9,3.63221,4.26483,0.999999,0.00163004
26,3.74374,4.26513,0.999999,0.00168768
26.1,3.85528,4.26544,0.999999,0.00167388
26.2,3.96684,4.26574,0.999999,0.00165037
26.3,4.07842,4.26604,0.999999,0.00162392
26.4,4.19001,4.26633,0.999999,0.00159536
26.5,4.30162,4.26662,0.999999,0.00156477
26.6,4.41324,4.2669,0.999999,0.00153225
26.7,4.52488,4.26718,0.999999,0.0014977
26.8,4.63652,4.26749,0.999999,0.0017186
26.9,4.74813,4.26789,0.999998,0.00222571
27,4.85973,4.26833,0.999997,0.00251628
27.1,4.97118,4.2688,0.999997,0.00262413
27.2,-4.9175,4.26923,0.999997,0.0024267
27.3,-4.80645,4.26958,0.999998,0.00197866
27.4,-4.69558,4.26985,0.999999,0.00147972
27.5,-4.58484,4.27006,0.999999,0.00110436
27.6,-4.47414,4.27025,1,0.000933003
27.7,-4.36346,4.27042,1,0.000887125
27.8,-4.25278,4.2706,1,0.000905743
27.9,-4.14208,4.27078,1,0.000949208
28,-4.03138,4.27097,0.999999,0.000991985
28.1,-3.92067,4.27117,0.999999,0.0010342
28.2,-3.80994,4.27137,0.999999,0.0010758
28.3,-3.69921,4.27159,0.999999,0.00111686
28.4,-3.58847,4.2718,0.999999,0.00115731
28.5,-3.47772,4.27203,0.999999,0.0011972
28.6,-3.36696,4.27226,0.999999,0.00123653
28.7,-3.25619,4.2725,0.999999,0.00127534
28.8,-3.14541,4.27274,0.999999,0.0013136
28.9,-3.03463,4.27299,0.999999,0.00135135
29,-2.92384,4.27325,0.999999,0.00138859
29.1,-2.81304,4.27351,0.999999,0.00142529
29.2,-2.70223,4.27378,0.999999,0.00146151
29.3,-2.59142,4.27406,0.999999,0.00149722
29.4,-2.4806,4.27434,0.999999,0.00153247
29.5,-2.36977,4.27463,0.999999,0.00156724
29.6,-2.25893,4.27492,0.999999,0.00160154
29.7,-2.14809,4.27522,0.999999,0.00163538
29.8,-2.03725,4.27552,0.999999,0.00166882
29.9,-1.92639,4.27583,0.999999,0.00170174
30,-1.81553,4.27614,0.999999,0.0017343
30.1,-1.70467,4.27646,0.999998,0.00176635
30.2,-1.5938,4.27679,0.999998,0.00179806
30.3,-1.48292,4.27712,0.999998,0.00182927
30.4,-1.37204,4.27745,0.999998,0.00186013
30.5,-1.26115,4.27779,0.999998,0.00189056
30.6,-1.15026,4.27814,0.999998,0.00192064
30.7,-1.03937,4.27849,0.999998,0.00195029
30.8,-0.928466,4.27884,0.999998,0.00197958
30.9,-0.817561,4.2792,0.999998,0.00200852
31,-0.706652,4.27957,0.999998,0.00203703
31.1,-0.595738,4.27994,0.999998,0.00206518
31.2,-0.484821,4.28031,0.999998,0.00209301
31.3,-0.373899,4.28069,0.999998,0.00212046
31.4,-0.262973,4.28108,0.999998,0.00214756
31.5,-0.152044,4.28146,0.999998,0.00217433
31.6,-0.0411116,4.28186,0.999997,0.00220078
31.7,0.0698245,4.28225,0.999997,0.00222692
31.8,0.180764,4.28265,0.999997,0.00225269
31.9,0.291706,4.28306,0.999997,0.00227818
32,0.402652,4.28347,0.999997,0.00230328
32.1,0.513601,4.28388,0.999997,0.00232817
32.2,0.624552,4.2843,0.999997,0.00235265
32.3,0.735506,4.28472,0.999997,0.00237688
32.4,0.846463,4.28514,0.999997,0.00240076
32.5,0.957422,4.28557,0.999997,0.00242442
32.6,1.06838,4.28601,0.999997,0.00244773
32.7,1.17935,4.28644,0.999997,0.0024708
32.8,1.29031,4.28688,0.999997,0.00249356
32.9,1.40128,4.28733,0.999997,0.00251607
33,1.51225,4.28778,0.999997,0.00253826
33.1,1.62322,4.28823,0.999997,0.0025602
33.2,1.7342,4.28868,0.999997,0.0025819
33.3,1.84517,4.28914,0.999997,0.00260335
33.4,1.95615,4.2896,0.999997,0.00262448
33.5,2.06713,4.29007,0.999996,0.00264541
33.6,2.17811,4.29054,0.999996,0.00266603
33.7,2.28909,4.29101,0.999996,0.00268645
33.8,2.40007,4.29149,0.999996,0.00270658
33.9,2.51106,4.29197,0.999996,0.00272648
34,2.62204,4.29245,0.999996,0.00274615
34.1,2.73303,4.29294,0.999996,0.00276557
34.2,2.84402,4.29343,0.999996,0.00278479
34.3,2.955,4.29392,0.999996,0.00280376
34.4,3.06599,4.29441,0.999996,0.00282248
34.5,3.17698,4.29491,0.999996,0.00284102
34.6,3.28797,4.29541,0.999996,0.00285929
34.7,3.39896,4.29592,0.999996,0.00287741
34.8,3.50995,4.29643,0.999996,0.00289521
34.9,3.62095,4.29694,0.999996,0.0029129
35,3.73194,4.29745,0.999996,0.0029303
35.1,3.84293,4.29797,0.999996,0.00294751
35.2,3.95392,4.29849,0.999996,0.00296451
35.3,4.06491,4.29901,0.999996,0.00298134
35.4,4.17591,4.29953,0.999995,0.00299793
35.5,4.2869,4.30006,0.999995,0.00301434
35.6,4.39789,4.30059,0.999995,0.00303059
35.7,4.50888,4.30112,0.999995,0.00304654
35.8,4.61988,4.30166,0.999995,0.00306235
35.9,4.73087,4.3022,0.999995,0.00307798
36,4.84186,4.30274,0.999995,0.0030934
36.1,4.95285,4.30328,0.999995,0.00310864
36.2,-4.93616,4.30382,0.999995,0.00312365
36.3,-4.82517,4.30437,0.999995,0.00313862
36.4,-4.71418,4.30492,0.999995,0.00315326
36.5,-4.60319,4.30548,0.999995,0.00316781
36.6,-4.4922,4.30603,0.999995,0.00318209
36.7,-4.38121,4.30659,0.999995,0.00319625
36.8,-4.27022,4.30715,0.999995,0.00321021
36.9,-4.15924,4.30771,0.999995,0.003224
37,-4.04825,4.30827,0.999995,0.00323762
37.1,-3.93726,4.30884,0.999995,0.00325104
37.2,-3.82628,4.30941,0.999995,0.0032643
37.3,-3.7153,4.30998,0.999995,0.0032774
37.4,-3.60431,4.31055,0.999995,0.00329033
37.5,-3.49333,4.31113,0.999995,0.00330309
37.6,-3.38235,4.31171,0.999995,0.00331567
37.7,-3.27137,4.31229,0.999994,0.00332815
37.8,-3.1604,4.31287,0.999994,0.00334035
37.9,-3.04942,4.31345,0.999994,0.00335249
38,-2.93844,4.31404,0.999994,0.00336441
38.1,-2.82747,4.31462,0.999994,0.00337623
38.2,-2.7165,4.31521,0.999994,0.00338782
38.3,-2.60552,4.3158,0.999994,0.00339926
38.4,-2.49455,4.3164,0.999994,0.00341057
38.5,-2.38359,4.31699,0.999994,0.00342174
38.6,-2.27262,4.31759,0.999994,0.00343273
38.7,-2.16165,4.31819,0.999994,0.00344357
38.8,-2.05069,4.31879,0.999994,0.00345428
38.9,-1.93973,4.31939,0.999994,0.0034648
39,-1.82877,4.31999,0.999994,0.00347522
39.1,-1.71781,4.3206,0.999994,0.00348544
39.2,-1.60685,4.32121,0.999994,0.00349147
39.3,-1.49589,4.32181,0.999994,0.0034915
39.4,-1.38493,4.32242,0.999994,0.00349147
39.5,-1.27397,4.32303,0.999994,0.00349148
39.6,-1.16302,4.32363,0.999994,0.00349147
39.7,-1.05206,4.32424,0.999994,0.00349147
39.8,-0.941099,4.32485,0.999994,0.00349146
39.9,-0.830141,4.32545,0.999994,0.00349145
40,-0.719182,4.32606,0.999994,0.00349147
40.1,-0.608224,4.32667,0.999994,0.00349144
40.2,-0.497266,4.32727,0.999994,0.00349146
40.3,-0.386308,4.32788,0.999994,0.00349142
40.4,-0.275349,4.32849,0.999994,0.00349147
40.5,-0.164391,4.32909,0.999994,0.00349142
40.6,-0.0534327,4.3297,0.999994,0.00349142
40.7,0.0575256,4.3303,0.999994,0.00349141
40.8,0.168484,4.33091,0.999994,0.00349141
40.9,0.279442,4.33152,0.999994,0.0034914
41,0.3904,4.33212,0.999994,0.00349139
41.1,0.501359,4.33273,0.999994,0.00349139
41.2,0.612317,4.33334,0.999994,0.00349138
41.3,0.723275,4.33394,0.999994,0.00349137
41.4,0.834233,4.33455,0.999994,0.0034914
41.5,0.945192,4.33516,0.999994,0.00349135
41.6,1.05615,4.33576,0.999994,0.00349139
41.7,1.16711,4.33637,0.999994,0.00349133
41.8,1.27807,4.33698,0.999994,0.00349137
41.9,1.38902,4.33758,0.999994,0.00349131
42,1.49998,4.33819,0.999994,0.00349131
42.1,1.61094,4.3388,0.999994,0.0034913
42.2,1.7219,4.3394,0.999994,0.00349129
42.3,1.83286,4.34001,0.999994,0.00349128
42.4,1.94382,4.34062,0.999994,0.00349127
42.5,2.05477,4.34122,0.999994,0.00349126
42.6,2.16573,4.34183,0.999994,0.0034913
42.7,2.27669,4.34244,0.999994,0.00349125
42.8,2.38765,4.34304,0.999994,0.00349127
42.9,2.49861,4.34365,0.999994,0.00349122
43,2.60957,4.34425,0.999994,0.00349121
43.1,2.72052,4.34486,0.999994,0.00349121
43.2,2.83148,4.34547,0.999994,0.00349118
43.3,2.94244,4.34607,0.999994,0.00349118
43.4,3.0534,4.34668,0.999994,0.00349117
43.5,3.16436,4.34729,0.999994,0.00349117
43.6,3.27531,4.34789,0.999994,0.00349117
43.7,3.38627,4.3485,0.999994,0.00349119
43.8,3.49723,4.34911,0.999994,0.00349117
43.9,3.60819,4.34971,0.999994,0.00349119
44,3.71915,4.35032,0.999994,0.00349124
44.1,3.83011,4.35093,0.999994,0.00349127
44.2,3.94106,4.35153,0.999994,0.00349355
44.3,4.05201,4.35214,0.999994,0.00349567
44.4,4.16296,4.35275,0.999994,0.0034973
44.5,4.27391,4.35336,0.999994,0.00350029
44.6,4.38486,4.35396,0.999994,0.00350148
44.7,4.4958,4.35457,0.999994,0.00350414
44.8,4.60674,4.35518,0.999994,0.00350571
44.9,4.71768,4.35579,0.999994,0.00350772
45,4.82861,4.3564,0.999994,0.00350966
45.1,4.93954,4.35701,0.999994,0.00351071
45.2,-4.94953,4.35762,0.999994,0.00351347
45.3,-4.83922,4.35757,1,-0.000481165
45.4,-4.72832,4.35815,0.999995,0.00331906
45.5,-4.61758,4.35856,0.999997,0.00236813
45.6,-4.5068,4.35902,0.999997,0.00260621
45.7,-4.39603,4.35947,0.999997,0.00254524
45.8,-4.28526,4.35992,0.999997,0.00256055
45.9,-4.1745,4.36037,0.999997,0.00255452
46,-4.06373,4.36083,0.999997,0.00255524
46.1,-3.95297,4.36128,0.999997,0.00255311
46.2,-3.84221,4.36173,0.999997,0.0025536
46.3,-3.73146,4.36218,0.999997,0.00255122
46.4,-3.6207,4.36263,0.999997,0.00255064
46.5,-3.50995,4.36307,0.999997,0.00254869
46.6,-3.3992,4.36352,0.999997,0.00254754
46.7,-3.28845,4.36397,0.999997,0.00254636
46.8,-3.17771,4.36442,0.999997,0.00254429
46.9,-3.06697,4.36487,0.999997,0.00254321
47,-2.95623,4.36532,0.999997,0.00254107
47.1,-2.84549,4.36577,0.999997,0.00253957
47.2,-2.73475,4.36621,0.999997,0.00253803
47.3,-2.62402,4.36666,0.999997,0.00253577
47.4,-2.51329,4.36711,0.999997,0.00253399
47.5,-2.40256,4.36756,0.999997,0.00253234
47.6,-2.29184,4.368,0.999997,0.00252928
47.7,-2.18111,4.36845,0.999997,0.00252807
47.8,-2.07039,4.36889,0.999997,0.00252578
47.9,-1.95967,4.36934,0.999997,0.00252381
48,-1.84896,4.36978,0.999997,0.00252024
48.1,-1.73824,4.37023,0.999997,0.00251905
48.2,-1.62753,4.37067,0.999997,0.00251591
48.3,-1.51682,4.37111,0.999997,0.0025129
48.4,-1.40612,4.37156,0.999997,0.00251038
48.5,-1.29541,4.372,0.999997,0.00250782
48.6,-1.18471,4.37244,0.999997,0.00250503
48.7,-1.07401,4.37288,0.999997,0.00250239
48.8,-0.963316,4.37332,0.999997,0.00249935
48.9,-0.852621,4.37376,0.999997,0.00249591
49,-0.741929,4.37421,0.999997,0.00249261
49.1,-0.63124,4.37464,0.999997,0.00248874
49.2,-0.520553,4.37508,0.999997,0.00248641
49.3,-0.409868,4.37552,0.999997,0.00248209
49.4,-0.299186,4.37596,0.999997,0.00247933
49.5,-0.188506,4.3764,0.999997,0.00247563
49.6,-0.0778284,4.37683,0.999997,0.00247117
49.7,0.0329247,4.37718,0.999998,0.00193442
49.8,0.143606,4.37763,0.999997,0.00253624
49.9,0.254603,4.3776,1,-0.000330982
50,0.365376,4.37794,0.999998,0.0019051
50.1,0.476423,4.37758,0.999997,-0.00233285
50.2,0.58738,4.37739,0.999999,-0.00130913
50.3,0.69845,4.37686,0.999995,-0.0033267
50.4,0.809493,4.37632,0.999994,-0.00346244
50.5,0.920533,4.37571,0.999993,-0.00381918
50.6,1.03161,4.37507,0.999992,-0.00398589
50.7,1.14271,4.37442,0.999992,-0.00405285
50.8,1.25381,4.37376,0.999991,-0.00416812
50.9,1.36491,4.37307,0.999991,-0.00430981
51,1.47603,4.37236,0.99999,-0.00441659
51.1,1.58716,4.37164,0.99999,-0.00448043
51.2,1.69829,4.37091,0.99999,-0.00453001
51.3,1.80942,4.37018,0.999989,-0.00459046
51.4,1.92056,4.36943,0.999989,-0.00466249
51.5,2.03171,4.36867,0.999989,-0.00473762
51.6,2.14286,4.36789,0.999988,-0.00481136
51.7,2.25402,4.36711,0.999988,-0.00488993
51.8,2.36519,4.36631,0.999988,-0.00497332
51.9,2.47636,4.36549,0.999987,-0.00506407
52,2.58754,4.36466,0.999987,-0.00516089
52.1,2.69873,4.36381,0.999986,-0.00526421
52.2,2.80992,4.36294,0.999986,-0.00537256
52.3,2.92113,4.36206,0.999985,-0.00548795
52.4,3.03235,4.36115,0.999984,-0.00561098
52.5,3.14358,4.36022,0.999984,-0.00572252
52.6,3.25481,4.35928,0.999983,-0.00581197
52.7,3.36606,4.35833,0.999983,-0.00588863
52.8,3.47732,4.35736,0.999982,-0.00596427
52.9,3.58858,4.35638,0.999982,-0.00604356
53,3.69985,4.35539,0.999981,-0.00612487
53.1,3.81114,4.35438,0.999981,-0.00620955
53.2,3.92243,4.35336,0.99998,-0.00629886
53.3,4.03373,4.35232,0.99998,-0.00639704
53.4,4.14505,4.35127,0.999979,-0.00650818
53.5,4.25638,4.35019,0.999978,-0.00663257
53.6,4.36772,4.34909,0.999977,-0.00677622
53.7,4.47908,4.34796,0.999976,-0.00694353
53.8,4.59046,4.3468,0.999975,-0.00713966
53.9,4.70186,4.3456,0.999973,-0.00737275
54,4.81329,4.34435,0.999971,-0.00765312
54.1,4.92476,4.34304,0.999968,-0.00799474
54.2,-4.96374,4.34167,0.999965,-0.00841415
54.3,-4.85218,4.3402,0.99996,-0.00894558
54.4,-4.74055,4.33864,0.999955,-0.00951601
54.5,-4.62754,4.33876,1,0.00057348
54.6,-4.51518,4.33821,0.999994,-0.00346723
54.7,-4.40215,4.33814,1,-0.00056354
54.8,-4.29004,4.33961,0.999963,0.00861355
54.9,-4.17662,4.33389,0.99942,-0.0340526
55,-4.06296,4.33409,0.999999,0.0010373
55.1,-3.95099,4.33308,0.999981,-0.00620807
55.2,-3.83869,4.33453,0.999964,0.00847111
55.3,-3.7277,4.33352,0.999981,-0.00622067
55.4,-3.61587,4.33553,0.99993,0.0118608
55.5,-3.5053,4.33582,0.999999,0.00160366
55.6,-3.39419,4.33686,0.999982,0.00608391
55.7,-3.28364,4.33714,0.999999,0.00153813
55.8,-3.17287,4.33772,0.999995,0.00333106
55.9,-3.06224,4.33811,0.999997,0.00222012
56,-2.95158,4.33855,0.999997,0.00249286
56.1,-2.84092,4.33898,0.999997,0.00241935
56.2,-2.73027,4.33941,0.999997,0.00243264
56.3,-2.61962,4.33984,0.999997,0.00242326
56.4,-2.50898,4.34027,0.999997,0.00242004
56.5,-2.39833,4.34069,0.999997,0.00241459
56.6,-2.28769,4.34112,0.999997,0.00240981
56.7,-2.17705,4.34155,0.999997,0.00240426
56.8,-2.06641,4.34197,0.999997,0.00239921
56.9,-1.95578,4.34239,0.999997,0.00239429
57,-1.84515,4.34282,0.999997,0.00238933
57.1,-1.73452,4.34324,0.999997,0.0023845
57.2,-1.62389,4.34366,0.999997,0.00237796
57.3,-1.51326,4.34408,0.999997,0.00237359
57.4,-1.40264,4.3445,0.999997,0.00236713
57.5,-1.29202,4.34492,0.999997,0.00236099
57.6,-1.18141,4.34533,0.999997,0.00235537
57.7,-1.07079,4.34575,0.999997,0.00234969
57.8,-0.960178,4.34616,0.999997,0.00234358
57.9,-0.849568,4.34658,0.999997,0.00233856
58,-0.73896,4.34699,0.999997,0.00233066
58.1,-0.628355,4.3474,0.999997,0.00232554
58.2,-0.517752,4.34781,0.999997,0.00231885
58.3,-0.407152,4.34822,0.999997,0.00231212
58.4,-0.296554,4.34863,0.999997,0.00230666
58.5,-0.185959,4.34904,0.999997,0.00229868
58.6,-0.0753663,4.34945,0.999997,0.00229255
58.7,0.035224,4.34985,0.999997,0.00228484
58.8,0.145812,4.35026,0.999997,0.002279
58.9,0.256398,4.35066,0.999997,0.00227176
59,0.366981,4.35106,0.999997,0.00226504
59.1,0.477562,4.35146,0.999997,0.00225789
59.2,0.58814,4.35186,0.999997,0.00224973
59.3,0.698722,4.35227,0.999997,0.00230699
59.4,0.809312,4.3527,0.999997,0.00240783
59.5,0.919908,4.35314,0.999997,0.00248003
59.6,1.03051,4.35358,0.999997,0.00253758
59.7,1.14111,4.35404,0.999997,0.00257963
59.8,1.25171,4.3545,0.999997,0.0026088
59.9,1.36231,4.35496,0.999997,0.00261816
60,1.47291,4.35542,0.999997,0.00261501
60.1,1.5835,4.35587,0.999997,0.00259495
60.2,1.69409,4.35632,0.999997,0.00256025
60.3,1.80467,4.35677,0.999997,0.00251061
60.4,1.91525,4.3572,0.999997,0.00244613
60.5,2.02581,4.35762,0.999997,0.00236399
60.6,2.13637,4.35802,0.999997,0.00226686
60.7,2.24691,4.3584,0.999998,0.00214854
60.8,2.35745,4.35878,0.999998,0.00210563
60.9,2.46798,4.35915,0.999998,0.0021054
61,2.57851,4.35953,0.999998,0.00209422
61.1,2.68905,4.3599,0.999998,0.00208537
61.2,2.79957,4.36027,0.999998,0.00207566
61.3,2.9101,4.36064,0.999998,0.0020661
61.4,3.02062,4.361,0.999998,0.00205589
61.5,3.13114,4.36137,0.999998,0.00204741
61.6,3.24166,4.36173,0.999998,0.00203709
61.7,3.35218,4.3621,0.999998,0.00202731
61.8,3.46269,4.36246,0.999998,0.00201768
61.9,3.5732,4.36282,0.999998,0.00200738
62,3.68371,4.36317,0.999998,0.00199804
62.1,3.79422,4.36353,0.999998,0.00198724
62.2,3.90473,4.36388,0.999998,0.00197719
62.3,4.01523,4.36424,0.999998,0.00196607
62.4,4.12573,4.36459,0.999998,0.0019559
62.5,4.23623,4.36494,0.999998,0.00194629
62.6,4.34672,4.36528,0.999998,0.00193541
62.7,4.45722,4.36563,0.999998,0.00192448
62.8,4.56771,4.36597,0.999998,0.0019141
62.9,4.67823,4.36632,0.999998,0.00194533
63,4.78885,4.36668,0.999998,0.00198105
63.1,4.89957,4.36703,0.999998,0.0019438
63.2,-4.9896,4.36737,0.999998,0.00188674
63.3,-4.87866,4.3677,0.999998,0.00182758
63.4,-4.76761,4.36802,0.999999,0.00177199
63.5,-4.65644,4.36833,0.999999,0.00170214
63.6,-4.54518,4.36862,0.999999,0.00159168
63.7,-4.43381,4.36889,0.999999,0.00146689
63.8,-4.32236,4.36914,0.999999,0.00132444
63.9,-4.21084,4.36936,0.999999,0.00119891
64,-4.09925,4.36958,0.999999,0.00113446
64.1,-3.9876,4.36981,0.999999,0.00122581
64.2,-3.87587,4.37006,0.999999,0.00132923
64.3,-3.76409,4.37032,0.999999,0.00143439
64.4,-3.65224,4.37061,0.999999,0.00154025
64.5,-3.54033,4.37091,0.999999,0.00164671
64.6,-3.42837,4.37123,0.999999,0.00175378
64.7,-3.31634,4.37157,0.999998,0.00186139
64.8,-3.20426,4.37192,0.999998,0.00196966
64.9,-3.09212,4.3723,0.999998,0.00207851
65,-2.97992,4.37269,0.999998,0.00218805
65.1,-2.86768,4.3731,0.999997,0.00229823
65.2,-2.75538,4.37353,0.999997,0.00240907
65.3,-2.64303,4.37398,0.999997,0.00252061
65.4,-2.53064,4.37445,0.999997,0.00263285
65.5,-2.41819,4.37493,0.999996,0.00274578
65.6,-2.3057,4.37544,0.999996,0.00285946
65.7,-2.19316,4.37597,0.999996,0.00297387
65.8,-2.08058,4.37651,0.999995,0.00308904
65.9,-1.96795,4.37707,0.999995,0.00320499
66,-1.85528,4.37766,0.999994,0.00332169
66.1,-1.74257,4.37826,0.999994,0.00343919
66.2,-1.62982,4.37889,0.999994,0.00355751
66.3,-1.51703,4.37953,0.999993,0.00367666
66.4,-1.4042,4.3802,0.999993,0.0037966
66.5,-1.29134,4.38088,0.999992,0.00391738
66.6,-1.17844,4.38159,0.999992,0.00403904
66.7,-1.0655,4.38231,0.999991,0.00416152
66.8,-0.952532,4.38306,0.999991,0.00429047
66.9,-0.83953,4.38383,0.99999,0.00441631
67,-0.726495,4.38462,0.99999,0.00454219
67.1,-0.613429,4.38543,0.999989,0.00466878
67.2,-0.500333,4.38626,0.999988,0.0047963
67.3,-0.387208,4.38712,0.999988,0.00492479
67.4,-0.274054,4.388,0.999987,0.0050543
67.5,-0.160873,4.3889,0.999987,0.00518477
67.6,-0.0476652,4.38982,0.999986,0.00531625
67.7,0.065568,4.39076,0.999985,0.00544879
67.8,0.178826,4.39173,0.999984,0.00558233
67.9,0.292108,4.39272,0.999984,0.00571698
68,0.405412,4.39373,0.999983,0.00585262
68.1,0.518739,4.39477,0.999982,0.00598936
68.2,0.632087,4.39583,0.999981,0.00612717
68.3,0.745456,4.39691,0.99998,0.00626609
68.4,0.858844,4.39801,0.999979,0.00640605
68.5,0.97225,4.39914,0.999979,0.00654713
68.6,1.08568,4.4003,0.999978,0.0066893
68.7,1.19912,4.40148,0.999977,0.00683259
68.8,1.31257,4.40268,0.999976,0.00697707
68.9,1.42605,4.40391,0.999975,0.00712259
69,1.53954,4.40516,0.999974,0.00726927
69.1,1.65304,4.40644,0.999973,0.00741706
69.2,1.76655,4.40774,0.999971,0.00756602
69.3,1.88008,4.40907,0.99997,0.00771607
69.4,1.99362,4.41042,0.999969,0.00786724
69.5,2.10716,4.4118,0.999968,0.00801959
69.6,2.22072,4.41321,0.999967,0.00817306
69.7,2.33429,4.41464,0.999965,0.00832761
69.8,2.44786,4.4161,0.999964,0.00848335
69.9,2.56145,4.41758,0.999963,0.00864017
70,2.67503,4.41909,0.999961,0.00879811
70.1,2.78863,4.42063,0.99996,0.00895716
70.2,2.90223,4.4222,0.999958,0.00911733
70.3,3.01583,4.42379,0.999957,0.00927862
70.4,3.12944,4.42541,0.999955,0.00944095
70.5,3.24305,4.42706,0.999954,0.00960435
70.6,3.35666,4.42873,0.999952,0.00976879
70.7,3.47027,4.43044,0.999951,0.00993433
70.8,3.58388,4.43217,0.999949,0.0101008
70.9,3.69749,4.43393,0.999947,0.0102684
71,3.8111,4.43572,0.999946,0.0104369
71.1,3.92471,4.43753,0.999944,0.0106064
71.2,4.03831,4.43938,0.999942,0.0107768
71.3,4.15191,4.44125,0.99994,0.0109482
71.4,4.26551,4.44316,0.999938,0.0111204
71.5,4.3791,4.44509,0.999936,0.0112936
71.6,4.49268,4.44705,0.999934,0.0114676
71.7,4.60626,4.44904,0.999932,0.0116423
71.8,4.71982,4.45106,0.99993,0.0118179
71.9,4.83338,4.45311,0.999928,0.0119942
72,4.94693,4.45519,0.999926,0.0121713
72.1,-4.93953,4.4573,0.999924,0.0123489
72.2,-4.82601,4.45944,0.999922,0.0125273
72.3,-4.71233,4.46138,0.999936,0.0112963
72.4,-4.59848,4.46305,0.999952,0.0097729
72.5,-4.48442,4.46454,0.999963,0.00864453
72.6,-4.37013,4.46591,0.999969,0.00787643
72.7,-4.25556,4.46719,0.999973,0.00739388
72.8,-4.14071,4.46843,0.999975,0.00713036
72.9,-4.02554,4.46965,0.999975,0.00703434
73,-3.91004,4.47088,0.999975,0.0070665
73.1,-3.79419,4.47214,0.999974,0.00719727
73.2,-3.67799,4.47344,0.999973,0.00740431
73.3,-3.56143,4.47478,0.999971,0.00766065
73.4,-3.44451,4.47617,0.999969,0.00793026
73.5,-3.32725,4.47761,0.999966,0.00819736
73.6,-3.20963,4.4791,0.999964,0.00846034
73.7,-3.09167,4.48064,0.999962,0.00872051
73.8,-2.97338,4.48222,0.99996,0.00897952
73.9,-2.85476,4.48385,0.999957,0.00924078
74,-2.7358,4.48553,0.999955,0.0095113
74.1,-2.61651,4.48727,0.999952,0.00980984
74.2,-2.4975,4.48773,0.999997,0.00246469
74.3,-2.37846,4.48707,0.999992,-0.00391437
74.4,-2.25989,4.48574,0.999969,-0.00782954
74.5,-2.14149,4.48439,0.999968,-0.00795979
74.6,-2.02292,4.48203,0.999906,-0.013714
74.7,-1.90423,4.47868,0.999811,-0.0194403
74.8,-1.7856,4.47438,0.99969,-0.0248876
74.9,-1.66708,4.4692,0.999552,-0.0299314
75,-1.54868,4.46326,0.99941,-0.0343536
75.1,-1.43042,4.45674,0.999288,-0.0377336
75.2,-1.31233,4.44974,0.999177,-0.0405577
75.3,-1.1944,4.44234,0.999081,-0.0428694
75.4,-1.07667,4.43465,0.999007,-0.0445633
75.5,-0.959145,4.42676,0.998952,-0.045779
75.6,-0.841851,4.41875,0.998913,-0.0466113
75.7,-0.724795,4.41064,0.998888,-0.0471425
75.8,-0.607983,4.4025,0.998873,-0.047453
75.9,-0.49142,4.39434,0.998866,-0.0476127
76,-0.375111,4.38618,0.998863,-0.04768
76.1,-0.259059,4.37804,0.998862,-0.0476971
76.2,-0.143267,4.3699,0.998862,-0.0476902
76.3,-0.0277409,4.36178,0.998863,-0.0476738
76.4,0.0875143,4.35368,0.998864,-0.0476519
76.5,0.202491,4.34559,0.998865,-0.0476241
76.6,0.317182,4.33753,0.998867,-0.0475856
76.7,0.431581,4.32948,0.998869,-0.0475454
76.8,0.545684,4.32146,0.998869,-0.0475394
76.9,0.659484,4.31343,0.998867,-0.0475792
77,0.772973,4.30542,0.998864,-0.0476503
77.1,0.886139,4.2974,0.99886,-0.0477302
77.2,0.998971,4.28939,0.998857,-0.0477961
77.3,1.11146,4.28139,0.998856,-0.0478295
77.4,1.22364,4.27342,0.998861,-0.0477069
77.5,1.33579,4.26557,0.998894,-0.0470121
77.6,1.44791,4.25787,0.998933,-0.0461738
77.7,1.55998,4.25034,0.998981,-0.0451253
77.8,1.67199,4.24305,0.999044,-0.0437143
77.9,1.78391,4.23614,0.999139,-0.0414849
78,1.89562,4.23005,0.999328,-0.0366472
78.1,2.00728,4.22415,0.99937,-0.0354839
78.2,2.11897,4.22324,0.999984,-0.00565552
78.3,2.23091,4.22267,0.999994,-0.00353654
78.4,2.34251,4.22307,0.999997,0.00225139
78.5,2.45404,4.22338,0.999999,0.00169841
78.6,2.56561,4.22295,0.999996,-0.00272297
78.7,2.67758,4.22026,0.999868,-0.0162701
78.8,2.79034,4.2156,0.999611,-0.0279006
78.9,2.90424,4.2092,0.999278,-0.0379961
79,3.01903,4.20117,0.998878,-0.0473589
79.1,3.13436,4.19171,0.998455,-0.0555638
79.2,3.24992,4.18116,0.998089,-0.0617989
79.3,3.36552,4.17018,0.997928,-0.0643364
79.4,3.48114,4.15894,0.997832,-0.0658128
79.5,3.59676,4.14762,0.997798,-0.066326
79.6,3.71237,4.13632,0.997806,-0.0662011
79.7,3.82794,4.12508,0.997833,-0.0657924
79.8,3.94347,4.11396,0.997874,-0.0651679
79.9,4.05891,4.10315,0.997987,-0.0634152
80,4.17435,4.09416,0.998607,-0.05277
